[
	{
		"ID": 83327,
		"stage_BattleStage": 110150102,
		"unit_UnitUnit": 3830001,
		"money": 425,
		"initial_coordinate_x": 6,
		"initial_coordinate_y": 2,
		"reinforcement_BattleReinforcement": 0,
		"initial_direction": 270.0,
		"ai_move_group": 0,
		"ai_target_move_x": -1,
		"ai_target_move_y": -1,
		"ai_skill_function": "",
		"ai_attack": "1.0",
		"ai_move": "1.0",
		"ai_heal": "",
		"ai_skill": "",
		"ai_use": "",
		"skill_group_id": 19330,
		"gear_GearGear": 14041,
		"gear_rank": 10,
		"proficiency_UnitProficiency": 4,
		"level": 85,
		"hp": 290,
		"strength": 89,
		"vitality": 85,
		"intelligence": 1,
		"mind": 60,
		"agility": 91,
		"dexterity": 98,
		"lucky": 50,
		"parameter_table_BattleEnemyParameterTable": 0,
		"parameter_deviation_table_BattleEnemyParameterDeviationTable": 0,
		"acquire_skill_group_id": 0,
		"level_correction": 0,
		"group_id": 0,
		"ai_script_id_BattleAIScript": 0
	},
	{
		"ID": 83328,
		"stage_BattleStage": 110150102,
		"unit_UnitUnit": 3830001,
		"money": 425,
		"initial_coordinate_x": 10,
		"initial_coordinate_y": 5,
		"reinforcement_BattleReinforcement": 0,
		"initial_direction": 270.0,
		"ai_move_group": 0,
		"ai_target_move_x": -1,
		"ai_target_move_y": -1,
		"ai_skill_function": "",
		"ai_attack": "1.0",
		"ai_move": "IF(turn <=1,0,1)",
		"ai_heal": "",
		"ai_skill": "",
		"ai_use": "",
		"skill_group_id": 19330,
		"gear_GearGear": 14041,
		"gear_rank": 10,
		"proficiency_UnitProficiency": 4,
		"level": 85,
		"hp": 293,
		"strength": 88,
		"vitality": 88,
		"intelligence": 6,
		"mind": 59,
		"agility": 94,
		"dexterity": 97,
		"lucky": 48,
		"parameter_table_BattleEnemyParameterTable": 0,
		"parameter_deviation_table_BattleEnemyParameterDeviationTable": 0,
		"acquire_skill_group_id": 0,
		"level_correction": 0,
		"group_id": 0,
		"ai_script_id_BattleAIScript": 0
	},
	{
		"ID": 83329,
		"stage_BattleStage": 110150102,
		"unit_UnitUnit": 3830001,
		"money": 425,
		"initial_coordinate_x": 14,
		"initial_coordinate_y": 3,
		"reinforcement_BattleReinforcement": 0,
		"initial_direction": 270.0,
		"ai_move_group": 0,
		"ai_target_move_x": -1,
		"ai_target_move_y": -1,
		"ai_skill_function": "",
		"ai_attack": "1.0",
		"ai_move": "IF(turn <=1,0,1)",
		"ai_heal": "",
		"ai_skill": "",
		"ai_use": "",
		"skill_group_id": 19330,
		"gear_GearGear": 14041,
		"gear_rank": 10,
		"proficiency_UnitProficiency": 4,
		"level": 85,
		"hp": 308,
		"strength": 89,
		"vitality": 89,
		"intelligence": 1,
		"mind": 59,
		"agility": 93,
		"dexterity": 97,
		"lucky": 49,
		"parameter_table_BattleEnemyParameterTable": 0,
		"parameter_deviation_table_BattleEnemyParameterDeviationTable": 0,
		"acquire_skill_group_id": 0,
		"level_correction": 0,
		"group_id": 0,
		"ai_script_id_BattleAIScript": 0
	},
	{
		"ID": 83330,
		"stage_BattleStage": 110150102,
		"unit_UnitUnit": 3830002,
		"money": 425,
		"initial_coordinate_x": 5,
		"initial_coordinate_y": 4,
		"reinforcement_BattleReinforcement": 0,
		"initial_direction": 270.0,
		"ai_move_group": 0,
		"ai_target_move_x": -1,
		"ai_target_move_y": -1,
		"ai_skill_function": "",
		"ai_attack": "1.0",
		"ai_move": "1.0",
		"ai_heal": "",
		"ai_skill": "",
		"ai_use": "",
		"skill_group_id": 19330,
		"gear_GearGear": 24027,
		"gear_rank": 10,
		"proficiency_UnitProficiency": 4,
		"level": 85,
		"hp": 330,
		"strength": 102,
		"vitality": 88,
		"intelligence": 8,
		"mind": 51,
		"agility": 75,
		"dexterity": 89,
		"lucky": 46,
		"parameter_table_BattleEnemyParameterTable": 0,
		"parameter_deviation_table_BattleEnemyParameterDeviationTable": 0,
		"acquire_skill_group_id": 0,
		"level_correction": 0,
		"group_id": 0,
		"ai_script_id_BattleAIScript": 0
	},
	{
		"ID": 83331,
		"stage_BattleStage": 110150102,
		"unit_UnitUnit": 3830002,
		"money": 425,
		"initial_coordinate_x": 10,
		"initial_coordinate_y": 2,
		"reinforcement_BattleReinforcement": 0,
		"initial_direction": 270.0,
		"ai_move_group": 0,
		"ai_target_move_x": -1,
		"ai_target_move_y": -1,
		"ai_skill_function": "",
		"ai_attack": "1.0",
		"ai_move": "IF(turn <=1,0,1)",
		"ai_heal": "",
		"ai_skill": "",
		"ai_use": "",
		"skill_group_id": 19330,
		"gear_GearGear": 24027,
		"gear_rank": 10,
		"proficiency_UnitProficiency": 4,
		"level": 85,
		"hp": 311,
		"strength": 103,
		"vitality": 89,
		"intelligence": 7,
		"mind": 51,
		"agility": 76,
		"dexterity": 90,
		"lucky": 44,
		"parameter_table_BattleEnemyParameterTable": 0,
		"parameter_deviation_table_BattleEnemyParameterDeviationTable": 0,
		"acquire_skill_group_id": 0,
		"level_correction": 0,
		"group_id": 0,
		"ai_script_id_BattleAIScript": 0
	},
	{
		"ID": 83332,
		"stage_BattleStage": 110150102,
		"unit_UnitUnit": 3830003,
		"money": 425,
		"initial_coordinate_x": 7,
		"initial_coordinate_y": 6,
		"reinforcement_BattleReinforcement": 0,
		"initial_direction": 270.0,
		"ai_move_group": 0,
		"ai_target_move_x": -1,
		"ai_target_move_y": -1,
		"ai_skill_function": "",
		"ai_attack": "1.0",
		"ai_move": "1.0",
		"ai_heal": "",
		"ai_skill": "",
		"ai_use": "",
		"skill_group_id": 19330,
		"gear_GearGear": 34032,
		"gear_rank": 10,
		"proficiency_UnitProficiency": 4,
		"level": 85,
		"hp": 289,
		"strength": 95,
		"vitality": 87,
		"intelligence": 6,
		"mind": 69,
		"agility": 86,
		"dexterity": 96,
		"lucky": 48,
		"parameter_table_BattleEnemyParameterTable": 0,
		"parameter_deviation_table_BattleEnemyParameterDeviationTable": 0,
		"acquire_skill_group_id": 0,
		"level_correction": 0,
		"group_id": 0,
		"ai_script_id_BattleAIScript": 0
	},
	{
		"ID": 83333,
		"stage_BattleStage": 110150102,
		"unit_UnitUnit": 3830003,
		"money": 425,
		"initial_coordinate_x": 13,
		"initial_coordinate_y": 1,
		"reinforcement_BattleReinforcement": 0,
		"initial_direction": 270.0,
		"ai_move_group": 0,
		"ai_target_move_x": -1,
		"ai_target_move_y": -1,
		"ai_skill_function": "",
		"ai_attack": "1.0",
		"ai_move": "IF(turn <=1,0,1)",
		"ai_heal": "",
		"ai_skill": "",
		"ai_use": "",
		"skill_group_id": 19330,
		"gear_GearGear": 34032,
		"gear_rank": 10,
		"proficiency_UnitProficiency": 4,
		"level": 85,
		"hp": 288,
		"strength": 91,
		"vitality": 87,
		"intelligence": 8,
		"mind": 72,
		"agility": 87,
		"dexterity": 94,
		"lucky": 45,
		"parameter_table_BattleEnemyParameterTable": 0,
		"parameter_deviation_table_BattleEnemyParameterDeviationTable": 0,
		"acquire_skill_group_id": 0,
		"level_correction": 0,
		"group_id": 0,
		"ai_script_id_BattleAIScript": 0
	},
	{
		"ID": 83334,
		"stage_BattleStage": 110150102,
		"unit_UnitUnit": 3830004,
		"money": 425,
		"initial_coordinate_x": 8,
		"initial_coordinate_y": 3,
		"reinforcement_BattleReinforcement": 0,
		"initial_direction": 270.0,
		"ai_move_group": 0,
		"ai_target_move_x": -1,
		"ai_target_move_y": -1,
		"ai_skill_function": "",
		"ai_attack": "1.0",
		"ai_move": "1.0",
		"ai_heal": "",
		"ai_skill": "",
		"ai_use": "",
		"skill_group_id": 19330,
		"gear_GearGear": 44020,
		"gear_rank": 10,
		"proficiency_UnitProficiency": 4,
		"level": 85,
		"hp": 298,
		"strength": 94,
		"vitality": 72,
		"intelligence": 22,
		"mind": 42,
		"agility": 107,
		"dexterity": 101,
		"lucky": 48,
		"parameter_table_BattleEnemyParameterTable": 0,
		"parameter_deviation_table_BattleEnemyParameterDeviationTable": 0,
		"acquire_skill_group_id": 0,
		"level_correction": 0,
		"group_id": 0,
		"ai_script_id_BattleAIScript": 0
	},
	{
		"ID": 83335,
		"stage_BattleStage": 110150102,
		"unit_UnitUnit": 3830004,
		"money": 425,
		"initial_coordinate_x": 12,
		"initial_coordinate_y": 7,
		"reinforcement_BattleReinforcement": 0,
		"initial_direction": 270.0,
		"ai_move_group": 0,
		"ai_target_move_x": -1,
		"ai_target_move_y": -1,
		"ai_skill_function": "",
		"ai_attack": "1.0",
		"ai_move": "IF(turn <=1,0,1)",
		"ai_heal": "",
		"ai_skill": "",
		"ai_use": "",
		"skill_group_id": 19330,
		"gear_GearGear": 44020,
		"gear_rank": 10,
		"proficiency_UnitProficiency": 4,
		"level": 85,
		"hp": 315,
		"strength": 94,
		"vitality": 73,
		"intelligence": 23,
		"mind": 37,
		"agility": 112,
		"dexterity": 103,
		"lucky": 50,
		"parameter_table_BattleEnemyParameterTable": 0,
		"parameter_deviation_table_BattleEnemyParameterDeviationTable": 0,
		"acquire_skill_group_id": 0,
		"level_correction": 0,
		"group_id": 0,
		"ai_script_id_BattleAIScript": 0
	},
	{
		"ID": 83336,
		"stage_BattleStage": 110150102,
		"unit_UnitUnit": 3500313,
		"money": 450,
		"initial_coordinate_x": 15,
		"initial_coordinate_y": 6,
		"reinforcement_BattleReinforcement": 0,
		"initial_direction": 270.0,
		"ai_move_group": 0,
		"ai_target_move_x": -1,
		"ai_target_move_y": -1,
		"ai_skill_function": "",
		"ai_attack": "IF(panel_move_distance <= 0, 1, 0)",
		"ai_move": "0.0",
		"ai_heal": "",
		"ai_skill": "",
		"ai_use": "",
		"skill_group_id": 19592,
		"gear_GearGear": 54025,
		"gear_rank": 10,
		"proficiency_UnitProficiency": 4,
		"level": 90,
		"hp": 120,
		"strength": 19,
		"vitality": 45,
		"intelligence": 105,
		"mind": 76,
		"agility": 117,
		"dexterity": 113,
		"lucky": 59,
		"parameter_table_BattleEnemyParameterTable": 0,
		"parameter_deviation_table_BattleEnemyParameterDeviationTable": 0,
		"acquire_skill_group_id": 0,
		"level_correction": 0,
		"group_id": 0,
		"ai_script_id_BattleAIScript": 0
	}
]