[
	{
		"ID": 9404,
		"stage_BattleStage": 140017009,
		"unit_UnitUnit": 810008,
		"money": 300,
		"initial_coordinate_x": 13,
		"initial_coordinate_y": 13,
		"reinforcement_BattleReinforcement": 0,
		"initial_direction": 180.0,
		"ai_move_group": 0,
		"ai_target_move_x": -1,
		"ai_target_move_y": -1,
		"ai_skill_function": "",
		"ai_attack": "IF( turn <=11 ,IF(panel_move_distance <= 1, 1, 0),1)",
		"ai_move": "IF(turn <=11,0,1)",
		"ai_heal": "",
		"ai_skill": "",
		"ai_use": "",
		"skill_group_id": 880,
		"gear_GearGear": 13002,
		"gear_rank": 1,
		"proficiency_UnitProficiency": 3,
		"level": 60,
		"hp": 75,
		"strength": 58,
		"vitality": 43,
		"intelligence": 0,
		"mind": 12,
		"agility": 27,
		"dexterity": 50,
		"lucky": 3,
		"parameter_table_BattleEnemyParameterTable": 0,
		"parameter_deviation_table_BattleEnemyParameterDeviationTable": 0,
		"acquire_skill_group_id": 0,
		"level_correction": 0,
		"group_id": 0,
		"ai_script_id_BattleAIScript": 0
	},
	{
		"ID": 9405,
		"stage_BattleStage": 140017009,
		"unit_UnitUnit": 820008,
		"money": 305,
		"initial_coordinate_x": 14,
		"initial_coordinate_y": 13,
		"reinforcement_BattleReinforcement": 0,
		"initial_direction": 180.0,
		"ai_move_group": 0,
		"ai_target_move_x": -1,
		"ai_target_move_y": -1,
		"ai_skill_function": "",
		"ai_attack": "IF( turn <=11 ,IF(panel_move_distance <= 1, 1, 0),1)",
		"ai_move": "IF(turn <=11,0,1)",
		"ai_heal": "",
		"ai_skill": "",
		"ai_use": "",
		"skill_group_id": 890,
		"gear_GearGear": 22005,
		"gear_rank": 1,
		"proficiency_UnitProficiency": 2,
		"level": 61,
		"hp": 76,
		"strength": 62,
		"vitality": 44,
		"intelligence": 0,
		"mind": 14,
		"agility": 21,
		"dexterity": 48,
		"lucky": 3,
		"parameter_table_BattleEnemyParameterTable": 0,
		"parameter_deviation_table_BattleEnemyParameterDeviationTable": 0,
		"acquire_skill_group_id": 0,
		"level_correction": 0,
		"group_id": 0,
		"ai_script_id_BattleAIScript": 0
	},
	{
		"ID": 9406,
		"stage_BattleStage": 140017009,
		"unit_UnitUnit": 830008,
		"money": 310,
		"initial_coordinate_x": 15,
		"initial_coordinate_y": 13,
		"reinforcement_BattleReinforcement": 0,
		"initial_direction": 180.0,
		"ai_move_group": 0,
		"ai_target_move_x": -1,
		"ai_target_move_y": -1,
		"ai_skill_function": "",
		"ai_attack": "IF( turn <=11 ,IF(panel_move_distance <= 1, 1, 0),1)",
		"ai_move": "IF(turn <=11,0,1)",
		"ai_heal": "",
		"ai_skill": "",
		"ai_use": "",
		"skill_group_id": 910,
		"gear_GearGear": 33003,
		"gear_rank": 1,
		"proficiency_UnitProficiency": 3,
		"level": 62,
		"hp": 76,
		"strength": 60,
		"vitality": 45,
		"intelligence": 0,
		"mind": 14,
		"agility": 27,
		"dexterity": 49,
		"lucky": 3,
		"parameter_table_BattleEnemyParameterTable": 0,
		"parameter_deviation_table_BattleEnemyParameterDeviationTable": 0,
		"acquire_skill_group_id": 0,
		"level_correction": 0,
		"group_id": 0,
		"ai_script_id_BattleAIScript": 0
	},
	{
		"ID": 9407,
		"stage_BattleStage": 140017009,
		"unit_UnitUnit": 840008,
		"money": 315,
		"initial_coordinate_x": 15,
		"initial_coordinate_y": 14,
		"reinforcement_BattleReinforcement": 0,
		"initial_direction": 180.0,
		"ai_move_group": 0,
		"ai_target_move_x": -1,
		"ai_target_move_y": -1,
		"ai_skill_function": "",
		"ai_attack": "IF( turn <=11 ,IF(panel_move_distance <= 3, 1, 0),1)",
		"ai_move": "IF(turn <=11,0,1)",
		"ai_heal": "",
		"ai_skill": "",
		"ai_use": "",
		"skill_group_id": 560,
		"gear_GearGear": 44002,
		"gear_rank": 1,
		"proficiency_UnitProficiency": 4,
		"level": 63,
		"hp": 76,
		"strength": 60,
		"vitality": 44,
		"intelligence": 0,
		"mind": 13,
		"agility": 28,
		"dexterity": 52,
		"lucky": 3,
		"parameter_table_BattleEnemyParameterTable": 0,
		"parameter_deviation_table_BattleEnemyParameterDeviationTable": 0,
		"acquire_skill_group_id": 0,
		"level_correction": 0,
		"group_id": 0,
		"ai_script_id_BattleAIScript": 0
	},
	{
		"ID": 9408,
		"stage_BattleStage": 140017009,
		"unit_UnitUnit": 810008,
		"money": 225,
		"initial_coordinate_x": 3,
		"initial_coordinate_y": 8,
		"reinforcement_BattleReinforcement": 0,
		"initial_direction": 180.0,
		"ai_move_group": 0,
		"ai_target_move_x": -1,
		"ai_target_move_y": -1,
		"ai_skill_function": "",
		"ai_attack": "IF( turn <=1 ,IF(panel_move_distance <= 2, 1, 0),1)",
		"ai_move": "IF(turn <=1,0,1)",
		"ai_heal": "",
		"ai_skill": "",
		"ai_use": "",
		"skill_group_id": 880,
		"gear_GearGear": 13003,
		"gear_rank": 1,
		"proficiency_UnitProficiency": 3,
		"level": 45,
		"hp": 63,
		"strength": 45,
		"vitality": 34,
		"intelligence": 0,
		"mind": 9,
		"agility": 20,
		"dexterity": 39,
		"lucky": 3,
		"parameter_table_BattleEnemyParameterTable": 0,
		"parameter_deviation_table_BattleEnemyParameterDeviationTable": 0,
		"acquire_skill_group_id": 0,
		"level_correction": 0,
		"group_id": 0,
		"ai_script_id_BattleAIScript": 0
	},
	{
		"ID": 9409,
		"stage_BattleStage": 140017009,
		"unit_UnitUnit": 810008,
		"money": 230,
		"initial_coordinate_x": 2,
		"initial_coordinate_y": 9,
		"reinforcement_BattleReinforcement": 0,
		"initial_direction": 180.0,
		"ai_move_group": 0,
		"ai_target_move_x": -1,
		"ai_target_move_y": -1,
		"ai_skill_function": "",
		"ai_attack": "IF( turn <=1 ,IF(panel_move_distance <= 2, 1, 0),1)",
		"ai_move": "IF(turn <=1,0,1)",
		"ai_heal": "",
		"ai_skill": "",
		"ai_use": "",
		"skill_group_id": 880,
		"gear_GearGear": 13003,
		"gear_rank": 1,
		"proficiency_UnitProficiency": 3,
		"level": 46,
		"hp": 64,
		"strength": 46,
		"vitality": 35,
		"intelligence": 0,
		"mind": 10,
		"agility": 21,
		"dexterity": 39,
		"lucky": 3,
		"parameter_table_BattleEnemyParameterTable": 0,
		"parameter_deviation_table_BattleEnemyParameterDeviationTable": 0,
		"acquire_skill_group_id": 0,
		"level_correction": 0,
		"group_id": 0,
		"ai_script_id_BattleAIScript": 0
	},
	{
		"ID": 9410,
		"stage_BattleStage": 140017009,
		"unit_UnitUnit": 840008,
		"money": 250,
		"initial_coordinate_x": 12,
		"initial_coordinate_y": 1,
		"reinforcement_BattleReinforcement": 0,
		"initial_direction": 270.0,
		"ai_move_group": 0,
		"ai_target_move_x": -1,
		"ai_target_move_y": -1,
		"ai_skill_function": "",
		"ai_attack": "IF( turn <=1 ,IF(panel_move_distance <= 1, 1, 0),1)",
		"ai_move": "IF(turn <=1,0,1)",
		"ai_heal": "",
		"ai_skill": "",
		"ai_use": "",
		"skill_group_id": 560,
		"gear_GearGear": 42002,
		"gear_rank": 1,
		"proficiency_UnitProficiency": 2,
		"level": 50,
		"hp": 66,
		"strength": 49,
		"vitality": 37,
		"intelligence": 0,
		"mind": 10,
		"agility": 23,
		"dexterity": 42,
		"lucky": 3,
		"parameter_table_BattleEnemyParameterTable": 0,
		"parameter_deviation_table_BattleEnemyParameterDeviationTable": 0,
		"acquire_skill_group_id": 0,
		"level_correction": 0,
		"group_id": 0,
		"ai_script_id_BattleAIScript": 0
	},
	{
		"ID": 9411,
		"stage_BattleStage": 140017009,
		"unit_UnitUnit": 840008,
		"money": 255,
		"initial_coordinate_x": 13,
		"initial_coordinate_y": 2,
		"reinforcement_BattleReinforcement": 0,
		"initial_direction": 270.0,
		"ai_move_group": 0,
		"ai_target_move_x": -1,
		"ai_target_move_y": -1,
		"ai_skill_function": "",
		"ai_attack": "IF( turn <=1 ,IF(panel_move_distance <= 1, 1, 0),1)",
		"ai_move": "IF(turn <=1,0,1)",
		"ai_heal": "",
		"ai_skill": "",
		"ai_use": "",
		"skill_group_id": 560,
		"gear_GearGear": 42002,
		"gear_rank": 1,
		"proficiency_UnitProficiency": 2,
		"level": 51,
		"hp": 67,
		"strength": 50,
		"vitality": 38,
		"intelligence": 0,
		"mind": 11,
		"agility": 23,
		"dexterity": 43,
		"lucky": 3,
		"parameter_table_BattleEnemyParameterTable": 0,
		"parameter_deviation_table_BattleEnemyParameterDeviationTable": 0,
		"acquire_skill_group_id": 0,
		"level_correction": 0,
		"group_id": 0,
		"ai_script_id_BattleAIScript": 0
	},
	{
		"ID": 9412,
		"stage_BattleStage": 140017009,
		"unit_UnitUnit": 830008,
		"money": 225,
		"initial_coordinate_x": 10,
		"initial_coordinate_y": 5,
		"reinforcement_BattleReinforcement": 0,
		"initial_direction": 270.0,
		"ai_move_group": 0,
		"ai_target_move_x": -1,
		"ai_target_move_y": -1,
		"ai_skill_function": "",
		"ai_attack": "IF( turn <=1 ,IF(panel_move_distance <= 2, 1, 0),1)",
		"ai_move": "IF(turn <=1,0,1)",
		"ai_heal": "",
		"ai_skill": "",
		"ai_use": "",
		"skill_group_id": 870,
		"gear_GearGear": 33001,
		"gear_rank": 1,
		"proficiency_UnitProficiency": 3,
		"level": 45,
		"hp": 62,
		"strength": 45,
		"vitality": 35,
		"intelligence": 0,
		"mind": 10,
		"agility": 20,
		"dexterity": 37,
		"lucky": 3,
		"parameter_table_BattleEnemyParameterTable": 0,
		"parameter_deviation_table_BattleEnemyParameterDeviationTable": 0,
		"acquire_skill_group_id": 0,
		"level_correction": 0,
		"group_id": 0,
		"ai_script_id_BattleAIScript": 0
	},
	{
		"ID": 9413,
		"stage_BattleStage": 140017009,
		"unit_UnitUnit": 830008,
		"money": 220,
		"initial_coordinate_x": 11,
		"initial_coordinate_y": 5,
		"reinforcement_BattleReinforcement": 0,
		"initial_direction": 270.0,
		"ai_move_group": 0,
		"ai_target_move_x": -1,
		"ai_target_move_y": -1,
		"ai_skill_function": "",
		"ai_attack": "IF( turn <=1 ,IF(panel_move_distance <= 2, 1, 0),1)",
		"ai_move": "IF(turn <=1,0,1)",
		"ai_heal": "",
		"ai_skill": "",
		"ai_use": "",
		"skill_group_id": 870,
		"gear_GearGear": 33001,
		"gear_rank": 1,
		"proficiency_UnitProficiency": 3,
		"level": 44,
		"hp": 61,
		"strength": 44,
		"vitality": 34,
		"intelligence": 0,
		"mind": 10,
		"agility": 19,
		"dexterity": 36,
		"lucky": 3,
		"parameter_table_BattleEnemyParameterTable": 0,
		"parameter_deviation_table_BattleEnemyParameterDeviationTable": 0,
		"acquire_skill_group_id": 0,
		"level_correction": 0,
		"group_id": 0,
		"ai_script_id_BattleAIScript": 0
	},
	{
		"ID": 9414,
		"stage_BattleStage": 140017009,
		"unit_UnitUnit": 820008,
		"money": 215,
		"initial_coordinate_x": 7,
		"initial_coordinate_y": 9,
		"reinforcement_BattleReinforcement": 0,
		"initial_direction": 180.0,
		"ai_move_group": 0,
		"ai_target_move_x": -1,
		"ai_target_move_y": -1,
		"ai_skill_function": "",
		"ai_attack": "IF( turn <=1 ,IF(panel_move_distance <= 2, 1, 0),1)",
		"ai_move": "IF(turn <=1,0,1)",
		"ai_heal": "",
		"ai_skill": "",
		"ai_use": "",
		"skill_group_id": 890,
		"gear_GearGear": 23001,
		"gear_rank": 1,
		"proficiency_UnitProficiency": 3,
		"level": 43,
		"hp": 62,
		"strength": 46,
		"vitality": 33,
		"intelligence": 0,
		"mind": 10,
		"agility": 15,
		"dexterity": 35,
		"lucky": 3,
		"parameter_table_BattleEnemyParameterTable": 0,
		"parameter_deviation_table_BattleEnemyParameterDeviationTable": 0,
		"acquire_skill_group_id": 0,
		"level_correction": 0,
		"group_id": 0,
		"ai_script_id_BattleAIScript": 0
	},
	{
		"ID": 9415,
		"stage_BattleStage": 140017009,
		"unit_UnitUnit": 820008,
		"money": 210,
		"initial_coordinate_x": 8,
		"initial_coordinate_y": 10,
		"reinforcement_BattleReinforcement": 0,
		"initial_direction": 180.0,
		"ai_move_group": 0,
		"ai_target_move_x": -1,
		"ai_target_move_y": -1,
		"ai_skill_function": "",
		"ai_attack": "IF( turn <=1 ,IF(panel_move_distance <= 2, 1, 0),1)",
		"ai_move": "IF(turn <=1,0,1)",
		"ai_heal": "",
		"ai_skill": "",
		"ai_use": "",
		"skill_group_id": 890,
		"gear_GearGear": 23001,
		"gear_rank": 1,
		"proficiency_UnitProficiency": 3,
		"level": 42,
		"hp": 61,
		"strength": 45,
		"vitality": 33,
		"intelligence": 0,
		"mind": 10,
		"agility": 15,
		"dexterity": 34,
		"lucky": 3,
		"parameter_table_BattleEnemyParameterTable": 0,
		"parameter_deviation_table_BattleEnemyParameterDeviationTable": 0,
		"acquire_skill_group_id": 0,
		"level_correction": 0,
		"group_id": 0,
		"ai_script_id_BattleAIScript": 0
	},
	{
		"ID": 9416,
		"stage_BattleStage": 140017009,
		"unit_UnitUnit": 840008,
		"money": 250,
		"initial_coordinate_x": 8,
		"initial_coordinate_y": 13,
		"reinforcement_BattleReinforcement": 0,
		"initial_direction": 180.0,
		"ai_move_group": 0,
		"ai_target_move_x": -1,
		"ai_target_move_y": -1,
		"ai_skill_function": "",
		"ai_attack": "IF( turn <=1 ,IF(panel_move_distance <= 1, 1, 0),1)",
		"ai_move": "IF(turn <=1,0,1)",
		"ai_heal": "",
		"ai_skill": "",
		"ai_use": "",
		"skill_group_id": 560,
		"gear_GearGear": 42002,
		"gear_rank": 1,
		"proficiency_UnitProficiency": 2,
		"level": 50,
		"hp": 66,
		"strength": 49,
		"vitality": 37,
		"intelligence": 0,
		"mind": 10,
		"agility": 23,
		"dexterity": 42,
		"lucky": 3,
		"parameter_table_BattleEnemyParameterTable": 0,
		"parameter_deviation_table_BattleEnemyParameterDeviationTable": 0,
		"acquire_skill_group_id": 0,
		"level_correction": 0,
		"group_id": 0,
		"ai_script_id_BattleAIScript": 0
	},
	{
		"ID": 9417,
		"stage_BattleStage": 140017009,
		"unit_UnitUnit": 840008,
		"money": 255,
		"initial_coordinate_x": 3,
		"initial_coordinate_y": 13,
		"reinforcement_BattleReinforcement": 0,
		"initial_direction": 180.0,
		"ai_move_group": 0,
		"ai_target_move_x": -1,
		"ai_target_move_y": -1,
		"ai_skill_function": "",
		"ai_attack": "IF( turn <=1 ,IF(panel_move_distance <= 1, 1, 0),1)",
		"ai_move": "IF(turn <=1,0,1)",
		"ai_heal": "",
		"ai_skill": "",
		"ai_use": "",
		"skill_group_id": 560,
		"gear_GearGear": 42002,
		"gear_rank": 1,
		"proficiency_UnitProficiency": 2,
		"level": 51,
		"hp": 67,
		"strength": 50,
		"vitality": 38,
		"intelligence": 0,
		"mind": 11,
		"agility": 23,
		"dexterity": 43,
		"lucky": 3,
		"parameter_table_BattleEnemyParameterTable": 0,
		"parameter_deviation_table_BattleEnemyParameterDeviationTable": 0,
		"acquire_skill_group_id": 0,
		"level_correction": 0,
		"group_id": 0,
		"ai_script_id_BattleAIScript": 0
	},
	{
		"ID": 9418,
		"stage_BattleStage": 140017009,
		"unit_UnitUnit": 810008,
		"money": 215,
		"initial_coordinate_x": 13,
		"initial_coordinate_y": 10,
		"reinforcement_BattleReinforcement": 0,
		"initial_direction": 180.0,
		"ai_move_group": 0,
		"ai_target_move_x": -1,
		"ai_target_move_y": -1,
		"ai_skill_function": "",
		"ai_attack": "IF( turn <=1 ,IF(panel_move_distance <= 1, 1, 0),1)",
		"ai_move": "IF(turn <=1,0,1)",
		"ai_heal": "",
		"ai_skill": "",
		"ai_use": "",
		"skill_group_id": 880,
		"gear_GearGear": 13004,
		"gear_rank": 1,
		"proficiency_UnitProficiency": 3,
		"level": 43,
		"hp": 62,
		"strength": 43,
		"vitality": 33,
		"intelligence": 0,
		"mind": 9,
		"agility": 20,
		"dexterity": 37,
		"lucky": 3,
		"parameter_table_BattleEnemyParameterTable": 0,
		"parameter_deviation_table_BattleEnemyParameterDeviationTable": 0,
		"acquire_skill_group_id": 0,
		"level_correction": 0,
		"group_id": 0,
		"ai_script_id_BattleAIScript": 0
	},
	{
		"ID": 9419,
		"stage_BattleStage": 140017009,
		"unit_UnitUnit": 810008,
		"money": 220,
		"initial_coordinate_x": 17,
		"initial_coordinate_y": 4,
		"reinforcement_BattleReinforcement": 3,
		"initial_direction": 270.0,
		"ai_move_group": 0,
		"ai_target_move_x": -1,
		"ai_target_move_y": -1,
		"ai_skill_function": "",
		"ai_attack": "",
		"ai_move": "",
		"ai_heal": "",
		"ai_skill": "",
		"ai_use": "",
		"skill_group_id": 880,
		"gear_GearGear": 13003,
		"gear_rank": 1,
		"proficiency_UnitProficiency": 3,
		"level": 44,
		"hp": 62,
		"strength": 44,
		"vitality": 34,
		"intelligence": 0,
		"mind": 9,
		"agility": 20,
		"dexterity": 38,
		"lucky": 3,
		"parameter_table_BattleEnemyParameterTable": 0,
		"parameter_deviation_table_BattleEnemyParameterDeviationTable": 0,
		"acquire_skill_group_id": 0,
		"level_correction": 0,
		"group_id": 0,
		"ai_script_id_BattleAIScript": 0
	},
	{
		"ID": 9420,
		"stage_BattleStage": 140017009,
		"unit_UnitUnit": 810008,
		"money": 225,
		"initial_coordinate_x": 17,
		"initial_coordinate_y": 4,
		"reinforcement_BattleReinforcement": 4,
		"initial_direction": 270.0,
		"ai_move_group": 0,
		"ai_target_move_x": -1,
		"ai_target_move_y": -1,
		"ai_skill_function": "",
		"ai_attack": "",
		"ai_move": "",
		"ai_heal": "",
		"ai_skill": "",
		"ai_use": "",
		"skill_group_id": 880,
		"gear_GearGear": 13003,
		"gear_rank": 1,
		"proficiency_UnitProficiency": 3,
		"level": 45,
		"hp": 63,
		"strength": 45,
		"vitality": 34,
		"intelligence": 0,
		"mind": 9,
		"agility": 20,
		"dexterity": 39,
		"lucky": 3,
		"parameter_table_BattleEnemyParameterTable": 0,
		"parameter_deviation_table_BattleEnemyParameterDeviationTable": 0,
		"acquire_skill_group_id": 0,
		"level_correction": 0,
		"group_id": 0,
		"ai_script_id_BattleAIScript": 0
	},
	{
		"ID": 9421,
		"stage_BattleStage": 140017009,
		"unit_UnitUnit": 820008,
		"money": 230,
		"initial_coordinate_x": 17,
		"initial_coordinate_y": 5,
		"reinforcement_BattleReinforcement": 3,
		"initial_direction": 270.0,
		"ai_move_group": 0,
		"ai_target_move_x": -1,
		"ai_target_move_y": -1,
		"ai_skill_function": "",
		"ai_attack": "",
		"ai_move": "",
		"ai_heal": "",
		"ai_skill": "",
		"ai_use": "",
		"skill_group_id": 890,
		"gear_GearGear": 23003,
		"gear_rank": 1,
		"proficiency_UnitProficiency": 3,
		"level": 46,
		"hp": 64,
		"strength": 48,
		"vitality": 35,
		"intelligence": 0,
		"mind": 11,
		"agility": 16,
		"dexterity": 37,
		"lucky": 3,
		"parameter_table_BattleEnemyParameterTable": 0,
		"parameter_deviation_table_BattleEnemyParameterDeviationTable": 0,
		"acquire_skill_group_id": 0,
		"level_correction": 0,
		"group_id": 0,
		"ai_script_id_BattleAIScript": 0
	},
	{
		"ID": 9422,
		"stage_BattleStage": 140017009,
		"unit_UnitUnit": 820008,
		"money": 235,
		"initial_coordinate_x": 17,
		"initial_coordinate_y": 5,
		"reinforcement_BattleReinforcement": 4,
		"initial_direction": 270.0,
		"ai_move_group": 0,
		"ai_target_move_x": -1,
		"ai_target_move_y": -1,
		"ai_skill_function": "",
		"ai_attack": "",
		"ai_move": "",
		"ai_heal": "",
		"ai_skill": "",
		"ai_use": "",
		"skill_group_id": 890,
		"gear_GearGear": 23003,
		"gear_rank": 1,
		"proficiency_UnitProficiency": 3,
		"level": 47,
		"hp": 65,
		"strength": 49,
		"vitality": 36,
		"intelligence": 0,
		"mind": 11,
		"agility": 17,
		"dexterity": 38,
		"lucky": 3,
		"parameter_table_BattleEnemyParameterTable": 0,
		"parameter_deviation_table_BattleEnemyParameterDeviationTable": 0,
		"acquire_skill_group_id": 0,
		"level_correction": 0,
		"group_id": 0,
		"ai_script_id_BattleAIScript": 0
	},
	{
		"ID": 9423,
		"stage_BattleStage": 140017009,
		"unit_UnitUnit": 830008,
		"money": 230,
		"initial_coordinate_x": 1,
		"initial_coordinate_y": 6,
		"reinforcement_BattleReinforcement": 4,
		"initial_direction": 90.0,
		"ai_move_group": 0,
		"ai_target_move_x": -1,
		"ai_target_move_y": -1,
		"ai_skill_function": "",
		"ai_attack": "",
		"ai_move": "",
		"ai_heal": "",
		"ai_skill": "",
		"ai_use": "",
		"skill_group_id": 870,
		"gear_GearGear": 32002,
		"gear_rank": 1,
		"proficiency_UnitProficiency": 2,
		"level": 46,
		"hp": 63,
		"strength": 46,
		"vitality": 36,
		"intelligence": 0,
		"mind": 11,
		"agility": 20,
		"dexterity": 38,
		"lucky": 3,
		"parameter_table_BattleEnemyParameterTable": 0,
		"parameter_deviation_table_BattleEnemyParameterDeviationTable": 0,
		"acquire_skill_group_id": 0,
		"level_correction": 0,
		"group_id": 0,
		"ai_script_id_BattleAIScript": 0
	},
	{
		"ID": 9424,
		"stage_BattleStage": 140017009,
		"unit_UnitUnit": 830008,
		"money": 225,
		"initial_coordinate_x": 1,
		"initial_coordinate_y": 6,
		"reinforcement_BattleReinforcement": 8,
		"initial_direction": 90.0,
		"ai_move_group": 0,
		"ai_target_move_x": -1,
		"ai_target_move_y": -1,
		"ai_skill_function": "",
		"ai_attack": "",
		"ai_move": "",
		"ai_heal": "",
		"ai_skill": "",
		"ai_use": "",
		"skill_group_id": 870,
		"gear_GearGear": 32002,
		"gear_rank": 1,
		"proficiency_UnitProficiency": 2,
		"level": 45,
		"hp": 62,
		"strength": 45,
		"vitality": 35,
		"intelligence": 0,
		"mind": 10,
		"agility": 20,
		"dexterity": 37,
		"lucky": 3,
		"parameter_table_BattleEnemyParameterTable": 0,
		"parameter_deviation_table_BattleEnemyParameterDeviationTable": 0,
		"acquire_skill_group_id": 0,
		"level_correction": 0,
		"group_id": 0,
		"ai_script_id_BattleAIScript": 0
	},
	{
		"ID": 9425,
		"stage_BattleStage": 140017009,
		"unit_UnitUnit": 840008,
		"money": 250,
		"initial_coordinate_x": 1,
		"initial_coordinate_y": 7,
		"reinforcement_BattleReinforcement": 4,
		"initial_direction": 90.0,
		"ai_move_group": 0,
		"ai_target_move_x": -1,
		"ai_target_move_y": -1,
		"ai_skill_function": "",
		"ai_attack": "",
		"ai_move": "",
		"ai_heal": "",
		"ai_skill": "",
		"ai_use": "",
		"skill_group_id": 560,
		"gear_GearGear": 43001,
		"gear_rank": 1,
		"proficiency_UnitProficiency": 3,
		"level": 50,
		"hp": 66,
		"strength": 49,
		"vitality": 37,
		"intelligence": 0,
		"mind": 10,
		"agility": 23,
		"dexterity": 42,
		"lucky": 3,
		"parameter_table_BattleEnemyParameterTable": 0,
		"parameter_deviation_table_BattleEnemyParameterDeviationTable": 0,
		"acquire_skill_group_id": 0,
		"level_correction": 0,
		"group_id": 0,
		"ai_script_id_BattleAIScript": 0
	},
	{
		"ID": 9426,
		"stage_BattleStage": 140017009,
		"unit_UnitUnit": 840008,
		"money": 255,
		"initial_coordinate_x": 1,
		"initial_coordinate_y": 7,
		"reinforcement_BattleReinforcement": 8,
		"initial_direction": 90.0,
		"ai_move_group": 0,
		"ai_target_move_x": -1,
		"ai_target_move_y": -1,
		"ai_skill_function": "",
		"ai_attack": "",
		"ai_move": "",
		"ai_heal": "",
		"ai_skill": "",
		"ai_use": "",
		"skill_group_id": 560,
		"gear_GearGear": 43001,
		"gear_rank": 1,
		"proficiency_UnitProficiency": 3,
		"level": 51,
		"hp": 67,
		"strength": 50,
		"vitality": 38,
		"intelligence": 0,
		"mind": 11,
		"agility": 23,
		"dexterity": 43,
		"lucky": 3,
		"parameter_table_BattleEnemyParameterTable": 0,
		"parameter_deviation_table_BattleEnemyParameterDeviationTable": 0,
		"acquire_skill_group_id": 0,
		"level_correction": 0,
		"group_id": 0,
		"ai_script_id_BattleAIScript": 0
	},
	{
		"ID": 9427,
		"stage_BattleStage": 140017009,
		"unit_UnitUnit": 810008,
		"money": 260,
		"initial_coordinate_x": 4,
		"initial_coordinate_y": 14,
		"reinforcement_BattleReinforcement": 5,
		"initial_direction": 180.0,
		"ai_move_group": 0,
		"ai_target_move_x": -1,
		"ai_target_move_y": -1,
		"ai_skill_function": "",
		"ai_attack": "",
		"ai_move": "",
		"ai_heal": "",
		"ai_skill": "",
		"ai_use": "",
		"skill_group_id": 880,
		"gear_GearGear": 13004,
		"gear_rank": 1,
		"proficiency_UnitProficiency": 3,
		"level": 52,
		"hp": 69,
		"strength": 51,
		"vitality": 39,
		"intelligence": 0,
		"mind": 11,
		"agility": 23,
		"dexterity": 44,
		"lucky": 3,
		"parameter_table_BattleEnemyParameterTable": 0,
		"parameter_deviation_table_BattleEnemyParameterDeviationTable": 0,
		"acquire_skill_group_id": 0,
		"level_correction": 0,
		"group_id": 0,
		"ai_script_id_BattleAIScript": 0
	},
	{
		"ID": 9428,
		"stage_BattleStage": 140017009,
		"unit_UnitUnit": 810008,
		"money": 265,
		"initial_coordinate_x": 4,
		"initial_coordinate_y": 14,
		"reinforcement_BattleReinforcement": 9,
		"initial_direction": 180.0,
		"ai_move_group": 0,
		"ai_target_move_x": -1,
		"ai_target_move_y": -1,
		"ai_skill_function": "",
		"ai_attack": "",
		"ai_move": "",
		"ai_heal": "",
		"ai_skill": "",
		"ai_use": "",
		"skill_group_id": 880,
		"gear_GearGear": 13004,
		"gear_rank": 1,
		"proficiency_UnitProficiency": 3,
		"level": 53,
		"hp": 70,
		"strength": 52,
		"vitality": 39,
		"intelligence": 0,
		"mind": 11,
		"agility": 24,
		"dexterity": 45,
		"lucky": 3,
		"parameter_table_BattleEnemyParameterTable": 0,
		"parameter_deviation_table_BattleEnemyParameterDeviationTable": 0,
		"acquire_skill_group_id": 0,
		"level_correction": 0,
		"group_id": 0,
		"ai_script_id_BattleAIScript": 0
	},
	{
		"ID": 9429,
		"stage_BattleStage": 140017009,
		"unit_UnitUnit": 820008,
		"money": 250,
		"initial_coordinate_x": 5,
		"initial_coordinate_y": 14,
		"reinforcement_BattleReinforcement": 5,
		"initial_direction": 180.0,
		"ai_move_group": 0,
		"ai_target_move_x": -1,
		"ai_target_move_y": -1,
		"ai_skill_function": "",
		"ai_attack": "",
		"ai_move": "",
		"ai_heal": "",
		"ai_skill": "",
		"ai_use": "",
		"skill_group_id": 890,
		"gear_GearGear": 22005,
		"gear_rank": 1,
		"proficiency_UnitProficiency": 2,
		"level": 50,
		"hp": 67,
		"strength": 52,
		"vitality": 37,
		"intelligence": 0,
		"mind": 11,
		"agility": 18,
		"dexterity": 40,
		"lucky": 3,
		"parameter_table_BattleEnemyParameterTable": 0,
		"parameter_deviation_table_BattleEnemyParameterDeviationTable": 0,
		"acquire_skill_group_id": 0,
		"level_correction": 0,
		"group_id": 0,
		"ai_script_id_BattleAIScript": 0
	},
	{
		"ID": 9430,
		"stage_BattleStage": 140017009,
		"unit_UnitUnit": 820008,
		"money": 255,
		"initial_coordinate_x": 5,
		"initial_coordinate_y": 14,
		"reinforcement_BattleReinforcement": 9,
		"initial_direction": 180.0,
		"ai_move_group": 0,
		"ai_target_move_x": -1,
		"ai_target_move_y": -1,
		"ai_skill_function": "",
		"ai_attack": "",
		"ai_move": "",
		"ai_heal": "",
		"ai_skill": "",
		"ai_use": "",
		"skill_group_id": 890,
		"gear_GearGear": 22005,
		"gear_rank": 1,
		"proficiency_UnitProficiency": 2,
		"level": 51,
		"hp": 68,
		"strength": 53,
		"vitality": 38,
		"intelligence": 0,
		"mind": 12,
		"agility": 18,
		"dexterity": 41,
		"lucky": 3,
		"parameter_table_BattleEnemyParameterTable": 0,
		"parameter_deviation_table_BattleEnemyParameterDeviationTable": 0,
		"acquire_skill_group_id": 0,
		"level_correction": 0,
		"group_id": 0,
		"ai_script_id_BattleAIScript": 0
	},
	{
		"ID": 9431,
		"stage_BattleStage": 140017009,
		"unit_UnitUnit": 830008,
		"money": 265,
		"initial_coordinate_x": 6,
		"initial_coordinate_y": 14,
		"reinforcement_BattleReinforcement": 5,
		"initial_direction": 180.0,
		"ai_move_group": 0,
		"ai_target_move_x": -1,
		"ai_target_move_y": -1,
		"ai_skill_function": "",
		"ai_attack": "",
		"ai_move": "",
		"ai_heal": "",
		"ai_skill": "",
		"ai_use": "",
		"skill_group_id": 870,
		"gear_GearGear": 33003,
		"gear_rank": 1,
		"proficiency_UnitProficiency": 3,
		"level": 53,
		"hp": 69,
		"strength": 52,
		"vitality": 40,
		"intelligence": 0,
		"mind": 12,
		"agility": 23,
		"dexterity": 43,
		"lucky": 3,
		"parameter_table_BattleEnemyParameterTable": 0,
		"parameter_deviation_table_BattleEnemyParameterDeviationTable": 0,
		"acquire_skill_group_id": 0,
		"level_correction": 0,
		"group_id": 0,
		"ai_script_id_BattleAIScript": 0
	},
	{
		"ID": 9432,
		"stage_BattleStage": 140017009,
		"unit_UnitUnit": 830008,
		"money": 270,
		"initial_coordinate_x": 6,
		"initial_coordinate_y": 14,
		"reinforcement_BattleReinforcement": 9,
		"initial_direction": 180.0,
		"ai_move_group": 0,
		"ai_target_move_x": -1,
		"ai_target_move_y": -1,
		"ai_skill_function": "",
		"ai_attack": "",
		"ai_move": "",
		"ai_heal": "",
		"ai_skill": "",
		"ai_use": "",
		"skill_group_id": 870,
		"gear_GearGear": 33003,
		"gear_rank": 1,
		"proficiency_UnitProficiency": 3,
		"level": 54,
		"hp": 69,
		"strength": 53,
		"vitality": 40,
		"intelligence": 0,
		"mind": 12,
		"agility": 23,
		"dexterity": 44,
		"lucky": 3,
		"parameter_table_BattleEnemyParameterTable": 0,
		"parameter_deviation_table_BattleEnemyParameterDeviationTable": 0,
		"acquire_skill_group_id": 0,
		"level_correction": 0,
		"group_id": 0,
		"ai_script_id_BattleAIScript": 0
	},
	{
		"ID": 9433,
		"stage_BattleStage": 140017009,
		"unit_UnitUnit": 840008,
		"money": 240,
		"initial_coordinate_x": 17,
		"initial_coordinate_y": 13,
		"reinforcement_BattleReinforcement": 12,
		"initial_direction": 270.0,
		"ai_move_group": 0,
		"ai_target_move_x": -1,
		"ai_target_move_y": -1,
		"ai_skill_function": "",
		"ai_attack": "",
		"ai_move": "",
		"ai_heal": "",
		"ai_skill": "",
		"ai_use": "",
		"skill_group_id": 560,
		"gear_GearGear": 44002,
		"gear_rank": 1,
		"proficiency_UnitProficiency": 4,
		"level": 48,
		"hp": 64,
		"strength": 47,
		"vitality": 36,
		"intelligence": 0,
		"mind": 10,
		"agility": 22,
		"dexterity": 41,
		"lucky": 3,
		"parameter_table_BattleEnemyParameterTable": 0,
		"parameter_deviation_table_BattleEnemyParameterDeviationTable": 0,
		"acquire_skill_group_id": 0,
		"level_correction": 0,
		"group_id": 0,
		"ai_script_id_BattleAIScript": 0
	},
	{
		"ID": 9434,
		"stage_BattleStage": 140017009,
		"unit_UnitUnit": 840008,
		"money": 245,
		"initial_coordinate_x": 17,
		"initial_coordinate_y": 13,
		"reinforcement_BattleReinforcement": 9,
		"initial_direction": 270.0,
		"ai_move_group": 0,
		"ai_target_move_x": -1,
		"ai_target_move_y": -1,
		"ai_skill_function": "",
		"ai_attack": "",
		"ai_move": "",
		"ai_heal": "",
		"ai_skill": "",
		"ai_use": "",
		"skill_group_id": 560,
		"gear_GearGear": 44002,
		"gear_rank": 1,
		"proficiency_UnitProficiency": 4,
		"level": 49,
		"hp": 65,
		"strength": 48,
		"vitality": 36,
		"intelligence": 0,
		"mind": 10,
		"agility": 22,
		"dexterity": 42,
		"lucky": 3,
		"parameter_table_BattleEnemyParameterTable": 0,
		"parameter_deviation_table_BattleEnemyParameterDeviationTable": 0,
		"acquire_skill_group_id": 0,
		"level_correction": 0,
		"group_id": 0,
		"ai_script_id_BattleAIScript": 0
	},
	{
		"ID": 9435,
		"stage_BattleStage": 140017009,
		"unit_UnitUnit": 840008,
		"money": 250,
		"initial_coordinate_x": 17,
		"initial_coordinate_y": 14,
		"reinforcement_BattleReinforcement": 12,
		"initial_direction": 270.0,
		"ai_move_group": 0,
		"ai_target_move_x": -1,
		"ai_target_move_y": -1,
		"ai_skill_function": "",
		"ai_attack": "",
		"ai_move": "",
		"ai_heal": "",
		"ai_skill": "",
		"ai_use": "",
		"skill_group_id": 560,
		"gear_GearGear": 44002,
		"gear_rank": 1,
		"proficiency_UnitProficiency": 4,
		"level": 50,
		"hp": 66,
		"strength": 49,
		"vitality": 37,
		"intelligence": 0,
		"mind": 10,
		"agility": 23,
		"dexterity": 42,
		"lucky": 3,
		"parameter_table_BattleEnemyParameterTable": 0,
		"parameter_deviation_table_BattleEnemyParameterDeviationTable": 0,
		"acquire_skill_group_id": 0,
		"level_correction": 0,
		"group_id": 0,
		"ai_script_id_BattleAIScript": 0
	},
	{
		"ID": 9436,
		"stage_BattleStage": 140017009,
		"unit_UnitUnit": 840008,
		"money": 255,
		"initial_coordinate_x": 17,
		"initial_coordinate_y": 14,
		"reinforcement_BattleReinforcement": 9,
		"initial_direction": 270.0,
		"ai_move_group": 0,
		"ai_target_move_x": -1,
		"ai_target_move_y": -1,
		"ai_skill_function": "",
		"ai_attack": "",
		"ai_move": "",
		"ai_heal": "",
		"ai_skill": "",
		"ai_use": "",
		"skill_group_id": 560,
		"gear_GearGear": 44002,
		"gear_rank": 1,
		"proficiency_UnitProficiency": 4,
		"level": 51,
		"hp": 67,
		"strength": 50,
		"vitality": 38,
		"intelligence": 0,
		"mind": 11,
		"agility": 23,
		"dexterity": 43,
		"lucky": 3,
		"parameter_table_BattleEnemyParameterTable": 0,
		"parameter_deviation_table_BattleEnemyParameterDeviationTable": 0,
		"acquire_skill_group_id": 0,
		"level_correction": 0,
		"group_id": 0,
		"ai_script_id_BattleAIScript": 0
	},
	{
		"ID": 9437,
		"stage_BattleStage": 140017009,
		"unit_UnitUnit": 820008,
		"money": 220,
		"initial_coordinate_x": 8,
		"initial_coordinate_y": 1,
		"reinforcement_BattleReinforcement": 7,
		"initial_direction": 0.0,
		"ai_move_group": 0,
		"ai_target_move_x": -1,
		"ai_target_move_y": -1,
		"ai_skill_function": "",
		"ai_attack": "",
		"ai_move": "",
		"ai_heal": "",
		"ai_skill": "",
		"ai_use": "",
		"skill_group_id": 890,
		"gear_GearGear": 23002,
		"gear_rank": 1,
		"proficiency_UnitProficiency": 3,
		"level": 44,
		"hp": 62,
		"strength": 46,
		"vitality": 34,
		"intelligence": 0,
		"mind": 10,
		"agility": 16,
		"dexterity": 36,
		"lucky": 3,
		"parameter_table_BattleEnemyParameterTable": 0,
		"parameter_deviation_table_BattleEnemyParameterDeviationTable": 0,
		"acquire_skill_group_id": 0,
		"level_correction": 0,
		"group_id": 0,
		"ai_script_id_BattleAIScript": 0
	},
	{
		"ID": 9438,
		"stage_BattleStage": 140017009,
		"unit_UnitUnit": 820008,
		"money": 215,
		"initial_coordinate_x": 8,
		"initial_coordinate_y": 1,
		"reinforcement_BattleReinforcement": 10,
		"initial_direction": 0.0,
		"ai_move_group": 0,
		"ai_target_move_x": -1,
		"ai_target_move_y": -1,
		"ai_skill_function": "",
		"ai_attack": "",
		"ai_move": "",
		"ai_heal": "",
		"ai_skill": "",
		"ai_use": "",
		"skill_group_id": 890,
		"gear_GearGear": 23002,
		"gear_rank": 1,
		"proficiency_UnitProficiency": 3,
		"level": 43,
		"hp": 62,
		"strength": 46,
		"vitality": 33,
		"intelligence": 0,
		"mind": 10,
		"agility": 15,
		"dexterity": 35,
		"lucky": 3,
		"parameter_table_BattleEnemyParameterTable": 0,
		"parameter_deviation_table_BattleEnemyParameterDeviationTable": 0,
		"acquire_skill_group_id": 0,
		"level_correction": 0,
		"group_id": 0,
		"ai_script_id_BattleAIScript": 0
	},
	{
		"ID": 9439,
		"stage_BattleStage": 140017009,
		"unit_UnitUnit": 830008,
		"money": 210,
		"initial_coordinate_x": 9,
		"initial_coordinate_y": 1,
		"reinforcement_BattleReinforcement": 7,
		"initial_direction": 0.0,
		"ai_move_group": 0,
		"ai_target_move_x": -1,
		"ai_target_move_y": -1,
		"ai_skill_function": "",
		"ai_attack": "",
		"ai_move": "",
		"ai_heal": "",
		"ai_skill": "",
		"ai_use": "",
		"skill_group_id": 870,
		"gear_GearGear": 32002,
		"gear_rank": 1,
		"proficiency_UnitProficiency": 2,
		"level": 42,
		"hp": 60,
		"strength": 43,
		"vitality": 33,
		"intelligence": 0,
		"mind": 10,
		"agility": 18,
		"dexterity": 35,
		"lucky": 3,
		"parameter_table_BattleEnemyParameterTable": 0,
		"parameter_deviation_table_BattleEnemyParameterDeviationTable": 0,
		"acquire_skill_group_id": 0,
		"level_correction": 0,
		"group_id": 0,
		"ai_script_id_BattleAIScript": 0
	},
	{
		"ID": 9440,
		"stage_BattleStage": 140017009,
		"unit_UnitUnit": 830008,
		"money": 205,
		"initial_coordinate_x": 9,
		"initial_coordinate_y": 1,
		"reinforcement_BattleReinforcement": 10,
		"initial_direction": 0.0,
		"ai_move_group": 0,
		"ai_target_move_x": -1,
		"ai_target_move_y": -1,
		"ai_skill_function": "",
		"ai_attack": "",
		"ai_move": "",
		"ai_heal": "",
		"ai_skill": "",
		"ai_use": "",
		"skill_group_id": 870,
		"gear_GearGear": 32002,
		"gear_rank": 1,
		"proficiency_UnitProficiency": 2,
		"level": 41,
		"hp": 59,
		"strength": 42,
		"vitality": 33,
		"intelligence": 0,
		"mind": 10,
		"agility": 18,
		"dexterity": 34,
		"lucky": 3,
		"parameter_table_BattleEnemyParameterTable": 0,
		"parameter_deviation_table_BattleEnemyParameterDeviationTable": 0,
		"acquire_skill_group_id": 0,
		"level_correction": 0,
		"group_id": 0,
		"ai_script_id_BattleAIScript": 0
	},
	{
		"ID": 9441,
		"stage_BattleStage": 140017009,
		"unit_UnitUnit": 810008,
		"money": 210,
		"initial_coordinate_x": 12,
		"initial_coordinate_y": 14,
		"reinforcement_BattleReinforcement": 12,
		"initial_direction": 180.0,
		"ai_move_group": 0,
		"ai_target_move_x": -1,
		"ai_target_move_y": -1,
		"ai_skill_function": "",
		"ai_attack": "",
		"ai_move": "",
		"ai_heal": "",
		"ai_skill": "",
		"ai_use": "",
		"skill_group_id": 880,
		"gear_GearGear": 13003,
		"gear_rank": 1,
		"proficiency_UnitProficiency": 3,
		"level": 42,
		"hp": 61,
		"strength": 43,
		"vitality": 33,
		"intelligence": 0,
		"mind": 9,
		"agility": 19,
		"dexterity": 36,
		"lucky": 3,
		"parameter_table_BattleEnemyParameterTable": 0,
		"parameter_deviation_table_BattleEnemyParameterDeviationTable": 0,
		"acquire_skill_group_id": 0,
		"level_correction": 0,
		"group_id": 0,
		"ai_script_id_BattleAIScript": 0
	},
	{
		"ID": 9442,
		"stage_BattleStage": 140017009,
		"unit_UnitUnit": 820008,
		"money": 215,
		"initial_coordinate_x": 13,
		"initial_coordinate_y": 14,
		"reinforcement_BattleReinforcement": 12,
		"initial_direction": 180.0,
		"ai_move_group": 0,
		"ai_target_move_x": -1,
		"ai_target_move_y": -1,
		"ai_skill_function": "",
		"ai_attack": "",
		"ai_move": "",
		"ai_heal": "",
		"ai_skill": "",
		"ai_use": "",
		"skill_group_id": 890,
		"gear_GearGear": 23001,
		"gear_rank": 1,
		"proficiency_UnitProficiency": 3,
		"level": 43,
		"hp": 62,
		"strength": 46,
		"vitality": 33,
		"intelligence": 0,
		"mind": 10,
		"agility": 15,
		"dexterity": 35,
		"lucky": 3,
		"parameter_table_BattleEnemyParameterTable": 0,
		"parameter_deviation_table_BattleEnemyParameterDeviationTable": 0,
		"acquire_skill_group_id": 0,
		"level_correction": 0,
		"group_id": 0,
		"ai_script_id_BattleAIScript": 0
	},
	{
		"ID": 9443,
		"stage_BattleStage": 140017009,
		"unit_UnitUnit": 830008,
		"money": 220,
		"initial_coordinate_x": 14,
		"initial_coordinate_y": 14,
		"reinforcement_BattleReinforcement": 12,
		"initial_direction": 180.0,
		"ai_move_group": 0,
		"ai_target_move_x": -1,
		"ai_target_move_y": -1,
		"ai_skill_function": "",
		"ai_attack": "",
		"ai_move": "",
		"ai_heal": "",
		"ai_skill": "",
		"ai_use": "",
		"skill_group_id": 870,
		"gear_GearGear": 33001,
		"gear_rank": 1,
		"proficiency_UnitProficiency": 3,
		"level": 44,
		"hp": 61,
		"strength": 44,
		"vitality": 34,
		"intelligence": 0,
		"mind": 10,
		"agility": 19,
		"dexterity": 36,
		"lucky": 3,
		"parameter_table_BattleEnemyParameterTable": 0,
		"parameter_deviation_table_BattleEnemyParameterDeviationTable": 0,
		"acquire_skill_group_id": 0,
		"level_correction": 0,
		"group_id": 0,
		"ai_script_id_BattleAIScript": 0
	}
]