[
	{
		"ID": 16189,
		"stage_BattleStage": 150021007,
		"unit_UnitUnit": 820004,
		"money": 220,
		"initial_coordinate_x": 3,
		"initial_coordinate_y": 4,
		"reinforcement_BattleReinforcement": 0,
		"initial_direction": 90.0,
		"ai_move_group": 0,
		"ai_target_move_x": -1,
		"ai_target_move_y": -1,
		"ai_skill_function": "",
		"ai_attack": "",
		"ai_move": "0.0",
		"ai_heal": "",
		"ai_skill": "",
		"ai_use": "",
		"skill_group_id": 840,
		"gear_GearGear": 23001,
		"gear_rank": 1,
		"proficiency_UnitProficiency": 3,
		"level": 44,
		"hp": 49,
		"strength": 42,
		"vitality": 25,
		"intelligence": 0,
		"mind": 10,
		"agility": 23,
		"dexterity": 32,
		"lucky": 5,
		"parameter_table_BattleEnemyParameterTable": 0,
		"parameter_deviation_table_BattleEnemyParameterDeviationTable": 0,
		"acquire_skill_group_id": 0,
		"level_correction": 0,
		"group_id": 0,
		"ai_script_id_BattleAIScript": 0
	},
	{
		"ID": 16190,
		"stage_BattleStage": 150021007,
		"unit_UnitUnit": 820004,
		"money": 225,
		"initial_coordinate_x": 2,
		"initial_coordinate_y": 5,
		"reinforcement_BattleReinforcement": 0,
		"initial_direction": 90.0,
		"ai_move_group": 0,
		"ai_target_move_x": -1,
		"ai_target_move_y": -1,
		"ai_skill_function": "",
		"ai_attack": "",
		"ai_move": "0.0",
		"ai_heal": "",
		"ai_skill": "",
		"ai_use": "",
		"skill_group_id": 840,
		"gear_GearGear": 22005,
		"gear_rank": 1,
		"proficiency_UnitProficiency": 2,
		"level": 45,
		"hp": 50,
		"strength": 43,
		"vitality": 26,
		"intelligence": 0,
		"mind": 10,
		"agility": 23,
		"dexterity": 32,
		"lucky": 5,
		"parameter_table_BattleEnemyParameterTable": 0,
		"parameter_deviation_table_BattleEnemyParameterDeviationTable": 0,
		"acquire_skill_group_id": 0,
		"level_correction": 0,
		"group_id": 0,
		"ai_script_id_BattleAIScript": 0
	},
	{
		"ID": 16191,
		"stage_BattleStage": 150021007,
		"unit_UnitUnit": 820004,
		"money": 230,
		"initial_coordinate_x": 2,
		"initial_coordinate_y": 7,
		"reinforcement_BattleReinforcement": 0,
		"initial_direction": 90.0,
		"ai_move_group": 0,
		"ai_target_move_x": -1,
		"ai_target_move_y": -1,
		"ai_skill_function": "",
		"ai_attack": "",
		"ai_move": "0.0",
		"ai_heal": "",
		"ai_skill": "",
		"ai_use": "",
		"skill_group_id": 840,
		"gear_GearGear": 23001,
		"gear_rank": 1,
		"proficiency_UnitProficiency": 3,
		"level": 46,
		"hp": 50,
		"strength": 44,
		"vitality": 26,
		"intelligence": 0,
		"mind": 10,
		"agility": 24,
		"dexterity": 33,
		"lucky": 5,
		"parameter_table_BattleEnemyParameterTable": 0,
		"parameter_deviation_table_BattleEnemyParameterDeviationTable": 0,
		"acquire_skill_group_id": 0,
		"level_correction": 0,
		"group_id": 0,
		"ai_script_id_BattleAIScript": 0
	},
	{
		"ID": 16192,
		"stage_BattleStage": 150021007,
		"unit_UnitUnit": 820004,
		"money": 235,
		"initial_coordinate_x": 1,
		"initial_coordinate_y": 6,
		"reinforcement_BattleReinforcement": 0,
		"initial_direction": 90.0,
		"ai_move_group": 0,
		"ai_target_move_x": -1,
		"ai_target_move_y": -1,
		"ai_skill_function": "",
		"ai_attack": "",
		"ai_move": "0.0",
		"ai_heal": "",
		"ai_skill": "",
		"ai_use": "",
		"skill_group_id": 840,
		"gear_GearGear": 22005,
		"gear_rank": 1,
		"proficiency_UnitProficiency": 2,
		"level": 47,
		"hp": 51,
		"strength": 45,
		"vitality": 27,
		"intelligence": 0,
		"mind": 10,
		"agility": 24,
		"dexterity": 34,
		"lucky": 5,
		"parameter_table_BattleEnemyParameterTable": 0,
		"parameter_deviation_table_BattleEnemyParameterDeviationTable": 0,
		"acquire_skill_group_id": 0,
		"level_correction": 0,
		"group_id": 0,
		"ai_script_id_BattleAIScript": 0
	},
	{
		"ID": 16193,
		"stage_BattleStage": 150021007,
		"unit_UnitUnit": 860010,
		"money": 240,
		"initial_coordinate_x": 1,
		"initial_coordinate_y": 4,
		"reinforcement_BattleReinforcement": 0,
		"initial_direction": 90.0,
		"ai_move_group": 0,
		"ai_target_move_x": -1,
		"ai_target_move_y": -1,
		"ai_skill_function": "",
		"ai_attack": "",
		"ai_move": "0.0",
		"ai_heal": "",
		"ai_skill": "",
		"ai_use": "",
		"skill_group_id": 670,
		"gear_GearGear": 80010,
		"gear_rank": 1,
		"proficiency_UnitProficiency": 3,
		"level": 48,
		"hp": 45,
		"strength": 1,
		"vitality": 23,
		"intelligence": 37,
		"mind": 26,
		"agility": 24,
		"dexterity": 33,
		"lucky": 5,
		"parameter_table_BattleEnemyParameterTable": 0,
		"parameter_deviation_table_BattleEnemyParameterDeviationTable": 0,
		"acquire_skill_group_id": 0,
		"level_correction": 0,
		"group_id": 0,
		"ai_script_id_BattleAIScript": 0
	},
	{
		"ID": 16194,
		"stage_BattleStage": 150021007,
		"unit_UnitUnit": 830004,
		"money": 245,
		"initial_coordinate_x": 9,
		"initial_coordinate_y": 5,
		"reinforcement_BattleReinforcement": 0,
		"initial_direction": 270.0,
		"ai_move_group": 0,
		"ai_target_move_x": -1,
		"ai_target_move_y": -1,
		"ai_skill_function": "",
		"ai_attack": "",
		"ai_move": "0.0",
		"ai_heal": "",
		"ai_skill": "",
		"ai_use": "",
		"skill_group_id": 820,
		"gear_GearGear": 33001,
		"gear_rank": 1,
		"proficiency_UnitProficiency": 3,
		"level": 49,
		"hp": 52,
		"strength": 44,
		"vitality": 28,
		"intelligence": 0,
		"mind": 11,
		"agility": 29,
		"dexterity": 36,
		"lucky": 5,
		"parameter_table_BattleEnemyParameterTable": 0,
		"parameter_deviation_table_BattleEnemyParameterDeviationTable": 0,
		"acquire_skill_group_id": 0,
		"level_correction": 0,
		"group_id": 0,
		"ai_script_id_BattleAIScript": 0
	},
	{
		"ID": 16195,
		"stage_BattleStage": 150021007,
		"unit_UnitUnit": 830004,
		"money": 250,
		"initial_coordinate_x": 11,
		"initial_coordinate_y": 6,
		"reinforcement_BattleReinforcement": 0,
		"initial_direction": 270.0,
		"ai_move_group": 0,
		"ai_target_move_x": -1,
		"ai_target_move_y": -1,
		"ai_skill_function": "",
		"ai_attack": "",
		"ai_move": "0.0",
		"ai_heal": "",
		"ai_skill": "",
		"ai_use": "",
		"skill_group_id": 820,
		"gear_GearGear": 33003,
		"gear_rank": 1,
		"proficiency_UnitProficiency": 3,
		"level": 50,
		"hp": 52,
		"strength": 45,
		"vitality": 28,
		"intelligence": 0,
		"mind": 11,
		"agility": 29,
		"dexterity": 36,
		"lucky": 5,
		"parameter_table_BattleEnemyParameterTable": 0,
		"parameter_deviation_table_BattleEnemyParameterDeviationTable": 0,
		"acquire_skill_group_id": 0,
		"level_correction": 0,
		"group_id": 0,
		"ai_script_id_BattleAIScript": 0
	},
	{
		"ID": 16196,
		"stage_BattleStage": 150021007,
		"unit_UnitUnit": 830004,
		"money": 255,
		"initial_coordinate_x": 12,
		"initial_coordinate_y": 8,
		"reinforcement_BattleReinforcement": 0,
		"initial_direction": 270.0,
		"ai_move_group": 0,
		"ai_target_move_x": -1,
		"ai_target_move_y": -1,
		"ai_skill_function": "",
		"ai_attack": "",
		"ai_move": "0.0",
		"ai_heal": "",
		"ai_skill": "",
		"ai_use": "",
		"skill_group_id": 820,
		"gear_GearGear": 33001,
		"gear_rank": 1,
		"proficiency_UnitProficiency": 3,
		"level": 51,
		"hp": 53,
		"strength": 46,
		"vitality": 29,
		"intelligence": 1,
		"mind": 11,
		"agility": 30,
		"dexterity": 37,
		"lucky": 5,
		"parameter_table_BattleEnemyParameterTable": 0,
		"parameter_deviation_table_BattleEnemyParameterDeviationTable": 0,
		"acquire_skill_group_id": 0,
		"level_correction": 0,
		"group_id": 0,
		"ai_script_id_BattleAIScript": 0
	},
	{
		"ID": 16197,
		"stage_BattleStage": 150021007,
		"unit_UnitUnit": 830004,
		"money": 260,
		"initial_coordinate_x": 13,
		"initial_coordinate_y": 7,
		"reinforcement_BattleReinforcement": 0,
		"initial_direction": 270.0,
		"ai_move_group": 0,
		"ai_target_move_x": -1,
		"ai_target_move_y": -1,
		"ai_skill_function": "",
		"ai_attack": "",
		"ai_move": "0.0",
		"ai_heal": "",
		"ai_skill": "",
		"ai_use": "",
		"skill_group_id": 820,
		"gear_GearGear": 33003,
		"gear_rank": 1,
		"proficiency_UnitProficiency": 3,
		"level": 52,
		"hp": 54,
		"strength": 47,
		"vitality": 30,
		"intelligence": 1,
		"mind": 11,
		"agility": 30,
		"dexterity": 38,
		"lucky": 5,
		"parameter_table_BattleEnemyParameterTable": 0,
		"parameter_deviation_table_BattleEnemyParameterDeviationTable": 0,
		"acquire_skill_group_id": 0,
		"level_correction": 0,
		"group_id": 0,
		"ai_script_id_BattleAIScript": 0
	},
	{
		"ID": 16198,
		"stage_BattleStage": 150021007,
		"unit_UnitUnit": 860010,
		"money": 265,
		"initial_coordinate_x": 13,
		"initial_coordinate_y": 5,
		"reinforcement_BattleReinforcement": 0,
		"initial_direction": 270.0,
		"ai_move_group": 0,
		"ai_target_move_x": -1,
		"ai_target_move_y": -1,
		"ai_skill_function": "",
		"ai_attack": "",
		"ai_move": "0.0",
		"ai_heal": "",
		"ai_skill": "",
		"ai_use": "",
		"skill_group_id": 670,
		"gear_GearGear": 80010,
		"gear_rank": 1,
		"proficiency_UnitProficiency": 3,
		"level": 53,
		"hp": 48,
		"strength": 2,
		"vitality": 25,
		"intelligence": 40,
		"mind": 28,
		"agility": 26,
		"dexterity": 36,
		"lucky": 5,
		"parameter_table_BattleEnemyParameterTable": 0,
		"parameter_deviation_table_BattleEnemyParameterDeviationTable": 0,
		"acquire_skill_group_id": 0,
		"level_correction": 0,
		"group_id": 0,
		"ai_script_id_BattleAIScript": 0
	},
	{
		"ID": 16199,
		"stage_BattleStage": 150021007,
		"unit_UnitUnit": 810004,
		"money": 260,
		"initial_coordinate_x": 4,
		"initial_coordinate_y": 11,
		"reinforcement_BattleReinforcement": 0,
		"initial_direction": 180.0,
		"ai_move_group": 0,
		"ai_target_move_x": -1,
		"ai_target_move_y": -1,
		"ai_skill_function": "",
		"ai_attack": "",
		"ai_move": "0.0",
		"ai_heal": "",
		"ai_skill": "",
		"ai_use": "",
		"skill_group_id": 830,
		"gear_GearGear": 13003,
		"gear_rank": 1,
		"proficiency_UnitProficiency": 3,
		"level": 52,
		"hp": 55,
		"strength": 47,
		"vitality": 29,
		"intelligence": 1,
		"mind": 10,
		"agility": 31,
		"dexterity": 39,
		"lucky": 5,
		"parameter_table_BattleEnemyParameterTable": 0,
		"parameter_deviation_table_BattleEnemyParameterDeviationTable": 0,
		"acquire_skill_group_id": 0,
		"level_correction": 0,
		"group_id": 0,
		"ai_script_id_BattleAIScript": 0
	},
	{
		"ID": 16200,
		"stage_BattleStage": 150021007,
		"unit_UnitUnit": 810004,
		"money": 255,
		"initial_coordinate_x": 5,
		"initial_coordinate_y": 12,
		"reinforcement_BattleReinforcement": 0,
		"initial_direction": 180.0,
		"ai_move_group": 0,
		"ai_target_move_x": -1,
		"ai_target_move_y": -1,
		"ai_skill_function": "",
		"ai_attack": "",
		"ai_move": "0.0",
		"ai_heal": "",
		"ai_skill": "",
		"ai_use": "",
		"skill_group_id": 830,
		"gear_GearGear": 13002,
		"gear_rank": 1,
		"proficiency_UnitProficiency": 3,
		"level": 51,
		"hp": 54,
		"strength": 46,
		"vitality": 29,
		"intelligence": 1,
		"mind": 10,
		"agility": 31,
		"dexterity": 39,
		"lucky": 5,
		"parameter_table_BattleEnemyParameterTable": 0,
		"parameter_deviation_table_BattleEnemyParameterDeviationTable": 0,
		"acquire_skill_group_id": 0,
		"level_correction": 0,
		"group_id": 0,
		"ai_script_id_BattleAIScript": 0
	},
	{
		"ID": 16201,
		"stage_BattleStage": 150021007,
		"unit_UnitUnit": 810004,
		"money": 250,
		"initial_coordinate_x": 9,
		"initial_coordinate_y": 11,
		"reinforcement_BattleReinforcement": 0,
		"initial_direction": 180.0,
		"ai_move_group": 0,
		"ai_target_move_x": -1,
		"ai_target_move_y": -1,
		"ai_skill_function": "",
		"ai_attack": "",
		"ai_move": "0.0",
		"ai_heal": "",
		"ai_skill": "",
		"ai_use": "",
		"skill_group_id": 830,
		"gear_GearGear": 13003,
		"gear_rank": 1,
		"proficiency_UnitProficiency": 3,
		"level": 50,
		"hp": 53,
		"strength": 45,
		"vitality": 28,
		"intelligence": 0,
		"mind": 10,
		"agility": 30,
		"dexterity": 38,
		"lucky": 5,
		"parameter_table_BattleEnemyParameterTable": 0,
		"parameter_deviation_table_BattleEnemyParameterDeviationTable": 0,
		"acquire_skill_group_id": 0,
		"level_correction": 0,
		"group_id": 0,
		"ai_script_id_BattleAIScript": 0
	},
	{
		"ID": 16202,
		"stage_BattleStage": 150021007,
		"unit_UnitUnit": 810004,
		"money": 245,
		"initial_coordinate_x": 11,
		"initial_coordinate_y": 11,
		"reinforcement_BattleReinforcement": 0,
		"initial_direction": 180.0,
		"ai_move_group": 0,
		"ai_target_move_x": -1,
		"ai_target_move_y": -1,
		"ai_skill_function": "",
		"ai_attack": "",
		"ai_move": "0.0",
		"ai_heal": "",
		"ai_skill": "",
		"ai_use": "",
		"skill_group_id": 830,
		"gear_GearGear": 13002,
		"gear_rank": 1,
		"proficiency_UnitProficiency": 3,
		"level": 49,
		"hp": 53,
		"strength": 44,
		"vitality": 28,
		"intelligence": 0,
		"mind": 10,
		"agility": 30,
		"dexterity": 37,
		"lucky": 5,
		"parameter_table_BattleEnemyParameterTable": 0,
		"parameter_deviation_table_BattleEnemyParameterDeviationTable": 0,
		"acquire_skill_group_id": 0,
		"level_correction": 0,
		"group_id": 0,
		"ai_script_id_BattleAIScript": 0
	},
	{
		"ID": 16203,
		"stage_BattleStage": 150021007,
		"unit_UnitUnit": 860010,
		"money": 240,
		"initial_coordinate_x": 12,
		"initial_coordinate_y": 12,
		"reinforcement_BattleReinforcement": 0,
		"initial_direction": 180.0,
		"ai_move_group": 0,
		"ai_target_move_x": -1,
		"ai_target_move_y": -1,
		"ai_skill_function": "",
		"ai_attack": "",
		"ai_move": "0.0",
		"ai_heal": "",
		"ai_skill": "",
		"ai_use": "",
		"skill_group_id": 670,
		"gear_GearGear": 80010,
		"gear_rank": 1,
		"proficiency_UnitProficiency": 3,
		"level": 48,
		"hp": 45,
		"strength": 1,
		"vitality": 23,
		"intelligence": 37,
		"mind": 26,
		"agility": 24,
		"dexterity": 33,
		"lucky": 5,
		"parameter_table_BattleEnemyParameterTable": 0,
		"parameter_deviation_table_BattleEnemyParameterDeviationTable": 0,
		"acquire_skill_group_id": 0,
		"level_correction": 0,
		"group_id": 0,
		"ai_script_id_BattleAIScript": 0
	},
	{
		"ID": 16204,
		"stage_BattleStage": 150021007,
		"unit_UnitUnit": 820007,
		"money": 235,
		"initial_coordinate_x": 1,
		"initial_coordinate_y": 1,
		"reinforcement_BattleReinforcement": 3,
		"initial_direction": 0.0,
		"ai_move_group": 0,
		"ai_target_move_x": -1,
		"ai_target_move_y": -1,
		"ai_skill_function": "",
		"ai_attack": "",
		"ai_move": "0.0",
		"ai_heal": "",
		"ai_skill": "",
		"ai_use": "",
		"skill_group_id": 840,
		"gear_GearGear": 23002,
		"gear_rank": 1,
		"proficiency_UnitProficiency": 3,
		"level": 47,
		"hp": 57,
		"strength": 47,
		"vitality": 33,
		"intelligence": 1,
		"mind": 5,
		"agility": 19,
		"dexterity": 30,
		"lucky": 5,
		"parameter_table_BattleEnemyParameterTable": 0,
		"parameter_deviation_table_BattleEnemyParameterDeviationTable": 0,
		"acquire_skill_group_id": 0,
		"level_correction": 0,
		"group_id": 0,
		"ai_script_id_BattleAIScript": 0
	},
	{
		"ID": 16205,
		"stage_BattleStage": 150021007,
		"unit_UnitUnit": 820007,
		"money": 230,
		"initial_coordinate_x": 1,
		"initial_coordinate_y": 1,
		"reinforcement_BattleReinforcement": 5,
		"initial_direction": 0.0,
		"ai_move_group": 0,
		"ai_target_move_x": -1,
		"ai_target_move_y": -1,
		"ai_skill_function": "",
		"ai_attack": "",
		"ai_move": "0.0",
		"ai_heal": "",
		"ai_skill": "",
		"ai_use": "",
		"skill_group_id": 840,
		"gear_GearGear": 23002,
		"gear_rank": 1,
		"proficiency_UnitProficiency": 3,
		"level": 46,
		"hp": 57,
		"strength": 46,
		"vitality": 32,
		"intelligence": 1,
		"mind": 5,
		"agility": 18,
		"dexterity": 29,
		"lucky": 5,
		"parameter_table_BattleEnemyParameterTable": 0,
		"parameter_deviation_table_BattleEnemyParameterDeviationTable": 0,
		"acquire_skill_group_id": 0,
		"level_correction": 0,
		"group_id": 0,
		"ai_script_id_BattleAIScript": 0
	},
	{
		"ID": 16206,
		"stage_BattleStage": 150021007,
		"unit_UnitUnit": 820007,
		"money": 225,
		"initial_coordinate_x": 2,
		"initial_coordinate_y": 1,
		"reinforcement_BattleReinforcement": 3,
		"initial_direction": 0.0,
		"ai_move_group": 0,
		"ai_target_move_x": -1,
		"ai_target_move_y": -1,
		"ai_skill_function": "",
		"ai_attack": "",
		"ai_move": "0.0",
		"ai_heal": "",
		"ai_skill": "",
		"ai_use": "",
		"skill_group_id": 840,
		"gear_GearGear": 22005,
		"gear_rank": 1,
		"proficiency_UnitProficiency": 2,
		"level": 45,
		"hp": 56,
		"strength": 46,
		"vitality": 32,
		"intelligence": 1,
		"mind": 4,
		"agility": 18,
		"dexterity": 29,
		"lucky": 5,
		"parameter_table_BattleEnemyParameterTable": 0,
		"parameter_deviation_table_BattleEnemyParameterDeviationTable": 0,
		"acquire_skill_group_id": 0,
		"level_correction": 0,
		"group_id": 0,
		"ai_script_id_BattleAIScript": 0
	},
	{
		"ID": 16207,
		"stage_BattleStage": 150021007,
		"unit_UnitUnit": 820007,
		"money": 220,
		"initial_coordinate_x": 2,
		"initial_coordinate_y": 1,
		"reinforcement_BattleReinforcement": 5,
		"initial_direction": 0.0,
		"ai_move_group": 0,
		"ai_target_move_x": -1,
		"ai_target_move_y": -1,
		"ai_skill_function": "",
		"ai_attack": "",
		"ai_move": "0.0",
		"ai_heal": "",
		"ai_skill": "",
		"ai_use": "",
		"skill_group_id": 840,
		"gear_GearGear": 22005,
		"gear_rank": 1,
		"proficiency_UnitProficiency": 2,
		"level": 44,
		"hp": 55,
		"strength": 45,
		"vitality": 31,
		"intelligence": 1,
		"mind": 4,
		"agility": 18,
		"dexterity": 28,
		"lucky": 5,
		"parameter_table_BattleEnemyParameterTable": 0,
		"parameter_deviation_table_BattleEnemyParameterDeviationTable": 0,
		"acquire_skill_group_id": 0,
		"level_correction": 0,
		"group_id": 0,
		"ai_script_id_BattleAIScript": 0
	},
	{
		"ID": 16208,
		"stage_BattleStage": 150021007,
		"unit_UnitUnit": 820007,
		"money": 225,
		"initial_coordinate_x": 3,
		"initial_coordinate_y": 1,
		"reinforcement_BattleReinforcement": 3,
		"initial_direction": 0.0,
		"ai_move_group": 0,
		"ai_target_move_x": -1,
		"ai_target_move_y": -1,
		"ai_skill_function": "",
		"ai_attack": "",
		"ai_move": "0.0",
		"ai_heal": "",
		"ai_skill": "",
		"ai_use": "",
		"skill_group_id": 840,
		"gear_GearGear": 23003,
		"gear_rank": 1,
		"proficiency_UnitProficiency": 3,
		"level": 45,
		"hp": 56,
		"strength": 46,
		"vitality": 32,
		"intelligence": 1,
		"mind": 4,
		"agility": 18,
		"dexterity": 29,
		"lucky": 5,
		"parameter_table_BattleEnemyParameterTable": 0,
		"parameter_deviation_table_BattleEnemyParameterDeviationTable": 0,
		"acquire_skill_group_id": 0,
		"level_correction": 0,
		"group_id": 0,
		"ai_script_id_BattleAIScript": 0
	},
	{
		"ID": 16209,
		"stage_BattleStage": 150021007,
		"unit_UnitUnit": 820007,
		"money": 230,
		"initial_coordinate_x": 3,
		"initial_coordinate_y": 1,
		"reinforcement_BattleReinforcement": 5,
		"initial_direction": 0.0,
		"ai_move_group": 0,
		"ai_target_move_x": -1,
		"ai_target_move_y": -1,
		"ai_skill_function": "",
		"ai_attack": "",
		"ai_move": "0.0",
		"ai_heal": "",
		"ai_skill": "",
		"ai_use": "",
		"skill_group_id": 840,
		"gear_GearGear": 23003,
		"gear_rank": 1,
		"proficiency_UnitProficiency": 3,
		"level": 46,
		"hp": 57,
		"strength": 46,
		"vitality": 32,
		"intelligence": 1,
		"mind": 5,
		"agility": 18,
		"dexterity": 29,
		"lucky": 5,
		"parameter_table_BattleEnemyParameterTable": 0,
		"parameter_deviation_table_BattleEnemyParameterDeviationTable": 0,
		"acquire_skill_group_id": 0,
		"level_correction": 0,
		"group_id": 0,
		"ai_script_id_BattleAIScript": 0
	},
	{
		"ID": 16210,
		"stage_BattleStage": 150021007,
		"unit_UnitUnit": 830001,
		"money": 235,
		"initial_coordinate_x": 12,
		"initial_coordinate_y": 1,
		"reinforcement_BattleReinforcement": 3,
		"initial_direction": 0.0,
		"ai_move_group": 0,
		"ai_target_move_x": -1,
		"ai_target_move_y": -1,
		"ai_skill_function": "",
		"ai_attack": "",
		"ai_move": "0.0",
		"ai_heal": "",
		"ai_skill": "",
		"ai_use": "",
		"skill_group_id": 820,
		"gear_GearGear": 33002,
		"gear_rank": 1,
		"proficiency_UnitProficiency": 3,
		"level": 47,
		"hp": 46,
		"strength": 39,
		"vitality": 27,
		"intelligence": 9,
		"mind": 13,
		"agility": 31,
		"dexterity": 32,
		"lucky": 4,
		"parameter_table_BattleEnemyParameterTable": 0,
		"parameter_deviation_table_BattleEnemyParameterDeviationTable": 0,
		"acquire_skill_group_id": 0,
		"level_correction": 0,
		"group_id": 0,
		"ai_script_id_BattleAIScript": 0
	},
	{
		"ID": 16211,
		"stage_BattleStage": 150021007,
		"unit_UnitUnit": 830001,
		"money": 240,
		"initial_coordinate_x": 13,
		"initial_coordinate_y": 1,
		"reinforcement_BattleReinforcement": 3,
		"initial_direction": 0.0,
		"ai_move_group": 0,
		"ai_target_move_x": -1,
		"ai_target_move_y": -1,
		"ai_skill_function": "",
		"ai_attack": "",
		"ai_move": "0.0",
		"ai_heal": "",
		"ai_skill": "",
		"ai_use": "",
		"skill_group_id": 820,
		"gear_GearGear": 33003,
		"gear_rank": 1,
		"proficiency_UnitProficiency": 3,
		"level": 48,
		"hp": 47,
		"strength": 40,
		"vitality": 28,
		"intelligence": 9,
		"mind": 13,
		"agility": 32,
		"dexterity": 33,
		"lucky": 4,
		"parameter_table_BattleEnemyParameterTable": 0,
		"parameter_deviation_table_BattleEnemyParameterDeviationTable": 0,
		"acquire_skill_group_id": 0,
		"level_correction": 0,
		"group_id": 0,
		"ai_script_id_BattleAIScript": 0
	},
	{
		"ID": 16212,
		"stage_BattleStage": 150021007,
		"unit_UnitUnit": 830002,
		"money": 245,
		"initial_coordinate_x": 15,
		"initial_coordinate_y": 5,
		"reinforcement_BattleReinforcement": 3,
		"initial_direction": 270.0,
		"ai_move_group": 0,
		"ai_target_move_x": -1,
		"ai_target_move_y": -1,
		"ai_skill_function": "",
		"ai_attack": "",
		"ai_move": "0.0",
		"ai_heal": "",
		"ai_skill": "",
		"ai_use": "",
		"skill_group_id": 820,
		"gear_GearGear": 33002,
		"gear_rank": 1,
		"proficiency_UnitProficiency": 3,
		"level": 49,
		"hp": 56,
		"strength": 45,
		"vitality": 29,
		"intelligence": 0,
		"mind": 11,
		"agility": 31,
		"dexterity": 33,
		"lucky": 5,
		"parameter_table_BattleEnemyParameterTable": 0,
		"parameter_deviation_table_BattleEnemyParameterDeviationTable": 0,
		"acquire_skill_group_id": 0,
		"level_correction": 0,
		"group_id": 0,
		"ai_script_id_BattleAIScript": 0
	},
	{
		"ID": 16213,
		"stage_BattleStage": 150021007,
		"unit_UnitUnit": 830002,
		"money": 250,
		"initial_coordinate_x": 15,
		"initial_coordinate_y": 5,
		"reinforcement_BattleReinforcement": 7,
		"initial_direction": 270.0,
		"ai_move_group": 0,
		"ai_target_move_x": -1,
		"ai_target_move_y": -1,
		"ai_skill_function": "",
		"ai_attack": "",
		"ai_move": "0.0",
		"ai_heal": "",
		"ai_skill": "",
		"ai_use": "",
		"skill_group_id": 820,
		"gear_GearGear": 33002,
		"gear_rank": 1,
		"proficiency_UnitProficiency": 3,
		"level": 50,
		"hp": 56,
		"strength": 46,
		"vitality": 29,
		"intelligence": 0,
		"mind": 11,
		"agility": 32,
		"dexterity": 34,
		"lucky": 5,
		"parameter_table_BattleEnemyParameterTable": 0,
		"parameter_deviation_table_BattleEnemyParameterDeviationTable": 0,
		"acquire_skill_group_id": 0,
		"level_correction": 0,
		"group_id": 0,
		"ai_script_id_BattleAIScript": 0
	},
	{
		"ID": 16214,
		"stage_BattleStage": 150021007,
		"unit_UnitUnit": 830002,
		"money": 255,
		"initial_coordinate_x": 15,
		"initial_coordinate_y": 6,
		"reinforcement_BattleReinforcement": 3,
		"initial_direction": 270.0,
		"ai_move_group": 0,
		"ai_target_move_x": -1,
		"ai_target_move_y": -1,
		"ai_skill_function": "",
		"ai_attack": "",
		"ai_move": "0.0",
		"ai_heal": "",
		"ai_skill": "",
		"ai_use": "",
		"skill_group_id": 820,
		"gear_GearGear": 33003,
		"gear_rank": 1,
		"proficiency_UnitProficiency": 3,
		"level": 51,
		"hp": 57,
		"strength": 47,
		"vitality": 30,
		"intelligence": 1,
		"mind": 11,
		"agility": 32,
		"dexterity": 35,
		"lucky": 5,
		"parameter_table_BattleEnemyParameterTable": 0,
		"parameter_deviation_table_BattleEnemyParameterDeviationTable": 0,
		"acquire_skill_group_id": 0,
		"level_correction": 0,
		"group_id": 0,
		"ai_script_id_BattleAIScript": 0
	},
	{
		"ID": 16215,
		"stage_BattleStage": 150021007,
		"unit_UnitUnit": 830002,
		"money": 250,
		"initial_coordinate_x": 15,
		"initial_coordinate_y": 6,
		"reinforcement_BattleReinforcement": 7,
		"initial_direction": 270.0,
		"ai_move_group": 0,
		"ai_target_move_x": -1,
		"ai_target_move_y": -1,
		"ai_skill_function": "",
		"ai_attack": "",
		"ai_move": "0.0",
		"ai_heal": "",
		"ai_skill": "",
		"ai_use": "",
		"skill_group_id": 820,
		"gear_GearGear": 33003,
		"gear_rank": 1,
		"proficiency_UnitProficiency": 3,
		"level": 50,
		"hp": 56,
		"strength": 46,
		"vitality": 29,
		"intelligence": 0,
		"mind": 11,
		"agility": 32,
		"dexterity": 34,
		"lucky": 5,
		"parameter_table_BattleEnemyParameterTable": 0,
		"parameter_deviation_table_BattleEnemyParameterDeviationTable": 0,
		"acquire_skill_group_id": 0,
		"level_correction": 0,
		"group_id": 0,
		"ai_script_id_BattleAIScript": 0
	},
	{
		"ID": 16216,
		"stage_BattleStage": 150021007,
		"unit_UnitUnit": 810008,
		"money": 245,
		"initial_coordinate_x": 7,
		"initial_coordinate_y": 12,
		"reinforcement_BattleReinforcement": 10,
		"initial_direction": 180.0,
		"ai_move_group": 0,
		"ai_target_move_x": -1,
		"ai_target_move_y": -1,
		"ai_skill_function": "",
		"ai_attack": "",
		"ai_move": "",
		"ai_heal": "",
		"ai_skill": "",
		"ai_use": "",
		"skill_group_id": 830,
		"gear_GearGear": 14006,
		"gear_rank": 1,
		"proficiency_UnitProficiency": 4,
		"level": 49,
		"hp": 66,
		"strength": 49,
		"vitality": 37,
		"intelligence": 0,
		"mind": 10,
		"agility": 22,
		"dexterity": 42,
		"lucky": 3,
		"parameter_table_BattleEnemyParameterTable": 0,
		"parameter_deviation_table_BattleEnemyParameterDeviationTable": 0,
		"acquire_skill_group_id": 0,
		"level_correction": 0,
		"group_id": 0,
		"ai_script_id_BattleAIScript": 0
	},
	{
		"ID": 16217,
		"stage_BattleStage": 150021007,
		"unit_UnitUnit": 810008,
		"money": 240,
		"initial_coordinate_x": 7,
		"initial_coordinate_y": 12,
		"reinforcement_BattleReinforcement": 11,
		"initial_direction": 180.0,
		"ai_move_group": 0,
		"ai_target_move_x": -1,
		"ai_target_move_y": -1,
		"ai_skill_function": "",
		"ai_attack": "",
		"ai_move": "",
		"ai_heal": "",
		"ai_skill": "",
		"ai_use": "",
		"skill_group_id": 830,
		"gear_GearGear": 14006,
		"gear_rank": 1,
		"proficiency_UnitProficiency": 4,
		"level": 48,
		"hp": 66,
		"strength": 48,
		"vitality": 36,
		"intelligence": 0,
		"mind": 10,
		"agility": 22,
		"dexterity": 41,
		"lucky": 3,
		"parameter_table_BattleEnemyParameterTable": 0,
		"parameter_deviation_table_BattleEnemyParameterDeviationTable": 0,
		"acquire_skill_group_id": 0,
		"level_correction": 0,
		"group_id": 0,
		"ai_script_id_BattleAIScript": 0
	},
	{
		"ID": 16218,
		"stage_BattleStage": 150021007,
		"unit_UnitUnit": 810008,
		"money": 235,
		"initial_coordinate_x": 7,
		"initial_coordinate_y": 12,
		"reinforcement_BattleReinforcement": 12,
		"initial_direction": 180.0,
		"ai_move_group": 0,
		"ai_target_move_x": -1,
		"ai_target_move_y": -1,
		"ai_skill_function": "",
		"ai_attack": "",
		"ai_move": "",
		"ai_heal": "",
		"ai_skill": "",
		"ai_use": "",
		"skill_group_id": 830,
		"gear_GearGear": 14006,
		"gear_rank": 1,
		"proficiency_UnitProficiency": 4,
		"level": 47,
		"hp": 65,
		"strength": 47,
		"vitality": 36,
		"intelligence": 0,
		"mind": 10,
		"agility": 21,
		"dexterity": 40,
		"lucky": 3,
		"parameter_table_BattleEnemyParameterTable": 0,
		"parameter_deviation_table_BattleEnemyParameterDeviationTable": 0,
		"acquire_skill_group_id": 0,
		"level_correction": 0,
		"group_id": 0,
		"ai_script_id_BattleAIScript": 0
	}
]