[
	{
		"ID": 17272,
		"stage_BattleStage": 150025006,
		"unit_UnitUnit": 840008,
		"money": 260,
		"initial_coordinate_x": 13,
		"initial_coordinate_y": 6,
		"reinforcement_BattleReinforcement": 0,
		"initial_direction": 0.0,
		"ai_move_group": 0,
		"ai_target_move_x": -1,
		"ai_target_move_y": -1,
		"ai_skill_function": "",
		"ai_attack": "IF( turn <=3 ,IF(panel_move_distance <= 1, 1, 0),1)",
		"ai_move": "IF(turn <=3,0,1)",
		"ai_heal": "",
		"ai_skill": "",
		"ai_use": "",
		"skill_group_id": 1280,
		"gear_GearGear": 44003,
		"gear_rank": 1,
		"proficiency_UnitProficiency": 4,
		"level": 52,
		"hp": 67,
		"strength": 51,
		"vitality": 38,
		"intelligence": 0,
		"mind": 11,
		"agility": 23,
		"dexterity": 44,
		"lucky": 3,
		"parameter_table_BattleEnemyParameterTable": 0,
		"parameter_deviation_table_BattleEnemyParameterDeviationTable": 0,
		"acquire_skill_group_id": 0,
		"level_correction": 0,
		"group_id": 0,
		"ai_script_id_BattleAIScript": 0
	},
	{
		"ID": 17273,
		"stage_BattleStage": 150025006,
		"unit_UnitUnit": 840008,
		"money": 265,
		"initial_coordinate_x": 12,
		"initial_coordinate_y": 6,
		"reinforcement_BattleReinforcement": 0,
		"initial_direction": 0.0,
		"ai_move_group": 0,
		"ai_target_move_x": -1,
		"ai_target_move_y": -1,
		"ai_skill_function": "",
		"ai_attack": "IF( turn <=3 ,IF(panel_move_distance <= 1, 1, 0),1)",
		"ai_move": "IF(turn <=3,0,1)",
		"ai_heal": "",
		"ai_skill": "",
		"ai_use": "",
		"skill_group_id": 1280,
		"gear_GearGear": 44003,
		"gear_rank": 1,
		"proficiency_UnitProficiency": 4,
		"level": 53,
		"hp": 68,
		"strength": 52,
		"vitality": 39,
		"intelligence": 0,
		"mind": 11,
		"agility": 24,
		"dexterity": 45,
		"lucky": 3,
		"parameter_table_BattleEnemyParameterTable": 0,
		"parameter_deviation_table_BattleEnemyParameterDeviationTable": 0,
		"acquire_skill_group_id": 0,
		"level_correction": 0,
		"group_id": 0,
		"ai_script_id_BattleAIScript": 0
	},
	{
		"ID": 17274,
		"stage_BattleStage": 150025006,
		"unit_UnitUnit": 840008,
		"money": 270,
		"initial_coordinate_x": 13,
		"initial_coordinate_y": 5,
		"reinforcement_BattleReinforcement": 0,
		"initial_direction": 0.0,
		"ai_move_group": 0,
		"ai_target_move_x": -1,
		"ai_target_move_y": -1,
		"ai_skill_function": "",
		"ai_attack": "IF( turn <=3 ,IF(panel_move_distance <= 1, 1, 0),1)",
		"ai_move": "IF(turn <=3,0,1)",
		"ai_heal": "",
		"ai_skill": "",
		"ai_use": "",
		"skill_group_id": 1280,
		"gear_GearGear": 44003,
		"gear_rank": 1,
		"proficiency_UnitProficiency": 4,
		"level": 54,
		"hp": 69,
		"strength": 53,
		"vitality": 39,
		"intelligence": 0,
		"mind": 11,
		"agility": 24,
		"dexterity": 45,
		"lucky": 3,
		"parameter_table_BattleEnemyParameterTable": 0,
		"parameter_deviation_table_BattleEnemyParameterDeviationTable": 0,
		"acquire_skill_group_id": 0,
		"level_correction": 0,
		"group_id": 0,
		"ai_script_id_BattleAIScript": 0
	},
	{
		"ID": 17275,
		"stage_BattleStage": 150025006,
		"unit_UnitUnit": 840008,
		"money": 275,
		"initial_coordinate_x": 12,
		"initial_coordinate_y": 5,
		"reinforcement_BattleReinforcement": 0,
		"initial_direction": 0.0,
		"ai_move_group": 0,
		"ai_target_move_x": -1,
		"ai_target_move_y": -1,
		"ai_skill_function": "",
		"ai_attack": "IF( turn <=3 ,IF(panel_move_distance <= 1, 1, 0),1)",
		"ai_move": "IF(turn <=3,0,1)",
		"ai_heal": "",
		"ai_skill": "",
		"ai_use": "",
		"skill_group_id": 1280,
		"gear_GearGear": 44003,
		"gear_rank": 1,
		"proficiency_UnitProficiency": 4,
		"level": 55,
		"hp": 70,
		"strength": 53,
		"vitality": 40,
		"intelligence": 0,
		"mind": 11,
		"agility": 25,
		"dexterity": 46,
		"lucky": 3,
		"parameter_table_BattleEnemyParameterTable": 0,
		"parameter_deviation_table_BattleEnemyParameterDeviationTable": 0,
		"acquire_skill_group_id": 0,
		"level_correction": 0,
		"group_id": 0,
		"ai_script_id_BattleAIScript": 0
	},
	{
		"ID": 17276,
		"stage_BattleStage": 150025006,
		"unit_UnitUnit": 840008,
		"money": 280,
		"initial_coordinate_x": 13,
		"initial_coordinate_y": 2,
		"reinforcement_BattleReinforcement": 0,
		"initial_direction": 0.0,
		"ai_move_group": 0,
		"ai_target_move_x": -1,
		"ai_target_move_y": -1,
		"ai_skill_function": "",
		"ai_attack": "IF( turn <=3 ,IF(panel_move_distance <= 2, 1, 0),1)",
		"ai_move": "IF(turn <=3,0,1)",
		"ai_heal": "",
		"ai_skill": "",
		"ai_use": "",
		"skill_group_id": 1280,
		"gear_GearGear": 44003,
		"gear_rank": 1,
		"proficiency_UnitProficiency": 4,
		"level": 56,
		"hp": 70,
		"strength": 54,
		"vitality": 40,
		"intelligence": 0,
		"mind": 11,
		"agility": 25,
		"dexterity": 47,
		"lucky": 3,
		"parameter_table_BattleEnemyParameterTable": 0,
		"parameter_deviation_table_BattleEnemyParameterDeviationTable": 0,
		"acquire_skill_group_id": 0,
		"level_correction": 0,
		"group_id": 0,
		"ai_script_id_BattleAIScript": 0
	},
	{
		"ID": 17277,
		"stage_BattleStage": 150025006,
		"unit_UnitUnit": 840008,
		"money": 285,
		"initial_coordinate_x": 12,
		"initial_coordinate_y": 2,
		"reinforcement_BattleReinforcement": 0,
		"initial_direction": 0.0,
		"ai_move_group": 0,
		"ai_target_move_x": -1,
		"ai_target_move_y": -1,
		"ai_skill_function": "",
		"ai_attack": "IF( turn <=3 ,IF(panel_move_distance <= 2, 1, 0),1)",
		"ai_move": "IF(turn <=3,0,1)",
		"ai_heal": "",
		"ai_skill": "",
		"ai_use": "",
		"skill_group_id": 1280,
		"gear_GearGear": 44003,
		"gear_rank": 1,
		"proficiency_UnitProficiency": 4,
		"level": 57,
		"hp": 71,
		"strength": 55,
		"vitality": 41,
		"intelligence": 0,
		"mind": 12,
		"agility": 26,
		"dexterity": 48,
		"lucky": 3,
		"parameter_table_BattleEnemyParameterTable": 0,
		"parameter_deviation_table_BattleEnemyParameterDeviationTable": 0,
		"acquire_skill_group_id": 0,
		"level_correction": 0,
		"group_id": 0,
		"ai_script_id_BattleAIScript": 0
	},
	{
		"ID": 17278,
		"stage_BattleStage": 150025006,
		"unit_UnitUnit": 840008,
		"money": 290,
		"initial_coordinate_x": 10,
		"initial_coordinate_y": 3,
		"reinforcement_BattleReinforcement": 0,
		"initial_direction": 90.0,
		"ai_move_group": 0,
		"ai_target_move_x": -1,
		"ai_target_move_y": -1,
		"ai_skill_function": "",
		"ai_attack": "",
		"ai_move": "",
		"ai_heal": "",
		"ai_skill": "",
		"ai_use": "",
		"skill_group_id": 1280,
		"gear_GearGear": 44003,
		"gear_rank": 1,
		"proficiency_UnitProficiency": 4,
		"level": 58,
		"hp": 72,
		"strength": 56,
		"vitality": 42,
		"intelligence": 0,
		"mind": 12,
		"agility": 26,
		"dexterity": 48,
		"lucky": 3,
		"parameter_table_BattleEnemyParameterTable": 0,
		"parameter_deviation_table_BattleEnemyParameterDeviationTable": 0,
		"acquire_skill_group_id": 0,
		"level_correction": 0,
		"group_id": 0,
		"ai_script_id_BattleAIScript": 0
	},
	{
		"ID": 17279,
		"stage_BattleStage": 150025006,
		"unit_UnitUnit": 840008,
		"money": 295,
		"initial_coordinate_x": 10,
		"initial_coordinate_y": 4,
		"reinforcement_BattleReinforcement": 0,
		"initial_direction": 90.0,
		"ai_move_group": 0,
		"ai_target_move_x": -1,
		"ai_target_move_y": -1,
		"ai_skill_function": "",
		"ai_attack": "",
		"ai_move": "",
		"ai_heal": "",
		"ai_skill": "",
		"ai_use": "",
		"skill_group_id": 1280,
		"gear_GearGear": 44003,
		"gear_rank": 1,
		"proficiency_UnitProficiency": 4,
		"level": 59,
		"hp": 73,
		"strength": 57,
		"vitality": 42,
		"intelligence": 0,
		"mind": 12,
		"agility": 26,
		"dexterity": 49,
		"lucky": 3,
		"parameter_table_BattleEnemyParameterTable": 0,
		"parameter_deviation_table_BattleEnemyParameterDeviationTable": 0,
		"acquire_skill_group_id": 0,
		"level_correction": 0,
		"group_id": 0,
		"ai_script_id_BattleAIScript": 0
	},
	{
		"ID": 17280,
		"stage_BattleStage": 150025006,
		"unit_UnitUnit": 840008,
		"money": 290,
		"initial_coordinate_x": 9,
		"initial_coordinate_y": 5,
		"reinforcement_BattleReinforcement": 0,
		"initial_direction": 90.0,
		"ai_move_group": 0,
		"ai_target_move_x": -1,
		"ai_target_move_y": -1,
		"ai_skill_function": "",
		"ai_attack": "",
		"ai_move": "",
		"ai_heal": "",
		"ai_skill": "",
		"ai_use": "",
		"skill_group_id": 1280,
		"gear_GearGear": 44003,
		"gear_rank": 1,
		"proficiency_UnitProficiency": 4,
		"level": 58,
		"hp": 72,
		"strength": 56,
		"vitality": 42,
		"intelligence": 0,
		"mind": 12,
		"agility": 26,
		"dexterity": 48,
		"lucky": 3,
		"parameter_table_BattleEnemyParameterTable": 0,
		"parameter_deviation_table_BattleEnemyParameterDeviationTable": 0,
		"acquire_skill_group_id": 0,
		"level_correction": 0,
		"group_id": 0,
		"ai_script_id_BattleAIScript": 0
	},
	{
		"ID": 17281,
		"stage_BattleStage": 150025006,
		"unit_UnitUnit": 840008,
		"money": 295,
		"initial_coordinate_x": 8,
		"initial_coordinate_y": 6,
		"reinforcement_BattleReinforcement": 0,
		"initial_direction": 90.0,
		"ai_move_group": 0,
		"ai_target_move_x": -1,
		"ai_target_move_y": -1,
		"ai_skill_function": "",
		"ai_attack": "",
		"ai_move": "",
		"ai_heal": "",
		"ai_skill": "",
		"ai_use": "",
		"skill_group_id": 1280,
		"gear_GearGear": 44003,
		"gear_rank": 1,
		"proficiency_UnitProficiency": 4,
		"level": 59,
		"hp": 73,
		"strength": 57,
		"vitality": 42,
		"intelligence": 0,
		"mind": 12,
		"agility": 26,
		"dexterity": 49,
		"lucky": 3,
		"parameter_table_BattleEnemyParameterTable": 0,
		"parameter_deviation_table_BattleEnemyParameterDeviationTable": 0,
		"acquire_skill_group_id": 0,
		"level_correction": 0,
		"group_id": 0,
		"ai_script_id_BattleAIScript": 0
	},
	{
		"ID": 17282,
		"stage_BattleStage": 150025006,
		"unit_UnitUnit": 840008,
		"money": 290,
		"initial_coordinate_x": 7,
		"initial_coordinate_y": 7,
		"reinforcement_BattleReinforcement": 0,
		"initial_direction": 90.0,
		"ai_move_group": 0,
		"ai_target_move_x": -1,
		"ai_target_move_y": -1,
		"ai_skill_function": "",
		"ai_attack": "",
		"ai_move": "",
		"ai_heal": "",
		"ai_skill": "",
		"ai_use": "",
		"skill_group_id": 1280,
		"gear_GearGear": 44003,
		"gear_rank": 1,
		"proficiency_UnitProficiency": 4,
		"level": 58,
		"hp": 72,
		"strength": 56,
		"vitality": 42,
		"intelligence": 0,
		"mind": 12,
		"agility": 26,
		"dexterity": 48,
		"lucky": 3,
		"parameter_table_BattleEnemyParameterTable": 0,
		"parameter_deviation_table_BattleEnemyParameterDeviationTable": 0,
		"acquire_skill_group_id": 0,
		"level_correction": 0,
		"group_id": 0,
		"ai_script_id_BattleAIScript": 0
	},
	{
		"ID": 17283,
		"stage_BattleStage": 150025006,
		"unit_UnitUnit": 840008,
		"money": 285,
		"initial_coordinate_x": 7,
		"initial_coordinate_y": 8,
		"reinforcement_BattleReinforcement": 0,
		"initial_direction": 90.0,
		"ai_move_group": 0,
		"ai_target_move_x": -1,
		"ai_target_move_y": -1,
		"ai_skill_function": "",
		"ai_attack": "",
		"ai_move": "",
		"ai_heal": "",
		"ai_skill": "",
		"ai_use": "",
		"skill_group_id": 1280,
		"gear_GearGear": 44003,
		"gear_rank": 1,
		"proficiency_UnitProficiency": 4,
		"level": 57,
		"hp": 71,
		"strength": 55,
		"vitality": 41,
		"intelligence": 0,
		"mind": 12,
		"agility": 26,
		"dexterity": 48,
		"lucky": 3,
		"parameter_table_BattleEnemyParameterTable": 0,
		"parameter_deviation_table_BattleEnemyParameterDeviationTable": 0,
		"acquire_skill_group_id": 0,
		"level_correction": 0,
		"group_id": 0,
		"ai_script_id_BattleAIScript": 0
	},
	{
		"ID": 17284,
		"stage_BattleStage": 150025006,
		"unit_UnitUnit": 840008,
		"money": 280,
		"initial_coordinate_x": 6,
		"initial_coordinate_y": 9,
		"reinforcement_BattleReinforcement": 0,
		"initial_direction": 90.0,
		"ai_move_group": 0,
		"ai_target_move_x": -1,
		"ai_target_move_y": -1,
		"ai_skill_function": "",
		"ai_attack": "",
		"ai_move": "",
		"ai_heal": "",
		"ai_skill": "",
		"ai_use": "",
		"skill_group_id": 1280,
		"gear_GearGear": 45001,
		"gear_rank": 1,
		"proficiency_UnitProficiency": 5,
		"level": 56,
		"hp": 70,
		"strength": 54,
		"vitality": 40,
		"intelligence": 0,
		"mind": 11,
		"agility": 25,
		"dexterity": 47,
		"lucky": 3,
		"parameter_table_BattleEnemyParameterTable": 0,
		"parameter_deviation_table_BattleEnemyParameterDeviationTable": 0,
		"acquire_skill_group_id": 0,
		"level_correction": 0,
		"group_id": 0,
		"ai_script_id_BattleAIScript": 0
	},
	{
		"ID": 17285,
		"stage_BattleStage": 150025006,
		"unit_UnitUnit": 840008,
		"money": 275,
		"initial_coordinate_x": 14,
		"initial_coordinate_y": 1,
		"reinforcement_BattleReinforcement": 3,
		"initial_direction": 0.0,
		"ai_move_group": 0,
		"ai_target_move_x": -1,
		"ai_target_move_y": -1,
		"ai_skill_function": "",
		"ai_attack": "",
		"ai_move": "",
		"ai_heal": "",
		"ai_skill": "",
		"ai_use": "",
		"skill_group_id": 1280,
		"gear_GearGear": 45001,
		"gear_rank": 1,
		"proficiency_UnitProficiency": 5,
		"level": 55,
		"hp": 70,
		"strength": 53,
		"vitality": 40,
		"intelligence": 0,
		"mind": 11,
		"agility": 25,
		"dexterity": 46,
		"lucky": 3,
		"parameter_table_BattleEnemyParameterTable": 0,
		"parameter_deviation_table_BattleEnemyParameterDeviationTable": 0,
		"acquire_skill_group_id": 0,
		"level_correction": 0,
		"group_id": 0,
		"ai_script_id_BattleAIScript": 0
	},
	{
		"ID": 17286,
		"stage_BattleStage": 150025006,
		"unit_UnitUnit": 840008,
		"money": 270,
		"initial_coordinate_x": 13,
		"initial_coordinate_y": 1,
		"reinforcement_BattleReinforcement": 3,
		"initial_direction": 0.0,
		"ai_move_group": 0,
		"ai_target_move_x": -1,
		"ai_target_move_y": -1,
		"ai_skill_function": "",
		"ai_attack": "",
		"ai_move": "",
		"ai_heal": "",
		"ai_skill": "",
		"ai_use": "",
		"skill_group_id": 1280,
		"gear_GearGear": 45001,
		"gear_rank": 1,
		"proficiency_UnitProficiency": 5,
		"level": 54,
		"hp": 69,
		"strength": 53,
		"vitality": 39,
		"intelligence": 0,
		"mind": 11,
		"agility": 24,
		"dexterity": 45,
		"lucky": 3,
		"parameter_table_BattleEnemyParameterTable": 0,
		"parameter_deviation_table_BattleEnemyParameterDeviationTable": 0,
		"acquire_skill_group_id": 0,
		"level_correction": 0,
		"group_id": 0,
		"ai_script_id_BattleAIScript": 0
	},
	{
		"ID": 17287,
		"stage_BattleStage": 150025006,
		"unit_UnitUnit": 840008,
		"money": 265,
		"initial_coordinate_x": 10,
		"initial_coordinate_y": 1,
		"reinforcement_BattleReinforcement": 3,
		"initial_direction": 0.0,
		"ai_move_group": 0,
		"ai_target_move_x": -1,
		"ai_target_move_y": -1,
		"ai_skill_function": "",
		"ai_attack": "",
		"ai_move": "",
		"ai_heal": "",
		"ai_skill": "",
		"ai_use": "",
		"skill_group_id": 1280,
		"gear_GearGear": 45001,
		"gear_rank": 1,
		"proficiency_UnitProficiency": 5,
		"level": 53,
		"hp": 68,
		"strength": 52,
		"vitality": 39,
		"intelligence": 0,
		"mind": 11,
		"agility": 24,
		"dexterity": 45,
		"lucky": 3,
		"parameter_table_BattleEnemyParameterTable": 0,
		"parameter_deviation_table_BattleEnemyParameterDeviationTable": 0,
		"acquire_skill_group_id": 0,
		"level_correction": 0,
		"group_id": 0,
		"ai_script_id_BattleAIScript": 0
	},
	{
		"ID": 17288,
		"stage_BattleStage": 150025006,
		"unit_UnitUnit": 840008,
		"money": 260,
		"initial_coordinate_x": 9,
		"initial_coordinate_y": 1,
		"reinforcement_BattleReinforcement": 3,
		"initial_direction": 0.0,
		"ai_move_group": 0,
		"ai_target_move_x": -1,
		"ai_target_move_y": -1,
		"ai_skill_function": "",
		"ai_attack": "",
		"ai_move": "",
		"ai_heal": "",
		"ai_skill": "",
		"ai_use": "",
		"skill_group_id": 1280,
		"gear_GearGear": 45001,
		"gear_rank": 1,
		"proficiency_UnitProficiency": 5,
		"level": 52,
		"hp": 67,
		"strength": 51,
		"vitality": 38,
		"intelligence": 0,
		"mind": 11,
		"agility": 23,
		"dexterity": 44,
		"lucky": 3,
		"parameter_table_BattleEnemyParameterTable": 0,
		"parameter_deviation_table_BattleEnemyParameterDeviationTable": 0,
		"acquire_skill_group_id": 0,
		"level_correction": 0,
		"group_id": 0,
		"ai_script_id_BattleAIScript": 0
	},
	{
		"ID": 17289,
		"stage_BattleStage": 150025006,
		"unit_UnitUnit": 840008,
		"money": 265,
		"initial_coordinate_x": 6,
		"initial_coordinate_y": 1,
		"reinforcement_BattleReinforcement": 3,
		"initial_direction": 0.0,
		"ai_move_group": 0,
		"ai_target_move_x": -1,
		"ai_target_move_y": -1,
		"ai_skill_function": "",
		"ai_attack": "",
		"ai_move": "",
		"ai_heal": "",
		"ai_skill": "",
		"ai_use": "",
		"skill_group_id": 1280,
		"gear_GearGear": 45001,
		"gear_rank": 1,
		"proficiency_UnitProficiency": 5,
		"level": 53,
		"hp": 68,
		"strength": 52,
		"vitality": 39,
		"intelligence": 0,
		"mind": 11,
		"agility": 24,
		"dexterity": 45,
		"lucky": 3,
		"parameter_table_BattleEnemyParameterTable": 0,
		"parameter_deviation_table_BattleEnemyParameterDeviationTable": 0,
		"acquire_skill_group_id": 0,
		"level_correction": 0,
		"group_id": 0,
		"ai_script_id_BattleAIScript": 0
	},
	{
		"ID": 17290,
		"stage_BattleStage": 150025006,
		"unit_UnitUnit": 840008,
		"money": 270,
		"initial_coordinate_x": 5,
		"initial_coordinate_y": 1,
		"reinforcement_BattleReinforcement": 3,
		"initial_direction": 0.0,
		"ai_move_group": 0,
		"ai_target_move_x": -1,
		"ai_target_move_y": -1,
		"ai_skill_function": "",
		"ai_attack": "",
		"ai_move": "",
		"ai_heal": "",
		"ai_skill": "",
		"ai_use": "",
		"skill_group_id": 1280,
		"gear_GearGear": 45001,
		"gear_rank": 1,
		"proficiency_UnitProficiency": 5,
		"level": 54,
		"hp": 69,
		"strength": 53,
		"vitality": 39,
		"intelligence": 0,
		"mind": 11,
		"agility": 24,
		"dexterity": 45,
		"lucky": 3,
		"parameter_table_BattleEnemyParameterTable": 0,
		"parameter_deviation_table_BattleEnemyParameterDeviationTable": 0,
		"acquire_skill_group_id": 0,
		"level_correction": 0,
		"group_id": 0,
		"ai_script_id_BattleAIScript": 0
	},
	{
		"ID": 17291,
		"stage_BattleStage": 150025006,
		"unit_UnitUnit": 840008,
		"money": 275,
		"initial_coordinate_x": 1,
		"initial_coordinate_y": 3,
		"reinforcement_BattleReinforcement": 2,
		"initial_direction": 90.0,
		"ai_move_group": 0,
		"ai_target_move_x": -1,
		"ai_target_move_y": -1,
		"ai_skill_function": "",
		"ai_attack": "",
		"ai_move": "",
		"ai_heal": "",
		"ai_skill": "",
		"ai_use": "",
		"skill_group_id": 1280,
		"gear_GearGear": 45001,
		"gear_rank": 1,
		"proficiency_UnitProficiency": 5,
		"level": 55,
		"hp": 70,
		"strength": 53,
		"vitality": 40,
		"intelligence": 0,
		"mind": 11,
		"agility": 25,
		"dexterity": 46,
		"lucky": 3,
		"parameter_table_BattleEnemyParameterTable": 0,
		"parameter_deviation_table_BattleEnemyParameterDeviationTable": 0,
		"acquire_skill_group_id": 0,
		"level_correction": 0,
		"group_id": 0,
		"ai_script_id_BattleAIScript": 0
	},
	{
		"ID": 17292,
		"stage_BattleStage": 150025006,
		"unit_UnitUnit": 840008,
		"money": 280,
		"initial_coordinate_x": 1,
		"initial_coordinate_y": 4,
		"reinforcement_BattleReinforcement": 2,
		"initial_direction": 90.0,
		"ai_move_group": 0,
		"ai_target_move_x": -1,
		"ai_target_move_y": -1,
		"ai_skill_function": "",
		"ai_attack": "",
		"ai_move": "",
		"ai_heal": "",
		"ai_skill": "",
		"ai_use": "",
		"skill_group_id": 1280,
		"gear_GearGear": 45001,
		"gear_rank": 1,
		"proficiency_UnitProficiency": 5,
		"level": 56,
		"hp": 70,
		"strength": 54,
		"vitality": 40,
		"intelligence": 0,
		"mind": 11,
		"agility": 25,
		"dexterity": 47,
		"lucky": 3,
		"parameter_table_BattleEnemyParameterTable": 0,
		"parameter_deviation_table_BattleEnemyParameterDeviationTable": 0,
		"acquire_skill_group_id": 0,
		"level_correction": 0,
		"group_id": 0,
		"ai_script_id_BattleAIScript": 0
	},
	{
		"ID": 17293,
		"stage_BattleStage": 150025006,
		"unit_UnitUnit": 840008,
		"money": 285,
		"initial_coordinate_x": 14,
		"initial_coordinate_y": 1,
		"reinforcement_BattleReinforcement": 4,
		"initial_direction": 0.0,
		"ai_move_group": 0,
		"ai_target_move_x": -1,
		"ai_target_move_y": -1,
		"ai_skill_function": "",
		"ai_attack": "",
		"ai_move": "",
		"ai_heal": "",
		"ai_skill": "",
		"ai_use": "",
		"skill_group_id": 1280,
		"gear_GearGear": 45001,
		"gear_rank": 1,
		"proficiency_UnitProficiency": 5,
		"level": 57,
		"hp": 71,
		"strength": 55,
		"vitality": 41,
		"intelligence": 0,
		"mind": 12,
		"agility": 26,
		"dexterity": 48,
		"lucky": 3,
		"parameter_table_BattleEnemyParameterTable": 0,
		"parameter_deviation_table_BattleEnemyParameterDeviationTable": 0,
		"acquire_skill_group_id": 0,
		"level_correction": 0,
		"group_id": 0,
		"ai_script_id_BattleAIScript": 0
	},
	{
		"ID": 17294,
		"stage_BattleStage": 150025006,
		"unit_UnitUnit": 840008,
		"money": 290,
		"initial_coordinate_x": 13,
		"initial_coordinate_y": 1,
		"reinforcement_BattleReinforcement": 4,
		"initial_direction": 0.0,
		"ai_move_group": 0,
		"ai_target_move_x": -1,
		"ai_target_move_y": -1,
		"ai_skill_function": "",
		"ai_attack": "",
		"ai_move": "",
		"ai_heal": "",
		"ai_skill": "",
		"ai_use": "",
		"skill_group_id": 1280,
		"gear_GearGear": 45001,
		"gear_rank": 1,
		"proficiency_UnitProficiency": 5,
		"level": 58,
		"hp": 72,
		"strength": 56,
		"vitality": 42,
		"intelligence": 0,
		"mind": 12,
		"agility": 26,
		"dexterity": 48,
		"lucky": 3,
		"parameter_table_BattleEnemyParameterTable": 0,
		"parameter_deviation_table_BattleEnemyParameterDeviationTable": 0,
		"acquire_skill_group_id": 0,
		"level_correction": 0,
		"group_id": 0,
		"ai_script_id_BattleAIScript": 0
	},
	{
		"ID": 17295,
		"stage_BattleStage": 150025006,
		"unit_UnitUnit": 840008,
		"money": 295,
		"initial_coordinate_x": 10,
		"initial_coordinate_y": 1,
		"reinforcement_BattleReinforcement": 4,
		"initial_direction": 0.0,
		"ai_move_group": 0,
		"ai_target_move_x": -1,
		"ai_target_move_y": -1,
		"ai_skill_function": "",
		"ai_attack": "",
		"ai_move": "",
		"ai_heal": "",
		"ai_skill": "",
		"ai_use": "",
		"skill_group_id": 1280,
		"gear_GearGear": 45001,
		"gear_rank": 1,
		"proficiency_UnitProficiency": 5,
		"level": 59,
		"hp": 73,
		"strength": 57,
		"vitality": 42,
		"intelligence": 0,
		"mind": 12,
		"agility": 26,
		"dexterity": 49,
		"lucky": 3,
		"parameter_table_BattleEnemyParameterTable": 0,
		"parameter_deviation_table_BattleEnemyParameterDeviationTable": 0,
		"acquire_skill_group_id": 0,
		"level_correction": 0,
		"group_id": 0,
		"ai_script_id_BattleAIScript": 0
	},
	{
		"ID": 17296,
		"stage_BattleStage": 150025006,
		"unit_UnitUnit": 840008,
		"money": 290,
		"initial_coordinate_x": 9,
		"initial_coordinate_y": 1,
		"reinforcement_BattleReinforcement": 4,
		"initial_direction": 0.0,
		"ai_move_group": 0,
		"ai_target_move_x": -1,
		"ai_target_move_y": -1,
		"ai_skill_function": "",
		"ai_attack": "",
		"ai_move": "",
		"ai_heal": "",
		"ai_skill": "",
		"ai_use": "",
		"skill_group_id": 1280,
		"gear_GearGear": 45001,
		"gear_rank": 1,
		"proficiency_UnitProficiency": 5,
		"level": 58,
		"hp": 72,
		"strength": 56,
		"vitality": 42,
		"intelligence": 0,
		"mind": 12,
		"agility": 26,
		"dexterity": 48,
		"lucky": 3,
		"parameter_table_BattleEnemyParameterTable": 0,
		"parameter_deviation_table_BattleEnemyParameterDeviationTable": 0,
		"acquire_skill_group_id": 0,
		"level_correction": 0,
		"group_id": 0,
		"ai_script_id_BattleAIScript": 0
	},
	{
		"ID": 17297,
		"stage_BattleStage": 150025006,
		"unit_UnitUnit": 840008,
		"money": 295,
		"initial_coordinate_x": 6,
		"initial_coordinate_y": 1,
		"reinforcement_BattleReinforcement": 4,
		"initial_direction": 0.0,
		"ai_move_group": 0,
		"ai_target_move_x": -1,
		"ai_target_move_y": -1,
		"ai_skill_function": "",
		"ai_attack": "",
		"ai_move": "",
		"ai_heal": "",
		"ai_skill": "",
		"ai_use": "",
		"skill_group_id": 1280,
		"gear_GearGear": 45001,
		"gear_rank": 1,
		"proficiency_UnitProficiency": 5,
		"level": 59,
		"hp": 73,
		"strength": 57,
		"vitality": 42,
		"intelligence": 0,
		"mind": 12,
		"agility": 26,
		"dexterity": 49,
		"lucky": 3,
		"parameter_table_BattleEnemyParameterTable": 0,
		"parameter_deviation_table_BattleEnemyParameterDeviationTable": 0,
		"acquire_skill_group_id": 0,
		"level_correction": 0,
		"group_id": 0,
		"ai_script_id_BattleAIScript": 0
	},
	{
		"ID": 17298,
		"stage_BattleStage": 150025006,
		"unit_UnitUnit": 840008,
		"money": 290,
		"initial_coordinate_x": 5,
		"initial_coordinate_y": 1,
		"reinforcement_BattleReinforcement": 4,
		"initial_direction": 0.0,
		"ai_move_group": 0,
		"ai_target_move_x": -1,
		"ai_target_move_y": -1,
		"ai_skill_function": "",
		"ai_attack": "",
		"ai_move": "",
		"ai_heal": "",
		"ai_skill": "",
		"ai_use": "",
		"skill_group_id": 1280,
		"gear_GearGear": 45001,
		"gear_rank": 1,
		"proficiency_UnitProficiency": 5,
		"level": 58,
		"hp": 72,
		"strength": 56,
		"vitality": 42,
		"intelligence": 0,
		"mind": 12,
		"agility": 26,
		"dexterity": 48,
		"lucky": 3,
		"parameter_table_BattleEnemyParameterTable": 0,
		"parameter_deviation_table_BattleEnemyParameterDeviationTable": 0,
		"acquire_skill_group_id": 0,
		"level_correction": 0,
		"group_id": 0,
		"ai_script_id_BattleAIScript": 0
	},
	{
		"ID": 17299,
		"stage_BattleStage": 150025006,
		"unit_UnitUnit": 840008,
		"money": 285,
		"initial_coordinate_x": 1,
		"initial_coordinate_y": 3,
		"reinforcement_BattleReinforcement": 3,
		"initial_direction": 90.0,
		"ai_move_group": 0,
		"ai_target_move_x": -1,
		"ai_target_move_y": -1,
		"ai_skill_function": "",
		"ai_attack": "",
		"ai_move": "",
		"ai_heal": "",
		"ai_skill": "",
		"ai_use": "",
		"skill_group_id": 1280,
		"gear_GearGear": 45001,
		"gear_rank": 1,
		"proficiency_UnitProficiency": 5,
		"level": 57,
		"hp": 71,
		"strength": 55,
		"vitality": 41,
		"intelligence": 0,
		"mind": 12,
		"agility": 26,
		"dexterity": 48,
		"lucky": 3,
		"parameter_table_BattleEnemyParameterTable": 0,
		"parameter_deviation_table_BattleEnemyParameterDeviationTable": 0,
		"acquire_skill_group_id": 0,
		"level_correction": 0,
		"group_id": 0,
		"ai_script_id_BattleAIScript": 0
	},
	{
		"ID": 17300,
		"stage_BattleStage": 150025006,
		"unit_UnitUnit": 840008,
		"money": 280,
		"initial_coordinate_x": 1,
		"initial_coordinate_y": 4,
		"reinforcement_BattleReinforcement": 3,
		"initial_direction": 90.0,
		"ai_move_group": 0,
		"ai_target_move_x": -1,
		"ai_target_move_y": -1,
		"ai_skill_function": "",
		"ai_attack": "",
		"ai_move": "",
		"ai_heal": "",
		"ai_skill": "",
		"ai_use": "",
		"skill_group_id": 1280,
		"gear_GearGear": 45001,
		"gear_rank": 1,
		"proficiency_UnitProficiency": 5,
		"level": 56,
		"hp": 70,
		"strength": 54,
		"vitality": 40,
		"intelligence": 0,
		"mind": 11,
		"agility": 25,
		"dexterity": 47,
		"lucky": 3,
		"parameter_table_BattleEnemyParameterTable": 0,
		"parameter_deviation_table_BattleEnemyParameterDeviationTable": 0,
		"acquire_skill_group_id": 0,
		"level_correction": 0,
		"group_id": 0,
		"ai_script_id_BattleAIScript": 0
	},
	{
		"ID": 17301,
		"stage_BattleStage": 150025006,
		"unit_UnitUnit": 840008,
		"money": 275,
		"initial_coordinate_x": 10,
		"initial_coordinate_y": 1,
		"reinforcement_BattleReinforcement": 5,
		"initial_direction": 0.0,
		"ai_move_group": 0,
		"ai_target_move_x": -1,
		"ai_target_move_y": -1,
		"ai_skill_function": "",
		"ai_attack": "",
		"ai_move": "",
		"ai_heal": "",
		"ai_skill": "",
		"ai_use": "",
		"skill_group_id": 1280,
		"gear_GearGear": 45001,
		"gear_rank": 1,
		"proficiency_UnitProficiency": 5,
		"level": 55,
		"hp": 70,
		"strength": 53,
		"vitality": 40,
		"intelligence": 0,
		"mind": 11,
		"agility": 25,
		"dexterity": 46,
		"lucky": 3,
		"parameter_table_BattleEnemyParameterTable": 0,
		"parameter_deviation_table_BattleEnemyParameterDeviationTable": 0,
		"acquire_skill_group_id": 0,
		"level_correction": 0,
		"group_id": 0,
		"ai_script_id_BattleAIScript": 0
	},
	{
		"ID": 17302,
		"stage_BattleStage": 150025006,
		"unit_UnitUnit": 840008,
		"money": 270,
		"initial_coordinate_x": 9,
		"initial_coordinate_y": 1,
		"reinforcement_BattleReinforcement": 5,
		"initial_direction": 0.0,
		"ai_move_group": 0,
		"ai_target_move_x": -1,
		"ai_target_move_y": -1,
		"ai_skill_function": "",
		"ai_attack": "",
		"ai_move": "",
		"ai_heal": "",
		"ai_skill": "",
		"ai_use": "",
		"skill_group_id": 1280,
		"gear_GearGear": 45001,
		"gear_rank": 1,
		"proficiency_UnitProficiency": 5,
		"level": 54,
		"hp": 69,
		"strength": 53,
		"vitality": 39,
		"intelligence": 0,
		"mind": 11,
		"agility": 24,
		"dexterity": 45,
		"lucky": 3,
		"parameter_table_BattleEnemyParameterTable": 0,
		"parameter_deviation_table_BattleEnemyParameterDeviationTable": 0,
		"acquire_skill_group_id": 0,
		"level_correction": 0,
		"group_id": 0,
		"ai_script_id_BattleAIScript": 0
	},
	{
		"ID": 17303,
		"stage_BattleStage": 150025006,
		"unit_UnitUnit": 840008,
		"money": 265,
		"initial_coordinate_x": 6,
		"initial_coordinate_y": 1,
		"reinforcement_BattleReinforcement": 5,
		"initial_direction": 0.0,
		"ai_move_group": 0,
		"ai_target_move_x": -1,
		"ai_target_move_y": -1,
		"ai_skill_function": "",
		"ai_attack": "",
		"ai_move": "",
		"ai_heal": "",
		"ai_skill": "",
		"ai_use": "",
		"skill_group_id": 1280,
		"gear_GearGear": 45001,
		"gear_rank": 1,
		"proficiency_UnitProficiency": 5,
		"level": 53,
		"hp": 68,
		"strength": 52,
		"vitality": 39,
		"intelligence": 0,
		"mind": 11,
		"agility": 24,
		"dexterity": 45,
		"lucky": 3,
		"parameter_table_BattleEnemyParameterTable": 0,
		"parameter_deviation_table_BattleEnemyParameterDeviationTable": 0,
		"acquire_skill_group_id": 0,
		"level_correction": 0,
		"group_id": 0,
		"ai_script_id_BattleAIScript": 0
	}
]