[
	{
		"ID": 36906,
		"stage_BattleStage": 170034002,
		"unit_UnitUnit": 820003,
		"money": 195,
		"initial_coordinate_x": 2,
		"initial_coordinate_y": 8,
		"reinforcement_BattleReinforcement": 0,
		"initial_direction": 180.0,
		"ai_move_group": 0,
		"ai_target_move_x": -1,
		"ai_target_move_y": -1,
		"ai_skill_function": "",
		"ai_attack": "",
		"ai_move": "",
		"ai_heal": "",
		"ai_skill": "",
		"ai_use": "",
		"skill_group_id": 11140,
		"gear_GearGear": 24003,
		"gear_rank": 1,
		"proficiency_UnitProficiency": 4,
		"level": 65,
		"hp": 86,
		"strength": 90,
		"vitality": 85,
		"intelligence": 6,
		"mind": 26,
		"agility": 49,
		"dexterity": 84,
		"lucky": 6,
		"parameter_table_BattleEnemyParameterTable": 0,
		"parameter_deviation_table_BattleEnemyParameterDeviationTable": 0,
		"acquire_skill_group_id": 0,
		"level_correction": 0,
		"group_id": 0,
		"ai_script_id_BattleAIScript": 0
	},
	{
		"ID": 36907,
		"stage_BattleStage": 170034002,
		"unit_UnitUnit": 820003,
		"money": 198,
		"initial_coordinate_x": 3,
		"initial_coordinate_y": 8,
		"reinforcement_BattleReinforcement": 0,
		"initial_direction": 180.0,
		"ai_move_group": 0,
		"ai_target_move_x": -1,
		"ai_target_move_y": -1,
		"ai_skill_function": "",
		"ai_attack": "",
		"ai_move": "",
		"ai_heal": "",
		"ai_skill": "",
		"ai_use": "",
		"skill_group_id": 11140,
		"gear_GearGear": 24003,
		"gear_rank": 1,
		"proficiency_UnitProficiency": 4,
		"level": 66,
		"hp": 87,
		"strength": 91,
		"vitality": 86,
		"intelligence": 6,
		"mind": 26,
		"agility": 50,
		"dexterity": 85,
		"lucky": 6,
		"parameter_table_BattleEnemyParameterTable": 0,
		"parameter_deviation_table_BattleEnemyParameterDeviationTable": 0,
		"acquire_skill_group_id": 0,
		"level_correction": 0,
		"group_id": 0,
		"ai_script_id_BattleAIScript": 0
	},
	{
		"ID": 36908,
		"stage_BattleStage": 170034002,
		"unit_UnitUnit": 820003,
		"money": 201,
		"initial_coordinate_x": 4,
		"initial_coordinate_y": 8,
		"reinforcement_BattleReinforcement": 0,
		"initial_direction": 180.0,
		"ai_move_group": 0,
		"ai_target_move_x": -1,
		"ai_target_move_y": -1,
		"ai_skill_function": "",
		"ai_attack": "",
		"ai_move": "",
		"ai_heal": "",
		"ai_skill": "",
		"ai_use": "",
		"skill_group_id": 11140,
		"gear_GearGear": 24003,
		"gear_rank": 1,
		"proficiency_UnitProficiency": 4,
		"level": 67,
		"hp": 88,
		"strength": 93,
		"vitality": 87,
		"intelligence": 6,
		"mind": 26,
		"agility": 50,
		"dexterity": 86,
		"lucky": 6,
		"parameter_table_BattleEnemyParameterTable": 0,
		"parameter_deviation_table_BattleEnemyParameterDeviationTable": 0,
		"acquire_skill_group_id": 0,
		"level_correction": 0,
		"group_id": 0,
		"ai_script_id_BattleAIScript": 0
	},
	{
		"ID": 36909,
		"stage_BattleStage": 170034002,
		"unit_UnitUnit": 820003,
		"money": 204,
		"initial_coordinate_x": 8,
		"initial_coordinate_y": 4,
		"reinforcement_BattleReinforcement": 0,
		"initial_direction": 270.0,
		"ai_move_group": 0,
		"ai_target_move_x": -1,
		"ai_target_move_y": -1,
		"ai_skill_function": "",
		"ai_attack": "",
		"ai_move": "",
		"ai_heal": "",
		"ai_skill": "",
		"ai_use": "",
		"skill_group_id": 11140,
		"gear_GearGear": 24003,
		"gear_rank": 1,
		"proficiency_UnitProficiency": 4,
		"level": 68,
		"hp": 89,
		"strength": 94,
		"vitality": 88,
		"intelligence": 6,
		"mind": 27,
		"agility": 51,
		"dexterity": 87,
		"lucky": 6,
		"parameter_table_BattleEnemyParameterTable": 0,
		"parameter_deviation_table_BattleEnemyParameterDeviationTable": 0,
		"acquire_skill_group_id": 0,
		"level_correction": 0,
		"group_id": 0,
		"ai_script_id_BattleAIScript": 0
	},
	{
		"ID": 36910,
		"stage_BattleStage": 170034002,
		"unit_UnitUnit": 820003,
		"money": 207,
		"initial_coordinate_x": 8,
		"initial_coordinate_y": 3,
		"reinforcement_BattleReinforcement": 0,
		"initial_direction": 270.0,
		"ai_move_group": 0,
		"ai_target_move_x": -1,
		"ai_target_move_y": -1,
		"ai_skill_function": "",
		"ai_attack": "",
		"ai_move": "",
		"ai_heal": "",
		"ai_skill": "",
		"ai_use": "",
		"skill_group_id": 11140,
		"gear_GearGear": 24003,
		"gear_rank": 1,
		"proficiency_UnitProficiency": 4,
		"level": 69,
		"hp": 90,
		"strength": 95,
		"vitality": 89,
		"intelligence": 6,
		"mind": 27,
		"agility": 52,
		"dexterity": 88,
		"lucky": 6,
		"parameter_table_BattleEnemyParameterTable": 0,
		"parameter_deviation_table_BattleEnemyParameterDeviationTable": 0,
		"acquire_skill_group_id": 0,
		"level_correction": 0,
		"group_id": 0,
		"ai_script_id_BattleAIScript": 0
	},
	{
		"ID": 36911,
		"stage_BattleStage": 170034002,
		"unit_UnitUnit": 820003,
		"money": 210,
		"initial_coordinate_x": 9,
		"initial_coordinate_y": 3,
		"reinforcement_BattleReinforcement": 0,
		"initial_direction": 270.0,
		"ai_move_group": 0,
		"ai_target_move_x": -1,
		"ai_target_move_y": -1,
		"ai_skill_function": "",
		"ai_attack": "",
		"ai_move": "",
		"ai_heal": "",
		"ai_skill": "",
		"ai_use": "",
		"skill_group_id": 11140,
		"gear_GearGear": 24003,
		"gear_rank": 1,
		"proficiency_UnitProficiency": 4,
		"level": 70,
		"hp": 91,
		"strength": 96,
		"vitality": 90,
		"intelligence": 6,
		"mind": 27,
		"agility": 52,
		"dexterity": 89,
		"lucky": 6,
		"parameter_table_BattleEnemyParameterTable": 0,
		"parameter_deviation_table_BattleEnemyParameterDeviationTable": 0,
		"acquire_skill_group_id": 0,
		"level_correction": 0,
		"group_id": 0,
		"ai_script_id_BattleAIScript": 0
	},
	{
		"ID": 36912,
		"stage_BattleStage": 170034002,
		"unit_UnitUnit": 820003,
		"money": 207,
		"initial_coordinate_x": 10,
		"initial_coordinate_y": 3,
		"reinforcement_BattleReinforcement": 0,
		"initial_direction": 270.0,
		"ai_move_group": 0,
		"ai_target_move_x": -1,
		"ai_target_move_y": -1,
		"ai_skill_function": "",
		"ai_attack": "",
		"ai_move": "",
		"ai_heal": "",
		"ai_skill": "",
		"ai_use": "",
		"skill_group_id": 11140,
		"gear_GearGear": 24003,
		"gear_rank": 1,
		"proficiency_UnitProficiency": 4,
		"level": 69,
		"hp": 90,
		"strength": 95,
		"vitality": 89,
		"intelligence": 6,
		"mind": 27,
		"agility": 52,
		"dexterity": 88,
		"lucky": 6,
		"parameter_table_BattleEnemyParameterTable": 0,
		"parameter_deviation_table_BattleEnemyParameterDeviationTable": 0,
		"acquire_skill_group_id": 0,
		"level_correction": 0,
		"group_id": 0,
		"ai_script_id_BattleAIScript": 0
	},
	{
		"ID": 36913,
		"stage_BattleStage": 170034002,
		"unit_UnitUnit": 820003,
		"money": 204,
		"initial_coordinate_x": 14,
		"initial_coordinate_y": 8,
		"reinforcement_BattleReinforcement": 0,
		"initial_direction": 180.0,
		"ai_move_group": 0,
		"ai_target_move_x": -1,
		"ai_target_move_y": -1,
		"ai_skill_function": "",
		"ai_attack": "",
		"ai_move": "",
		"ai_heal": "",
		"ai_skill": "",
		"ai_use": "",
		"skill_group_id": 11140,
		"gear_GearGear": 24003,
		"gear_rank": 1,
		"proficiency_UnitProficiency": 4,
		"level": 68,
		"hp": 89,
		"strength": 94,
		"vitality": 88,
		"intelligence": 6,
		"mind": 27,
		"agility": 51,
		"dexterity": 87,
		"lucky": 6,
		"parameter_table_BattleEnemyParameterTable": 0,
		"parameter_deviation_table_BattleEnemyParameterDeviationTable": 0,
		"acquire_skill_group_id": 0,
		"level_correction": 0,
		"group_id": 0,
		"ai_script_id_BattleAIScript": 0
	},
	{
		"ID": 36914,
		"stage_BattleStage": 170034002,
		"unit_UnitUnit": 830002,
		"money": 201,
		"initial_coordinate_x": 8,
		"initial_coordinate_y": 8,
		"reinforcement_BattleReinforcement": 0,
		"initial_direction": 180.0,
		"ai_move_group": 0,
		"ai_target_move_x": -1,
		"ai_target_move_y": -1,
		"ai_skill_function": "",
		"ai_attack": "",
		"ai_move": "",
		"ai_heal": "",
		"ai_skill": "",
		"ai_use": "",
		"skill_group_id": 11120,
		"gear_GearGear": 35002,
		"gear_rank": 1,
		"proficiency_UnitProficiency": 5,
		"level": 67,
		"hp": 77,
		"strength": 81,
		"vitality": 76,
		"intelligence": 6,
		"mind": 38,
		"agility": 66,
		"dexterity": 92,
		"lucky": 6,
		"parameter_table_BattleEnemyParameterTable": 0,
		"parameter_deviation_table_BattleEnemyParameterDeviationTable": 0,
		"acquire_skill_group_id": 0,
		"level_correction": 0,
		"group_id": 0,
		"ai_script_id_BattleAIScript": 0
	},
	{
		"ID": 36915,
		"stage_BattleStage": 170034002,
		"unit_UnitUnit": 830002,
		"money": 198,
		"initial_coordinate_x": 15,
		"initial_coordinate_y": 3,
		"reinforcement_BattleReinforcement": 0,
		"initial_direction": 270.0,
		"ai_move_group": 0,
		"ai_target_move_x": -1,
		"ai_target_move_y": -1,
		"ai_skill_function": "",
		"ai_attack": "",
		"ai_move": "",
		"ai_heal": "",
		"ai_skill": "",
		"ai_use": "",
		"skill_group_id": 11120,
		"gear_GearGear": 35002,
		"gear_rank": 1,
		"proficiency_UnitProficiency": 5,
		"level": 66,
		"hp": 76,
		"strength": 80,
		"vitality": 75,
		"intelligence": 6,
		"mind": 37,
		"agility": 66,
		"dexterity": 91,
		"lucky": 6,
		"parameter_table_BattleEnemyParameterTable": 0,
		"parameter_deviation_table_BattleEnemyParameterDeviationTable": 0,
		"acquire_skill_group_id": 0,
		"level_correction": 0,
		"group_id": 0,
		"ai_script_id_BattleAIScript": 0
	},
	{
		"ID": 36916,
		"stage_BattleStage": 170034002,
		"unit_UnitUnit": 830002,
		"money": 195,
		"initial_coordinate_x": 8,
		"initial_coordinate_y": 8,
		"reinforcement_BattleReinforcement": 4,
		"initial_direction": 180.0,
		"ai_move_group": 0,
		"ai_target_move_x": -1,
		"ai_target_move_y": -1,
		"ai_skill_function": "",
		"ai_attack": "",
		"ai_move": "",
		"ai_heal": "",
		"ai_skill": "",
		"ai_use": "",
		"skill_group_id": 11120,
		"gear_GearGear": 35002,
		"gear_rank": 1,
		"proficiency_UnitProficiency": 5,
		"level": 65,
		"hp": 75,
		"strength": 79,
		"vitality": 74,
		"intelligence": 6,
		"mind": 37,
		"agility": 65,
		"dexterity": 90,
		"lucky": 6,
		"parameter_table_BattleEnemyParameterTable": 0,
		"parameter_deviation_table_BattleEnemyParameterDeviationTable": 0,
		"acquire_skill_group_id": 0,
		"level_correction": 0,
		"group_id": 0,
		"ai_script_id_BattleAIScript": 0
	},
	{
		"ID": 36917,
		"stage_BattleStage": 170034002,
		"unit_UnitUnit": 830002,
		"money": 198,
		"initial_coordinate_x": 15,
		"initial_coordinate_y": 3,
		"reinforcement_BattleReinforcement": 4,
		"initial_direction": 270.0,
		"ai_move_group": 0,
		"ai_target_move_x": -1,
		"ai_target_move_y": -1,
		"ai_skill_function": "",
		"ai_attack": "",
		"ai_move": "",
		"ai_heal": "",
		"ai_skill": "",
		"ai_use": "",
		"skill_group_id": 11120,
		"gear_GearGear": 35002,
		"gear_rank": 1,
		"proficiency_UnitProficiency": 5,
		"level": 66,
		"hp": 76,
		"strength": 80,
		"vitality": 75,
		"intelligence": 6,
		"mind": 37,
		"agility": 66,
		"dexterity": 91,
		"lucky": 6,
		"parameter_table_BattleEnemyParameterTable": 0,
		"parameter_deviation_table_BattleEnemyParameterDeviationTable": 0,
		"acquire_skill_group_id": 0,
		"level_correction": 0,
		"group_id": 0,
		"ai_script_id_BattleAIScript": 0
	},
	{
		"ID": 36918,
		"stage_BattleStage": 170034002,
		"unit_UnitUnit": 830002,
		"money": 201,
		"initial_coordinate_x": 8,
		"initial_coordinate_y": 8,
		"reinforcement_BattleReinforcement": 5,
		"initial_direction": 180.0,
		"ai_move_group": 0,
		"ai_target_move_x": -1,
		"ai_target_move_y": -1,
		"ai_skill_function": "",
		"ai_attack": "",
		"ai_move": "",
		"ai_heal": "",
		"ai_skill": "",
		"ai_use": "",
		"skill_group_id": 11120,
		"gear_GearGear": 35002,
		"gear_rank": 1,
		"proficiency_UnitProficiency": 5,
		"level": 67,
		"hp": 77,
		"strength": 81,
		"vitality": 76,
		"intelligence": 6,
		"mind": 38,
		"agility": 66,
		"dexterity": 92,
		"lucky": 6,
		"parameter_table_BattleEnemyParameterTable": 0,
		"parameter_deviation_table_BattleEnemyParameterDeviationTable": 0,
		"acquire_skill_group_id": 0,
		"level_correction": 0,
		"group_id": 0,
		"ai_script_id_BattleAIScript": 0
	},
	{
		"ID": 36919,
		"stage_BattleStage": 170034002,
		"unit_UnitUnit": 830002,
		"money": 204,
		"initial_coordinate_x": 15,
		"initial_coordinate_y": 3,
		"reinforcement_BattleReinforcement": 5,
		"initial_direction": 270.0,
		"ai_move_group": 0,
		"ai_target_move_x": -1,
		"ai_target_move_y": -1,
		"ai_skill_function": "",
		"ai_attack": "",
		"ai_move": "",
		"ai_heal": "",
		"ai_skill": "",
		"ai_use": "",
		"skill_group_id": 11120,
		"gear_GearGear": 35002,
		"gear_rank": 1,
		"proficiency_UnitProficiency": 5,
		"level": 68,
		"hp": 78,
		"strength": 82,
		"vitality": 77,
		"intelligence": 6,
		"mind": 38,
		"agility": 67,
		"dexterity": 93,
		"lucky": 6,
		"parameter_table_BattleEnemyParameterTable": 0,
		"parameter_deviation_table_BattleEnemyParameterDeviationTable": 0,
		"acquire_skill_group_id": 0,
		"level_correction": 0,
		"group_id": 0,
		"ai_script_id_BattleAIScript": 0
	},
	{
		"ID": 36920,
		"stage_BattleStage": 170034002,
		"unit_UnitUnit": 830002,
		"money": 207,
		"initial_coordinate_x": 8,
		"initial_coordinate_y": 8,
		"reinforcement_BattleReinforcement": 6,
		"initial_direction": 180.0,
		"ai_move_group": 0,
		"ai_target_move_x": -1,
		"ai_target_move_y": -1,
		"ai_skill_function": "",
		"ai_attack": "",
		"ai_move": "",
		"ai_heal": "",
		"ai_skill": "",
		"ai_use": "",
		"skill_group_id": 11120,
		"gear_GearGear": 35002,
		"gear_rank": 1,
		"proficiency_UnitProficiency": 5,
		"level": 69,
		"hp": 79,
		"strength": 83,
		"vitality": 78,
		"intelligence": 6,
		"mind": 39,
		"agility": 68,
		"dexterity": 94,
		"lucky": 6,
		"parameter_table_BattleEnemyParameterTable": 0,
		"parameter_deviation_table_BattleEnemyParameterDeviationTable": 0,
		"acquire_skill_group_id": 0,
		"level_correction": 0,
		"group_id": 0,
		"ai_script_id_BattleAIScript": 0
	},
	{
		"ID": 36921,
		"stage_BattleStage": 170034002,
		"unit_UnitUnit": 830002,
		"money": 210,
		"initial_coordinate_x": 15,
		"initial_coordinate_y": 3,
		"reinforcement_BattleReinforcement": 6,
		"initial_direction": 270.0,
		"ai_move_group": 0,
		"ai_target_move_x": -1,
		"ai_target_move_y": -1,
		"ai_skill_function": "",
		"ai_attack": "",
		"ai_move": "",
		"ai_heal": "",
		"ai_skill": "",
		"ai_use": "",
		"skill_group_id": 11120,
		"gear_GearGear": 35002,
		"gear_rank": 1,
		"proficiency_UnitProficiency": 5,
		"level": 70,
		"hp": 79,
		"strength": 84,
		"vitality": 79,
		"intelligence": 6,
		"mind": 39,
		"agility": 69,
		"dexterity": 95,
		"lucky": 6,
		"parameter_table_BattleEnemyParameterTable": 0,
		"parameter_deviation_table_BattleEnemyParameterDeviationTable": 0,
		"acquire_skill_group_id": 0,
		"level_correction": 0,
		"group_id": 0,
		"ai_script_id_BattleAIScript": 0
	},
	{
		"ID": 36922,
		"stage_BattleStage": 170034002,
		"unit_UnitUnit": 860006,
		"money": 207,
		"initial_coordinate_x": 14,
		"initial_coordinate_y": 7,
		"reinforcement_BattleReinforcement": 0,
		"initial_direction": 270.0,
		"ai_move_group": 0,
		"ai_target_move_x": -1,
		"ai_target_move_y": -1,
		"ai_skill_function": "",
		"ai_attack": "",
		"ai_move": "",
		"ai_heal": "",
		"ai_skill": "",
		"ai_use": "",
		"skill_group_id": 513,
		"gear_GearGear": 80010,
		"gear_rank": 1,
		"proficiency_UnitProficiency": 3,
		"level": 69,
		"hp": 64,
		"strength": 17,
		"vitality": 59,
		"intelligence": 69,
		"mind": 60,
		"agility": 61,
		"dexterity": 89,
		"lucky": 6,
		"parameter_table_BattleEnemyParameterTable": 0,
		"parameter_deviation_table_BattleEnemyParameterDeviationTable": 0,
		"acquire_skill_group_id": 0,
		"level_correction": 0,
		"group_id": 0,
		"ai_script_id_BattleAIScript": 0
	},
	{
		"ID": 36923,
		"stage_BattleStage": 170034002,
		"unit_UnitUnit": 860006,
		"money": 204,
		"initial_coordinate_x": 14,
		"initial_coordinate_y": 6,
		"reinforcement_BattleReinforcement": 0,
		"initial_direction": 270.0,
		"ai_move_group": 0,
		"ai_target_move_x": -1,
		"ai_target_move_y": -1,
		"ai_skill_function": "",
		"ai_attack": "",
		"ai_move": "",
		"ai_heal": "",
		"ai_skill": "",
		"ai_use": "",
		"skill_group_id": 524,
		"gear_GearGear": 80010,
		"gear_rank": 1,
		"proficiency_UnitProficiency": 3,
		"level": 68,
		"hp": 64,
		"strength": 17,
		"vitality": 59,
		"intelligence": 68,
		"mind": 59,
		"agility": 60,
		"dexterity": 88,
		"lucky": 6,
		"parameter_table_BattleEnemyParameterTable": 0,
		"parameter_deviation_table_BattleEnemyParameterDeviationTable": 0,
		"acquire_skill_group_id": 0,
		"level_correction": 0,
		"group_id": 0,
		"ai_script_id_BattleAIScript": 0
	},
	{
		"ID": 36924,
		"stage_BattleStage": 170034002,
		"unit_UnitUnit": 860006,
		"money": 201,
		"initial_coordinate_x": 14,
		"initial_coordinate_y": 5,
		"reinforcement_BattleReinforcement": 0,
		"initial_direction": 270.0,
		"ai_move_group": 0,
		"ai_target_move_x": -1,
		"ai_target_move_y": -1,
		"ai_skill_function": "",
		"ai_attack": "",
		"ai_move": "",
		"ai_heal": "",
		"ai_skill": "",
		"ai_use": "",
		"skill_group_id": 532,
		"gear_GearGear": 80010,
		"gear_rank": 1,
		"proficiency_UnitProficiency": 3,
		"level": 67,
		"hp": 63,
		"strength": 16,
		"vitality": 58,
		"intelligence": 67,
		"mind": 58,
		"agility": 60,
		"dexterity": 87,
		"lucky": 6,
		"parameter_table_BattleEnemyParameterTable": 0,
		"parameter_deviation_table_BattleEnemyParameterDeviationTable": 0,
		"acquire_skill_group_id": 0,
		"level_correction": 0,
		"group_id": 0,
		"ai_script_id_BattleAIScript": 0
	},
	{
		"ID": 36925,
		"stage_BattleStage": 170034002,
		"unit_UnitUnit": 860006,
		"money": 198,
		"initial_coordinate_x": 14,
		"initial_coordinate_y": 4,
		"reinforcement_BattleReinforcement": 0,
		"initial_direction": 270.0,
		"ai_move_group": 0,
		"ai_target_move_x": -1,
		"ai_target_move_y": -1,
		"ai_skill_function": "",
		"ai_attack": "",
		"ai_move": "",
		"ai_heal": "",
		"ai_skill": "",
		"ai_use": "",
		"skill_group_id": 541,
		"gear_GearGear": 80010,
		"gear_rank": 1,
		"proficiency_UnitProficiency": 3,
		"level": 66,
		"hp": 63,
		"strength": 16,
		"vitality": 57,
		"intelligence": 66,
		"mind": 58,
		"agility": 59,
		"dexterity": 86,
		"lucky": 6,
		"parameter_table_BattleEnemyParameterTable": 0,
		"parameter_deviation_table_BattleEnemyParameterDeviationTable": 0,
		"acquire_skill_group_id": 0,
		"level_correction": 0,
		"group_id": 0,
		"ai_script_id_BattleAIScript": 0
	},
	{
		"ID": 36926,
		"stage_BattleStage": 170034002,
		"unit_UnitUnit": 860006,
		"money": 195,
		"initial_coordinate_x": 14,
		"initial_coordinate_y": 3,
		"reinforcement_BattleReinforcement": 0,
		"initial_direction": 270.0,
		"ai_move_group": 0,
		"ai_target_move_x": -1,
		"ai_target_move_y": -1,
		"ai_skill_function": "",
		"ai_attack": "",
		"ai_move": "",
		"ai_heal": "",
		"ai_skill": "",
		"ai_use": "",
		"skill_group_id": 513,
		"gear_GearGear": 80010,
		"gear_rank": 1,
		"proficiency_UnitProficiency": 3,
		"level": 65,
		"hp": 62,
		"strength": 16,
		"vitality": 57,
		"intelligence": 65,
		"mind": 57,
		"agility": 58,
		"dexterity": 85,
		"lucky": 6,
		"parameter_table_BattleEnemyParameterTable": 0,
		"parameter_deviation_table_BattleEnemyParameterDeviationTable": 0,
		"acquire_skill_group_id": 0,
		"level_correction": 0,
		"group_id": 0,
		"ai_script_id_BattleAIScript": 0
	},
	{
		"ID": 36927,
		"stage_BattleStage": 170034002,
		"unit_UnitUnit": 860006,
		"money": 198,
		"initial_coordinate_x": 11,
		"initial_coordinate_y": 3,
		"reinforcement_BattleReinforcement": 0,
		"initial_direction": 270.0,
		"ai_move_group": 0,
		"ai_target_move_x": -1,
		"ai_target_move_y": -1,
		"ai_skill_function": "",
		"ai_attack": "",
		"ai_move": "",
		"ai_heal": "",
		"ai_skill": "",
		"ai_use": "",
		"skill_group_id": 524,
		"gear_GearGear": 80010,
		"gear_rank": 1,
		"proficiency_UnitProficiency": 3,
		"level": 66,
		"hp": 63,
		"strength": 16,
		"vitality": 57,
		"intelligence": 66,
		"mind": 58,
		"agility": 59,
		"dexterity": 86,
		"lucky": 6,
		"parameter_table_BattleEnemyParameterTable": 0,
		"parameter_deviation_table_BattleEnemyParameterDeviationTable": 0,
		"acquire_skill_group_id": 0,
		"level_correction": 0,
		"group_id": 0,
		"ai_script_id_BattleAIScript": 0
	},
	{
		"ID": 36928,
		"stage_BattleStage": 170034002,
		"unit_UnitUnit": 860006,
		"money": 201,
		"initial_coordinate_x": 12,
		"initial_coordinate_y": 3,
		"reinforcement_BattleReinforcement": 0,
		"initial_direction": 270.0,
		"ai_move_group": 0,
		"ai_target_move_x": -1,
		"ai_target_move_y": -1,
		"ai_skill_function": "",
		"ai_attack": "",
		"ai_move": "",
		"ai_heal": "",
		"ai_skill": "",
		"ai_use": "",
		"skill_group_id": 532,
		"gear_GearGear": 80010,
		"gear_rank": 1,
		"proficiency_UnitProficiency": 3,
		"level": 67,
		"hp": 63,
		"strength": 16,
		"vitality": 58,
		"intelligence": 67,
		"mind": 58,
		"agility": 60,
		"dexterity": 87,
		"lucky": 6,
		"parameter_table_BattleEnemyParameterTable": 0,
		"parameter_deviation_table_BattleEnemyParameterDeviationTable": 0,
		"acquire_skill_group_id": 0,
		"level_correction": 0,
		"group_id": 0,
		"ai_script_id_BattleAIScript": 0
	},
	{
		"ID": 36929,
		"stage_BattleStage": 170034002,
		"unit_UnitUnit": 860006,
		"money": 204,
		"initial_coordinate_x": 13,
		"initial_coordinate_y": 3,
		"reinforcement_BattleReinforcement": 0,
		"initial_direction": 270.0,
		"ai_move_group": 0,
		"ai_target_move_x": -1,
		"ai_target_move_y": -1,
		"ai_skill_function": "",
		"ai_attack": "",
		"ai_move": "",
		"ai_heal": "",
		"ai_skill": "",
		"ai_use": "",
		"skill_group_id": 541,
		"gear_GearGear": 80010,
		"gear_rank": 1,
		"proficiency_UnitProficiency": 3,
		"level": 68,
		"hp": 64,
		"strength": 17,
		"vitality": 59,
		"intelligence": 68,
		"mind": 59,
		"agility": 60,
		"dexterity": 88,
		"lucky": 6,
		"parameter_table_BattleEnemyParameterTable": 0,
		"parameter_deviation_table_BattleEnemyParameterDeviationTable": 0,
		"acquire_skill_group_id": 0,
		"level_correction": 0,
		"group_id": 0,
		"ai_script_id_BattleAIScript": 0
	}
]