[
	{
		"ID": 68950,
		"stage_BattleStage": 218008003,
		"unit_UnitUnit": 3830001,
		"money": 1,
		"initial_coordinate_x": 9,
		"initial_coordinate_y": 5,
		"reinforcement_BattleReinforcement": 0,
		"initial_direction": 180.0,
		"ai_move_group": 0,
		"ai_target_move_x": -1,
		"ai_target_move_y": -1,
		"ai_skill_function": "",
		"ai_attack": "",
		"ai_move": "",
		"ai_heal": "",
		"ai_skill": "",
		"ai_use": "",
		"skill_group_id": 16580,
		"gear_GearGear": 11002,
		"gear_rank": 1,
		"proficiency_UnitProficiency": 1,
		"level": 9,
		"hp": 38,
		"strength": 18,
		"vitality": 12,
		"intelligence": 0,
		"mind": 7,
		"agility": 20,
		"dexterity": 20,
		"lucky": 10,
		"parameter_table_BattleEnemyParameterTable": 0,
		"parameter_deviation_table_BattleEnemyParameterDeviationTable": 0,
		"acquire_skill_group_id": 0,
		"level_correction": 0,
		"group_id": 0,
		"ai_script_id_BattleAIScript": 0
	},
	{
		"ID": 68951,
		"stage_BattleStage": 218008003,
		"unit_UnitUnit": 3830002,
		"money": 2,
		"initial_coordinate_x": 9,
		"initial_coordinate_y": 5,
		"reinforcement_BattleReinforcement": 0,
		"initial_direction": 180.0,
		"ai_move_group": 0,
		"ai_target_move_x": -1,
		"ai_target_move_y": -1,
		"ai_skill_function": "",
		"ai_attack": "",
		"ai_move": "",
		"ai_heal": "",
		"ai_skill": "",
		"ai_use": "",
		"skill_group_id": 16580,
		"gear_GearGear": 21002,
		"gear_rank": 1,
		"proficiency_UnitProficiency": 1,
		"level": 10,
		"hp": 38,
		"strength": 21,
		"vitality": 13,
		"intelligence": 0,
		"mind": 5,
		"agility": 18,
		"dexterity": 20,
		"lucky": 9,
		"parameter_table_BattleEnemyParameterTable": 0,
		"parameter_deviation_table_BattleEnemyParameterDeviationTable": 0,
		"acquire_skill_group_id": 0,
		"level_correction": 0,
		"group_id": 0,
		"ai_script_id_BattleAIScript": 0
	},
	{
		"ID": 68952,
		"stage_BattleStage": 218008003,
		"unit_UnitUnit": 3810001,
		"money": 1,
		"initial_coordinate_x": 7,
		"initial_coordinate_y": 6,
		"reinforcement_BattleReinforcement": 0,
		"initial_direction": 180.0,
		"ai_move_group": 0,
		"ai_target_move_x": -1,
		"ai_target_move_y": -1,
		"ai_skill_function": "",
		"ai_attack": "",
		"ai_move": "",
		"ai_heal": "",
		"ai_skill": "",
		"ai_use": "",
		"skill_group_id": 16570,
		"gear_GearGear": 11002,
		"gear_rank": 1,
		"proficiency_UnitProficiency": 1,
		"level": 9,
		"hp": 38,
		"strength": 19,
		"vitality": 14,
		"intelligence": 2,
		"mind": 7,
		"agility": 19,
		"dexterity": 20,
		"lucky": 9,
		"parameter_table_BattleEnemyParameterTable": 0,
		"parameter_deviation_table_BattleEnemyParameterDeviationTable": 0,
		"acquire_skill_group_id": 0,
		"level_correction": 0,
		"group_id": 0,
		"ai_script_id_BattleAIScript": 0
	},
	{
		"ID": 68953,
		"stage_BattleStage": 218008003,
		"unit_UnitUnit": 3810002,
		"money": 2,
		"initial_coordinate_x": 7,
		"initial_coordinate_y": 6,
		"reinforcement_BattleReinforcement": 0,
		"initial_direction": 180.0,
		"ai_move_group": 0,
		"ai_target_move_x": -1,
		"ai_target_move_y": -1,
		"ai_skill_function": "",
		"ai_attack": "",
		"ai_move": "",
		"ai_heal": "",
		"ai_skill": "",
		"ai_use": "",
		"skill_group_id": 16570,
		"gear_GearGear": 21002,
		"gear_rank": 1,
		"proficiency_UnitProficiency": 1,
		"level": 10,
		"hp": 38,
		"strength": 21,
		"vitality": 13,
		"intelligence": 0,
		"mind": 5,
		"agility": 18,
		"dexterity": 20,
		"lucky": 9,
		"parameter_table_BattleEnemyParameterTable": 0,
		"parameter_deviation_table_BattleEnemyParameterDeviationTable": 0,
		"acquire_skill_group_id": 0,
		"level_correction": 0,
		"group_id": 0,
		"ai_script_id_BattleAIScript": 0
	},
	{
		"ID": 68954,
		"stage_BattleStage": 218008003,
		"unit_UnitUnit": 3820001,
		"money": 1,
		"initial_coordinate_x": 6,
		"initial_coordinate_y": 10,
		"reinforcement_BattleReinforcement": 0,
		"initial_direction": 180.0,
		"ai_move_group": 0,
		"ai_target_move_x": -1,
		"ai_target_move_y": -1,
		"ai_skill_function": "",
		"ai_attack": "",
		"ai_move": "",
		"ai_heal": "",
		"ai_skill": "",
		"ai_use": "",
		"skill_group_id": 16590,
		"gear_GearGear": 11002,
		"gear_rank": 1,
		"proficiency_UnitProficiency": 1,
		"level": 10,
		"hp": 38,
		"strength": 21,
		"vitality": 14,
		"intelligence": 2,
		"mind": 6,
		"agility": 20,
		"dexterity": 23,
		"lucky": 9,
		"parameter_table_BattleEnemyParameterTable": 0,
		"parameter_deviation_table_BattleEnemyParameterDeviationTable": 0,
		"acquire_skill_group_id": 0,
		"level_correction": 0,
		"group_id": 0,
		"ai_script_id_BattleAIScript": 0
	},
	{
		"ID": 68955,
		"stage_BattleStage": 218008003,
		"unit_UnitUnit": 3820002,
		"money": 2,
		"initial_coordinate_x": 6,
		"initial_coordinate_y": 10,
		"reinforcement_BattleReinforcement": 0,
		"initial_direction": 180.0,
		"ai_move_group": 0,
		"ai_target_move_x": -1,
		"ai_target_move_y": -1,
		"ai_skill_function": "",
		"ai_attack": "",
		"ai_move": "",
		"ai_heal": "",
		"ai_skill": "",
		"ai_use": "",
		"skill_group_id": 16590,
		"gear_GearGear": 21002,
		"gear_rank": 1,
		"proficiency_UnitProficiency": 1,
		"level": 11,
		"hp": 38,
		"strength": 22,
		"vitality": 13,
		"intelligence": 2,
		"mind": 7,
		"agility": 19,
		"dexterity": 22,
		"lucky": 9,
		"parameter_table_BattleEnemyParameterTable": 0,
		"parameter_deviation_table_BattleEnemyParameterDeviationTable": 0,
		"acquire_skill_group_id": 0,
		"level_correction": 0,
		"group_id": 0,
		"ai_script_id_BattleAIScript": 0
	},
	{
		"ID": 68956,
		"stage_BattleStage": 218008003,
		"unit_UnitUnit": 800009,
		"money": 2,
		"initial_coordinate_x": 10,
		"initial_coordinate_y": 10,
		"reinforcement_BattleReinforcement": 0,
		"initial_direction": 180.0,
		"ai_move_group": 0,
		"ai_target_move_x": -1,
		"ai_target_move_y": -1,
		"ai_skill_function": "",
		"ai_attack": "IF( turn <=2 ,IF(panel_move_distance <= 2, 1, 0),1)",
		"ai_move": "IF(turn <=2,0,1)",
		"ai_heal": "",
		"ai_skill": "",
		"ai_use": "",
		"skill_group_id": 817,
		"gear_GearGear": 80001,
		"gear_rank": 1,
		"proficiency_UnitProficiency": 1,
		"level": 10,
		"hp": 10,
		"strength": 5,
		"vitality": 208,
		"intelligence": 5,
		"mind": 203,
		"agility": 16,
		"dexterity": 16,
		"lucky": 8,
		"parameter_table_BattleEnemyParameterTable": 0,
		"parameter_deviation_table_BattleEnemyParameterDeviationTable": 0,
		"acquire_skill_group_id": 0,
		"level_correction": 0,
		"group_id": 0,
		"ai_script_id_BattleAIScript": 0
	},
	{
		"ID": 68957,
		"stage_BattleStage": 218008003,
		"unit_UnitUnit": 802009,
		"money": 3,
		"initial_coordinate_x": 10,
		"initial_coordinate_y": 10,
		"reinforcement_BattleReinforcement": 0,
		"initial_direction": 180.0,
		"ai_move_group": 0,
		"ai_target_move_x": -1,
		"ai_target_move_y": -1,
		"ai_skill_function": "",
		"ai_attack": "IF( turn <=2 ,IF(panel_move_distance <= 2, 1, 0),1)",
		"ai_move": "IF(turn <=2,0,1)",
		"ai_heal": "",
		"ai_skill": "",
		"ai_use": "",
		"skill_group_id": 817,
		"gear_GearGear": 80001,
		"gear_rank": 1,
		"proficiency_UnitProficiency": 1,
		"level": 12,
		"hp": 11,
		"strength": 6,
		"vitality": 249,
		"intelligence": 7,
		"mind": 243,
		"agility": 17,
		"dexterity": 24,
		"lucky": 8,
		"parameter_table_BattleEnemyParameterTable": 0,
		"parameter_deviation_table_BattleEnemyParameterDeviationTable": 0,
		"acquire_skill_group_id": 0,
		"level_correction": 0,
		"group_id": 0,
		"ai_script_id_BattleAIScript": 0
	},
	{
		"ID": 68958,
		"stage_BattleStage": 218008003,
		"unit_UnitUnit": 800009,
		"money": 2,
		"initial_coordinate_x": 6,
		"initial_coordinate_y": 14,
		"reinforcement_BattleReinforcement": 0,
		"initial_direction": 180.0,
		"ai_move_group": 0,
		"ai_target_move_x": -1,
		"ai_target_move_y": -1,
		"ai_skill_function": "",
		"ai_attack": "IF( turn <=2 ,IF(panel_move_distance <= 2, 1, 0),1)",
		"ai_move": "IF(turn <=2,0,1)",
		"ai_heal": "",
		"ai_skill": "",
		"ai_use": "",
		"skill_group_id": 817,
		"gear_GearGear": 80001,
		"gear_rank": 1,
		"proficiency_UnitProficiency": 1,
		"level": 10,
		"hp": 10,
		"strength": 5,
		"vitality": 208,
		"intelligence": 5,
		"mind": 203,
		"agility": 16,
		"dexterity": 16,
		"lucky": 8,
		"parameter_table_BattleEnemyParameterTable": 0,
		"parameter_deviation_table_BattleEnemyParameterDeviationTable": 0,
		"acquire_skill_group_id": 0,
		"level_correction": 0,
		"group_id": 0,
		"ai_script_id_BattleAIScript": 0
	},
	{
		"ID": 68959,
		"stage_BattleStage": 218008003,
		"unit_UnitUnit": 802009,
		"money": 3,
		"initial_coordinate_x": 6,
		"initial_coordinate_y": 14,
		"reinforcement_BattleReinforcement": 0,
		"initial_direction": 180.0,
		"ai_move_group": 0,
		"ai_target_move_x": -1,
		"ai_target_move_y": -1,
		"ai_skill_function": "",
		"ai_attack": "IF( turn <=2 ,IF(panel_move_distance <= 2, 1, 0),1)",
		"ai_move": "IF(turn <=2,0,1)",
		"ai_heal": "",
		"ai_skill": "",
		"ai_use": "",
		"skill_group_id": 817,
		"gear_GearGear": 80001,
		"gear_rank": 1,
		"proficiency_UnitProficiency": 1,
		"level": 12,
		"hp": 11,
		"strength": 6,
		"vitality": 249,
		"intelligence": 7,
		"mind": 243,
		"agility": 17,
		"dexterity": 24,
		"lucky": 8,
		"parameter_table_BattleEnemyParameterTable": 0,
		"parameter_deviation_table_BattleEnemyParameterDeviationTable": 0,
		"acquire_skill_group_id": 0,
		"level_correction": 0,
		"group_id": 0,
		"ai_script_id_BattleAIScript": 0
	},
	{
		"ID": 68960,
		"stage_BattleStage": 218008003,
		"unit_UnitUnit": 800009,
		"money": 2,
		"initial_coordinate_x": 10,
		"initial_coordinate_y": 14,
		"reinforcement_BattleReinforcement": 0,
		"initial_direction": 180.0,
		"ai_move_group": 0,
		"ai_target_move_x": -1,
		"ai_target_move_y": -1,
		"ai_skill_function": "",
		"ai_attack": "IF( turn <=3 ,IF(panel_move_distance <= 2, 1, 0),1)",
		"ai_move": "IF(turn <=3,0,1)",
		"ai_heal": "",
		"ai_skill": "",
		"ai_use": "",
		"skill_group_id": 817,
		"gear_GearGear": 80001,
		"gear_rank": 1,
		"proficiency_UnitProficiency": 1,
		"level": 10,
		"hp": 10,
		"strength": 5,
		"vitality": 208,
		"intelligence": 5,
		"mind": 203,
		"agility": 16,
		"dexterity": 16,
		"lucky": 8,
		"parameter_table_BattleEnemyParameterTable": 0,
		"parameter_deviation_table_BattleEnemyParameterDeviationTable": 0,
		"acquire_skill_group_id": 0,
		"level_correction": 0,
		"group_id": 0,
		"ai_script_id_BattleAIScript": 0
	},
	{
		"ID": 68961,
		"stage_BattleStage": 218008003,
		"unit_UnitUnit": 802009,
		"money": 3,
		"initial_coordinate_x": 10,
		"initial_coordinate_y": 14,
		"reinforcement_BattleReinforcement": 0,
		"initial_direction": 180.0,
		"ai_move_group": 0,
		"ai_target_move_x": -1,
		"ai_target_move_y": -1,
		"ai_skill_function": "",
		"ai_attack": "IF( turn <=3 ,IF(panel_move_distance <= 2, 1, 0),1)",
		"ai_move": "IF(turn <=3,0,1)",
		"ai_heal": "",
		"ai_skill": "",
		"ai_use": "",
		"skill_group_id": 817,
		"gear_GearGear": 80001,
		"gear_rank": 1,
		"proficiency_UnitProficiency": 1,
		"level": 12,
		"hp": 11,
		"strength": 6,
		"vitality": 249,
		"intelligence": 7,
		"mind": 243,
		"agility": 17,
		"dexterity": 24,
		"lucky": 8,
		"parameter_table_BattleEnemyParameterTable": 0,
		"parameter_deviation_table_BattleEnemyParameterDeviationTable": 0,
		"acquire_skill_group_id": 0,
		"level_correction": 0,
		"group_id": 0,
		"ai_script_id_BattleAIScript": 0
	},
	{
		"ID": 68962,
		"stage_BattleStage": 218008003,
		"unit_UnitUnit": 2103511,
		"money": 2,
		"initial_coordinate_x": 8,
		"initial_coordinate_y": 11,
		"reinforcement_BattleReinforcement": 0,
		"initial_direction": 180.0,
		"ai_move_group": 0,
		"ai_target_move_x": -1,
		"ai_target_move_y": -1,
		"ai_skill_function": "",
		"ai_attack": "IF( turn <=3 ,IF(panel_move_distance <= 2, 1, 0),1)",
		"ai_move": "IF(turn <=3,0,1)",
		"ai_heal": "",
		"ai_skill": "",
		"ai_use": "",
		"skill_group_id": 18026,
		"gear_GearGear": 130033,
		"gear_rank": 1,
		"proficiency_UnitProficiency": 3,
		"level": 10,
		"hp": 7,
		"strength": 6,
		"vitality": 208,
		"intelligence": 2,
		"mind": 209,
		"agility": 13,
		"dexterity": 16,
		"lucky": 22,
		"parameter_table_BattleEnemyParameterTable": 0,
		"parameter_deviation_table_BattleEnemyParameterDeviationTable": 0,
		"acquire_skill_group_id": 0,
		"level_correction": 0,
		"group_id": 0,
		"ai_script_id_BattleAIScript": 0
	},
	{
		"ID": 68963,
		"stage_BattleStage": 218008003,
		"unit_UnitUnit": 802009,
		"money": 3,
		"initial_coordinate_x": 8,
		"initial_coordinate_y": 11,
		"reinforcement_BattleReinforcement": 0,
		"initial_direction": 180.0,
		"ai_move_group": 0,
		"ai_target_move_x": -1,
		"ai_target_move_y": -1,
		"ai_skill_function": "",
		"ai_attack": "IF( turn <=3 ,IF(panel_move_distance <= 2, 1, 0),1)",
		"ai_move": "IF(turn <=3,0,1)",
		"ai_heal": "",
		"ai_skill": "",
		"ai_use": "",
		"skill_group_id": 817,
		"gear_GearGear": 80001,
		"gear_rank": 1,
		"proficiency_UnitProficiency": 1,
		"level": 12,
		"hp": 11,
		"strength": 6,
		"vitality": 249,
		"intelligence": 7,
		"mind": 243,
		"agility": 17,
		"dexterity": 24,
		"lucky": 8,
		"parameter_table_BattleEnemyParameterTable": 0,
		"parameter_deviation_table_BattleEnemyParameterDeviationTable": 0,
		"acquire_skill_group_id": 0,
		"level_correction": 0,
		"group_id": 0,
		"ai_script_id_BattleAIScript": 0
	},
	{
		"ID": 68964,
		"stage_BattleStage": 218008003,
		"unit_UnitUnit": 2100121,
		"money": 2,
		"initial_coordinate_x": 8,
		"initial_coordinate_y": 15,
		"reinforcement_BattleReinforcement": 0,
		"initial_direction": 180.0,
		"ai_move_group": 0,
		"ai_target_move_x": -1,
		"ai_target_move_y": -1,
		"ai_skill_function": "",
		"ai_attack": "IF( turn <=2 ,IF(panel_move_distance <= 2, 1, 0),1)",
		"ai_move": "IF(turn <=2,0,1)",
		"ai_heal": "",
		"ai_skill": "",
		"ai_use": "",
		"skill_group_id": 18027,
		"gear_GearGear": 130033,
		"gear_rank": 1,
		"proficiency_UnitProficiency": 3,
		"level": 10,
		"hp": 7,
		"strength": 6,
		"vitality": 208,
		"intelligence": 2,
		"mind": 209,
		"agility": 13,
		"dexterity": 16,
		"lucky": 22,
		"parameter_table_BattleEnemyParameterTable": 0,
		"parameter_deviation_table_BattleEnemyParameterDeviationTable": 0,
		"acquire_skill_group_id": 0,
		"level_correction": 0,
		"group_id": 0,
		"ai_script_id_BattleAIScript": 0
	},
	{
		"ID": 68965,
		"stage_BattleStage": 218008003,
		"unit_UnitUnit": 802009,
		"money": 3,
		"initial_coordinate_x": 8,
		"initial_coordinate_y": 15,
		"reinforcement_BattleReinforcement": 0,
		"initial_direction": 180.0,
		"ai_move_group": 0,
		"ai_target_move_x": -1,
		"ai_target_move_y": -1,
		"ai_skill_function": "",
		"ai_attack": "IF( turn <=2 ,IF(panel_move_distance <= 2, 1, 0),1)",
		"ai_move": "IF(turn <=2,0,1)",
		"ai_heal": "",
		"ai_skill": "",
		"ai_use": "",
		"skill_group_id": 817,
		"gear_GearGear": 80001,
		"gear_rank": 1,
		"proficiency_UnitProficiency": 1,
		"level": 12,
		"hp": 11,
		"strength": 6,
		"vitality": 249,
		"intelligence": 7,
		"mind": 243,
		"agility": 17,
		"dexterity": 24,
		"lucky": 8,
		"parameter_table_BattleEnemyParameterTable": 0,
		"parameter_deviation_table_BattleEnemyParameterDeviationTable": 0,
		"acquire_skill_group_id": 0,
		"level_correction": 0,
		"group_id": 0,
		"ai_script_id_BattleAIScript": 0
	}
]