[
	{
		"ID": 91820,
		"stage_BattleStage": 221051021,
		"unit_UnitUnit": 3830007,
		"money": 450,
		"initial_coordinate_x": 13,
		"initial_coordinate_y": 7,
		"reinforcement_BattleReinforcement": 0,
		"initial_direction": 90.0,
		"ai_move_group": 0,
		"ai_target_move_x": -1,
		"ai_target_move_y": -1,
		"ai_skill_function": "",
		"ai_attack": "",
		"ai_move": "",
		"ai_heal": "",
		"ai_skill": "",
		"ai_use": "",
		"skill_group_id": 21180,
		"gear_GearGear": 16001,
		"gear_rank": 5,
		"proficiency_UnitProficiency": 6,
		"level": 90,
		"hp": 96,
		"strength": 64,
		"vitality": 62,
		"intelligence": 28,
		"mind": 40,
		"agility": 90,
		"dexterity": 79,
		"lucky": 31,
		"parameter_table_BattleEnemyParameterTable": 0,
		"parameter_deviation_table_BattleEnemyParameterDeviationTable": 0,
		"acquire_skill_group_id": 0,
		"level_correction": 0,
		"group_id": 2,
		"ai_script_id_BattleAIScript": 0
	},
	{
		"ID": 91821,
		"stage_BattleStage": 221051021,
		"unit_UnitUnit": 3830007,
		"money": 450,
		"initial_coordinate_x": 1,
		"initial_coordinate_y": 7,
		"reinforcement_BattleReinforcement": 278,
		"initial_direction": 90.0,
		"ai_move_group": 0,
		"ai_target_move_x": -1,
		"ai_target_move_y": -1,
		"ai_skill_function": "",
		"ai_attack": "",
		"ai_move": "",
		"ai_heal": "",
		"ai_skill": "",
		"ai_use": "",
		"skill_group_id": 21180,
		"gear_GearGear": 16001,
		"gear_rank": 5,
		"proficiency_UnitProficiency": 6,
		"level": 90,
		"hp": 100,
		"strength": 64,
		"vitality": 64,
		"intelligence": 30,
		"mind": 45,
		"agility": 92,
		"dexterity": 74,
		"lucky": 32,
		"parameter_table_BattleEnemyParameterTable": 0,
		"parameter_deviation_table_BattleEnemyParameterDeviationTable": 0,
		"acquire_skill_group_id": 0,
		"level_correction": 0,
		"group_id": 3,
		"ai_script_id_BattleAIScript": 0
	},
	{
		"ID": 91822,
		"stage_BattleStage": 221051021,
		"unit_UnitUnit": 3830007,
		"money": 450,
		"initial_coordinate_x": 16,
		"initial_coordinate_y": 9,
		"reinforcement_BattleReinforcement": 279,
		"initial_direction": 90.0,
		"ai_move_group": 0,
		"ai_target_move_x": -1,
		"ai_target_move_y": -1,
		"ai_skill_function": "",
		"ai_attack": "",
		"ai_move": "",
		"ai_heal": "",
		"ai_skill": "",
		"ai_use": "",
		"skill_group_id": 21180,
		"gear_GearGear": 16001,
		"gear_rank": 5,
		"proficiency_UnitProficiency": 6,
		"level": 90,
		"hp": 100,
		"strength": 68,
		"vitality": 65,
		"intelligence": 30,
		"mind": 44,
		"agility": 94,
		"dexterity": 77,
		"lucky": 31,
		"parameter_table_BattleEnemyParameterTable": 0,
		"parameter_deviation_table_BattleEnemyParameterDeviationTable": 0,
		"acquire_skill_group_id": 0,
		"level_correction": 0,
		"group_id": 4,
		"ai_script_id_BattleAIScript": 0
	},
	{
		"ID": 91823,
		"stage_BattleStage": 221051021,
		"unit_UnitUnit": 3830007,
		"money": 450,
		"initial_coordinate_x": 14,
		"initial_coordinate_y": 2,
		"reinforcement_BattleReinforcement": 277,
		"initial_direction": 0.0,
		"ai_move_group": 0,
		"ai_target_move_x": -1,
		"ai_target_move_y": -1,
		"ai_skill_function": "",
		"ai_attack": "IF( turn <=2 ,IF(panel_move_distance <= 4, 1, 0),1)",
		"ai_move": "IF(turn <=4,0,1)",
		"ai_heal": "",
		"ai_skill": "",
		"ai_use": "",
		"skill_group_id": 21180,
		"gear_GearGear": 16001,
		"gear_rank": 5,
		"proficiency_UnitProficiency": 6,
		"level": 90,
		"hp": 99,
		"strength": 66,
		"vitality": 65,
		"intelligence": 30,
		"mind": 43,
		"agility": 90,
		"dexterity": 76,
		"lucky": 30,
		"parameter_table_BattleEnemyParameterTable": 0,
		"parameter_deviation_table_BattleEnemyParameterDeviationTable": 0,
		"acquire_skill_group_id": 0,
		"level_correction": 0,
		"group_id": 5,
		"ai_script_id_BattleAIScript": 0
	},
	{
		"ID": 91824,
		"stage_BattleStage": 221051021,
		"unit_UnitUnit": 3830007,
		"money": 450,
		"initial_coordinate_x": 15,
		"initial_coordinate_y": 3,
		"reinforcement_BattleReinforcement": 277,
		"initial_direction": 270.0,
		"ai_move_group": 0,
		"ai_target_move_x": -1,
		"ai_target_move_y": -1,
		"ai_skill_function": "",
		"ai_attack": "IF( turn <=2 ,IF(panel_move_distance <= 4, 1, 0),1)",
		"ai_move": "IF(turn <=4,0,1)",
		"ai_heal": "",
		"ai_skill": "",
		"ai_use": "",
		"skill_group_id": 21180,
		"gear_GearGear": 16001,
		"gear_rank": 5,
		"proficiency_UnitProficiency": 6,
		"level": 90,
		"hp": 98,
		"strength": 66,
		"vitality": 65,
		"intelligence": 33,
		"mind": 40,
		"agility": 93,
		"dexterity": 78,
		"lucky": 29,
		"parameter_table_BattleEnemyParameterTable": 0,
		"parameter_deviation_table_BattleEnemyParameterDeviationTable": 0,
		"acquire_skill_group_id": 0,
		"level_correction": 0,
		"group_id": 5,
		"ai_script_id_BattleAIScript": 0
	},
	{
		"ID": 91825,
		"stage_BattleStage": 221051021,
		"unit_UnitUnit": 3830007,
		"money": 450,
		"initial_coordinate_x": 15,
		"initial_coordinate_y": 2,
		"reinforcement_BattleReinforcement": 277,
		"initial_direction": 270.0,
		"ai_move_group": 0,
		"ai_target_move_x": -1,
		"ai_target_move_y": -1,
		"ai_skill_function": "",
		"ai_attack": "",
		"ai_move": "",
		"ai_heal": "",
		"ai_skill": "",
		"ai_use": "",
		"skill_group_id": 21180,
		"gear_GearGear": 16001,
		"gear_rank": 5,
		"proficiency_UnitProficiency": 6,
		"level": 90,
		"hp": 99,
		"strength": 67,
		"vitality": 63,
		"intelligence": 31,
		"mind": 40,
		"agility": 94,
		"dexterity": 74,
		"lucky": 27,
		"parameter_table_BattleEnemyParameterTable": 0,
		"parameter_deviation_table_BattleEnemyParameterDeviationTable": 0,
		"acquire_skill_group_id": 0,
		"level_correction": 0,
		"group_id": 5,
		"ai_script_id_BattleAIScript": 0
	},
	{
		"ID": 91826,
		"stage_BattleStage": 221051021,
		"unit_UnitUnit": 3830002,
		"money": 400,
		"initial_coordinate_x": 13,
		"initial_coordinate_y": 8,
		"reinforcement_BattleReinforcement": 0,
		"initial_direction": 90.0,
		"ai_move_group": 0,
		"ai_target_move_x": -1,
		"ai_target_move_y": -1,
		"ai_skill_function": "",
		"ai_attack": "",
		"ai_move": "",
		"ai_heal": "",
		"ai_skill": "",
		"ai_use": "",
		"skill_group_id": 21181,
		"gear_GearGear": 26007,
		"gear_rank": 5,
		"proficiency_UnitProficiency": 6,
		"level": 80,
		"hp": 86,
		"strength": 90,
		"vitality": 62,
		"intelligence": 27,
		"mind": 40,
		"agility": 60,
		"dexterity": 73,
		"lucky": 30,
		"parameter_table_BattleEnemyParameterTable": 0,
		"parameter_deviation_table_BattleEnemyParameterDeviationTable": 0,
		"acquire_skill_group_id": 0,
		"level_correction": 0,
		"group_id": 2,
		"ai_script_id_BattleAIScript": 0
	},
	{
		"ID": 91827,
		"stage_BattleStage": 221051021,
		"unit_UnitUnit": 3830002,
		"money": 400,
		"initial_coordinate_x": 16,
		"initial_coordinate_y": 3,
		"reinforcement_BattleReinforcement": 279,
		"initial_direction": 90.0,
		"ai_move_group": 0,
		"ai_target_move_x": -1,
		"ai_target_move_y": -1,
		"ai_skill_function": "",
		"ai_attack": "",
		"ai_move": "",
		"ai_heal": "",
		"ai_skill": "",
		"ai_use": "",
		"skill_group_id": 21181,
		"gear_GearGear": 26007,
		"gear_rank": 5,
		"proficiency_UnitProficiency": 6,
		"level": 80,
		"hp": 89,
		"strength": 94,
		"vitality": 58,
		"intelligence": 27,
		"mind": 38,
		"agility": 58,
		"dexterity": 71,
		"lucky": 29,
		"parameter_table_BattleEnemyParameterTable": 0,
		"parameter_deviation_table_BattleEnemyParameterDeviationTable": 0,
		"acquire_skill_group_id": 0,
		"level_correction": 0,
		"group_id": 4,
		"ai_script_id_BattleAIScript": 0
	},
	{
		"ID": 91828,
		"stage_BattleStage": 221051021,
		"unit_UnitUnit": 3830002,
		"money": 400,
		"initial_coordinate_x": 17,
		"initial_coordinate_y": 10,
		"reinforcement_BattleReinforcement": 279,
		"initial_direction": 90.0,
		"ai_move_group": 0,
		"ai_target_move_x": -1,
		"ai_target_move_y": -1,
		"ai_skill_function": "",
		"ai_attack": "",
		"ai_move": "",
		"ai_heal": "",
		"ai_skill": "",
		"ai_use": "",
		"skill_group_id": 21181,
		"gear_GearGear": 26007,
		"gear_rank": 5,
		"proficiency_UnitProficiency": 6,
		"level": 80,
		"hp": 87,
		"strength": 93,
		"vitality": 60,
		"intelligence": 30,
		"mind": 43,
		"agility": 61,
		"dexterity": 72,
		"lucky": 26,
		"parameter_table_BattleEnemyParameterTable": 0,
		"parameter_deviation_table_BattleEnemyParameterDeviationTable": 0,
		"acquire_skill_group_id": 0,
		"level_correction": 0,
		"group_id": 4,
		"ai_script_id_BattleAIScript": 0
	},
	{
		"ID": 91829,
		"stage_BattleStage": 221051021,
		"unit_UnitUnit": 3830002,
		"money": 400,
		"initial_coordinate_x": 14,
		"initial_coordinate_y": 4,
		"reinforcement_BattleReinforcement": 277,
		"initial_direction": 0.0,
		"ai_move_group": 0,
		"ai_target_move_x": -1,
		"ai_target_move_y": -1,
		"ai_skill_function": "",
		"ai_attack": "IF(panel_move_distance <= 7, 1, 0)",
		"ai_move": "",
		"ai_heal": "",
		"ai_skill": "",
		"ai_use": "",
		"skill_group_id": 21181,
		"gear_GearGear": 26007,
		"gear_rank": 5,
		"proficiency_UnitProficiency": 6,
		"level": 80,
		"hp": 90,
		"strength": 95,
		"vitality": 63,
		"intelligence": 30,
		"mind": 39,
		"agility": 56,
		"dexterity": 72,
		"lucky": 29,
		"parameter_table_BattleEnemyParameterTable": 0,
		"parameter_deviation_table_BattleEnemyParameterDeviationTable": 0,
		"acquire_skill_group_id": 0,
		"level_correction": 0,
		"group_id": 5,
		"ai_script_id_BattleAIScript": 0
	},
	{
		"ID": 91830,
		"stage_BattleStage": 221051021,
		"unit_UnitUnit": 3830002,
		"money": 400,
		"initial_coordinate_x": 13,
		"initial_coordinate_y": 4,
		"reinforcement_BattleReinforcement": 277,
		"initial_direction": 0.0,
		"ai_move_group": 0,
		"ai_target_move_x": -1,
		"ai_target_move_y": -1,
		"ai_skill_function": "",
		"ai_attack": "IF(panel_move_distance <= 7, 1, 0)",
		"ai_move": "",
		"ai_heal": "",
		"ai_skill": "",
		"ai_use": "",
		"skill_group_id": 21181,
		"gear_GearGear": 26007,
		"gear_rank": 5,
		"proficiency_UnitProficiency": 6,
		"level": 80,
		"hp": 87,
		"strength": 94,
		"vitality": 59,
		"intelligence": 27,
		"mind": 42,
		"agility": 56,
		"dexterity": 73,
		"lucky": 27,
		"parameter_table_BattleEnemyParameterTable": 0,
		"parameter_deviation_table_BattleEnemyParameterDeviationTable": 0,
		"acquire_skill_group_id": 0,
		"level_correction": 0,
		"group_id": 5,
		"ai_script_id_BattleAIScript": 0
	},
	{
		"ID": 91831,
		"stage_BattleStage": 221051021,
		"unit_UnitUnit": 3830002,
		"money": 400,
		"initial_coordinate_x": 20,
		"initial_coordinate_y": 3,
		"reinforcement_BattleReinforcement": 0,
		"initial_direction": 0.0,
		"ai_move_group": 0,
		"ai_target_move_x": -1,
		"ai_target_move_y": -1,
		"ai_skill_function": "",
		"ai_attack": "",
		"ai_move": "",
		"ai_heal": "",
		"ai_skill": "",
		"ai_use": "",
		"skill_group_id": 21181,
		"gear_GearGear": 26007,
		"gear_rank": 5,
		"proficiency_UnitProficiency": 6,
		"level": 80,
		"hp": 90,
		"strength": 91,
		"vitality": 63,
		"intelligence": 29,
		"mind": 43,
		"agility": 60,
		"dexterity": 73,
		"lucky": 30,
		"parameter_table_BattleEnemyParameterTable": 0,
		"parameter_deviation_table_BattleEnemyParameterDeviationTable": 0,
		"acquire_skill_group_id": 0,
		"level_correction": 0,
		"group_id": 1,
		"ai_script_id_BattleAIScript": 0
	},
	{
		"ID": 91832,
		"stage_BattleStage": 221051021,
		"unit_UnitUnit": 3830002,
		"money": 400,
		"initial_coordinate_x": 21,
		"initial_coordinate_y": 3,
		"reinforcement_BattleReinforcement": 0,
		"initial_direction": 0.0,
		"ai_move_group": 0,
		"ai_target_move_x": -1,
		"ai_target_move_y": -1,
		"ai_skill_function": "",
		"ai_attack": "",
		"ai_move": "",
		"ai_heal": "",
		"ai_skill": "",
		"ai_use": "",
		"skill_group_id": 21181,
		"gear_GearGear": 26007,
		"gear_rank": 5,
		"proficiency_UnitProficiency": 6,
		"level": 80,
		"hp": 90,
		"strength": 94,
		"vitality": 58,
		"intelligence": 31,
		"mind": 38,
		"agility": 58,
		"dexterity": 73,
		"lucky": 29,
		"parameter_table_BattleEnemyParameterTable": 0,
		"parameter_deviation_table_BattleEnemyParameterDeviationTable": 0,
		"acquire_skill_group_id": 0,
		"level_correction": 0,
		"group_id": 1,
		"ai_script_id_BattleAIScript": 0
	},
	{
		"ID": 91833,
		"stage_BattleStage": 221051021,
		"unit_UnitUnit": 3830002,
		"money": 400,
		"initial_coordinate_x": 22,
		"initial_coordinate_y": 8,
		"reinforcement_BattleReinforcement": 2,
		"initial_direction": 270.0,
		"ai_move_group": 0,
		"ai_target_move_x": -1,
		"ai_target_move_y": -1,
		"ai_skill_function": "",
		"ai_attack": "IF( turn <=2 ,IF(panel_move_distance <= 4, 1, 0),1)",
		"ai_move": "IF(turn <=4,0,1)",
		"ai_heal": "",
		"ai_skill": "",
		"ai_use": "",
		"skill_group_id": 21181,
		"gear_GearGear": 26007,
		"gear_rank": 5,
		"proficiency_UnitProficiency": 6,
		"level": 80,
		"hp": 85,
		"strength": 90,
		"vitality": 60,
		"intelligence": 32,
		"mind": 40,
		"agility": 57,
		"dexterity": 75,
		"lucky": 30,
		"parameter_table_BattleEnemyParameterTable": 0,
		"parameter_deviation_table_BattleEnemyParameterDeviationTable": 0,
		"acquire_skill_group_id": 0,
		"level_correction": 0,
		"group_id": 1,
		"ai_script_id_BattleAIScript": 0
	},
	{
		"ID": 91834,
		"stage_BattleStage": 221051021,
		"unit_UnitUnit": 3830002,
		"money": 400,
		"initial_coordinate_x": 22,
		"initial_coordinate_y": 7,
		"reinforcement_BattleReinforcement": 2,
		"initial_direction": 270.0,
		"ai_move_group": 0,
		"ai_target_move_x": -1,
		"ai_target_move_y": -1,
		"ai_skill_function": "",
		"ai_attack": "IF( turn <=2 ,IF(panel_move_distance <= 4, 1, 0),1)",
		"ai_move": "IF(turn <=4,0,1)",
		"ai_heal": "",
		"ai_skill": "",
		"ai_use": "",
		"skill_group_id": 21181,
		"gear_GearGear": 26007,
		"gear_rank": 5,
		"proficiency_UnitProficiency": 6,
		"level": 80,
		"hp": 85,
		"strength": 95,
		"vitality": 63,
		"intelligence": 29,
		"mind": 39,
		"agility": 57,
		"dexterity": 75,
		"lucky": 27,
		"parameter_table_BattleEnemyParameterTable": 0,
		"parameter_deviation_table_BattleEnemyParameterDeviationTable": 0,
		"acquire_skill_group_id": 0,
		"level_correction": 0,
		"group_id": 1,
		"ai_script_id_BattleAIScript": 0
	},
	{
		"ID": 91835,
		"stage_BattleStage": 221051021,
		"unit_UnitUnit": 3830003,
		"money": 400,
		"initial_coordinate_x": 12,
		"initial_coordinate_y": 7,
		"reinforcement_BattleReinforcement": 0,
		"initial_direction": 90.0,
		"ai_move_group": 0,
		"ai_target_move_x": -1,
		"ai_target_move_y": -1,
		"ai_skill_function": "",
		"ai_attack": "",
		"ai_move": "",
		"ai_heal": "",
		"ai_skill": "",
		"ai_use": "",
		"skill_group_id": 21182,
		"gear_GearGear": 36015,
		"gear_rank": 5,
		"proficiency_UnitProficiency": 6,
		"level": 80,
		"hp": 87,
		"strength": 76,
		"vitality": 63,
		"intelligence": 27,
		"mind": 39,
		"agility": 72,
		"dexterity": 74,
		"lucky": 29,
		"parameter_table_BattleEnemyParameterTable": 0,
		"parameter_deviation_table_BattleEnemyParameterDeviationTable": 0,
		"acquire_skill_group_id": 0,
		"level_correction": 0,
		"group_id": 2,
		"ai_script_id_BattleAIScript": 0
	},
	{
		"ID": 91836,
		"stage_BattleStage": 221051021,
		"unit_UnitUnit": 3830003,
		"money": 400,
		"initial_coordinate_x": 1,
		"initial_coordinate_y": 6,
		"reinforcement_BattleReinforcement": 278,
		"initial_direction": 90.0,
		"ai_move_group": 0,
		"ai_target_move_x": -1,
		"ai_target_move_y": -1,
		"ai_skill_function": "",
		"ai_attack": "",
		"ai_move": "",
		"ai_heal": "",
		"ai_skill": "",
		"ai_use": "",
		"skill_group_id": 21182,
		"gear_GearGear": 36015,
		"gear_rank": 5,
		"proficiency_UnitProficiency": 6,
		"level": 80,
		"hp": 86,
		"strength": 77,
		"vitality": 59,
		"intelligence": 31,
		"mind": 41,
		"agility": 72,
		"dexterity": 75,
		"lucky": 30,
		"parameter_table_BattleEnemyParameterTable": 0,
		"parameter_deviation_table_BattleEnemyParameterDeviationTable": 0,
		"acquire_skill_group_id": 0,
		"level_correction": 0,
		"group_id": 3,
		"ai_script_id_BattleAIScript": 0
	},
	{
		"ID": 91837,
		"stage_BattleStage": 221051021,
		"unit_UnitUnit": 3830003,
		"money": 400,
		"initial_coordinate_x": 2,
		"initial_coordinate_y": 5,
		"reinforcement_BattleReinforcement": 278,
		"initial_direction": 90.0,
		"ai_move_group": 0,
		"ai_target_move_x": -1,
		"ai_target_move_y": -1,
		"ai_skill_function": "",
		"ai_attack": "",
		"ai_move": "",
		"ai_heal": "",
		"ai_skill": "",
		"ai_use": "",
		"skill_group_id": 21182,
		"gear_GearGear": 36015,
		"gear_rank": 5,
		"proficiency_UnitProficiency": 6,
		"level": 80,
		"hp": 89,
		"strength": 75,
		"vitality": 61,
		"intelligence": 29,
		"mind": 41,
		"agility": 73,
		"dexterity": 76,
		"lucky": 31,
		"parameter_table_BattleEnemyParameterTable": 0,
		"parameter_deviation_table_BattleEnemyParameterDeviationTable": 0,
		"acquire_skill_group_id": 0,
		"level_correction": 0,
		"group_id": 3,
		"ai_script_id_BattleAIScript": 0
	},
	{
		"ID": 91838,
		"stage_BattleStage": 221051021,
		"unit_UnitUnit": 3830003,
		"money": 400,
		"initial_coordinate_x": 2,
		"initial_coordinate_y": 9,
		"reinforcement_BattleReinforcement": 278,
		"initial_direction": 90.0,
		"ai_move_group": 0,
		"ai_target_move_x": -1,
		"ai_target_move_y": -1,
		"ai_skill_function": "",
		"ai_attack": "",
		"ai_move": "",
		"ai_heal": "",
		"ai_skill": "",
		"ai_use": "",
		"skill_group_id": 21182,
		"gear_GearGear": 36015,
		"gear_rank": 5,
		"proficiency_UnitProficiency": 6,
		"level": 80,
		"hp": 84,
		"strength": 75,
		"vitality": 61,
		"intelligence": 28,
		"mind": 43,
		"agility": 76,
		"dexterity": 72,
		"lucky": 27,
		"parameter_table_BattleEnemyParameterTable": 0,
		"parameter_deviation_table_BattleEnemyParameterDeviationTable": 0,
		"acquire_skill_group_id": 0,
		"level_correction": 0,
		"group_id": 3,
		"ai_script_id_BattleAIScript": 0
	},
	{
		"ID": 91839,
		"stage_BattleStage": 221051021,
		"unit_UnitUnit": 3830003,
		"money": 400,
		"initial_coordinate_x": 15,
		"initial_coordinate_y": 8,
		"reinforcement_BattleReinforcement": 279,
		"initial_direction": 90.0,
		"ai_move_group": 0,
		"ai_target_move_x": -1,
		"ai_target_move_y": -1,
		"ai_skill_function": "",
		"ai_attack": "",
		"ai_move": "",
		"ai_heal": "",
		"ai_skill": "",
		"ai_use": "",
		"skill_group_id": 21182,
		"gear_GearGear": 36015,
		"gear_rank": 5,
		"proficiency_UnitProficiency": 6,
		"level": 80,
		"hp": 84,
		"strength": 78,
		"vitality": 58,
		"intelligence": 29,
		"mind": 39,
		"agility": 71,
		"dexterity": 74,
		"lucky": 30,
		"parameter_table_BattleEnemyParameterTable": 0,
		"parameter_deviation_table_BattleEnemyParameterDeviationTable": 0,
		"acquire_skill_group_id": 0,
		"level_correction": 0,
		"group_id": 4,
		"ai_script_id_BattleAIScript": 0
	},
	{
		"ID": 91840,
		"stage_BattleStage": 221051021,
		"unit_UnitUnit": 3830003,
		"money": 400,
		"initial_coordinate_x": 17,
		"initial_coordinate_y": 8,
		"reinforcement_BattleReinforcement": 279,
		"initial_direction": 90.0,
		"ai_move_group": 0,
		"ai_target_move_x": -1,
		"ai_target_move_y": -1,
		"ai_skill_function": "",
		"ai_attack": "",
		"ai_move": "",
		"ai_heal": "",
		"ai_skill": "",
		"ai_use": "",
		"skill_group_id": 21182,
		"gear_GearGear": 36015,
		"gear_rank": 5,
		"proficiency_UnitProficiency": 6,
		"level": 80,
		"hp": 88,
		"strength": 75,
		"vitality": 58,
		"intelligence": 27,
		"mind": 40,
		"agility": 72,
		"dexterity": 73,
		"lucky": 31,
		"parameter_table_BattleEnemyParameterTable": 0,
		"parameter_deviation_table_BattleEnemyParameterDeviationTable": 0,
		"acquire_skill_group_id": 0,
		"level_correction": 0,
		"group_id": 4,
		"ai_script_id_BattleAIScript": 0
	},
	{
		"ID": 91841,
		"stage_BattleStage": 221051021,
		"unit_UnitUnit": 3830003,
		"money": 400,
		"initial_coordinate_x": 13,
		"initial_coordinate_y": 3,
		"reinforcement_BattleReinforcement": 277,
		"initial_direction": 0.0,
		"ai_move_group": 0,
		"ai_target_move_x": -1,
		"ai_target_move_y": -1,
		"ai_skill_function": "",
		"ai_attack": "IF(panel_move_distance <= 7, 1, 0)",
		"ai_move": "",
		"ai_heal": "",
		"ai_skill": "",
		"ai_use": "",
		"skill_group_id": 21182,
		"gear_GearGear": 36015,
		"gear_rank": 5,
		"proficiency_UnitProficiency": 6,
		"level": 80,
		"hp": 88,
		"strength": 78,
		"vitality": 61,
		"intelligence": 27,
		"mind": 39,
		"agility": 71,
		"dexterity": 71,
		"lucky": 28,
		"parameter_table_BattleEnemyParameterTable": 0,
		"parameter_deviation_table_BattleEnemyParameterDeviationTable": 0,
		"acquire_skill_group_id": 0,
		"level_correction": 0,
		"group_id": 5,
		"ai_script_id_BattleAIScript": 0
	},
	{
		"ID": 91842,
		"stage_BattleStage": 221051021,
		"unit_UnitUnit": 3830003,
		"money": 400,
		"initial_coordinate_x": 14,
		"initial_coordinate_y": 3,
		"reinforcement_BattleReinforcement": 277,
		"initial_direction": 0.0,
		"ai_move_group": 0,
		"ai_target_move_x": -1,
		"ai_target_move_y": -1,
		"ai_skill_function": "",
		"ai_attack": "IF(panel_move_distance <= 7, 1, 0)",
		"ai_move": "",
		"ai_heal": "",
		"ai_skill": "",
		"ai_use": "",
		"skill_group_id": 21182,
		"gear_GearGear": 36015,
		"gear_rank": 5,
		"proficiency_UnitProficiency": 6,
		"level": 80,
		"hp": 86,
		"strength": 77,
		"vitality": 62,
		"intelligence": 29,
		"mind": 43,
		"agility": 73,
		"dexterity": 74,
		"lucky": 27,
		"parameter_table_BattleEnemyParameterTable": 0,
		"parameter_deviation_table_BattleEnemyParameterDeviationTable": 0,
		"acquire_skill_group_id": 0,
		"level_correction": 0,
		"group_id": 5,
		"ai_script_id_BattleAIScript": 0
	},
	{
		"ID": 91843,
		"stage_BattleStage": 221051021,
		"unit_UnitUnit": 3830003,
		"money": 400,
		"initial_coordinate_x": 19,
		"initial_coordinate_y": 3,
		"reinforcement_BattleReinforcement": 0,
		"initial_direction": 0.0,
		"ai_move_group": 0,
		"ai_target_move_x": -1,
		"ai_target_move_y": -1,
		"ai_skill_function": "",
		"ai_attack": "IF(panel_move_distance <= 7, 1, 0)",
		"ai_move": "",
		"ai_heal": "",
		"ai_skill": "",
		"ai_use": "",
		"skill_group_id": 21182,
		"gear_GearGear": 36015,
		"gear_rank": 5,
		"proficiency_UnitProficiency": 6,
		"level": 80,
		"hp": 88,
		"strength": 77,
		"vitality": 59,
		"intelligence": 28,
		"mind": 42,
		"agility": 75,
		"dexterity": 72,
		"lucky": 26,
		"parameter_table_BattleEnemyParameterTable": 0,
		"parameter_deviation_table_BattleEnemyParameterDeviationTable": 0,
		"acquire_skill_group_id": 0,
		"level_correction": 0,
		"group_id": 1,
		"ai_script_id_BattleAIScript": 0
	},
	{
		"ID": 91844,
		"stage_BattleStage": 221051021,
		"unit_UnitUnit": 3830003,
		"money": 400,
		"initial_coordinate_x": 22,
		"initial_coordinate_y": 3,
		"reinforcement_BattleReinforcement": 0,
		"initial_direction": 270.0,
		"ai_move_group": 0,
		"ai_target_move_x": -1,
		"ai_target_move_y": -1,
		"ai_skill_function": "",
		"ai_attack": "IF(panel_move_distance <= 7, 1, 0)",
		"ai_move": "",
		"ai_heal": "",
		"ai_skill": "",
		"ai_use": "",
		"skill_group_id": 21182,
		"gear_GearGear": 36015,
		"gear_rank": 5,
		"proficiency_UnitProficiency": 6,
		"level": 80,
		"hp": 88,
		"strength": 76,
		"vitality": 58,
		"intelligence": 32,
		"mind": 39,
		"agility": 73,
		"dexterity": 74,
		"lucky": 30,
		"parameter_table_BattleEnemyParameterTable": 0,
		"parameter_deviation_table_BattleEnemyParameterDeviationTable": 0,
		"acquire_skill_group_id": 0,
		"level_correction": 0,
		"group_id": 1,
		"ai_script_id_BattleAIScript": 0
	},
	{
		"ID": 91845,
		"stage_BattleStage": 221051021,
		"unit_UnitUnit": 3830003,
		"money": 400,
		"initial_coordinate_x": 8,
		"initial_coordinate_y": 9,
		"reinforcement_BattleReinforcement": 2,
		"initial_direction": 270.0,
		"ai_move_group": 0,
		"ai_target_move_x": -1,
		"ai_target_move_y": -1,
		"ai_skill_function": "",
		"ai_attack": "IF(panel_move_distance <= 7, 1, 0)",
		"ai_move": "",
		"ai_heal": "",
		"ai_skill": "",
		"ai_use": "",
		"skill_group_id": 21182,
		"gear_GearGear": 36015,
		"gear_rank": 5,
		"proficiency_UnitProficiency": 6,
		"level": 80,
		"hp": 86,
		"strength": 79,
		"vitality": 61,
		"intelligence": 32,
		"mind": 41,
		"agility": 75,
		"dexterity": 73,
		"lucky": 29,
		"parameter_table_BattleEnemyParameterTable": 0,
		"parameter_deviation_table_BattleEnemyParameterDeviationTable": 0,
		"acquire_skill_group_id": 0,
		"level_correction": 0,
		"group_id": 1,
		"ai_script_id_BattleAIScript": 0
	},
	{
		"ID": 91846,
		"stage_BattleStage": 221051021,
		"unit_UnitUnit": 3830003,
		"money": 400,
		"initial_coordinate_x": 8,
		"initial_coordinate_y": 8,
		"reinforcement_BattleReinforcement": 2,
		"initial_direction": 270.0,
		"ai_move_group": 0,
		"ai_target_move_x": -1,
		"ai_target_move_y": -1,
		"ai_skill_function": "",
		"ai_attack": "IF(panel_move_distance <= 7, 1, 0)",
		"ai_move": "",
		"ai_heal": "",
		"ai_skill": "",
		"ai_use": "",
		"skill_group_id": 21182,
		"gear_GearGear": 36015,
		"gear_rank": 5,
		"proficiency_UnitProficiency": 6,
		"level": 80,
		"hp": 87,
		"strength": 80,
		"vitality": 59,
		"intelligence": 32,
		"mind": 42,
		"agility": 74,
		"dexterity": 75,
		"lucky": 27,
		"parameter_table_BattleEnemyParameterTable": 0,
		"parameter_deviation_table_BattleEnemyParameterDeviationTable": 0,
		"acquire_skill_group_id": 0,
		"level_correction": 0,
		"group_id": 1,
		"ai_script_id_BattleAIScript": 0
	},
	{
		"ID": 91847,
		"stage_BattleStage": 221051021,
		"unit_UnitUnit": 3830003,
		"money": 400,
		"initial_coordinate_x": 4,
		"initial_coordinate_y": 9,
		"reinforcement_BattleReinforcement": 2,
		"initial_direction": 90.0,
		"ai_move_group": 0,
		"ai_target_move_x": -1,
		"ai_target_move_y": -1,
		"ai_skill_function": "",
		"ai_attack": "IF(panel_move_distance <= 7, 1, 0)",
		"ai_move": "",
		"ai_heal": "",
		"ai_skill": "",
		"ai_use": "",
		"skill_group_id": 21182,
		"gear_GearGear": 36015,
		"gear_rank": 5,
		"proficiency_UnitProficiency": 6,
		"level": 80,
		"hp": 89,
		"strength": 80,
		"vitality": 63,
		"intelligence": 27,
		"mind": 42,
		"agility": 71,
		"dexterity": 75,
		"lucky": 27,
		"parameter_table_BattleEnemyParameterTable": 0,
		"parameter_deviation_table_BattleEnemyParameterDeviationTable": 0,
		"acquire_skill_group_id": 0,
		"level_correction": 0,
		"group_id": 1,
		"ai_script_id_BattleAIScript": 0
	},
	{
		"ID": 91848,
		"stage_BattleStage": 221051021,
		"unit_UnitUnit": 3830003,
		"money": 400,
		"initial_coordinate_x": 4,
		"initial_coordinate_y": 8,
		"reinforcement_BattleReinforcement": 2,
		"initial_direction": 90.0,
		"ai_move_group": 0,
		"ai_target_move_x": -1,
		"ai_target_move_y": -1,
		"ai_skill_function": "",
		"ai_attack": "IF(panel_move_distance <= 7, 1, 0)",
		"ai_move": "",
		"ai_heal": "",
		"ai_skill": "",
		"ai_use": "",
		"skill_group_id": 21182,
		"gear_GearGear": 36015,
		"gear_rank": 5,
		"proficiency_UnitProficiency": 6,
		"level": 80,
		"hp": 87,
		"strength": 79,
		"vitality": 59,
		"intelligence": 29,
		"mind": 41,
		"agility": 74,
		"dexterity": 76,
		"lucky": 27,
		"parameter_table_BattleEnemyParameterTable": 0,
		"parameter_deviation_table_BattleEnemyParameterDeviationTable": 0,
		"acquire_skill_group_id": 0,
		"level_correction": 0,
		"group_id": 1,
		"ai_script_id_BattleAIScript": 0
	},
	{
		"ID": 91849,
		"stage_BattleStage": 221051021,
		"unit_UnitUnit": 3830006,
		"money": 400,
		"initial_coordinate_x": 14,
		"initial_coordinate_y": 7,
		"reinforcement_BattleReinforcement": 0,
		"initial_direction": 90.0,
		"ai_move_group": 0,
		"ai_target_move_x": -1,
		"ai_target_move_y": -1,
		"ai_skill_function": "",
		"ai_attack": "",
		"ai_move": "",
		"ai_heal": "",
		"ai_skill": "",
		"ai_use": "",
		"skill_group_id": 21183,
		"gear_GearGear": 66004,
		"gear_rank": 5,
		"proficiency_UnitProficiency": 6,
		"level": 80,
		"hp": 86,
		"strength": 28,
		"vitality": 31,
		"intelligence": 78,
		"mind": 72,
		"agility": 41,
		"dexterity": 41,
		"lucky": 28,
		"parameter_table_BattleEnemyParameterTable": 0,
		"parameter_deviation_table_BattleEnemyParameterDeviationTable": 0,
		"acquire_skill_group_id": 0,
		"level_correction": 0,
		"group_id": 2,
		"ai_script_id_BattleAIScript": 0
	},
	{
		"ID": 91850,
		"stage_BattleStage": 221051021,
		"unit_UnitUnit": 3830006,
		"money": 400,
		"initial_coordinate_x": 16,
		"initial_coordinate_y": 11,
		"reinforcement_BattleReinforcement": 279,
		"initial_direction": 90.0,
		"ai_move_group": 0,
		"ai_target_move_x": -1,
		"ai_target_move_y": -1,
		"ai_skill_function": "",
		"ai_attack": "",
		"ai_move": "",
		"ai_heal": "",
		"ai_skill": "",
		"ai_use": "",
		"skill_group_id": 21183,
		"gear_GearGear": 66004,
		"gear_rank": 5,
		"proficiency_UnitProficiency": 6,
		"level": 80,
		"hp": 83,
		"strength": 28,
		"vitality": 29,
		"intelligence": 76,
		"mind": 76,
		"agility": 42,
		"dexterity": 42,
		"lucky": 30,
		"parameter_table_BattleEnemyParameterTable": 0,
		"parameter_deviation_table_BattleEnemyParameterDeviationTable": 0,
		"acquire_skill_group_id": 0,
		"level_correction": 0,
		"group_id": 4,
		"ai_script_id_BattleAIScript": 0
	},
	{
		"ID": 91851,
		"stage_BattleStage": 221051021,
		"unit_UnitUnit": 3830006,
		"money": 400,
		"initial_coordinate_x": 16,
		"initial_coordinate_y": 3,
		"reinforcement_BattleReinforcement": 277,
		"initial_direction": 270.0,
		"ai_move_group": 0,
		"ai_target_move_x": -1,
		"ai_target_move_y": -1,
		"ai_skill_function": "",
		"ai_attack": "IF(panel_move_distance <= 7, 1, 0)",
		"ai_move": "",
		"ai_heal": "",
		"ai_skill": "",
		"ai_use": "",
		"skill_group_id": 21183,
		"gear_GearGear": 66004,
		"gear_rank": 5,
		"proficiency_UnitProficiency": 6,
		"level": 80,
		"hp": 82,
		"strength": 29,
		"vitality": 30,
		"intelligence": 80,
		"mind": 75,
		"agility": 41,
		"dexterity": 45,
		"lucky": 29,
		"parameter_table_BattleEnemyParameterTable": 0,
		"parameter_deviation_table_BattleEnemyParameterDeviationTable": 0,
		"acquire_skill_group_id": 0,
		"level_correction": 0,
		"group_id": 5,
		"ai_script_id_BattleAIScript": 0
	},
	{
		"ID": 91852,
		"stage_BattleStage": 221051021,
		"unit_UnitUnit": 3830006,
		"money": 400,
		"initial_coordinate_x": 12,
		"initial_coordinate_y": 3,
		"reinforcement_BattleReinforcement": 277,
		"initial_direction": 270.0,
		"ai_move_group": 0,
		"ai_target_move_x": -1,
		"ai_target_move_y": -1,
		"ai_skill_function": "",
		"ai_attack": "IF(panel_move_distance <= 7, 1, 0)",
		"ai_move": "",
		"ai_heal": "",
		"ai_skill": "",
		"ai_use": "",
		"skill_group_id": 21183,
		"gear_GearGear": 66004,
		"gear_rank": 5,
		"proficiency_UnitProficiency": 6,
		"level": 80,
		"hp": 84,
		"strength": 31,
		"vitality": 33,
		"intelligence": 77,
		"mind": 71,
		"agility": 46,
		"dexterity": 42,
		"lucky": 28,
		"parameter_table_BattleEnemyParameterTable": 0,
		"parameter_deviation_table_BattleEnemyParameterDeviationTable": 0,
		"acquire_skill_group_id": 0,
		"level_correction": 0,
		"group_id": 5,
		"ai_script_id_BattleAIScript": 0
	},
	{
		"ID": 91853,
		"stage_BattleStage": 221051021,
		"unit_UnitUnit": 3830006,
		"money": 400,
		"initial_coordinate_x": 17,
		"initial_coordinate_y": 3,
		"reinforcement_BattleReinforcement": 277,
		"initial_direction": 270.0,
		"ai_move_group": 0,
		"ai_target_move_x": -1,
		"ai_target_move_y": -1,
		"ai_skill_function": "",
		"ai_attack": "IF(panel_move_distance <= 7, 1, 0)",
		"ai_move": "",
		"ai_heal": "",
		"ai_skill": "",
		"ai_use": "",
		"skill_group_id": 21183,
		"gear_GearGear": 66004,
		"gear_rank": 5,
		"proficiency_UnitProficiency": 6,
		"level": 80,
		"hp": 83,
		"strength": 27,
		"vitality": 30,
		"intelligence": 77,
		"mind": 73,
		"agility": 45,
		"dexterity": 41,
		"lucky": 29,
		"parameter_table_BattleEnemyParameterTable": 0,
		"parameter_deviation_table_BattleEnemyParameterDeviationTable": 0,
		"acquire_skill_group_id": 0,
		"level_correction": 0,
		"group_id": 5,
		"ai_script_id_BattleAIScript": 0
	},
	{
		"ID": 91854,
		"stage_BattleStage": 221051021,
		"unit_UnitUnit": 3830006,
		"money": 400,
		"initial_coordinate_x": 17,
		"initial_coordinate_y": 1,
		"reinforcement_BattleReinforcement": 277,
		"initial_direction": 270.0,
		"ai_move_group": 0,
		"ai_target_move_x": -1,
		"ai_target_move_y": -1,
		"ai_skill_function": "",
		"ai_attack": "IF(panel_move_distance <= 7, 1, 0)",
		"ai_move": "",
		"ai_heal": "",
		"ai_skill": "",
		"ai_use": "",
		"skill_group_id": 21183,
		"gear_GearGear": 66004,
		"gear_rank": 5,
		"proficiency_UnitProficiency": 6,
		"level": 80,
		"hp": 87,
		"strength": 27,
		"vitality": 29,
		"intelligence": 76,
		"mind": 75,
		"agility": 44,
		"dexterity": 42,
		"lucky": 29,
		"parameter_table_BattleEnemyParameterTable": 0,
		"parameter_deviation_table_BattleEnemyParameterDeviationTable": 0,
		"acquire_skill_group_id": 0,
		"level_correction": 0,
		"group_id": 5,
		"ai_script_id_BattleAIScript": 0
	},
	{
		"ID": 91855,
		"stage_BattleStage": 221051021,
		"unit_UnitUnit": 3830004,
		"money": 400,
		"initial_coordinate_x": 13,
		"initial_coordinate_y": 5,
		"reinforcement_BattleReinforcement": 0,
		"initial_direction": 90.0,
		"ai_move_group": 0,
		"ai_target_move_x": -1,
		"ai_target_move_y": -1,
		"ai_skill_function": "",
		"ai_attack": "",
		"ai_move": "",
		"ai_heal": "",
		"ai_skill": "",
		"ai_use": "",
		"skill_group_id": 21184,
		"gear_GearGear": 46009,
		"gear_rank": 5,
		"proficiency_UnitProficiency": 6,
		"level": 80,
		"hp": 84,
		"strength": 65,
		"vitality": 60,
		"intelligence": 29,
		"mind": 42,
		"agility": 47,
		"dexterity": 89,
		"lucky": 30,
		"parameter_table_BattleEnemyParameterTable": 0,
		"parameter_deviation_table_BattleEnemyParameterDeviationTable": 0,
		"acquire_skill_group_id": 0,
		"level_correction": 0,
		"group_id": 2,
		"ai_script_id_BattleAIScript": 0
	},
	{
		"ID": 91856,
		"stage_BattleStage": 221051021,
		"unit_UnitUnit": 3830004,
		"money": 400,
		"initial_coordinate_x": 16,
		"initial_coordinate_y": 8,
		"reinforcement_BattleReinforcement": 279,
		"initial_direction": 90.0,
		"ai_move_group": 0,
		"ai_target_move_x": -1,
		"ai_target_move_y": -1,
		"ai_skill_function": "",
		"ai_attack": "",
		"ai_move": "",
		"ai_heal": "",
		"ai_skill": "",
		"ai_use": "",
		"skill_group_id": 21184,
		"gear_GearGear": 46009,
		"gear_rank": 5,
		"proficiency_UnitProficiency": 6,
		"level": 80,
		"hp": 85,
		"strength": 63,
		"vitality": 62,
		"intelligence": 31,
		"mind": 43,
		"agility": 44,
		"dexterity": 90,
		"lucky": 27,
		"parameter_table_BattleEnemyParameterTable": 0,
		"parameter_deviation_table_BattleEnemyParameterDeviationTable": 0,
		"acquire_skill_group_id": 0,
		"level_correction": 0,
		"group_id": 4,
		"ai_script_id_BattleAIScript": 0
	},
	{
		"ID": 91857,
		"stage_BattleStage": 221051021,
		"unit_UnitUnit": 3830004,
		"money": 400,
		"initial_coordinate_x": 14,
		"initial_coordinate_y": 1,
		"reinforcement_BattleReinforcement": 277,
		"initial_direction": 0.0,
		"ai_move_group": 0,
		"ai_target_move_x": -1,
		"ai_target_move_y": -1,
		"ai_skill_function": "",
		"ai_attack": "IF(panel_move_distance <= 7, 1, 0)",
		"ai_move": "",
		"ai_heal": "",
		"ai_skill": "",
		"ai_use": "",
		"skill_group_id": 21184,
		"gear_GearGear": 46009,
		"gear_rank": 5,
		"proficiency_UnitProficiency": 6,
		"level": 80,
		"hp": 87,
		"strength": 65,
		"vitality": 60,
		"intelligence": 31,
		"mind": 42,
		"agility": 45,
		"dexterity": 89,
		"lucky": 29,
		"parameter_table_BattleEnemyParameterTable": 0,
		"parameter_deviation_table_BattleEnemyParameterDeviationTable": 0,
		"acquire_skill_group_id": 0,
		"level_correction": 0,
		"group_id": 5,
		"ai_script_id_BattleAIScript": 0
	},
	{
		"ID": 91858,
		"stage_BattleStage": 221051021,
		"unit_UnitUnit": 3830004,
		"money": 400,
		"initial_coordinate_x": 22,
		"initial_coordinate_y": 4,
		"reinforcement_BattleReinforcement": 0,
		"initial_direction": 270.0,
		"ai_move_group": 0,
		"ai_target_move_x": -1,
		"ai_target_move_y": -1,
		"ai_skill_function": "",
		"ai_attack": "",
		"ai_move": "",
		"ai_heal": "",
		"ai_skill": "",
		"ai_use": "",
		"skill_group_id": 21184,
		"gear_GearGear": 46009,
		"gear_rank": 5,
		"proficiency_UnitProficiency": 6,
		"level": 80,
		"hp": 83,
		"strength": 62,
		"vitality": 62,
		"intelligence": 32,
		"mind": 42,
		"agility": 47,
		"dexterity": 90,
		"lucky": 28,
		"parameter_table_BattleEnemyParameterTable": 0,
		"parameter_deviation_table_BattleEnemyParameterDeviationTable": 0,
		"acquire_skill_group_id": 0,
		"level_correction": 0,
		"group_id": 1,
		"ai_script_id_BattleAIScript": 0
	},
	{
		"ID": 91859,
		"stage_BattleStage": 221051021,
		"unit_UnitUnit": 3830004,
		"money": 400,
		"initial_coordinate_x": 16,
		"initial_coordinate_y": 1,
		"reinforcement_BattleReinforcement": 277,
		"initial_direction": 270.0,
		"ai_move_group": 0,
		"ai_target_move_x": -1,
		"ai_target_move_y": -1,
		"ai_skill_function": "",
		"ai_attack": "IF(panel_move_distance <= 7, 1, 0)",
		"ai_move": "",
		"ai_heal": "",
		"ai_skill": "",
		"ai_use": "",
		"skill_group_id": 21184,
		"gear_GearGear": 46009,
		"gear_rank": 5,
		"proficiency_UnitProficiency": 6,
		"level": 80,
		"hp": 85,
		"strength": 61,
		"vitality": 62,
		"intelligence": 27,
		"mind": 39,
		"agility": 45,
		"dexterity": 88,
		"lucky": 27,
		"parameter_table_BattleEnemyParameterTable": 0,
		"parameter_deviation_table_BattleEnemyParameterDeviationTable": 0,
		"acquire_skill_group_id": 0,
		"level_correction": 0,
		"group_id": 5,
		"ai_script_id_BattleAIScript": 0
	}
]