[
	{
		"ID": 70936,
		"stage_BattleStage": 221041021,
		"unit_UnitUnit": 830003,
		"money": 375,
		"initial_coordinate_x": 9,
		"initial_coordinate_y": 1,
		"reinforcement_BattleReinforcement": 0,
		"initial_direction": 90.0,
		"ai_move_group": 0,
		"ai_target_move_x": -1,
		"ai_target_move_y": -1,
		"ai_skill_function": "",
		"ai_attack": "0.0",
		"ai_move": "0.0",
		"ai_heal": "",
		"ai_skill": "",
		"ai_use": "",
		"skill_group_id": 18345,
		"gear_GearGear": 35004,
		"gear_rank": 5,
		"proficiency_UnitProficiency": 5,
		"level": 75,
		"hp": 126,
		"strength": 81,
		"vitality": 108,
		"intelligence": 9,
		"mind": 56,
		"agility": 73,
		"dexterity": 78,
		"lucky": 45,
		"parameter_table_BattleEnemyParameterTable": 0,
		"parameter_deviation_table_BattleEnemyParameterDeviationTable": 0,
		"acquire_skill_group_id": 0,
		"level_correction": 0,
		"group_id": 1,
		"ai_script_id_BattleAIScript": 0
	},
	{
		"ID": 70937,
		"stage_BattleStage": 221041021,
		"unit_UnitUnit": 830003,
		"money": 375,
		"initial_coordinate_x": 8,
		"initial_coordinate_y": 2,
		"reinforcement_BattleReinforcement": 0,
		"initial_direction": 90.0,
		"ai_move_group": 0,
		"ai_target_move_x": -1,
		"ai_target_move_y": -1,
		"ai_skill_function": "",
		"ai_attack": "0.0",
		"ai_move": "0.0",
		"ai_heal": "",
		"ai_skill": "",
		"ai_use": "",
		"skill_group_id": 18345,
		"gear_GearGear": 35004,
		"gear_rank": 5,
		"proficiency_UnitProficiency": 5,
		"level": 75,
		"hp": 128,
		"strength": 86,
		"vitality": 104,
		"intelligence": 6,
		"mind": 59,
		"agility": 74,
		"dexterity": 80,
		"lucky": 46,
		"parameter_table_BattleEnemyParameterTable": 0,
		"parameter_deviation_table_BattleEnemyParameterDeviationTable": 0,
		"acquire_skill_group_id": 0,
		"level_correction": 0,
		"group_id": 1,
		"ai_script_id_BattleAIScript": 0
	},
	{
		"ID": 70938,
		"stage_BattleStage": 221041021,
		"unit_UnitUnit": 830003,
		"money": 375,
		"initial_coordinate_x": 12,
		"initial_coordinate_y": 1,
		"reinforcement_BattleReinforcement": 0,
		"initial_direction": 270.0,
		"ai_move_group": 0,
		"ai_target_move_x": -1,
		"ai_target_move_y": -1,
		"ai_skill_function": "",
		"ai_attack": "0.0",
		"ai_move": "0.0",
		"ai_heal": "",
		"ai_skill": "",
		"ai_use": "",
		"skill_group_id": 18345,
		"gear_GearGear": 35004,
		"gear_rank": 5,
		"proficiency_UnitProficiency": 5,
		"level": 75,
		"hp": 123,
		"strength": 82,
		"vitality": 105,
		"intelligence": 11,
		"mind": 57,
		"agility": 73,
		"dexterity": 82,
		"lucky": 47,
		"parameter_table_BattleEnemyParameterTable": 0,
		"parameter_deviation_table_BattleEnemyParameterDeviationTable": 0,
		"acquire_skill_group_id": 0,
		"level_correction": 0,
		"group_id": 2,
		"ai_script_id_BattleAIScript": 0
	},
	{
		"ID": 70939,
		"stage_BattleStage": 221041021,
		"unit_UnitUnit": 830003,
		"money": 375,
		"initial_coordinate_x": 13,
		"initial_coordinate_y": 2,
		"reinforcement_BattleReinforcement": 0,
		"initial_direction": 270.0,
		"ai_move_group": 0,
		"ai_target_move_x": -1,
		"ai_target_move_y": -1,
		"ai_skill_function": "",
		"ai_attack": "0.0",
		"ai_move": "0.0",
		"ai_heal": "",
		"ai_skill": "",
		"ai_use": "",
		"skill_group_id": 18345,
		"gear_GearGear": 35004,
		"gear_rank": 5,
		"proficiency_UnitProficiency": 5,
		"level": 75,
		"hp": 123,
		"strength": 84,
		"vitality": 106,
		"intelligence": 11,
		"mind": 56,
		"agility": 75,
		"dexterity": 80,
		"lucky": 45,
		"parameter_table_BattleEnemyParameterTable": 0,
		"parameter_deviation_table_BattleEnemyParameterDeviationTable": 0,
		"acquire_skill_group_id": 0,
		"level_correction": 0,
		"group_id": 2,
		"ai_script_id_BattleAIScript": 0
	},
	{
		"ID": 70940,
		"stage_BattleStage": 221041021,
		"unit_UnitUnit": 960015,
		"money": 425,
		"initial_coordinate_x": 15,
		"initial_coordinate_y": 8,
		"reinforcement_BattleReinforcement": 0,
		"initial_direction": 180.0,
		"ai_move_group": 0,
		"ai_target_move_x": -1,
		"ai_target_move_y": -1,
		"ai_skill_function": "",
		"ai_attack": "IF(panel_move_distance <= 5, 1, 0)",
		"ai_move": "1.0",
		"ai_heal": "",
		"ai_skill": "",
		"ai_use": "",
		"skill_group_id": 18342,
		"gear_GearGear": 66004,
		"gear_rank": 1,
		"proficiency_UnitProficiency": 6,
		"level": 85,
		"hp": 101,
		"strength": 9,
		"vitality": 71,
		"intelligence": 102,
		"mind": 113,
		"agility": 92,
		"dexterity": 90,
		"lucky": 54,
		"parameter_table_BattleEnemyParameterTable": 0,
		"parameter_deviation_table_BattleEnemyParameterDeviationTable": 0,
		"acquire_skill_group_id": 0,
		"level_correction": 0,
		"group_id": 0,
		"ai_script_id_BattleAIScript": 0
	},
	{
		"ID": 70941,
		"stage_BattleStage": 221041021,
		"unit_UnitUnit": 960015,
		"money": 425,
		"initial_coordinate_x": 14,
		"initial_coordinate_y": 9,
		"reinforcement_BattleReinforcement": 0,
		"initial_direction": 180.0,
		"ai_move_group": 0,
		"ai_target_move_x": -1,
		"ai_target_move_y": -1,
		"ai_skill_function": "",
		"ai_attack": "IF(panel_move_distance <= 5, 1, 0)",
		"ai_move": "1.0",
		"ai_heal": "",
		"ai_skill": "",
		"ai_use": "",
		"skill_group_id": 18342,
		"gear_GearGear": 66004,
		"gear_rank": 1,
		"proficiency_UnitProficiency": 6,
		"level": 85,
		"hp": 96,
		"strength": 10,
		"vitality": 74,
		"intelligence": 100,
		"mind": 110,
		"agility": 93,
		"dexterity": 94,
		"lucky": 52,
		"parameter_table_BattleEnemyParameterTable": 0,
		"parameter_deviation_table_BattleEnemyParameterDeviationTable": 0,
		"acquire_skill_group_id": 0,
		"level_correction": 0,
		"group_id": 0,
		"ai_script_id_BattleAIScript": 0
	},
	{
		"ID": 70942,
		"stage_BattleStage": 221041021,
		"unit_UnitUnit": 960015,
		"money": 425,
		"initial_coordinate_x": 12,
		"initial_coordinate_y": 10,
		"reinforcement_BattleReinforcement": 0,
		"initial_direction": 180.0,
		"ai_move_group": 0,
		"ai_target_move_x": -1,
		"ai_target_move_y": -1,
		"ai_skill_function": "",
		"ai_attack": "IF(panel_move_distance <= 5, 1, 0)",
		"ai_move": "1.0",
		"ai_heal": "",
		"ai_skill": "",
		"ai_use": "",
		"skill_group_id": 18342,
		"gear_GearGear": 66004,
		"gear_rank": 1,
		"proficiency_UnitProficiency": 6,
		"level": 85,
		"hp": 98,
		"strength": 11,
		"vitality": 73,
		"intelligence": 99,
		"mind": 112,
		"agility": 90,
		"dexterity": 91,
		"lucky": 51,
		"parameter_table_BattleEnemyParameterTable": 0,
		"parameter_deviation_table_BattleEnemyParameterDeviationTable": 0,
		"acquire_skill_group_id": 0,
		"level_correction": 0,
		"group_id": 0,
		"ai_script_id_BattleAIScript": 0
	},
	{
		"ID": 70943,
		"stage_BattleStage": 221041021,
		"unit_UnitUnit": 960015,
		"money": 425,
		"initial_coordinate_x": 11,
		"initial_coordinate_y": 10,
		"reinforcement_BattleReinforcement": 0,
		"initial_direction": 180.0,
		"ai_move_group": 0,
		"ai_target_move_x": -1,
		"ai_target_move_y": -1,
		"ai_skill_function": "",
		"ai_attack": "IF(panel_move_distance <= 5, 1, 0)",
		"ai_move": "1.0",
		"ai_heal": "",
		"ai_skill": "",
		"ai_use": "",
		"skill_group_id": 18344,
		"gear_GearGear": 66004,
		"gear_rank": 1,
		"proficiency_UnitProficiency": 6,
		"level": 85,
		"hp": 99,
		"strength": 9,
		"vitality": 73,
		"intelligence": 99,
		"mind": 113,
		"agility": 89,
		"dexterity": 94,
		"lucky": 49,
		"parameter_table_BattleEnemyParameterTable": 0,
		"parameter_deviation_table_BattleEnemyParameterDeviationTable": 0,
		"acquire_skill_group_id": 0,
		"level_correction": 0,
		"group_id": 0,
		"ai_script_id_BattleAIScript": 0
	},
	{
		"ID": 70944,
		"stage_BattleStage": 221041021,
		"unit_UnitUnit": 960015,
		"money": 425,
		"initial_coordinate_x": 8,
		"initial_coordinate_y": 9,
		"reinforcement_BattleReinforcement": 0,
		"initial_direction": 180.0,
		"ai_move_group": 0,
		"ai_target_move_x": -1,
		"ai_target_move_y": -1,
		"ai_skill_function": "",
		"ai_attack": "IF(panel_move_distance <= 5, 1, 0)",
		"ai_move": "1.0",
		"ai_heal": "",
		"ai_skill": "",
		"ai_use": "",
		"skill_group_id": 18344,
		"gear_GearGear": 66004,
		"gear_rank": 1,
		"proficiency_UnitProficiency": 6,
		"level": 85,
		"hp": 97,
		"strength": 9,
		"vitality": 71,
		"intelligence": 104,
		"mind": 112,
		"agility": 88,
		"dexterity": 93,
		"lucky": 51,
		"parameter_table_BattleEnemyParameterTable": 0,
		"parameter_deviation_table_BattleEnemyParameterDeviationTable": 0,
		"acquire_skill_group_id": 0,
		"level_correction": 0,
		"group_id": 0,
		"ai_script_id_BattleAIScript": 0
	},
	{
		"ID": 70945,
		"stage_BattleStage": 221041021,
		"unit_UnitUnit": 960015,
		"money": 425,
		"initial_coordinate_x": 7,
		"initial_coordinate_y": 8,
		"reinforcement_BattleReinforcement": 0,
		"initial_direction": 180.0,
		"ai_move_group": 0,
		"ai_target_move_x": -1,
		"ai_target_move_y": -1,
		"ai_skill_function": "",
		"ai_attack": "IF(panel_move_distance <= 5, 1, 0)",
		"ai_move": "1.0",
		"ai_heal": "",
		"ai_skill": "",
		"ai_use": "",
		"skill_group_id": 18344,
		"gear_GearGear": 66004,
		"gear_rank": 1,
		"proficiency_UnitProficiency": 6,
		"level": 85,
		"hp": 98,
		"strength": 12,
		"vitality": 73,
		"intelligence": 100,
		"mind": 111,
		"agility": 90,
		"dexterity": 92,
		"lucky": 50,
		"parameter_table_BattleEnemyParameterTable": 0,
		"parameter_deviation_table_BattleEnemyParameterDeviationTable": 0,
		"acquire_skill_group_id": 0,
		"level_correction": 0,
		"group_id": 0,
		"ai_script_id_BattleAIScript": 0
	},
	{
		"ID": 70946,
		"stage_BattleStage": 221041021,
		"unit_UnitUnit": 860010,
		"money": 400,
		"initial_coordinate_x": 7,
		"initial_coordinate_y": 1,
		"reinforcement_BattleReinforcement": 0,
		"initial_direction": 90.0,
		"ai_move_group": 0,
		"ai_target_move_x": -1,
		"ai_target_move_y": -1,
		"ai_skill_function": "",
		"ai_attack": "IF(panel_move_distance <= 5, 1, 0)",
		"ai_move": "0.0",
		"ai_heal": "",
		"ai_skill": "",
		"ai_use": "",
		"skill_group_id": 18343,
		"gear_GearGear": 76005,
		"gear_rank": 10,
		"proficiency_UnitProficiency": 6,
		"level": 80,
		"hp": 89,
		"strength": 7,
		"vitality": 72,
		"intelligence": 77,
		"mind": 93,
		"agility": 80,
		"dexterity": 84,
		"lucky": 48,
		"parameter_table_BattleEnemyParameterTable": 0,
		"parameter_deviation_table_BattleEnemyParameterDeviationTable": 0,
		"acquire_skill_group_id": 0,
		"level_correction": 0,
		"group_id": 0,
		"ai_script_id_BattleAIScript": 0
	},
	{
		"ID": 70947,
		"stage_BattleStage": 221041021,
		"unit_UnitUnit": 860010,
		"money": 400,
		"initial_coordinate_x": 6,
		"initial_coordinate_y": 2,
		"reinforcement_BattleReinforcement": 2,
		"initial_direction": 90.0,
		"ai_move_group": 0,
		"ai_target_move_x": -1,
		"ai_target_move_y": -1,
		"ai_skill_function": "",
		"ai_attack": "IF(panel_move_distance <= 5, 1, 0)",
		"ai_move": "0.0",
		"ai_heal": "",
		"ai_skill": "",
		"ai_use": "",
		"skill_group_id": 18343,
		"gear_GearGear": 76005,
		"gear_rank": 10,
		"proficiency_UnitProficiency": 6,
		"level": 80,
		"hp": 89,
		"strength": 10,
		"vitality": 75,
		"intelligence": 81,
		"mind": 94,
		"agility": 84,
		"dexterity": 82,
		"lucky": 51,
		"parameter_table_BattleEnemyParameterTable": 0,
		"parameter_deviation_table_BattleEnemyParameterDeviationTable": 0,
		"acquire_skill_group_id": 0,
		"level_correction": 0,
		"group_id": 0,
		"ai_script_id_BattleAIScript": 0
	},
	{
		"ID": 70948,
		"stage_BattleStage": 221041021,
		"unit_UnitUnit": 860010,
		"money": 400,
		"initial_coordinate_x": 14,
		"initial_coordinate_y": 1,
		"reinforcement_BattleReinforcement": 0,
		"initial_direction": 270.0,
		"ai_move_group": 0,
		"ai_target_move_x": -1,
		"ai_target_move_y": -1,
		"ai_skill_function": "",
		"ai_attack": "IF(panel_move_distance <= 5, 1, 0)",
		"ai_move": "0.0",
		"ai_heal": "",
		"ai_skill": "",
		"ai_use": "",
		"skill_group_id": 18343,
		"gear_GearGear": 76005,
		"gear_rank": 10,
		"proficiency_UnitProficiency": 6,
		"level": 80,
		"hp": 89,
		"strength": 8,
		"vitality": 74,
		"intelligence": 78,
		"mind": 89,
		"agility": 79,
		"dexterity": 84,
		"lucky": 51,
		"parameter_table_BattleEnemyParameterTable": 0,
		"parameter_deviation_table_BattleEnemyParameterDeviationTable": 0,
		"acquire_skill_group_id": 0,
		"level_correction": 0,
		"group_id": 0,
		"ai_script_id_BattleAIScript": 0
	},
	{
		"ID": 70949,
		"stage_BattleStage": 221041021,
		"unit_UnitUnit": 860010,
		"money": 400,
		"initial_coordinate_x": 16,
		"initial_coordinate_y": 1,
		"reinforcement_BattleReinforcement": 2,
		"initial_direction": 270.0,
		"ai_move_group": 0,
		"ai_target_move_x": -1,
		"ai_target_move_y": -1,
		"ai_skill_function": "",
		"ai_attack": "IF(panel_move_distance <= 5, 1, 0)",
		"ai_move": "0.0",
		"ai_heal": "",
		"ai_skill": "",
		"ai_use": "",
		"skill_group_id": 18343,
		"gear_GearGear": 76005,
		"gear_rank": 10,
		"proficiency_UnitProficiency": 6,
		"level": 80,
		"hp": 87,
		"strength": 8,
		"vitality": 74,
		"intelligence": 80,
		"mind": 92,
		"agility": 83,
		"dexterity": 85,
		"lucky": 48,
		"parameter_table_BattleEnemyParameterTable": 0,
		"parameter_deviation_table_BattleEnemyParameterDeviationTable": 0,
		"acquire_skill_group_id": 0,
		"level_correction": 0,
		"group_id": 0,
		"ai_script_id_BattleAIScript": 0
	},
	{
		"ID": 70950,
		"stage_BattleStage": 221041021,
		"unit_UnitUnit": 860010,
		"money": 400,
		"initial_coordinate_x": 7,
		"initial_coordinate_y": 9,
		"reinforcement_BattleReinforcement": 0,
		"initial_direction": 180.0,
		"ai_move_group": 0,
		"ai_target_move_x": -1,
		"ai_target_move_y": -1,
		"ai_skill_function": "",
		"ai_attack": "IF(panel_move_distance <= 5, 1, 0)",
		"ai_move": "0.0",
		"ai_heal": "",
		"ai_skill": "",
		"ai_use": "",
		"skill_group_id": 18343,
		"gear_GearGear": 76005,
		"gear_rank": 10,
		"proficiency_UnitProficiency": 6,
		"level": 80,
		"hp": 92,
		"strength": 9,
		"vitality": 73,
		"intelligence": 81,
		"mind": 94,
		"agility": 83,
		"dexterity": 82,
		"lucky": 47,
		"parameter_table_BattleEnemyParameterTable": 0,
		"parameter_deviation_table_BattleEnemyParameterDeviationTable": 0,
		"acquire_skill_group_id": 0,
		"level_correction": 0,
		"group_id": 0,
		"ai_script_id_BattleAIScript": 0
	},
	{
		"ID": 70951,
		"stage_BattleStage": 221041021,
		"unit_UnitUnit": 860010,
		"money": 400,
		"initial_coordinate_x": 13,
		"initial_coordinate_y": 12,
		"reinforcement_BattleReinforcement": 0,
		"initial_direction": 180.0,
		"ai_move_group": 0,
		"ai_target_move_x": -1,
		"ai_target_move_y": -1,
		"ai_skill_function": "",
		"ai_attack": "IF(panel_move_distance <= 5, 1, 0)",
		"ai_move": "0.0",
		"ai_heal": "",
		"ai_skill": "",
		"ai_use": "",
		"skill_group_id": 18341,
		"gear_GearGear": 76005,
		"gear_rank": 10,
		"proficiency_UnitProficiency": 6,
		"level": 80,
		"hp": 92,
		"strength": 10,
		"vitality": 73,
		"intelligence": 77,
		"mind": 93,
		"agility": 83,
		"dexterity": 85,
		"lucky": 48,
		"parameter_table_BattleEnemyParameterTable": 0,
		"parameter_deviation_table_BattleEnemyParameterDeviationTable": 0,
		"acquire_skill_group_id": 0,
		"level_correction": 0,
		"group_id": 0,
		"ai_script_id_BattleAIScript": 0
	},
	{
		"ID": 70952,
		"stage_BattleStage": 221041021,
		"unit_UnitUnit": 860010,
		"money": 400,
		"initial_coordinate_x": 1,
		"initial_coordinate_y": 12,
		"reinforcement_BattleReinforcement": 486,
		"initial_direction": 180.0,
		"ai_move_group": 0,
		"ai_target_move_x": -1,
		"ai_target_move_y": -1,
		"ai_skill_function": "",
		"ai_attack": "IF(panel_move_distance <= 5, 1, 0)",
		"ai_move": "0.0",
		"ai_heal": "",
		"ai_skill": "",
		"ai_use": "",
		"skill_group_id": 18343,
		"gear_GearGear": 76005,
		"gear_rank": 10,
		"proficiency_UnitProficiency": 6,
		"level": 80,
		"hp": 87,
		"strength": 12,
		"vitality": 72,
		"intelligence": 81,
		"mind": 90,
		"agility": 81,
		"dexterity": 83,
		"lucky": 48,
		"parameter_table_BattleEnemyParameterTable": 0,
		"parameter_deviation_table_BattleEnemyParameterDeviationTable": 0,
		"acquire_skill_group_id": 0,
		"level_correction": 0,
		"group_id": 0,
		"ai_script_id_BattleAIScript": 0
	},
	{
		"ID": 70953,
		"stage_BattleStage": 221041021,
		"unit_UnitUnit": 860010,
		"money": 400,
		"initial_coordinate_x": 20,
		"initial_coordinate_y": 8,
		"reinforcement_BattleReinforcement": 487,
		"initial_direction": 180.0,
		"ai_move_group": 0,
		"ai_target_move_x": -1,
		"ai_target_move_y": -1,
		"ai_skill_function": "",
		"ai_attack": "IF(panel_move_distance <= 5, 1, 0)",
		"ai_move": "0.0",
		"ai_heal": "",
		"ai_skill": "",
		"ai_use": "",
		"skill_group_id": 18343,
		"gear_GearGear": 76005,
		"gear_rank": 10,
		"proficiency_UnitProficiency": 6,
		"level": 80,
		"hp": 92,
		"strength": 7,
		"vitality": 72,
		"intelligence": 79,
		"mind": 93,
		"agility": 84,
		"dexterity": 83,
		"lucky": 50,
		"parameter_table_BattleEnemyParameterTable": 0,
		"parameter_deviation_table_BattleEnemyParameterDeviationTable": 0,
		"acquire_skill_group_id": 0,
		"level_correction": 0,
		"group_id": 0,
		"ai_script_id_BattleAIScript": 0
	},
	{
		"ID": 70954,
		"stage_BattleStage": 221041021,
		"unit_UnitUnit": 3104073,
		"money": 450,
		"initial_coordinate_x": 18,
		"initial_coordinate_y": 17,
		"reinforcement_BattleReinforcement": 0,
		"initial_direction": 180.0,
		"ai_move_group": 0,
		"ai_target_move_x": -1,
		"ai_target_move_y": -1,
		"ai_skill_function": "",
		"ai_attack": "IF( turn <=8 ,IF(panel_move_distance <= 6, 1, 0),1)",
		"ai_move": "IF(turn <8,0,1)",
		"ai_heal": "",
		"ai_skill": "",
		"ai_use": "",
		"skill_group_id": 18346,
		"gear_GearGear": 14050,
		"gear_rank": 10,
		"proficiency_UnitProficiency": 4,
		"level": 90,
		"hp": 115,
		"strength": 97,
		"vitality": 64,
		"intelligence": 62,
		"mind": 40,
		"agility": 100,
		"dexterity": 97,
		"lucky": 48,
		"parameter_table_BattleEnemyParameterTable": 0,
		"parameter_deviation_table_BattleEnemyParameterDeviationTable": 0,
		"acquire_skill_group_id": 0,
		"level_correction": 0,
		"group_id": 0,
		"ai_script_id_BattleAIScript": 0
	},
	{
		"ID": 70955,
		"stage_BattleStage": 221041021,
		"unit_UnitUnit": 3104173,
		"money": 450,
		"initial_coordinate_x": 7,
		"initial_coordinate_y": 20,
		"reinforcement_BattleReinforcement": 0,
		"initial_direction": 180.0,
		"ai_move_group": 0,
		"ai_target_move_x": -1,
		"ai_target_move_y": -1,
		"ai_skill_function": "",
		"ai_attack": "IF( turn <=8 ,IF(panel_move_distance <= 6, 1, 0),1)",
		"ai_move": "IF(turn <8,0,1)",
		"ai_heal": "",
		"ai_skill": "",
		"ai_use": "",
		"skill_group_id": 18347,
		"gear_GearGear": 14050,
		"gear_rank": 10,
		"proficiency_UnitProficiency": 4,
		"level": 90,
		"hp": 110,
		"strength": 88,
		"vitality": 61,
		"intelligence": 71,
		"mind": 42,
		"agility": 105,
		"dexterity": 96,
		"lucky": 48,
		"parameter_table_BattleEnemyParameterTable": 0,
		"parameter_deviation_table_BattleEnemyParameterDeviationTable": 0,
		"acquire_skill_group_id": 0,
		"level_correction": 0,
		"group_id": 0,
		"ai_script_id_BattleAIScript": 0
	}
]