[
	{
		"ID": 12430,
		"stage_BattleStage": 231002009,
		"unit_UnitUnit": 830001,
		"money": 45,
		"initial_coordinate_x": 1,
		"initial_coordinate_y": 10,
		"reinforcement_BattleReinforcement": 2,
		"initial_direction": 90.0,
		"ai_move_group": 0,
		"ai_target_move_x": -1,
		"ai_target_move_y": -1,
		"ai_skill_function": "",
		"ai_attack": "",
		"ai_move": "",
		"ai_heal": "",
		"ai_skill": "",
		"ai_use": "",
		"skill_group_id": 0,
		"gear_GearGear": 30001,
		"gear_rank": 1,
		"proficiency_UnitProficiency": 1,
		"level": 9,
		"hp": 18,
		"strength": 10,
		"vitality": 8,
		"intelligence": 1,
		"mind": 5,
		"agility": 12,
		"dexterity": 9,
		"lucky": 3,
		"parameter_table_BattleEnemyParameterTable": 0,
		"parameter_deviation_table_BattleEnemyParameterDeviationTable": 0,
		"acquire_skill_group_id": 0,
		"level_correction": 0,
		"group_id": 0,
		"ai_script_id_BattleAIScript": 0
	},
	{
		"ID": 12431,
		"stage_BattleStage": 231002009,
		"unit_UnitUnit": 830001,
		"money": 50,
		"initial_coordinate_x": 1,
		"initial_coordinate_y": 8,
		"reinforcement_BattleReinforcement": 2,
		"initial_direction": 90.0,
		"ai_move_group": 0,
		"ai_target_move_x": -1,
		"ai_target_move_y": -1,
		"ai_skill_function": "",
		"ai_attack": "",
		"ai_move": "",
		"ai_heal": "",
		"ai_skill": "",
		"ai_use": "",
		"skill_group_id": 0,
		"gear_GearGear": 30001,
		"gear_rank": 1,
		"proficiency_UnitProficiency": 1,
		"level": 10,
		"hp": 18,
		"strength": 10,
		"vitality": 9,
		"intelligence": 1,
		"mind": 5,
		"agility": 13,
		"dexterity": 10,
		"lucky": 3,
		"parameter_table_BattleEnemyParameterTable": 0,
		"parameter_deviation_table_BattleEnemyParameterDeviationTable": 0,
		"acquire_skill_group_id": 0,
		"level_correction": 0,
		"group_id": 0,
		"ai_script_id_BattleAIScript": 0
	},
	{
		"ID": 12432,
		"stage_BattleStage": 231002009,
		"unit_UnitUnit": 830001,
		"money": 45,
		"initial_coordinate_x": 1,
		"initial_coordinate_y": 5,
		"reinforcement_BattleReinforcement": 2,
		"initial_direction": 90.0,
		"ai_move_group": 0,
		"ai_target_move_x": -1,
		"ai_target_move_y": -1,
		"ai_skill_function": "",
		"ai_attack": "",
		"ai_move": "",
		"ai_heal": "",
		"ai_skill": "",
		"ai_use": "",
		"skill_group_id": 0,
		"gear_GearGear": 30001,
		"gear_rank": 1,
		"proficiency_UnitProficiency": 1,
		"level": 9,
		"hp": 18,
		"strength": 10,
		"vitality": 8,
		"intelligence": 1,
		"mind": 5,
		"agility": 12,
		"dexterity": 9,
		"lucky": 3,
		"parameter_table_BattleEnemyParameterTable": 0,
		"parameter_deviation_table_BattleEnemyParameterDeviationTable": 0,
		"acquire_skill_group_id": 0,
		"level_correction": 0,
		"group_id": 0,
		"ai_script_id_BattleAIScript": 0
	},
	{
		"ID": 12433,
		"stage_BattleStage": 231002009,
		"unit_UnitUnit": 830001,
		"money": 50,
		"initial_coordinate_x": 1,
		"initial_coordinate_y": 2,
		"reinforcement_BattleReinforcement": 2,
		"initial_direction": 90.0,
		"ai_move_group": 0,
		"ai_target_move_x": -1,
		"ai_target_move_y": -1,
		"ai_skill_function": "",
		"ai_attack": "",
		"ai_move": "",
		"ai_heal": "",
		"ai_skill": "",
		"ai_use": "",
		"skill_group_id": 0,
		"gear_GearGear": 30001,
		"gear_rank": 1,
		"proficiency_UnitProficiency": 1,
		"level": 10,
		"hp": 18,
		"strength": 10,
		"vitality": 9,
		"intelligence": 1,
		"mind": 5,
		"agility": 13,
		"dexterity": 10,
		"lucky": 3,
		"parameter_table_BattleEnemyParameterTable": 0,
		"parameter_deviation_table_BattleEnemyParameterDeviationTable": 0,
		"acquire_skill_group_id": 0,
		"level_correction": 0,
		"group_id": 0,
		"ai_script_id_BattleAIScript": 0
	},
	{
		"ID": 12434,
		"stage_BattleStage": 231002009,
		"unit_UnitUnit": 830003,
		"money": 55,
		"initial_coordinate_x": 5,
		"initial_coordinate_y": 10,
		"reinforcement_BattleReinforcement": 0,
		"initial_direction": 90.0,
		"ai_move_group": 0,
		"ai_target_move_x": -1,
		"ai_target_move_y": -1,
		"ai_skill_function": "",
		"ai_attack": "",
		"ai_move": "",
		"ai_heal": "",
		"ai_skill": "",
		"ai_use": "",
		"skill_group_id": 0,
		"gear_GearGear": 30001,
		"gear_rank": 1,
		"proficiency_UnitProficiency": 1,
		"level": 11,
		"hp": 25,
		"strength": 14,
		"vitality": 15,
		"intelligence": 0,
		"mind": 0,
		"agility": 4,
		"dexterity": 8,
		"lucky": 3,
		"parameter_table_BattleEnemyParameterTable": 0,
		"parameter_deviation_table_BattleEnemyParameterDeviationTable": 0,
		"acquire_skill_group_id": 0,
		"level_correction": 0,
		"group_id": 0,
		"ai_script_id_BattleAIScript": 0
	},
	{
		"ID": 12435,
		"stage_BattleStage": 231002009,
		"unit_UnitUnit": 830003,
		"money": 50,
		"initial_coordinate_x": 5,
		"initial_coordinate_y": 9,
		"reinforcement_BattleReinforcement": 0,
		"initial_direction": 90.0,
		"ai_move_group": 0,
		"ai_target_move_x": -1,
		"ai_target_move_y": -1,
		"ai_skill_function": "",
		"ai_attack": "",
		"ai_move": "",
		"ai_heal": "",
		"ai_skill": "",
		"ai_use": "",
		"skill_group_id": 0,
		"gear_GearGear": 30001,
		"gear_rank": 1,
		"proficiency_UnitProficiency": 1,
		"level": 10,
		"hp": 24,
		"strength": 13,
		"vitality": 15,
		"intelligence": 0,
		"mind": 0,
		"agility": 4,
		"dexterity": 8,
		"lucky": 3,
		"parameter_table_BattleEnemyParameterTable": 0,
		"parameter_deviation_table_BattleEnemyParameterDeviationTable": 0,
		"acquire_skill_group_id": 0,
		"level_correction": 0,
		"group_id": 0,
		"ai_script_id_BattleAIScript": 0
	},
	{
		"ID": 12436,
		"stage_BattleStage": 231002009,
		"unit_UnitUnit": 830003,
		"money": 45,
		"initial_coordinate_x": 5,
		"initial_coordinate_y": 2,
		"reinforcement_BattleReinforcement": 0,
		"initial_direction": 90.0,
		"ai_move_group": 0,
		"ai_target_move_x": -1,
		"ai_target_move_y": -1,
		"ai_skill_function": "",
		"ai_attack": "",
		"ai_move": "",
		"ai_heal": "",
		"ai_skill": "",
		"ai_use": "",
		"skill_group_id": 0,
		"gear_GearGear": 30001,
		"gear_rank": 1,
		"proficiency_UnitProficiency": 1,
		"level": 9,
		"hp": 24,
		"strength": 12,
		"vitality": 14,
		"intelligence": 0,
		"mind": 0,
		"agility": 4,
		"dexterity": 7,
		"lucky": 3,
		"parameter_table_BattleEnemyParameterTable": 0,
		"parameter_deviation_table_BattleEnemyParameterDeviationTable": 0,
		"acquire_skill_group_id": 0,
		"level_correction": 0,
		"group_id": 0,
		"ai_script_id_BattleAIScript": 0
	},
	{
		"ID": 12437,
		"stage_BattleStage": 231002009,
		"unit_UnitUnit": 830003,
		"money": 50,
		"initial_coordinate_x": 5,
		"initial_coordinate_y": 1,
		"reinforcement_BattleReinforcement": 0,
		"initial_direction": 90.0,
		"ai_move_group": 0,
		"ai_target_move_x": -1,
		"ai_target_move_y": -1,
		"ai_skill_function": "",
		"ai_attack": "",
		"ai_move": "",
		"ai_heal": "",
		"ai_skill": "",
		"ai_use": "",
		"skill_group_id": 0,
		"gear_GearGear": 30001,
		"gear_rank": 1,
		"proficiency_UnitProficiency": 1,
		"level": 10,
		"hp": 24,
		"strength": 13,
		"vitality": 15,
		"intelligence": 0,
		"mind": 0,
		"agility": 4,
		"dexterity": 8,
		"lucky": 3,
		"parameter_table_BattleEnemyParameterTable": 0,
		"parameter_deviation_table_BattleEnemyParameterDeviationTable": 0,
		"acquire_skill_group_id": 0,
		"level_correction": 0,
		"group_id": 0,
		"ai_script_id_BattleAIScript": 0
	},
	{
		"ID": 12438,
		"stage_BattleStage": 231002009,
		"unit_UnitUnit": 810004,
		"money": 55,
		"initial_coordinate_x": 4,
		"initial_coordinate_y": 6,
		"reinforcement_BattleReinforcement": 0,
		"initial_direction": 90.0,
		"ai_move_group": 0,
		"ai_target_move_x": -1,
		"ai_target_move_y": -1,
		"ai_skill_function": "",
		"ai_attack": "",
		"ai_move": "IF(turn <=2,0,1)",
		"ai_heal": "",
		"ai_skill": "",
		"ai_use": "",
		"skill_group_id": 0,
		"gear_GearGear": 10001,
		"gear_rank": 1,
		"proficiency_UnitProficiency": 1,
		"level": 11,
		"hp": 20,
		"strength": 13,
		"vitality": 9,
		"intelligence": 0,
		"mind": 2,
		"agility": 11,
		"dexterity": 12,
		"lucky": 3,
		"parameter_table_BattleEnemyParameterTable": 0,
		"parameter_deviation_table_BattleEnemyParameterDeviationTable": 0,
		"acquire_skill_group_id": 0,
		"level_correction": 0,
		"group_id": 0,
		"ai_script_id_BattleAIScript": 0
	},
	{
		"ID": 12439,
		"stage_BattleStage": 231002009,
		"unit_UnitUnit": 810004,
		"money": 50,
		"initial_coordinate_x": 4,
		"initial_coordinate_y": 5,
		"reinforcement_BattleReinforcement": 0,
		"initial_direction": 90.0,
		"ai_move_group": 0,
		"ai_target_move_x": -1,
		"ai_target_move_y": -1,
		"ai_skill_function": "",
		"ai_attack": "",
		"ai_move": "IF(turn <=2,0,1)",
		"ai_heal": "",
		"ai_skill": "",
		"ai_use": "",
		"skill_group_id": 0,
		"gear_GearGear": 10001,
		"gear_rank": 1,
		"proficiency_UnitProficiency": 1,
		"level": 10,
		"hp": 20,
		"strength": 12,
		"vitality": 8,
		"intelligence": 0,
		"mind": 2,
		"agility": 10,
		"dexterity": 11,
		"lucky": 3,
		"parameter_table_BattleEnemyParameterTable": 0,
		"parameter_deviation_table_BattleEnemyParameterDeviationTable": 0,
		"acquire_skill_group_id": 0,
		"level_correction": 0,
		"group_id": 0,
		"ai_script_id_BattleAIScript": 0
	}
]