[
	{
		"ID": 27809,
		"stage_BattleStage": 271002213,
		"unit_UnitUnit": 830001,
		"money": 40,
		"initial_coordinate_x": 14,
		"initial_coordinate_y": 8,
		"reinforcement_BattleReinforcement": 0,
		"initial_direction": 270.0,
		"ai_move_group": 0,
		"ai_target_move_x": -1,
		"ai_target_move_y": -1,
		"ai_skill_function": "",
		"ai_attack": "",
		"ai_move": "IF(turn <=3,0,1)",
		"ai_heal": "",
		"ai_skill": "",
		"ai_use": "",
		"skill_group_id": 0,
		"gear_GearGear": 32001,
		"gear_rank": 1,
		"proficiency_UnitProficiency": 2,
		"level": 8,
		"hp": 34,
		"strength": 24,
		"vitality": 21,
		"intelligence": 6,
		"mind": 10,
		"agility": 27,
		"dexterity": 23,
		"lucky": 3,
		"parameter_table_BattleEnemyParameterTable": 18300013,
		"parameter_deviation_table_BattleEnemyParameterDeviationTable": 1,
		"acquire_skill_group_id": 130,
		"level_correction": -1,
		"group_id": 0,
		"ai_script_id_BattleAIScript": 0
	},
	{
		"ID": 27810,
		"stage_BattleStage": 271002213,
		"unit_UnitUnit": 830001,
		"money": 35,
		"initial_coordinate_x": 14,
		"initial_coordinate_y": 7,
		"reinforcement_BattleReinforcement": 0,
		"initial_direction": 270.0,
		"ai_move_group": 0,
		"ai_target_move_x": -1,
		"ai_target_move_y": -1,
		"ai_skill_function": "",
		"ai_attack": "",
		"ai_move": "IF(turn <=3,0,1)",
		"ai_heal": "",
		"ai_skill": "",
		"ai_use": "",
		"skill_group_id": 0,
		"gear_GearGear": 32002,
		"gear_rank": 1,
		"proficiency_UnitProficiency": 2,
		"level": 7,
		"hp": 35,
		"strength": 24,
		"vitality": 22,
		"intelligence": 6,
		"mind": 10,
		"agility": 27,
		"dexterity": 23,
		"lucky": 3,
		"parameter_table_BattleEnemyParameterTable": 18300013,
		"parameter_deviation_table_BattleEnemyParameterDeviationTable": 1,
		"acquire_skill_group_id": 130,
		"level_correction": 0,
		"group_id": 0,
		"ai_script_id_BattleAIScript": 0
	},
	{
		"ID": 27811,
		"stage_BattleStage": 271002213,
		"unit_UnitUnit": 830001,
		"money": 30,
		"initial_coordinate_x": 14,
		"initial_coordinate_y": 6,
		"reinforcement_BattleReinforcement": 0,
		"initial_direction": 270.0,
		"ai_move_group": 0,
		"ai_target_move_x": -1,
		"ai_target_move_y": -1,
		"ai_skill_function": "",
		"ai_attack": "",
		"ai_move": "IF(turn <=3,0,1)",
		"ai_heal": "",
		"ai_skill": "",
		"ai_use": "",
		"skill_group_id": 0,
		"gear_GearGear": 32003,
		"gear_rank": 1,
		"proficiency_UnitProficiency": 2,
		"level": 6,
		"hp": 35,
		"strength": 25,
		"vitality": 22,
		"intelligence": 6,
		"mind": 10,
		"agility": 28,
		"dexterity": 24,
		"lucky": 3,
		"parameter_table_BattleEnemyParameterTable": 18300013,
		"parameter_deviation_table_BattleEnemyParameterDeviationTable": 1,
		"acquire_skill_group_id": 130,
		"level_correction": -1,
		"group_id": 0,
		"ai_script_id_BattleAIScript": 0
	},
	{
		"ID": 27812,
		"stage_BattleStage": 271002213,
		"unit_UnitUnit": 830001,
		"money": 25,
		"initial_coordinate_x": 14,
		"initial_coordinate_y": 2,
		"reinforcement_BattleReinforcement": 0,
		"initial_direction": 270.0,
		"ai_move_group": 0,
		"ai_target_move_x": -1,
		"ai_target_move_y": -1,
		"ai_skill_function": "",
		"ai_attack": "",
		"ai_move": "IF(turn <=3,0,1)",
		"ai_heal": "",
		"ai_skill": "",
		"ai_use": "",
		"skill_group_id": 0,
		"gear_GearGear": 33001,
		"gear_rank": 1,
		"proficiency_UnitProficiency": 3,
		"level": 5,
		"hp": 36,
		"strength": 26,
		"vitality": 23,
		"intelligence": 7,
		"mind": 11,
		"agility": 28,
		"dexterity": 25,
		"lucky": 3,
		"parameter_table_BattleEnemyParameterTable": 18300013,
		"parameter_deviation_table_BattleEnemyParameterDeviationTable": 1,
		"acquire_skill_group_id": 130,
		"level_correction": -2,
		"group_id": 0,
		"ai_script_id_BattleAIScript": 0
	},
	{
		"ID": 27813,
		"stage_BattleStage": 271002213,
		"unit_UnitUnit": 830001,
		"money": 20,
		"initial_coordinate_x": 14,
		"initial_coordinate_y": 1,
		"reinforcement_BattleReinforcement": 0,
		"initial_direction": 270.0,
		"ai_move_group": 0,
		"ai_target_move_x": -1,
		"ai_target_move_y": -1,
		"ai_skill_function": "",
		"ai_attack": "",
		"ai_move": "IF(turn <=3,0,1)",
		"ai_heal": "",
		"ai_skill": "",
		"ai_use": "",
		"skill_group_id": 0,
		"gear_GearGear": 31002,
		"gear_rank": 1,
		"proficiency_UnitProficiency": 1,
		"level": 4,
		"hp": 36,
		"strength": 27,
		"vitality": 23,
		"intelligence": 7,
		"mind": 11,
		"agility": 29,
		"dexterity": 25,
		"lucky": 3,
		"parameter_table_BattleEnemyParameterTable": 18300013,
		"parameter_deviation_table_BattleEnemyParameterDeviationTable": 1,
		"acquire_skill_group_id": 130,
		"level_correction": -1,
		"group_id": 0,
		"ai_script_id_BattleAIScript": 0
	},
	{
		"ID": 27814,
		"stage_BattleStage": 271002213,
		"unit_UnitUnit": 860001,
		"money": 25,
		"initial_coordinate_x": 15,
		"initial_coordinate_y": 8,
		"reinforcement_BattleReinforcement": 4,
		"initial_direction": 270.0,
		"ai_move_group": 0,
		"ai_target_move_x": -1,
		"ai_target_move_y": -1,
		"ai_skill_function": "",
		"ai_attack": "",
		"ai_move": "",
		"ai_heal": "",
		"ai_skill": "",
		"ai_use": "",
		"skill_group_id": 492,
		"gear_GearGear": 80009,
		"gear_rank": 1,
		"proficiency_UnitProficiency": 2,
		"level": 5,
		"hp": 34,
		"strength": 8,
		"vitality": 22,
		"intelligence": 24,
		"mind": 18,
		"agility": 30,
		"dexterity": 25,
		"lucky": 3,
		"parameter_table_BattleEnemyParameterTable": 18600013,
		"parameter_deviation_table_BattleEnemyParameterDeviationTable": 1,
		"acquire_skill_group_id": 134,
		"level_correction": 0,
		"group_id": 0,
		"ai_script_id_BattleAIScript": 0
	},
	{
		"ID": 27815,
		"stage_BattleStage": 271002213,
		"unit_UnitUnit": 860001,
		"money": 30,
		"initial_coordinate_x": 15,
		"initial_coordinate_y": 7,
		"reinforcement_BattleReinforcement": 4,
		"initial_direction": 270.0,
		"ai_move_group": 0,
		"ai_target_move_x": -1,
		"ai_target_move_y": -1,
		"ai_skill_function": "",
		"ai_attack": "",
		"ai_move": "",
		"ai_heal": "",
		"ai_skill": "",
		"ai_use": "",
		"skill_group_id": 492,
		"gear_GearGear": 80008,
		"gear_rank": 1,
		"proficiency_UnitProficiency": 1,
		"level": 6,
		"hp": 34,
		"strength": 8,
		"vitality": 21,
		"intelligence": 23,
		"mind": 18,
		"agility": 30,
		"dexterity": 24,
		"lucky": 3,
		"parameter_table_BattleEnemyParameterTable": 18600013,
		"parameter_deviation_table_BattleEnemyParameterDeviationTable": 1,
		"acquire_skill_group_id": 133,
		"level_correction": -1,
		"group_id": 0,
		"ai_script_id_BattleAIScript": 0
	},
	{
		"ID": 27816,
		"stage_BattleStage": 271002213,
		"unit_UnitUnit": 860001,
		"money": 35,
		"initial_coordinate_x": 15,
		"initial_coordinate_y": 6,
		"reinforcement_BattleReinforcement": 4,
		"initial_direction": 270.0,
		"ai_move_group": 0,
		"ai_target_move_x": -1,
		"ai_target_move_y": -1,
		"ai_skill_function": "",
		"ai_attack": "",
		"ai_move": "",
		"ai_heal": "",
		"ai_skill": "",
		"ai_use": "",
		"skill_group_id": 492,
		"gear_GearGear": 80010,
		"gear_rank": 1,
		"proficiency_UnitProficiency": 3,
		"level": 7,
		"hp": 33,
		"strength": 8,
		"vitality": 21,
		"intelligence": 23,
		"mind": 17,
		"agility": 29,
		"dexterity": 23,
		"lucky": 3,
		"parameter_table_BattleEnemyParameterTable": 18600013,
		"parameter_deviation_table_BattleEnemyParameterDeviationTable": 1,
		"acquire_skill_group_id": 134,
		"level_correction": -2,
		"group_id": 0,
		"ai_script_id_BattleAIScript": 0
	},
	{
		"ID": 27817,
		"stage_BattleStage": 271002213,
		"unit_UnitUnit": 860001,
		"money": 40,
		"initial_coordinate_x": 15,
		"initial_coordinate_y": 2,
		"reinforcement_BattleReinforcement": 4,
		"initial_direction": 270.0,
		"ai_move_group": 0,
		"ai_target_move_x": -1,
		"ai_target_move_y": -1,
		"ai_skill_function": "",
		"ai_attack": "",
		"ai_move": "",
		"ai_heal": "",
		"ai_skill": "",
		"ai_use": "",
		"skill_group_id": 492,
		"gear_GearGear": 80009,
		"gear_rank": 1,
		"proficiency_UnitProficiency": 2,
		"level": 8,
		"hp": 33,
		"strength": 8,
		"vitality": 20,
		"intelligence": 22,
		"mind": 17,
		"agility": 28,
		"dexterity": 23,
		"lucky": 3,
		"parameter_table_BattleEnemyParameterTable": 18600013,
		"parameter_deviation_table_BattleEnemyParameterDeviationTable": 1,
		"acquire_skill_group_id": 133,
		"level_correction": -1,
		"group_id": 0,
		"ai_script_id_BattleAIScript": 0
	},
	{
		"ID": 27818,
		"stage_BattleStage": 271002213,
		"unit_UnitUnit": 860001,
		"money": 45,
		"initial_coordinate_x": 15,
		"initial_coordinate_y": 1,
		"reinforcement_BattleReinforcement": 4,
		"initial_direction": 270.0,
		"ai_move_group": 0,
		"ai_target_move_x": -1,
		"ai_target_move_y": -1,
		"ai_skill_function": "",
		"ai_attack": "",
		"ai_move": "",
		"ai_heal": "",
		"ai_skill": "",
		"ai_use": "",
		"skill_group_id": 492,
		"gear_GearGear": 80008,
		"gear_rank": 1,
		"proficiency_UnitProficiency": 1,
		"level": 9,
		"hp": 32,
		"strength": 8,
		"vitality": 20,
		"intelligence": 21,
		"mind": 16,
		"agility": 28,
		"dexterity": 22,
		"lucky": 3,
		"parameter_table_BattleEnemyParameterTable": 18600013,
		"parameter_deviation_table_BattleEnemyParameterDeviationTable": 1,
		"acquire_skill_group_id": 134,
		"level_correction": 0,
		"group_id": 0,
		"ai_script_id_BattleAIScript": 0
	},
	{
		"ID": 27819,
		"stage_BattleStage": 271002213,
		"unit_UnitUnit": 900029,
		"money": 50,
		"initial_coordinate_x": 9,
		"initial_coordinate_y": 7,
		"reinforcement_BattleReinforcement": 0,
		"initial_direction": 270.0,
		"ai_move_group": 0,
		"ai_target_move_x": -1,
		"ai_target_move_y": -1,
		"ai_skill_function": "",
		"ai_attack": "",
		"ai_move": "",
		"ai_heal": "",
		"ai_skill": "",
		"ai_use": "",
		"skill_group_id": 0,
		"gear_GearGear": 33003,
		"gear_rank": 1,
		"proficiency_UnitProficiency": 3,
		"level": 10,
		"hp": 45,
		"strength": 29,
		"vitality": 30,
		"intelligence": 0,
		"mind": 2,
		"agility": 10,
		"dexterity": 20,
		"lucky": 4,
		"parameter_table_BattleEnemyParameterTable": 19000292,
		"parameter_deviation_table_BattleEnemyParameterDeviationTable": 1,
		"acquire_skill_group_id": 46,
		"level_correction": -1,
		"group_id": 0,
		"ai_script_id_BattleAIScript": 0
	},
	{
		"ID": 27820,
		"stage_BattleStage": 271002213,
		"unit_UnitUnit": 820003,
		"money": 45,
		"initial_coordinate_x": 10,
		"initial_coordinate_y": 7,
		"reinforcement_BattleReinforcement": 0,
		"initial_direction": 270.0,
		"ai_move_group": 0,
		"ai_target_move_x": -1,
		"ai_target_move_y": -1,
		"ai_skill_function": "",
		"ai_attack": "",
		"ai_move": "",
		"ai_heal": "",
		"ai_skill": "",
		"ai_use": "",
		"skill_group_id": 0,
		"gear_GearGear": 22002,
		"gear_rank": 1,
		"proficiency_UnitProficiency": 2,
		"level": 9,
		"hp": 45,
		"strength": 30,
		"vitality": 31,
		"intelligence": 0,
		"mind": 2,
		"agility": 10,
		"dexterity": 21,
		"lucky": 4,
		"parameter_table_BattleEnemyParameterTable": 18200033,
		"parameter_deviation_table_BattleEnemyParameterDeviationTable": 1,
		"acquire_skill_group_id": 129,
		"level_correction": 0,
		"group_id": 0,
		"ai_script_id_BattleAIScript": 0
	},
	{
		"ID": 27821,
		"stage_BattleStage": 271002213,
		"unit_UnitUnit": 900030,
		"money": 40,
		"initial_coordinate_x": 13,
		"initial_coordinate_y": 3,
		"reinforcement_BattleReinforcement": 0,
		"initial_direction": 270.0,
		"ai_move_group": 0,
		"ai_target_move_x": -1,
		"ai_target_move_y": -1,
		"ai_skill_function": "",
		"ai_attack": "",
		"ai_move": "",
		"ai_heal": "",
		"ai_skill": "",
		"ai_use": "",
		"skill_group_id": 0,
		"gear_GearGear": 22005,
		"gear_rank": 1,
		"proficiency_UnitProficiency": 2,
		"level": 8,
		"hp": 46,
		"strength": 31,
		"vitality": 31,
		"intelligence": 0,
		"mind": 2,
		"agility": 11,
		"dexterity": 21,
		"lucky": 4,
		"parameter_table_BattleEnemyParameterTable": 19000302,
		"parameter_deviation_table_BattleEnemyParameterDeviationTable": 1,
		"acquire_skill_group_id": 47,
		"level_correction": -1,
		"group_id": 0,
		"ai_script_id_BattleAIScript": 0
	},
	{
		"ID": 27822,
		"stage_BattleStage": 271002213,
		"unit_UnitUnit": 820003,
		"money": 35,
		"initial_coordinate_x": 13,
		"initial_coordinate_y": 2,
		"reinforcement_BattleReinforcement": 0,
		"initial_direction": 270.0,
		"ai_move_group": 0,
		"ai_target_move_x": -1,
		"ai_target_move_y": -1,
		"ai_skill_function": "",
		"ai_attack": "",
		"ai_move": "",
		"ai_heal": "",
		"ai_skill": "",
		"ai_use": "",
		"skill_group_id": 0,
		"gear_GearGear": 22003,
		"gear_rank": 1,
		"proficiency_UnitProficiency": 2,
		"level": 7,
		"hp": 47,
		"strength": 32,
		"vitality": 32,
		"intelligence": 0,
		"mind": 2,
		"agility": 11,
		"dexterity": 22,
		"lucky": 4,
		"parameter_table_BattleEnemyParameterTable": 18200033,
		"parameter_deviation_table_BattleEnemyParameterDeviationTable": 1,
		"acquire_skill_group_id": 129,
		"level_correction": -2,
		"group_id": 0,
		"ai_script_id_BattleAIScript": 0
	},
	{
		"ID": 27823,
		"stage_BattleStage": 271002213,
		"unit_UnitUnit": 820003,
		"money": 30,
		"initial_coordinate_x": 13,
		"initial_coordinate_y": 1,
		"reinforcement_BattleReinforcement": 0,
		"initial_direction": 270.0,
		"ai_move_group": 0,
		"ai_target_move_x": -1,
		"ai_target_move_y": -1,
		"ai_skill_function": "",
		"ai_attack": "",
		"ai_move": "",
		"ai_heal": "",
		"ai_skill": "",
		"ai_use": "",
		"skill_group_id": 0,
		"gear_GearGear": 22001,
		"gear_rank": 1,
		"proficiency_UnitProficiency": 2,
		"level": 6,
		"hp": 48,
		"strength": 33,
		"vitality": 33,
		"intelligence": 0,
		"mind": 2,
		"agility": 12,
		"dexterity": 22,
		"lucky": 4,
		"parameter_table_BattleEnemyParameterTable": 18200033,
		"parameter_deviation_table_BattleEnemyParameterDeviationTable": 1,
		"acquire_skill_group_id": 129,
		"level_correction": -1,
		"group_id": 0,
		"ai_script_id_BattleAIScript": 0
	}
]