[
	{
		"ID": 27767,
		"stage_BattleStage": 271002120,
		"unit_UnitUnit": 810004,
		"money": 40,
		"initial_coordinate_x": 5,
		"initial_coordinate_y": 7,
		"reinforcement_BattleReinforcement": 0,
		"initial_direction": 180.0,
		"ai_move_group": 0,
		"ai_target_move_x": -1,
		"ai_target_move_y": -1,
		"ai_skill_function": "",
		"ai_attack": "",
		"ai_move": "",
		"ai_heal": "",
		"ai_skill": "",
		"ai_use": "",
		"skill_group_id": 480,
		"gear_GearGear": 13003,
		"gear_rank": 1,
		"proficiency_UnitProficiency": 3,
		"level": 8,
		"hp": 38,
		"strength": 28,
		"vitality": 23,
		"intelligence": 0,
		"mind": 8,
		"agility": 22,
		"dexterity": 27,
		"lucky": 4,
		"parameter_table_BattleEnemyParameterTable": 18100043,
		"parameter_deviation_table_BattleEnemyParameterDeviationTable": 1,
		"acquire_skill_group_id": 128,
		"level_correction": 0,
		"group_id": 0,
		"ai_script_id_BattleAIScript": 0
	},
	{
		"ID": 27768,
		"stage_BattleStage": 271002120,
		"unit_UnitUnit": 810004,
		"money": 45,
		"initial_coordinate_x": 7,
		"initial_coordinate_y": 7,
		"reinforcement_BattleReinforcement": 0,
		"initial_direction": 180.0,
		"ai_move_group": 0,
		"ai_target_move_x": -1,
		"ai_target_move_y": -1,
		"ai_skill_function": "",
		"ai_attack": "",
		"ai_move": "",
		"ai_heal": "",
		"ai_skill": "",
		"ai_use": "",
		"skill_group_id": 480,
		"gear_GearGear": 13002,
		"gear_rank": 1,
		"proficiency_UnitProficiency": 3,
		"level": 9,
		"hp": 39,
		"strength": 29,
		"vitality": 23,
		"intelligence": 0,
		"mind": 8,
		"agility": 23,
		"dexterity": 27,
		"lucky": 4,
		"parameter_table_BattleEnemyParameterTable": 18100043,
		"parameter_deviation_table_BattleEnemyParameterDeviationTable": 1,
		"acquire_skill_group_id": 128,
		"level_correction": 1,
		"group_id": 0,
		"ai_script_id_BattleAIScript": 0
	},
	{
		"ID": 27769,
		"stage_BattleStage": 271002120,
		"unit_UnitUnit": 810004,
		"money": 50,
		"initial_coordinate_x": 3,
		"initial_coordinate_y": 6,
		"reinforcement_BattleReinforcement": 0,
		"initial_direction": 180.0,
		"ai_move_group": 0,
		"ai_target_move_x": -1,
		"ai_target_move_y": -1,
		"ai_skill_function": "",
		"ai_attack": "",
		"ai_move": "",
		"ai_heal": "",
		"ai_skill": "",
		"ai_use": "",
		"skill_group_id": 480,
		"gear_GearGear": 13001,
		"gear_rank": 1,
		"proficiency_UnitProficiency": 3,
		"level": 10,
		"hp": 40,
		"strength": 29,
		"vitality": 24,
		"intelligence": 0,
		"mind": 8,
		"agility": 23,
		"dexterity": 28,
		"lucky": 4,
		"parameter_table_BattleEnemyParameterTable": 18100043,
		"parameter_deviation_table_BattleEnemyParameterDeviationTable": 1,
		"acquire_skill_group_id": 128,
		"level_correction": 0,
		"group_id": 0,
		"ai_script_id_BattleAIScript": 0
	},
	{
		"ID": 27770,
		"stage_BattleStage": 271002120,
		"unit_UnitUnit": 810004,
		"money": 45,
		"initial_coordinate_x": 2,
		"initial_coordinate_y": 5,
		"reinforcement_BattleReinforcement": 0,
		"initial_direction": 180.0,
		"ai_move_group": 0,
		"ai_target_move_x": -1,
		"ai_target_move_y": -1,
		"ai_skill_function": "",
		"ai_attack": "",
		"ai_move": "",
		"ai_heal": "",
		"ai_skill": "",
		"ai_use": "",
		"skill_group_id": 480,
		"gear_GearGear": 13003,
		"gear_rank": 1,
		"proficiency_UnitProficiency": 3,
		"level": 9,
		"hp": 41,
		"strength": 30,
		"vitality": 24,
		"intelligence": 0,
		"mind": 8,
		"agility": 24,
		"dexterity": 29,
		"lucky": 4,
		"parameter_table_BattleEnemyParameterTable": 18100043,
		"parameter_deviation_table_BattleEnemyParameterDeviationTable": 1,
		"acquire_skill_group_id": 128,
		"level_correction": 1,
		"group_id": 0,
		"ai_script_id_BattleAIScript": 0
	},
	{
		"ID": 27771,
		"stage_BattleStage": 271002120,
		"unit_UnitUnit": 840004,
		"money": 40,
		"initial_coordinate_x": 1,
		"initial_coordinate_y": 6,
		"reinforcement_BattleReinforcement": 0,
		"initial_direction": 180.0,
		"ai_move_group": 0,
		"ai_target_move_x": -1,
		"ai_target_move_y": -1,
		"ai_skill_function": "",
		"ai_attack": "",
		"ai_move": "",
		"ai_heal": "",
		"ai_skill": "",
		"ai_use": "",
		"skill_group_id": 480,
		"gear_GearGear": 43001,
		"gear_rank": 1,
		"proficiency_UnitProficiency": 3,
		"level": 8,
		"hp": 40,
		"strength": 31,
		"vitality": 24,
		"intelligence": 0,
		"mind": 9,
		"agility": 24,
		"dexterity": 30,
		"lucky": 4,
		"parameter_table_BattleEnemyParameterTable": 18400043,
		"parameter_deviation_table_BattleEnemyParameterDeviationTable": 1,
		"acquire_skill_group_id": 131,
		"level_correction": 0,
		"group_id": 0,
		"ai_script_id_BattleAIScript": 0
	},
	{
		"ID": 27772,
		"stage_BattleStage": 271002120,
		"unit_UnitUnit": 900026,
		"money": 35,
		"initial_coordinate_x": 3,
		"initial_coordinate_y": 7,
		"reinforcement_BattleReinforcement": 0,
		"initial_direction": 180.0,
		"ai_move_group": 0,
		"ai_target_move_x": -1,
		"ai_target_move_y": -1,
		"ai_skill_function": "",
		"ai_attack": "IF( turn <=5 ,IF(panel_move_distance <= 1, 1, 0),1)",
		"ai_move": "IF(turn <=5,0,1)",
		"ai_heal": "",
		"ai_skill": "",
		"ai_use": "",
		"skill_group_id": 0,
		"gear_GearGear": 42002,
		"gear_rank": 1,
		"proficiency_UnitProficiency": 2,
		"level": 7,
		"hp": 41,
		"strength": 32,
		"vitality": 25,
		"intelligence": 0,
		"mind": 9,
		"agility": 25,
		"dexterity": 30,
		"lucky": 4,
		"parameter_table_BattleEnemyParameterTable": 19000262,
		"parameter_deviation_table_BattleEnemyParameterDeviationTable": 8,
		"acquire_skill_group_id": 62,
		"level_correction": -1,
		"group_id": 0,
		"ai_script_id_BattleAIScript": 0
	},
	{
		"ID": 27773,
		"stage_BattleStage": 271002120,
		"unit_UnitUnit": 840004,
		"money": 30,
		"initial_coordinate_x": 4,
		"initial_coordinate_y": 8,
		"reinforcement_BattleReinforcement": 0,
		"initial_direction": 180.0,
		"ai_move_group": 0,
		"ai_target_move_x": -1,
		"ai_target_move_y": -1,
		"ai_skill_function": "",
		"ai_attack": "",
		"ai_move": "",
		"ai_heal": "",
		"ai_skill": "",
		"ai_use": "",
		"skill_group_id": 480,
		"gear_GearGear": 42001,
		"gear_rank": 1,
		"proficiency_UnitProficiency": 2,
		"level": 6,
		"hp": 40,
		"strength": 31,
		"vitality": 24,
		"intelligence": 0,
		"mind": 9,
		"agility": 24,
		"dexterity": 30,
		"lucky": 4,
		"parameter_table_BattleEnemyParameterTable": 18400043,
		"parameter_deviation_table_BattleEnemyParameterDeviationTable": 1,
		"acquire_skill_group_id": 131,
		"level_correction": 0,
		"group_id": 0,
		"ai_script_id_BattleAIScript": 0
	},
	{
		"ID": 27774,
		"stage_BattleStage": 271002120,
		"unit_UnitUnit": 900029,
		"money": 25,
		"initial_coordinate_x": 7,
		"initial_coordinate_y": 9,
		"reinforcement_BattleReinforcement": 0,
		"initial_direction": 180.0,
		"ai_move_group": 0,
		"ai_target_move_x": -1,
		"ai_target_move_y": -1,
		"ai_skill_function": "",
		"ai_attack": "",
		"ai_move": "",
		"ai_heal": "",
		"ai_skill": "",
		"ai_use": "",
		"skill_group_id": 0,
		"gear_GearGear": 35002,
		"gear_rank": 1,
		"proficiency_UnitProficiency": 5,
		"level": 5,
		"hp": 40,
		"strength": 30,
		"vitality": 24,
		"intelligence": 0,
		"mind": 8,
		"agility": 24,
		"dexterity": 29,
		"lucky": 4,
		"parameter_table_BattleEnemyParameterTable": 19000292,
		"parameter_deviation_table_BattleEnemyParameterDeviationTable": 1,
		"acquire_skill_group_id": 46,
		"level_correction": 1,
		"group_id": 0,
		"ai_script_id_BattleAIScript": 0
	},
	{
		"ID": 27775,
		"stage_BattleStage": 271002120,
		"unit_UnitUnit": 860006,
		"money": 30,
		"initial_coordinate_x": 2,
		"initial_coordinate_y": 13,
		"reinforcement_BattleReinforcement": 0,
		"initial_direction": 180.0,
		"ai_move_group": 0,
		"ai_target_move_x": -1,
		"ai_target_move_y": -1,
		"ai_skill_function": "",
		"ai_attack": "",
		"ai_move": "",
		"ai_heal": "",
		"ai_skill": "",
		"ai_use": "",
		"skill_group_id": 524,
		"gear_GearGear": 80009,
		"gear_rank": 1,
		"proficiency_UnitProficiency": 2,
		"level": 6,
		"hp": 35,
		"strength": 3,
		"vitality": 18,
		"intelligence": 22,
		"mind": 18,
		"agility": 21,
		"dexterity": 23,
		"lucky": 4,
		"parameter_table_BattleEnemyParameterTable": 18600063,
		"parameter_deviation_table_BattleEnemyParameterDeviationTable": 1,
		"acquire_skill_group_id": 132,
		"level_correction": 0,
		"group_id": 0,
		"ai_script_id_BattleAIScript": 0
	},
	{
		"ID": 27776,
		"stage_BattleStage": 271002120,
		"unit_UnitUnit": 860006,
		"money": 35,
		"initial_coordinate_x": 3,
		"initial_coordinate_y": 13,
		"reinforcement_BattleReinforcement": 0,
		"initial_direction": 180.0,
		"ai_move_group": 0,
		"ai_target_move_x": -1,
		"ai_target_move_y": -1,
		"ai_skill_function": "",
		"ai_attack": "",
		"ai_move": "",
		"ai_heal": "",
		"ai_skill": "",
		"ai_use": "",
		"skill_group_id": 524,
		"gear_GearGear": 80010,
		"gear_rank": 1,
		"proficiency_UnitProficiency": 3,
		"level": 7,
		"hp": 34,
		"strength": 3,
		"vitality": 18,
		"intelligence": 21,
		"mind": 17,
		"agility": 20,
		"dexterity": 22,
		"lucky": 4,
		"parameter_table_BattleEnemyParameterTable": 18600063,
		"parameter_deviation_table_BattleEnemyParameterDeviationTable": 1,
		"acquire_skill_group_id": 135,
		"level_correction": -1,
		"group_id": 0,
		"ai_script_id_BattleAIScript": 0
	},
	{
		"ID": 27777,
		"stage_BattleStage": 271002120,
		"unit_UnitUnit": 860006,
		"money": 40,
		"initial_coordinate_x": 6,
		"initial_coordinate_y": 13,
		"reinforcement_BattleReinforcement": 0,
		"initial_direction": 180.0,
		"ai_move_group": 0,
		"ai_target_move_x": -1,
		"ai_target_move_y": -1,
		"ai_skill_function": "",
		"ai_attack": "",
		"ai_move": "",
		"ai_heal": "",
		"ai_skill": "",
		"ai_use": "",
		"skill_group_id": 524,
		"gear_GearGear": 80010,
		"gear_rank": 1,
		"proficiency_UnitProficiency": 3,
		"level": 8,
		"hp": 34,
		"strength": 3,
		"vitality": 17,
		"intelligence": 20,
		"mind": 17,
		"agility": 20,
		"dexterity": 22,
		"lucky": 4,
		"parameter_table_BattleEnemyParameterTable": 18600063,
		"parameter_deviation_table_BattleEnemyParameterDeviationTable": 1,
		"acquire_skill_group_id": 132,
		"level_correction": 0,
		"group_id": 0,
		"ai_script_id_BattleAIScript": 0
	},
	{
		"ID": 27778,
		"stage_BattleStage": 271002120,
		"unit_UnitUnit": 860006,
		"money": 45,
		"initial_coordinate_x": 7,
		"initial_coordinate_y": 13,
		"reinforcement_BattleReinforcement": 0,
		"initial_direction": 180.0,
		"ai_move_group": 0,
		"ai_target_move_x": -1,
		"ai_target_move_y": -1,
		"ai_skill_function": "",
		"ai_attack": "",
		"ai_move": "",
		"ai_heal": "",
		"ai_skill": "",
		"ai_use": "",
		"skill_group_id": 524,
		"gear_GearGear": 80008,
		"gear_rank": 1,
		"proficiency_UnitProficiency": 1,
		"level": 9,
		"hp": 34,
		"strength": 3,
		"vitality": 18,
		"intelligence": 21,
		"mind": 17,
		"agility": 20,
		"dexterity": 22,
		"lucky": 4,
		"parameter_table_BattleEnemyParameterTable": 18600063,
		"parameter_deviation_table_BattleEnemyParameterDeviationTable": 1,
		"acquire_skill_group_id": 135,
		"level_correction": 1,
		"group_id": 0,
		"ai_script_id_BattleAIScript": 0
	},
	{
		"ID": 27779,
		"stage_BattleStage": 271002120,
		"unit_UnitUnit": 860010,
		"money": 50,
		"initial_coordinate_x": 2,
		"initial_coordinate_y": 10,
		"reinforcement_BattleReinforcement": 0,
		"initial_direction": 180.0,
		"ai_move_group": 0,
		"ai_target_move_x": -1,
		"ai_target_move_y": -1,
		"ai_skill_function": "",
		"ai_attack": "IF( turn <=8 ,IF(panel_move_distance <= 1, 1, 0),1)",
		"ai_move": "IF(turn <=8,0,1)",
		"ai_heal": "",
		"ai_skill": "",
		"ai_use": "",
		"skill_group_id": 550,
		"gear_GearGear": 80009,
		"gear_rank": 1,
		"proficiency_UnitProficiency": 2,
		"level": 10,
		"hp": 35,
		"strength": 1,
		"vitality": 22,
		"intelligence": 25,
		"mind": 21,
		"agility": 21,
		"dexterity": 27,
		"lucky": 4,
		"parameter_table_BattleEnemyParameterTable": 18600103,
		"parameter_deviation_table_BattleEnemyParameterDeviationTable": 1,
		"acquire_skill_group_id": 136,
		"level_correction": 0,
		"group_id": 0,
		"ai_script_id_BattleAIScript": 0
	},
	{
		"ID": 27780,
		"stage_BattleStage": 271002120,
		"unit_UnitUnit": 860010,
		"money": 55,
		"initial_coordinate_x": 3,
		"initial_coordinate_y": 10,
		"reinforcement_BattleReinforcement": 0,
		"initial_direction": 180.0,
		"ai_move_group": 0,
		"ai_target_move_x": -1,
		"ai_target_move_y": -1,
		"ai_skill_function": "",
		"ai_attack": "IF( turn <=8 ,IF(panel_move_distance <= 1, 1, 0),1)",
		"ai_move": "IF(turn <=8,0,1)",
		"ai_heal": "",
		"ai_skill": "",
		"ai_use": "",
		"skill_group_id": 550,
		"gear_GearGear": 80010,
		"gear_rank": 1,
		"proficiency_UnitProficiency": 3,
		"level": 11,
		"hp": 36,
		"strength": 1,
		"vitality": 23,
		"intelligence": 26,
		"mind": 21,
		"agility": 22,
		"dexterity": 27,
		"lucky": 4,
		"parameter_table_BattleEnemyParameterTable": 18600103,
		"parameter_deviation_table_BattleEnemyParameterDeviationTable": 1,
		"acquire_skill_group_id": 136,
		"level_correction": 1,
		"group_id": 0,
		"ai_script_id_BattleAIScript": 0
	},
	{
		"ID": 27781,
		"stage_BattleStage": 271002120,
		"unit_UnitUnit": 860010,
		"money": 50,
		"initial_coordinate_x": 4,
		"initial_coordinate_y": 10,
		"reinforcement_BattleReinforcement": 0,
		"initial_direction": 180.0,
		"ai_move_group": 0,
		"ai_target_move_x": -1,
		"ai_target_move_y": -1,
		"ai_skill_function": "",
		"ai_attack": "IF( turn <=8 ,IF(panel_move_distance <= 1, 1, 0),1)",
		"ai_move": "IF(turn <=8,0,1)",
		"ai_heal": "",
		"ai_skill": "",
		"ai_use": "",
		"skill_group_id": 550,
		"gear_GearGear": 80008,
		"gear_rank": 1,
		"proficiency_UnitProficiency": 1,
		"level": 10,
		"hp": 36,
		"strength": 1,
		"vitality": 23,
		"intelligence": 27,
		"mind": 22,
		"agility": 22,
		"dexterity": 28,
		"lucky": 4,
		"parameter_table_BattleEnemyParameterTable": 18600103,
		"parameter_deviation_table_BattleEnemyParameterDeviationTable": 1,
		"acquire_skill_group_id": 136,
		"level_correction": 0,
		"group_id": 0,
		"ai_script_id_BattleAIScript": 0
	},
	{
		"ID": 27782,
		"stage_BattleStage": 271002120,
		"unit_UnitUnit": 860010,
		"money": 45,
		"initial_coordinate_x": 6,
		"initial_coordinate_y": 11,
		"reinforcement_BattleReinforcement": 0,
		"initial_direction": 180.0,
		"ai_move_group": 0,
		"ai_target_move_x": -1,
		"ai_target_move_y": -1,
		"ai_skill_function": "",
		"ai_attack": "",
		"ai_move": "",
		"ai_heal": "",
		"ai_skill": "",
		"ai_use": "",
		"skill_group_id": 550,
		"gear_GearGear": 80010,
		"gear_rank": 1,
		"proficiency_UnitProficiency": 3,
		"level": 9,
		"hp": 37,
		"strength": 1,
		"vitality": 24,
		"intelligence": 27,
		"mind": 22,
		"agility": 23,
		"dexterity": 29,
		"lucky": 4,
		"parameter_table_BattleEnemyParameterTable": 18600103,
		"parameter_deviation_table_BattleEnemyParameterDeviationTable": 1,
		"acquire_skill_group_id": 136,
		"level_correction": -1,
		"group_id": 0,
		"ai_script_id_BattleAIScript": 0
	},
	{
		"ID": 27783,
		"stage_BattleStage": 271002120,
		"unit_UnitUnit": 860010,
		"money": 40,
		"initial_coordinate_x": 6,
		"initial_coordinate_y": 10,
		"reinforcement_BattleReinforcement": 0,
		"initial_direction": 180.0,
		"ai_move_group": 0,
		"ai_target_move_x": -1,
		"ai_target_move_y": -1,
		"ai_skill_function": "",
		"ai_attack": "",
		"ai_move": "",
		"ai_heal": "",
		"ai_skill": "",
		"ai_use": "",
		"skill_group_id": 550,
		"gear_GearGear": 80009,
		"gear_rank": 1,
		"proficiency_UnitProficiency": 2,
		"level": 8,
		"hp": 38,
		"strength": 1,
		"vitality": 24,
		"intelligence": 28,
		"mind": 22,
		"agility": 23,
		"dexterity": 29,
		"lucky": 4,
		"parameter_table_BattleEnemyParameterTable": 18600103,
		"parameter_deviation_table_BattleEnemyParameterDeviationTable": 1,
		"acquire_skill_group_id": 136,
		"level_correction": 0,
		"group_id": 0,
		"ai_script_id_BattleAIScript": 0
	},
	{
		"ID": 27784,
		"stage_BattleStage": 271002120,
		"unit_UnitUnit": 900025,
		"money": 75,
		"initial_coordinate_x": 3,
		"initial_coordinate_y": 11,
		"reinforcement_BattleReinforcement": 0,
		"initial_direction": 180.0,
		"ai_move_group": 0,
		"ai_target_move_x": -1,
		"ai_target_move_y": -1,
		"ai_skill_function": "",
		"ai_attack": "IF( turn <=8 ,IF(panel_move_distance <= 1, 1, 0),1)",
		"ai_move": "IF(turn <=8,0,1)",
		"ai_heal": "",
		"ai_skill": "",
		"ai_use": "",
		"skill_group_id": 566,
		"gear_GearGear": 80015,
		"gear_rank": 1,
		"proficiency_UnitProficiency": 1,
		"level": 15,
		"hp": 80,
		"strength": 50,
		"vitality": 42,
		"intelligence": 2,
		"mind": 35,
		"agility": 35,
		"dexterity": 44,
		"lucky": 25,
		"parameter_table_BattleEnemyParameterTable": 19000252,
		"parameter_deviation_table_BattleEnemyParameterDeviationTable": 1,
		"acquire_skill_group_id": 42,
		"level_correction": 3,
		"group_id": 0,
		"ai_script_id_BattleAIScript": 0
	}
]