[
	{
		"ID": 27726,
		"stage_BattleStage": 271002117,
		"unit_UnitUnit": 860006,
		"money": 25,
		"initial_coordinate_x": 1,
		"initial_coordinate_y": 9,
		"reinforcement_BattleReinforcement": 2,
		"initial_direction": 180.0,
		"ai_move_group": 0,
		"ai_target_move_x": -1,
		"ai_target_move_y": -1,
		"ai_skill_function": "",
		"ai_attack": "",
		"ai_move": "",
		"ai_heal": "",
		"ai_skill": "",
		"ai_use": "",
		"skill_group_id": 491,
		"gear_GearGear": 80008,
		"gear_rank": 1,
		"proficiency_UnitProficiency": 1,
		"level": 5,
		"hp": 26,
		"strength": 1,
		"vitality": 11,
		"intelligence": 12,
		"mind": 10,
		"agility": 13,
		"dexterity": 13,
		"lucky": 3,
		"parameter_table_BattleEnemyParameterTable": 18600063,
		"parameter_deviation_table_BattleEnemyParameterDeviationTable": 1,
		"acquire_skill_group_id": 132,
		"level_correction": -3,
		"group_id": 0,
		"ai_script_id_BattleAIScript": 0
	},
	{
		"ID": 27727,
		"stage_BattleStage": 271002117,
		"unit_UnitUnit": 860006,
		"money": 30,
		"initial_coordinate_x": 2,
		"initial_coordinate_y": 9,
		"reinforcement_BattleReinforcement": 2,
		"initial_direction": 180.0,
		"ai_move_group": 0,
		"ai_target_move_x": -1,
		"ai_target_move_y": -1,
		"ai_skill_function": "",
		"ai_attack": "",
		"ai_move": "",
		"ai_heal": "",
		"ai_skill": "",
		"ai_use": "",
		"skill_group_id": 491,
		"gear_GearGear": 80009,
		"gear_rank": 1,
		"proficiency_UnitProficiency": 2,
		"level": 6,
		"hp": 26,
		"strength": 1,
		"vitality": 11,
		"intelligence": 12,
		"mind": 11,
		"agility": 13,
		"dexterity": 13,
		"lucky": 3,
		"parameter_table_BattleEnemyParameterTable": 18600063,
		"parameter_deviation_table_BattleEnemyParameterDeviationTable": 1,
		"acquire_skill_group_id": 134,
		"level_correction": -2,
		"group_id": 0,
		"ai_script_id_BattleAIScript": 0
	},
	{
		"ID": 27728,
		"stage_BattleStage": 271002117,
		"unit_UnitUnit": 900030,
		"money": 35,
		"initial_coordinate_x": 3,
		"initial_coordinate_y": 9,
		"reinforcement_BattleReinforcement": 2,
		"initial_direction": 180.0,
		"ai_move_group": 0,
		"ai_target_move_x": -1,
		"ai_target_move_y": -1,
		"ai_skill_function": "",
		"ai_attack": "",
		"ai_move": "",
		"ai_heal": "",
		"ai_skill": "",
		"ai_use": "",
		"skill_group_id": 0,
		"gear_GearGear": 21002,
		"gear_rank": 1,
		"proficiency_UnitProficiency": 1,
		"level": 7,
		"hp": 27,
		"strength": 1,
		"vitality": 12,
		"intelligence": 13,
		"mind": 11,
		"agility": 14,
		"dexterity": 14,
		"lucky": 3,
		"parameter_table_BattleEnemyParameterTable": 19000302,
		"parameter_deviation_table_BattleEnemyParameterDeviationTable": 8,
		"acquire_skill_group_id": 75,
		"level_correction": -1,
		"group_id": 0,
		"ai_script_id_BattleAIScript": 0
	},
	{
		"ID": 27729,
		"stage_BattleStage": 271002117,
		"unit_UnitUnit": 860006,
		"money": 30,
		"initial_coordinate_x": 7,
		"initial_coordinate_y": 9,
		"reinforcement_BattleReinforcement": 3,
		"initial_direction": 180.0,
		"ai_move_group": 0,
		"ai_target_move_x": -1,
		"ai_target_move_y": -1,
		"ai_skill_function": "",
		"ai_attack": "",
		"ai_move": "",
		"ai_heal": "",
		"ai_skill": "",
		"ai_use": "",
		"skill_group_id": 503,
		"gear_GearGear": 80009,
		"gear_rank": 1,
		"proficiency_UnitProficiency": 2,
		"level": 6,
		"hp": 27,
		"strength": 2,
		"vitality": 12,
		"intelligence": 14,
		"mind": 12,
		"agility": 14,
		"dexterity": 14,
		"lucky": 3,
		"parameter_table_BattleEnemyParameterTable": 18600063,
		"parameter_deviation_table_BattleEnemyParameterDeviationTable": 1,
		"acquire_skill_group_id": 132,
		"level_correction": -2,
		"group_id": 0,
		"ai_script_id_BattleAIScript": 0
	},
	{
		"ID": 27730,
		"stage_BattleStage": 271002117,
		"unit_UnitUnit": 860006,
		"money": 25,
		"initial_coordinate_x": 8,
		"initial_coordinate_y": 9,
		"reinforcement_BattleReinforcement": 3,
		"initial_direction": 180.0,
		"ai_move_group": 0,
		"ai_target_move_x": -1,
		"ai_target_move_y": -1,
		"ai_skill_function": "",
		"ai_attack": "",
		"ai_move": "",
		"ai_heal": "",
		"ai_skill": "",
		"ai_use": "",
		"skill_group_id": 503,
		"gear_GearGear": 80008,
		"gear_rank": 1,
		"proficiency_UnitProficiency": 1,
		"level": 5,
		"hp": 28,
		"strength": 2,
		"vitality": 13,
		"intelligence": 14,
		"mind": 12,
		"agility": 15,
		"dexterity": 15,
		"lucky": 3,
		"parameter_table_BattleEnemyParameterTable": 18600063,
		"parameter_deviation_table_BattleEnemyParameterDeviationTable": 1,
		"acquire_skill_group_id": 134,
		"level_correction": -1,
		"group_id": 0,
		"ai_script_id_BattleAIScript": 0
	},
	{
		"ID": 27731,
		"stage_BattleStage": 271002117,
		"unit_UnitUnit": 301913,
		"money": 20,
		"initial_coordinate_x": 9,
		"initial_coordinate_y": 9,
		"reinforcement_BattleReinforcement": 0,
		"initial_direction": 180.0,
		"ai_move_group": 0,
		"ai_target_move_x": -1,
		"ai_target_move_y": -1,
		"ai_skill_function": "",
		"ai_attack": "",
		"ai_move": "",
		"ai_heal": "",
		"ai_skill": "",
		"ai_use": "",
		"skill_group_id": 0,
		"gear_GearGear": 31003,
		"gear_rank": 1,
		"proficiency_UnitProficiency": 4,
		"level": 4,
		"hp": 27,
		"strength": 2,
		"vitality": 12,
		"intelligence": 14,
		"mind": 12,
		"agility": 14,
		"dexterity": 14,
		"lucky": 3,
		"parameter_table_BattleEnemyParameterTable": 13019132,
		"parameter_deviation_table_BattleEnemyParameterDeviationTable": 1,
		"acquire_skill_group_id": 60,
		"level_correction": -2,
		"group_id": 0,
		"ai_script_id_BattleAIScript": 0
	},
	{
		"ID": 27732,
		"stage_BattleStage": 271002117,
		"unit_UnitUnit": 830004,
		"money": 15,
		"initial_coordinate_x": 3,
		"initial_coordinate_y": 4,
		"reinforcement_BattleReinforcement": 0,
		"initial_direction": 180.0,
		"ai_move_group": 0,
		"ai_target_move_x": -1,
		"ai_target_move_y": -1,
		"ai_skill_function": "",
		"ai_attack": "",
		"ai_move": "IF(turn <=3,0,1)",
		"ai_heal": "",
		"ai_skill": "",
		"ai_use": "",
		"skill_group_id": 0,
		"gear_GearGear": 31002,
		"gear_rank": 1,
		"proficiency_UnitProficiency": 1,
		"level": 3,
		"hp": 29,
		"strength": 17,
		"vitality": 16,
		"intelligence": 0,
		"mind": 6,
		"agility": 15,
		"dexterity": 17,
		"lucky": 3,
		"parameter_table_BattleEnemyParameterTable": 18300043,
		"parameter_deviation_table_BattleEnemyParameterDeviationTable": 1,
		"acquire_skill_group_id": 130,
		"level_correction": -3,
		"group_id": 0,
		"ai_script_id_BattleAIScript": 0
	},
	{
		"ID": 27733,
		"stage_BattleStage": 271002117,
		"unit_UnitUnit": 830004,
		"money": 20,
		"initial_coordinate_x": 4,
		"initial_coordinate_y": 4,
		"reinforcement_BattleReinforcement": 0,
		"initial_direction": 180.0,
		"ai_move_group": 0,
		"ai_target_move_x": -1,
		"ai_target_move_y": -1,
		"ai_skill_function": "",
		"ai_attack": "",
		"ai_move": "IF(turn <=3,0,1)",
		"ai_heal": "",
		"ai_skill": "",
		"ai_use": "",
		"skill_group_id": 0,
		"gear_GearGear": 32002,
		"gear_rank": 1,
		"proficiency_UnitProficiency": 2,
		"level": 4,
		"hp": 28,
		"strength": 16,
		"vitality": 15,
		"intelligence": 0,
		"mind": 5,
		"agility": 14,
		"dexterity": 16,
		"lucky": 3,
		"parameter_table_BattleEnemyParameterTable": 18300043,
		"parameter_deviation_table_BattleEnemyParameterDeviationTable": 1,
		"acquire_skill_group_id": 130,
		"level_correction": -2,
		"group_id": 0,
		"ai_script_id_BattleAIScript": 0
	},
	{
		"ID": 27734,
		"stage_BattleStage": 271002117,
		"unit_UnitUnit": 830004,
		"money": 25,
		"initial_coordinate_x": 5,
		"initial_coordinate_y": 5,
		"reinforcement_BattleReinforcement": 0,
		"initial_direction": 180.0,
		"ai_move_group": 0,
		"ai_target_move_x": -1,
		"ai_target_move_y": -1,
		"ai_skill_function": "",
		"ai_attack": "",
		"ai_move": "IF(turn <=3,0,1)",
		"ai_heal": "",
		"ai_skill": "",
		"ai_use": "",
		"skill_group_id": 0,
		"gear_GearGear": 31002,
		"gear_rank": 1,
		"proficiency_UnitProficiency": 1,
		"level": 5,
		"hp": 27,
		"strength": 15,
		"vitality": 15,
		"intelligence": 0,
		"mind": 5,
		"agility": 14,
		"dexterity": 15,
		"lucky": 3,
		"parameter_table_BattleEnemyParameterTable": 18300043,
		"parameter_deviation_table_BattleEnemyParameterDeviationTable": 1,
		"acquire_skill_group_id": 130,
		"level_correction": -1,
		"group_id": 0,
		"ai_script_id_BattleAIScript": 0
	},
	{
		"ID": 27735,
		"stage_BattleStage": 271002117,
		"unit_UnitUnit": 830004,
		"money": 30,
		"initial_coordinate_x": 6,
		"initial_coordinate_y": 5,
		"reinforcement_BattleReinforcement": 0,
		"initial_direction": 180.0,
		"ai_move_group": 0,
		"ai_target_move_x": -1,
		"ai_target_move_y": -1,
		"ai_skill_function": "",
		"ai_attack": "",
		"ai_move": "IF(turn <=3,0,1)",
		"ai_heal": "",
		"ai_skill": "",
		"ai_use": "",
		"skill_group_id": 0,
		"gear_GearGear": 32001,
		"gear_rank": 1,
		"proficiency_UnitProficiency": 2,
		"level": 6,
		"hp": 28,
		"strength": 16,
		"vitality": 15,
		"intelligence": 0,
		"mind": 5,
		"agility": 14,
		"dexterity": 16,
		"lucky": 3,
		"parameter_table_BattleEnemyParameterTable": 18300043,
		"parameter_deviation_table_BattleEnemyParameterDeviationTable": 1,
		"acquire_skill_group_id": 130,
		"level_correction": -2,
		"group_id": 0,
		"ai_script_id_BattleAIScript": 0
	},
	{
		"ID": 27736,
		"stage_BattleStage": 271002117,
		"unit_UnitUnit": 830004,
		"money": 35,
		"initial_coordinate_x": 8,
		"initial_coordinate_y": 5,
		"reinforcement_BattleReinforcement": 0,
		"initial_direction": 180.0,
		"ai_move_group": 0,
		"ai_target_move_x": -1,
		"ai_target_move_y": -1,
		"ai_skill_function": "",
		"ai_attack": "",
		"ai_move": "",
		"ai_heal": "",
		"ai_skill": "",
		"ai_use": "",
		"skill_group_id": 0,
		"gear_GearGear": 31002,
		"gear_rank": 1,
		"proficiency_UnitProficiency": 1,
		"level": 7,
		"hp": 29,
		"strength": 17,
		"vitality": 16,
		"intelligence": 0,
		"mind": 6,
		"agility": 15,
		"dexterity": 17,
		"lucky": 3,
		"parameter_table_BattleEnemyParameterTable": 18300043,
		"parameter_deviation_table_BattleEnemyParameterDeviationTable": 1,
		"acquire_skill_group_id": 130,
		"level_correction": -3,
		"group_id": 0,
		"ai_script_id_BattleAIScript": 0
	},
	{
		"ID": 27737,
		"stage_BattleStage": 271002117,
		"unit_UnitUnit": 900026,
		"money": 40,
		"initial_coordinate_x": 9,
		"initial_coordinate_y": 5,
		"reinforcement_BattleReinforcement": 0,
		"initial_direction": 180.0,
		"ai_move_group": 0,
		"ai_target_move_x": -1,
		"ai_target_move_y": -1,
		"ai_skill_function": "",
		"ai_attack": "",
		"ai_move": "",
		"ai_heal": "",
		"ai_skill": "",
		"ai_use": "",
		"skill_group_id": 0,
		"gear_GearGear": 42002,
		"gear_rank": 1,
		"proficiency_UnitProficiency": 2,
		"level": 8,
		"hp": 30,
		"strength": 18,
		"vitality": 16,
		"intelligence": 0,
		"mind": 6,
		"agility": 15,
		"dexterity": 18,
		"lucky": 3,
		"parameter_table_BattleEnemyParameterTable": 19000262,
		"parameter_deviation_table_BattleEnemyParameterDeviationTable": 1,
		"acquire_skill_group_id": 43,
		"level_correction": -2,
		"group_id": 0,
		"ai_script_id_BattleAIScript": 0
	}
]