[
	{
		"ID": 35666,
		"stage_BattleStage": 291002003,
		"unit_UnitUnit": 10022401,
		"money": 405,
		"initial_coordinate_x": 8,
		"initial_coordinate_y": 12,
		"reinforcement_BattleReinforcement": 0,
		"initial_direction": 180.0,
		"ai_move_group": 0,
		"ai_target_move_x": -1,
		"ai_target_move_y": -1,
		"ai_skill_function": "",
		"ai_attack": "IF(panel_move_distance <= 3, 1, 0)",
		"ai_move": "IF(turn <=8,0,1)",
		"ai_heal": "",
		"ai_skill": "",
		"ai_use": "",
		"skill_group_id": 17545,
		"gear_GearGear": 160221,
		"gear_rank": 5,
		"proficiency_UnitProficiency": 1,
		"level": 90,
		"hp": 119,
		"strength": 83,
		"vitality": 65,
		"intelligence": 30,
		"mind": 35,
		"agility": 104,
		"dexterity": 108,
		"lucky": 56,
		"parameter_table_BattleEnemyParameterTable": 0,
		"parameter_deviation_table_BattleEnemyParameterDeviationTable": 0,
		"acquire_skill_group_id": 0,
		"level_correction": 0,
		"group_id": 0,
		"ai_script_id_BattleAIScript": 0
	},
	{
		"ID": 35667,
		"stage_BattleStage": 291002003,
		"unit_UnitUnit": 10024301,
		"money": 400,
		"initial_coordinate_x": 3,
		"initial_coordinate_y": 10,
		"reinforcement_BattleReinforcement": 0,
		"initial_direction": 180.0,
		"ai_move_group": 0,
		"ai_target_move_x": -1,
		"ai_target_move_y": -1,
		"ai_skill_function": "",
		"ai_attack": "IF(panel_move_distance <= 3, 1, 0)",
		"ai_move": "IF(turn <=6,0,1)",
		"ai_heal": "",
		"ai_skill": "",
		"ai_use": "",
		"skill_group_id": 17551,
		"gear_GearGear": 160225,
		"gear_rank": 5,
		"proficiency_UnitProficiency": 1,
		"level": 90,
		"hp": 126,
		"strength": 83,
		"vitality": 59,
		"intelligence": 30,
		"mind": 34,
		"agility": 109,
		"dexterity": 110,
		"lucky": 55,
		"parameter_table_BattleEnemyParameterTable": 0,
		"parameter_deviation_table_BattleEnemyParameterDeviationTable": 0,
		"acquire_skill_group_id": 0,
		"level_correction": 0,
		"group_id": 0,
		"ai_script_id_BattleAIScript": 0
	},
	{
		"ID": 35668,
		"stage_BattleStage": 291002003,
		"unit_UnitUnit": 10025401,
		"money": 405,
		"initial_coordinate_x": 13,
		"initial_coordinate_y": 10,
		"reinforcement_BattleReinforcement": 0,
		"initial_direction": 180.0,
		"ai_move_group": 0,
		"ai_target_move_x": -1,
		"ai_target_move_y": -1,
		"ai_skill_function": "",
		"ai_attack": "IF(panel_move_distance <= 3, 1, 0)",
		"ai_move": "IF(turn <=6,0,1)",
		"ai_heal": "",
		"ai_skill": "",
		"ai_use": "",
		"skill_group_id": 17548,
		"gear_GearGear": 160222,
		"gear_rank": 5,
		"proficiency_UnitProficiency": 1,
		"level": 90,
		"hp": 119,
		"strength": 83,
		"vitality": 65,
		"intelligence": 30,
		"mind": 35,
		"agility": 103,
		"dexterity": 108,
		"lucky": 56,
		"parameter_table_BattleEnemyParameterTable": 0,
		"parameter_deviation_table_BattleEnemyParameterDeviationTable": 0,
		"acquire_skill_group_id": 0,
		"level_correction": 0,
		"group_id": 0,
		"ai_script_id_BattleAIScript": 0
	},
	{
		"ID": 35669,
		"stage_BattleStage": 291002003,
		"unit_UnitUnit": 10026401,
		"money": 405,
		"initial_coordinate_x": 5,
		"initial_coordinate_y": 12,
		"reinforcement_BattleReinforcement": 0,
		"initial_direction": 180.0,
		"ai_move_group": 0,
		"ai_target_move_x": -1,
		"ai_target_move_y": -1,
		"ai_skill_function": "",
		"ai_attack": "IF(panel_move_distance <= 3, 1, 0)",
		"ai_move": "IF(turn <=6,0,1)",
		"ai_heal": "",
		"ai_skill": "",
		"ai_use": "",
		"skill_group_id": 17549,
		"gear_GearGear": 160224,
		"gear_rank": 5,
		"proficiency_UnitProficiency": 1,
		"level": 90,
		"hp": 119,
		"strength": 88,
		"vitality": 65,
		"intelligence": 30,
		"mind": 35,
		"agility": 107,
		"dexterity": 111,
		"lucky": 55,
		"parameter_table_BattleEnemyParameterTable": 0,
		"parameter_deviation_table_BattleEnemyParameterDeviationTable": 0,
		"acquire_skill_group_id": 0,
		"level_correction": 0,
		"group_id": 0,
		"ai_script_id_BattleAIScript": 0
	},
	{
		"ID": 35670,
		"stage_BattleStage": 291002003,
		"unit_UnitUnit": 10023201,
		"money": 340,
		"initial_coordinate_x": 11,
		"initial_coordinate_y": 12,
		"reinforcement_BattleReinforcement": 0,
		"initial_direction": 180.0,
		"ai_move_group": 0,
		"ai_target_move_x": -1,
		"ai_target_move_y": -1,
		"ai_skill_function": "",
		"ai_attack": "IF(panel_move_distance <= 3, 1, 0)",
		"ai_move": "IF(turn <=4,0,1)",
		"ai_heal": "",
		"ai_skill": "",
		"ai_use": "",
		"skill_group_id": 17551,
		"gear_GearGear": 160223,
		"gear_rank": 5,
		"proficiency_UnitProficiency": 1,
		"level": 90,
		"hp": 122,
		"strength": 89,
		"vitality": 71,
		"intelligence": 30,
		"mind": 27,
		"agility": 106,
		"dexterity": 107,
		"lucky": 58,
		"parameter_table_BattleEnemyParameterTable": 0,
		"parameter_deviation_table_BattleEnemyParameterDeviationTable": 0,
		"acquire_skill_group_id": 0,
		"level_correction": 0,
		"group_id": 0,
		"ai_script_id_BattleAIScript": 0
	},
	{
		"ID": 35671,
		"stage_BattleStage": 291002003,
		"unit_UnitUnit": 10021301,
		"money": 340,
		"initial_coordinate_x": 5,
		"initial_coordinate_y": 12,
		"reinforcement_BattleReinforcement": 0,
		"initial_direction": 180.0,
		"ai_move_group": 0,
		"ai_target_move_x": -1,
		"ai_target_move_y": -1,
		"ai_skill_function": "",
		"ai_attack": "IF(panel_move_distance <= 3, 1, 0)",
		"ai_move": "IF(turn <=4,0,1)",
		"ai_heal": "",
		"ai_skill": "",
		"ai_use": "",
		"skill_group_id": 17541,
		"gear_GearGear": 160221,
		"gear_rank": 5,
		"proficiency_UnitProficiency": 1,
		"level": 90,
		"hp": 119,
		"strength": 80,
		"vitality": 67,
		"intelligence": 30,
		"mind": 34,
		"agility": 105,
		"dexterity": 107,
		"lucky": 55,
		"parameter_table_BattleEnemyParameterTable": 0,
		"parameter_deviation_table_BattleEnemyParameterDeviationTable": 0,
		"acquire_skill_group_id": 0,
		"level_correction": 0,
		"group_id": 0,
		"ai_script_id_BattleAIScript": 0
	},
	{
		"ID": 35672,
		"stage_BattleStage": 291002003,
		"unit_UnitUnit": 830008,
		"money": 330,
		"initial_coordinate_x": 7,
		"initial_coordinate_y": 11,
		"reinforcement_BattleReinforcement": 0,
		"initial_direction": 180.0,
		"ai_move_group": 0,
		"ai_target_move_x": -1,
		"ai_target_move_y": -1,
		"ai_skill_function": "",
		"ai_attack": "IF(panel_move_distance <= 5, 1, 0)",
		"ai_move": "IF(turn <=8,0,1)",
		"ai_heal": "",
		"ai_skill": "",
		"ai_use": "",
		"skill_group_id": 17565,
		"gear_GearGear": 34006,
		"gear_rank": 5,
		"proficiency_UnitProficiency": 4,
		"level": 75,
		"hp": 136,
		"strength": 85,
		"vitality": 86,
		"intelligence": 10,
		"mind": 60,
		"agility": 72,
		"dexterity": 92,
		"lucky": 44,
		"parameter_table_BattleEnemyParameterTable": 0,
		"parameter_deviation_table_BattleEnemyParameterDeviationTable": 0,
		"acquire_skill_group_id": 0,
		"level_correction": 0,
		"group_id": 0,
		"ai_script_id_BattleAIScript": 0
	},
	{
		"ID": 35673,
		"stage_BattleStage": 291002003,
		"unit_UnitUnit": 830008,
		"money": 325,
		"initial_coordinate_x": 9,
		"initial_coordinate_y": 11,
		"reinforcement_BattleReinforcement": 0,
		"initial_direction": 180.0,
		"ai_move_group": 0,
		"ai_target_move_x": -1,
		"ai_target_move_y": -1,
		"ai_skill_function": "",
		"ai_attack": "IF(panel_move_distance <= 5, 1, 0)",
		"ai_move": "IF(turn <=8,0,1)",
		"ai_heal": "",
		"ai_skill": "",
		"ai_use": "",
		"skill_group_id": 17565,
		"gear_GearGear": 34006,
		"gear_rank": 5,
		"proficiency_UnitProficiency": 4,
		"level": 74,
		"hp": 136,
		"strength": 84,
		"vitality": 87,
		"intelligence": 9,
		"mind": 59,
		"agility": 68,
		"dexterity": 89,
		"lucky": 43,
		"parameter_table_BattleEnemyParameterTable": 0,
		"parameter_deviation_table_BattleEnemyParameterDeviationTable": 0,
		"acquire_skill_group_id": 0,
		"level_correction": 0,
		"group_id": 0,
		"ai_script_id_BattleAIScript": 0
	},
	{
		"ID": 35674,
		"stage_BattleStage": 291002003,
		"unit_UnitUnit": 920014,
		"money": 360,
		"initial_coordinate_x": 2,
		"initial_coordinate_y": 7,
		"reinforcement_BattleReinforcement": 0,
		"initial_direction": 180.0,
		"ai_move_group": 0,
		"ai_target_move_x": -1,
		"ai_target_move_y": -1,
		"ai_skill_function": "",
		"ai_attack": "IF(panel_move_distance <= 5, 1, 0)",
		"ai_move": "IF(turn <=8,0,1)",
		"ai_heal": "",
		"ai_skill": "",
		"ai_use": "",
		"skill_group_id": 17564,
		"gear_GearGear": 24001,
		"gear_rank": 5,
		"proficiency_UnitProficiency": 3,
		"level": 72,
		"hp": 93,
		"strength": 71,
		"vitality": 64,
		"intelligence": 10,
		"mind": 54,
		"agility": 73,
		"dexterity": 92,
		"lucky": 39,
		"parameter_table_BattleEnemyParameterTable": 0,
		"parameter_deviation_table_BattleEnemyParameterDeviationTable": 0,
		"acquire_skill_group_id": 0,
		"level_correction": 0,
		"group_id": 0,
		"ai_script_id_BattleAIScript": 0
	},
	{
		"ID": 35675,
		"stage_BattleStage": 291002003,
		"unit_UnitUnit": 830001,
		"money": 350,
		"initial_coordinate_x": 4,
		"initial_coordinate_y": 8,
		"reinforcement_BattleReinforcement": 0,
		"initial_direction": 180.0,
		"ai_move_group": 0,
		"ai_target_move_x": -1,
		"ai_target_move_y": -1,
		"ai_skill_function": "",
		"ai_attack": "IF(panel_move_distance <= 5, 1, 0)",
		"ai_move": "IF(turn <=8,0,1)",
		"ai_heal": "",
		"ai_skill": "",
		"ai_use": "",
		"skill_group_id": 17567,
		"gear_GearGear": 33003,
		"gear_rank": 5,
		"proficiency_UnitProficiency": 1,
		"level": 70,
		"hp": 83,
		"strength": 62,
		"vitality": 73,
		"intelligence": 9,
		"mind": 65,
		"agility": 79,
		"dexterity": 95,
		"lucky": 44,
		"parameter_table_BattleEnemyParameterTable": 0,
		"parameter_deviation_table_BattleEnemyParameterDeviationTable": 0,
		"acquire_skill_group_id": 0,
		"level_correction": 0,
		"group_id": 0,
		"ai_script_id_BattleAIScript": 0
	},
	{
		"ID": 35676,
		"stage_BattleStage": 291002003,
		"unit_UnitUnit": 830001,
		"money": 345,
		"initial_coordinate_x": 11,
		"initial_coordinate_y": 9,
		"reinforcement_BattleReinforcement": 0,
		"initial_direction": 180.0,
		"ai_move_group": 0,
		"ai_target_move_x": -1,
		"ai_target_move_y": -1,
		"ai_skill_function": "",
		"ai_attack": "IF(panel_move_distance <= 5, 1, 0)",
		"ai_move": "IF(turn <=8,0,1)",
		"ai_heal": "",
		"ai_skill": "",
		"ai_use": "",
		"skill_group_id": 17567,
		"gear_GearGear": 33003,
		"gear_rank": 5,
		"proficiency_UnitProficiency": 1,
		"level": 71,
		"hp": 83,
		"strength": 71,
		"vitality": 75,
		"intelligence": 8,
		"mind": 62,
		"agility": 82,
		"dexterity": 98,
		"lucky": 41,
		"parameter_table_BattleEnemyParameterTable": 0,
		"parameter_deviation_table_BattleEnemyParameterDeviationTable": 0,
		"acquire_skill_group_id": 0,
		"level_correction": 0,
		"group_id": 0,
		"ai_script_id_BattleAIScript": 0
	},
	{
		"ID": 35677,
		"stage_BattleStage": 291002003,
		"unit_UnitUnit": 820007,
		"money": 345,
		"initial_coordinate_x": 13,
		"initial_coordinate_y": 7,
		"reinforcement_BattleReinforcement": 0,
		"initial_direction": 180.0,
		"ai_move_group": 0,
		"ai_target_move_x": -1,
		"ai_target_move_y": -1,
		"ai_skill_function": "",
		"ai_attack": "IF(panel_move_distance <= 5, 1, 0)",
		"ai_move": "IF(turn <=8,0,1)",
		"ai_heal": "",
		"ai_skill": "",
		"ai_use": "",
		"skill_group_id": 17564,
		"gear_GearGear": 24002,
		"gear_rank": 5,
		"proficiency_UnitProficiency": 3,
		"level": 73,
		"hp": 117,
		"strength": 77,
		"vitality": 77,
		"intelligence": 8,
		"mind": 35,
		"agility": 75,
		"dexterity": 90,
		"lucky": 45,
		"parameter_table_BattleEnemyParameterTable": 0,
		"parameter_deviation_table_BattleEnemyParameterDeviationTable": 0,
		"acquire_skill_group_id": 0,
		"level_correction": 0,
		"group_id": 0,
		"ai_script_id_BattleAIScript": 0
	},
	{
		"ID": 35678,
		"stage_BattleStage": 291002003,
		"unit_UnitUnit": 831003,
		"money": 360,
		"initial_coordinate_x": 4,
		"initial_coordinate_y": 6,
		"reinforcement_BattleReinforcement": 0,
		"initial_direction": 180.0,
		"ai_move_group": 0,
		"ai_target_move_x": -1,
		"ai_target_move_y": -1,
		"ai_skill_function": "",
		"ai_attack": "IF(panel_move_distance <= 5, 1, 0)",
		"ai_move": "IF(turn <=4,0,1)",
		"ai_heal": "",
		"ai_skill": "",
		"ai_use": "",
		"skill_group_id": 17566,
		"gear_GearGear": 34002,
		"gear_rank": 5,
		"proficiency_UnitProficiency": 2,
		"level": 73,
		"hp": 124,
		"strength": 60,
		"vitality": 100,
		"intelligence": 8,
		"mind": 59,
		"agility": 74,
		"dexterity": 93,
		"lucky": 44,
		"parameter_table_BattleEnemyParameterTable": 0,
		"parameter_deviation_table_BattleEnemyParameterDeviationTable": 0,
		"acquire_skill_group_id": 0,
		"level_correction": 0,
		"group_id": 0,
		"ai_script_id_BattleAIScript": 0
	},
	{
		"ID": 35679,
		"stage_BattleStage": 291002003,
		"unit_UnitUnit": 831003,
		"money": 360,
		"initial_coordinate_x": 12,
		"initial_coordinate_y": 6,
		"reinforcement_BattleReinforcement": 0,
		"initial_direction": 180.0,
		"ai_move_group": 0,
		"ai_target_move_x": -1,
		"ai_target_move_y": -1,
		"ai_skill_function": "",
		"ai_attack": "IF(panel_move_distance <= 5, 1, 0)",
		"ai_move": "IF(turn <=4,0,1)",
		"ai_heal": "",
		"ai_skill": "",
		"ai_use": "",
		"skill_group_id": 17566,
		"gear_GearGear": 34002,
		"gear_rank": 5,
		"proficiency_UnitProficiency": 2,
		"level": 73,
		"hp": 122,
		"strength": 62,
		"vitality": 101,
		"intelligence": 6,
		"mind": 59,
		"agility": 72,
		"dexterity": 91,
		"lucky": 45,
		"parameter_table_BattleEnemyParameterTable": 0,
		"parameter_deviation_table_BattleEnemyParameterDeviationTable": 0,
		"acquire_skill_group_id": 0,
		"level_correction": 0,
		"group_id": 0,
		"ai_script_id_BattleAIScript": 0
	},
	{
		"ID": 35680,
		"stage_BattleStage": 291002003,
		"unit_UnitUnit": 830001,
		"money": 350,
		"initial_coordinate_x": 1,
		"initial_coordinate_y": 4,
		"reinforcement_BattleReinforcement": 0,
		"initial_direction": 90.0,
		"ai_move_group": 0,
		"ai_target_move_x": -1,
		"ai_target_move_y": -1,
		"ai_skill_function": "",
		"ai_attack": "IF(panel_move_distance <= 5, 1, 0)",
		"ai_move": "IF(turn <=3,0,1)",
		"ai_heal": "",
		"ai_skill": "",
		"ai_use": "",
		"skill_group_id": 17567,
		"gear_GearGear": 33003,
		"gear_rank": 5,
		"proficiency_UnitProficiency": 1,
		"level": 71,
		"hp": 84,
		"strength": 60,
		"vitality": 72,
		"intelligence": 6,
		"mind": 62,
		"agility": 82,
		"dexterity": 98,
		"lucky": 42,
		"parameter_table_BattleEnemyParameterTable": 0,
		"parameter_deviation_table_BattleEnemyParameterDeviationTable": 0,
		"acquire_skill_group_id": 0,
		"level_correction": 0,
		"group_id": 0,
		"ai_script_id_BattleAIScript": 0
	},
	{
		"ID": 35681,
		"stage_BattleStage": 291002003,
		"unit_UnitUnit": 920014,
		"money": 325,
		"initial_coordinate_x": 1,
		"initial_coordinate_y": 1,
		"reinforcement_BattleReinforcement": 0,
		"initial_direction": 90.0,
		"ai_move_group": 0,
		"ai_target_move_x": -1,
		"ai_target_move_y": -1,
		"ai_skill_function": "",
		"ai_attack": "IF(panel_move_distance <= 5, 1, 0)",
		"ai_move": "IF(turn <=3,0,1)",
		"ai_heal": "",
		"ai_skill": "",
		"ai_use": "",
		"skill_group_id": 17564,
		"gear_GearGear": 24005,
		"gear_rank": 5,
		"proficiency_UnitProficiency": 3,
		"level": 72,
		"hp": 92,
		"strength": 69,
		"vitality": 62,
		"intelligence": 6,
		"mind": 52,
		"agility": 77,
		"dexterity": 92,
		"lucky": 39,
		"parameter_table_BattleEnemyParameterTable": 0,
		"parameter_deviation_table_BattleEnemyParameterDeviationTable": 0,
		"acquire_skill_group_id": 0,
		"level_correction": 0,
		"group_id": 0,
		"ai_script_id_BattleAIScript": 0
	},
	{
		"ID": 35682,
		"stage_BattleStage": 291002003,
		"unit_UnitUnit": 820007,
		"money": 325,
		"initial_coordinate_x": 15,
		"initial_coordinate_y": 5,
		"reinforcement_BattleReinforcement": 0,
		"initial_direction": 270.0,
		"ai_move_group": 0,
		"ai_target_move_x": -1,
		"ai_target_move_y": -1,
		"ai_skill_function": "",
		"ai_attack": "IF(panel_move_distance <= 5, 1, 0)",
		"ai_move": "IF(turn <=5,0,1)",
		"ai_heal": "",
		"ai_skill": "",
		"ai_use": "",
		"skill_group_id": 17564,
		"gear_GearGear": 24003,
		"gear_rank": 5,
		"proficiency_UnitProficiency": 3,
		"level": 73,
		"hp": 119,
		"strength": 78,
		"vitality": 74,
		"intelligence": 8,
		"mind": 33,
		"agility": 73,
		"dexterity": 91,
		"lucky": 44,
		"parameter_table_BattleEnemyParameterTable": 0,
		"parameter_deviation_table_BattleEnemyParameterDeviationTable": 0,
		"acquire_skill_group_id": 0,
		"level_correction": 0,
		"group_id": 0,
		"ai_script_id_BattleAIScript": 0
	},
	{
		"ID": 35683,
		"stage_BattleStage": 291002003,
		"unit_UnitUnit": 830001,
		"money": 345,
		"initial_coordinate_x": 15,
		"initial_coordinate_y": 2,
		"reinforcement_BattleReinforcement": 0,
		"initial_direction": 270.0,
		"ai_move_group": 0,
		"ai_target_move_x": -1,
		"ai_target_move_y": -1,
		"ai_skill_function": "",
		"ai_attack": "IF(panel_move_distance <= 5, 1, 0)",
		"ai_move": "IF(turn <=5,0,1)",
		"ai_heal": "",
		"ai_skill": "",
		"ai_use": "",
		"skill_group_id": 17567,
		"gear_GearGear": 33003,
		"gear_rank": 5,
		"proficiency_UnitProficiency": 1,
		"level": 70,
		"hp": 86,
		"strength": 68,
		"vitality": 73,
		"intelligence": 10,
		"mind": 63,
		"agility": 80,
		"dexterity": 94,
		"lucky": 41,
		"parameter_table_BattleEnemyParameterTable": 0,
		"parameter_deviation_table_BattleEnemyParameterDeviationTable": 0,
		"acquire_skill_group_id": 0,
		"level_correction": 0,
		"group_id": 0,
		"ai_script_id_BattleAIScript": 0
	},
	{
		"ID": 35684,
		"stage_BattleStage": 291002003,
		"unit_UnitUnit": 821007,
		"money": 325,
		"initial_coordinate_x": 2,
		"initial_coordinate_y": 14,
		"reinforcement_BattleReinforcement": 0,
		"initial_direction": 180.0,
		"ai_move_group": 0,
		"ai_target_move_x": -1,
		"ai_target_move_y": -1,
		"ai_skill_function": "",
		"ai_attack": "IF(panel_move_distance <= 5, 1, 0)",
		"ai_move": "IF(turn <=2,0,1)",
		"ai_heal": "",
		"ai_skill": "",
		"ai_use": "",
		"skill_group_id": 17564,
		"gear_GearGear": 24006,
		"gear_rank": 5,
		"proficiency_UnitProficiency": 3,
		"level": 71,
		"hp": 118,
		"strength": 77,
		"vitality": 73,
		"intelligence": 6,
		"mind": 34,
		"agility": 74,
		"dexterity": 88,
		"lucky": 42,
		"parameter_table_BattleEnemyParameterTable": 0,
		"parameter_deviation_table_BattleEnemyParameterDeviationTable": 0,
		"acquire_skill_group_id": 0,
		"level_correction": 0,
		"group_id": 0,
		"ai_script_id_BattleAIScript": 0
	},
	{
		"ID": 35685,
		"stage_BattleStage": 291002003,
		"unit_UnitUnit": 821007,
		"money": 325,
		"initial_coordinate_x": 3,
		"initial_coordinate_y": 14,
		"reinforcement_BattleReinforcement": 0,
		"initial_direction": 180.0,
		"ai_move_group": 0,
		"ai_target_move_x": -1,
		"ai_target_move_y": -1,
		"ai_skill_function": "",
		"ai_attack": "IF(panel_move_distance <= 5, 1, 0)",
		"ai_move": "IF(turn <=4,0,1)",
		"ai_heal": "",
		"ai_skill": "",
		"ai_use": "",
		"skill_group_id": 17564,
		"gear_GearGear": 24005,
		"gear_rank": 5,
		"proficiency_UnitProficiency": 3,
		"level": 71,
		"hp": 115,
		"strength": 73,
		"vitality": 71,
		"intelligence": 7,
		"mind": 33,
		"agility": 70,
		"dexterity": 90,
		"lucky": 44,
		"parameter_table_BattleEnemyParameterTable": 0,
		"parameter_deviation_table_BattleEnemyParameterDeviationTable": 0,
		"acquire_skill_group_id": 0,
		"level_correction": 0,
		"group_id": 0,
		"ai_script_id_BattleAIScript": 0
	},
	{
		"ID": 35686,
		"stage_BattleStage": 291002003,
		"unit_UnitUnit": 821007,
		"money": 325,
		"initial_coordinate_x": 13,
		"initial_coordinate_y": 14,
		"reinforcement_BattleReinforcement": 0,
		"initial_direction": 180.0,
		"ai_move_group": 0,
		"ai_target_move_x": -1,
		"ai_target_move_y": -1,
		"ai_skill_function": "",
		"ai_attack": "IF(panel_move_distance <= 5, 1, 0)",
		"ai_move": "IF(turn <=2,0,1)",
		"ai_heal": "",
		"ai_skill": "",
		"ai_use": "",
		"skill_group_id": 17564,
		"gear_GearGear": 24004,
		"gear_rank": 5,
		"proficiency_UnitProficiency": 3,
		"level": 71,
		"hp": 117,
		"strength": 74,
		"vitality": 72,
		"intelligence": 10,
		"mind": 34,
		"agility": 73,
		"dexterity": 89,
		"lucky": 45,
		"parameter_table_BattleEnemyParameterTable": 0,
		"parameter_deviation_table_BattleEnemyParameterDeviationTable": 0,
		"acquire_skill_group_id": 0,
		"level_correction": 0,
		"group_id": 0,
		"ai_script_id_BattleAIScript": 0
	},
	{
		"ID": 35687,
		"stage_BattleStage": 291002003,
		"unit_UnitUnit": 821007,
		"money": 325,
		"initial_coordinate_x": 14,
		"initial_coordinate_y": 14,
		"reinforcement_BattleReinforcement": 0,
		"initial_direction": 180.0,
		"ai_move_group": 0,
		"ai_target_move_x": -1,
		"ai_target_move_y": -1,
		"ai_skill_function": "",
		"ai_attack": "IF(panel_move_distance <= 5, 1, 0)",
		"ai_move": "IF(turn <=4,0,1)",
		"ai_heal": "",
		"ai_skill": "",
		"ai_use": "",
		"skill_group_id": 17564,
		"gear_GearGear": 24006,
		"gear_rank": 5,
		"proficiency_UnitProficiency": 3,
		"level": 71,
		"hp": 118,
		"strength": 77,
		"vitality": 73,
		"intelligence": 9,
		"mind": 34,
		"agility": 74,
		"dexterity": 90,
		"lucky": 43,
		"parameter_table_BattleEnemyParameterTable": 0,
		"parameter_deviation_table_BattleEnemyParameterDeviationTable": 0,
		"acquire_skill_group_id": 0,
		"level_correction": 0,
		"group_id": 0,
		"ai_script_id_BattleAIScript": 0
	}
]