[
	{
		"ID": 44438,
		"stage_BattleStage": 310085301,
		"unit_UnitUnit": 100853,
		"money": 400,
		"initial_coordinate_x": 3,
		"initial_coordinate_y": 5,
		"reinforcement_BattleReinforcement": 4,
		"initial_direction": 90.0,
		"ai_move_group": 0,
		"ai_target_move_x": -1,
		"ai_target_move_y": -1,
		"ai_skill_function": "",
		"ai_attack": "",
		"ai_move": "IF(turn <=10,0,1)",
		"ai_heal": "",
		"ai_skill": "",
		"ai_use": "",
		"skill_group_id": 470,
		"gear_GearGear": 15005,
		"gear_rank": 1,
		"proficiency_UnitProficiency": 5,
		"level": 80,
		"hp": 93,
		"strength": 82,
		"vitality": 65,
		"intelligence": 10,
		"mind": 53,
		"agility": 72,
		"dexterity": 84,
		"lucky": 20,
		"parameter_table_BattleEnemyParameterTable": 0,
		"parameter_deviation_table_BattleEnemyParameterDeviationTable": 0,
		"acquire_skill_group_id": 0,
		"level_correction": 0,
		"group_id": 0,
		"ai_script_id_BattleAIScript": 0
	},
	{
		"ID": 44439,
		"stage_BattleStage": 310085301,
		"unit_UnitUnit": 100852,
		"money": 375,
		"initial_coordinate_x": 3,
		"initial_coordinate_y": 5,
		"reinforcement_BattleReinforcement": 3,
		"initial_direction": 90.0,
		"ai_move_group": 0,
		"ai_target_move_x": -1,
		"ai_target_move_y": -1,
		"ai_skill_function": "",
		"ai_attack": "",
		"ai_move": "",
		"ai_heal": "",
		"ai_skill": "",
		"ai_use": "",
		"skill_group_id": 470,
		"gear_GearGear": 14005,
		"gear_rank": 1,
		"proficiency_UnitProficiency": 4,
		"level": 75,
		"hp": 88,
		"strength": 72,
		"vitality": 60,
		"intelligence": 9,
		"mind": 48,
		"agility": 62,
		"dexterity": 76,
		"lucky": 18,
		"parameter_table_BattleEnemyParameterTable": 0,
		"parameter_deviation_table_BattleEnemyParameterDeviationTable": 0,
		"acquire_skill_group_id": 0,
		"level_correction": 0,
		"group_id": 0,
		"ai_script_id_BattleAIScript": 0
	},
	{
		"ID": 44440,
		"stage_BattleStage": 310085301,
		"unit_UnitUnit": 100851,
		"money": 350,
		"initial_coordinate_x": 3,
		"initial_coordinate_y": 5,
		"reinforcement_BattleReinforcement": 0,
		"initial_direction": 90.0,
		"ai_move_group": 0,
		"ai_target_move_x": -1,
		"ai_target_move_y": -1,
		"ai_skill_function": "",
		"ai_attack": "",
		"ai_move": "IF(turn <=2,0,1)",
		"ai_heal": "",
		"ai_skill": "",
		"ai_use": "",
		"skill_group_id": 470,
		"gear_GearGear": 13004,
		"gear_rank": 1,
		"proficiency_UnitProficiency": 3,
		"level": 70,
		"hp": 83,
		"strength": 62,
		"vitality": 55,
		"intelligence": 8,
		"mind": 43,
		"agility": 52,
		"dexterity": 68,
		"lucky": 16,
		"parameter_table_BattleEnemyParameterTable": 0,
		"parameter_deviation_table_BattleEnemyParameterDeviationTable": 0,
		"acquire_skill_group_id": 0,
		"level_correction": 0,
		"group_id": 0,
		"ai_script_id_BattleAIScript": 0
	},
	{
		"ID": 44441,
		"stage_BattleStage": 310085301,
		"unit_UnitUnit": 830003,
		"money": 290,
		"initial_coordinate_x": 12,
		"initial_coordinate_y": 4,
		"reinforcement_BattleReinforcement": 0,
		"initial_direction": 90.0,
		"ai_move_group": 0,
		"ai_target_move_x": -1,
		"ai_target_move_y": -1,
		"ai_skill_function": "",
		"ai_attack": "",
		"ai_move": "IF(turn <=2,0,1)",
		"ai_heal": "",
		"ai_skill": "",
		"ai_use": "",
		"skill_group_id": 470,
		"gear_GearGear": 33001,
		"gear_rank": 1,
		"proficiency_UnitProficiency": 3,
		"level": 58,
		"hp": 101,
		"strength": 73,
		"vitality": 67,
		"intelligence": 5,
		"mind": 19,
		"agility": 40,
		"dexterity": 55,
		"lucky": 17,
		"parameter_table_BattleEnemyParameterTable": 0,
		"parameter_deviation_table_BattleEnemyParameterDeviationTable": 0,
		"acquire_skill_group_id": 0,
		"level_correction": 0,
		"group_id": 0,
		"ai_script_id_BattleAIScript": 0
	},
	{
		"ID": 44442,
		"stage_BattleStage": 310085301,
		"unit_UnitUnit": 830003,
		"money": 290,
		"initial_coordinate_x": 12,
		"initial_coordinate_y": 3,
		"reinforcement_BattleReinforcement": 0,
		"initial_direction": 90.0,
		"ai_move_group": 0,
		"ai_target_move_x": -1,
		"ai_target_move_y": -1,
		"ai_skill_function": "",
		"ai_attack": "",
		"ai_move": "IF(turn <=2,0,1)",
		"ai_heal": "",
		"ai_skill": "",
		"ai_use": "",
		"skill_group_id": 470,
		"gear_GearGear": 33001,
		"gear_rank": 1,
		"proficiency_UnitProficiency": 3,
		"level": 58,
		"hp": 102,
		"strength": 73,
		"vitality": 65,
		"intelligence": 5,
		"mind": 18,
		"agility": 40,
		"dexterity": 55,
		"lucky": 15,
		"parameter_table_BattleEnemyParameterTable": 0,
		"parameter_deviation_table_BattleEnemyParameterDeviationTable": 0,
		"acquire_skill_group_id": 0,
		"level_correction": 0,
		"group_id": 0,
		"ai_script_id_BattleAIScript": 0
	},
	{
		"ID": 44443,
		"stage_BattleStage": 310085301,
		"unit_UnitUnit": 860010,
		"money": 300,
		"initial_coordinate_x": 11,
		"initial_coordinate_y": 2,
		"reinforcement_BattleReinforcement": 0,
		"initial_direction": 90.0,
		"ai_move_group": 0,
		"ai_target_move_x": -1,
		"ai_target_move_y": -1,
		"ai_skill_function": "",
		"ai_attack": "",
		"ai_move": "IF(turn <=2,0,1)",
		"ai_heal": "",
		"ai_skill": "",
		"ai_use": "",
		"skill_group_id": 550,
		"gear_GearGear": 80010,
		"gear_rank": 1,
		"proficiency_UnitProficiency": 3,
		"level": 60,
		"hp": 75,
		"strength": 9,
		"vitality": 36,
		"intelligence": 66,
		"mind": 58,
		"agility": 49,
		"dexterity": 62,
		"lucky": 15,
		"parameter_table_BattleEnemyParameterTable": 0,
		"parameter_deviation_table_BattleEnemyParameterDeviationTable": 0,
		"acquire_skill_group_id": 0,
		"level_correction": 0,
		"group_id": 0,
		"ai_script_id_BattleAIScript": 0
	},
	{
		"ID": 44444,
		"stage_BattleStage": 310085301,
		"unit_UnitUnit": 830008,
		"money": 310,
		"initial_coordinate_x": 10,
		"initial_coordinate_y": 1,
		"reinforcement_BattleReinforcement": 0,
		"initial_direction": 90.0,
		"ai_move_group": 0,
		"ai_target_move_x": -1,
		"ai_target_move_y": -1,
		"ai_skill_function": "",
		"ai_attack": "",
		"ai_move": "IF(turn <=2,0,1)",
		"ai_heal": "",
		"ai_skill": "",
		"ai_use": "",
		"skill_group_id": 470,
		"gear_GearGear": 32003,
		"gear_rank": 1,
		"proficiency_UnitProficiency": 2,
		"level": 62,
		"hp": 122,
		"strength": 80,
		"vitality": 67,
		"intelligence": 3,
		"mind": 31,
		"agility": 47,
		"dexterity": 74,
		"lucky": 8,
		"parameter_table_BattleEnemyParameterTable": 0,
		"parameter_deviation_table_BattleEnemyParameterDeviationTable": 0,
		"acquire_skill_group_id": 0,
		"level_correction": 0,
		"group_id": 0,
		"ai_script_id_BattleAIScript": 0
	},
	{
		"ID": 44445,
		"stage_BattleStage": 310085301,
		"unit_UnitUnit": 830002,
		"money": 290,
		"initial_coordinate_x": 11,
		"initial_coordinate_y": 8,
		"reinforcement_BattleReinforcement": 0,
		"initial_direction": 90.0,
		"ai_move_group": 0,
		"ai_target_move_x": -1,
		"ai_target_move_y": -1,
		"ai_skill_function": "",
		"ai_attack": "",
		"ai_move": "IF(turn <=2,0,1)",
		"ai_heal": "",
		"ai_skill": "",
		"ai_use": "",
		"skill_group_id": 470,
		"gear_GearGear": 34002,
		"gear_rank": 1,
		"proficiency_UnitProficiency": 4,
		"level": 58,
		"hp": 93,
		"strength": 69,
		"vitality": 43,
		"intelligence": 7,
		"mind": 28,
		"agility": 53,
		"dexterity": 58,
		"lucky": 15,
		"parameter_table_BattleEnemyParameterTable": 0,
		"parameter_deviation_table_BattleEnemyParameterDeviationTable": 0,
		"acquire_skill_group_id": 0,
		"level_correction": 0,
		"group_id": 0,
		"ai_script_id_BattleAIScript": 0
	},
	{
		"ID": 44446,
		"stage_BattleStage": 310085301,
		"unit_UnitUnit": 830002,
		"money": 290,
		"initial_coordinate_x": 11,
		"initial_coordinate_y": 7,
		"reinforcement_BattleReinforcement": 0,
		"initial_direction": 90.0,
		"ai_move_group": 0,
		"ai_target_move_x": -1,
		"ai_target_move_y": -1,
		"ai_skill_function": "",
		"ai_attack": "",
		"ai_move": "IF(turn <=2,0,1)",
		"ai_heal": "",
		"ai_skill": "",
		"ai_use": "",
		"skill_group_id": 470,
		"gear_GearGear": 34002,
		"gear_rank": 1,
		"proficiency_UnitProficiency": 4,
		"level": 58,
		"hp": 93,
		"strength": 71,
		"vitality": 42,
		"intelligence": 7,
		"mind": 26,
		"agility": 54,
		"dexterity": 59,
		"lucky": 16,
		"parameter_table_BattleEnemyParameterTable": 0,
		"parameter_deviation_table_BattleEnemyParameterDeviationTable": 0,
		"acquire_skill_group_id": 0,
		"level_correction": 0,
		"group_id": 0,
		"ai_script_id_BattleAIScript": 0
	},
	{
		"ID": 44447,
		"stage_BattleStage": 310085301,
		"unit_UnitUnit": 830002,
		"money": 290,
		"initial_coordinate_x": 10,
		"initial_coordinate_y": 8,
		"reinforcement_BattleReinforcement": 0,
		"initial_direction": 90.0,
		"ai_move_group": 0,
		"ai_target_move_x": -1,
		"ai_target_move_y": -1,
		"ai_skill_function": "",
		"ai_attack": "",
		"ai_move": "IF(turn <=4,0,1)",
		"ai_heal": "",
		"ai_skill": "",
		"ai_use": "",
		"skill_group_id": 470,
		"gear_GearGear": 34002,
		"gear_rank": 1,
		"proficiency_UnitProficiency": 4,
		"level": 58,
		"hp": 92,
		"strength": 69,
		"vitality": 42,
		"intelligence": 7,
		"mind": 27,
		"agility": 52,
		"dexterity": 57,
		"lucky": 17,
		"parameter_table_BattleEnemyParameterTable": 0,
		"parameter_deviation_table_BattleEnemyParameterDeviationTable": 0,
		"acquire_skill_group_id": 0,
		"level_correction": 0,
		"group_id": 0,
		"ai_script_id_BattleAIScript": 0
	},
	{
		"ID": 44448,
		"stage_BattleStage": 310085301,
		"unit_UnitUnit": 830002,
		"money": 290,
		"initial_coordinate_x": 10,
		"initial_coordinate_y": 7,
		"reinforcement_BattleReinforcement": 0,
		"initial_direction": 90.0,
		"ai_move_group": 0,
		"ai_target_move_x": -1,
		"ai_target_move_y": -1,
		"ai_skill_function": "",
		"ai_attack": "",
		"ai_move": "IF(turn <=4,0,1)",
		"ai_heal": "",
		"ai_skill": "",
		"ai_use": "",
		"skill_group_id": 470,
		"gear_GearGear": 34002,
		"gear_rank": 1,
		"proficiency_UnitProficiency": 4,
		"level": 58,
		"hp": 93,
		"strength": 71,
		"vitality": 44,
		"intelligence": 7,
		"mind": 28,
		"agility": 54,
		"dexterity": 58,
		"lucky": 15,
		"parameter_table_BattleEnemyParameterTable": 0,
		"parameter_deviation_table_BattleEnemyParameterDeviationTable": 0,
		"acquire_skill_group_id": 0,
		"level_correction": 0,
		"group_id": 0,
		"ai_script_id_BattleAIScript": 0
	},
	{
		"ID": 44449,
		"stage_BattleStage": 310085301,
		"unit_UnitUnit": 830002,
		"money": 290,
		"initial_coordinate_x": 7,
		"initial_coordinate_y": 4,
		"reinforcement_BattleReinforcement": 0,
		"initial_direction": 90.0,
		"ai_move_group": 0,
		"ai_target_move_x": -1,
		"ai_target_move_y": -1,
		"ai_skill_function": "",
		"ai_attack": "",
		"ai_move": "IF(turn <=4,0,1)",
		"ai_heal": "",
		"ai_skill": "",
		"ai_use": "",
		"skill_group_id": 470,
		"gear_GearGear": 34002,
		"gear_rank": 1,
		"proficiency_UnitProficiency": 4,
		"level": 58,
		"hp": 94,
		"strength": 69,
		"vitality": 43,
		"intelligence": 5,
		"mind": 26,
		"agility": 52,
		"dexterity": 58,
		"lucky": 15,
		"parameter_table_BattleEnemyParameterTable": 0,
		"parameter_deviation_table_BattleEnemyParameterDeviationTable": 0,
		"acquire_skill_group_id": 0,
		"level_correction": 0,
		"group_id": 0,
		"ai_script_id_BattleAIScript": 0
	},
	{
		"ID": 44450,
		"stage_BattleStage": 310085301,
		"unit_UnitUnit": 830002,
		"money": 290,
		"initial_coordinate_x": 7,
		"initial_coordinate_y": 3,
		"reinforcement_BattleReinforcement": 0,
		"initial_direction": 90.0,
		"ai_move_group": 0,
		"ai_target_move_x": -1,
		"ai_target_move_y": -1,
		"ai_skill_function": "",
		"ai_attack": "",
		"ai_move": "IF(turn <=4,0,1)",
		"ai_heal": "",
		"ai_skill": "",
		"ai_use": "",
		"skill_group_id": 470,
		"gear_GearGear": 34002,
		"gear_rank": 1,
		"proficiency_UnitProficiency": 4,
		"level": 58,
		"hp": 93,
		"strength": 69,
		"vitality": 42,
		"intelligence": 5,
		"mind": 28,
		"agility": 52,
		"dexterity": 57,
		"lucky": 17,
		"parameter_table_BattleEnemyParameterTable": 0,
		"parameter_deviation_table_BattleEnemyParameterDeviationTable": 0,
		"acquire_skill_group_id": 0,
		"level_correction": 0,
		"group_id": 0,
		"ai_script_id_BattleAIScript": 0
	},
	{
		"ID": 44451,
		"stage_BattleStage": 310085301,
		"unit_UnitUnit": 830008,
		"money": 310,
		"initial_coordinate_x": 5,
		"initial_coordinate_y": 1,
		"reinforcement_BattleReinforcement": 0,
		"initial_direction": 90.0,
		"ai_move_group": 0,
		"ai_target_move_x": -1,
		"ai_target_move_y": -1,
		"ai_skill_function": "",
		"ai_attack": "",
		"ai_move": "IF(turn <=6,0,1)",
		"ai_heal": "",
		"ai_skill": "",
		"ai_use": "",
		"skill_group_id": 470,
		"gear_GearGear": 32003,
		"gear_rank": 1,
		"proficiency_UnitProficiency": 2,
		"level": 62,
		"hp": 123,
		"strength": 81,
		"vitality": 66,
		"intelligence": 3,
		"mind": 30,
		"agility": 49,
		"dexterity": 73,
		"lucky": 7,
		"parameter_table_BattleEnemyParameterTable": 0,
		"parameter_deviation_table_BattleEnemyParameterDeviationTable": 0,
		"acquire_skill_group_id": 0,
		"level_correction": 0,
		"group_id": 0,
		"ai_script_id_BattleAIScript": 0
	},
	{
		"ID": 44452,
		"stage_BattleStage": 310085301,
		"unit_UnitUnit": 860010,
		"money": 300,
		"initial_coordinate_x": 4,
		"initial_coordinate_y": 1,
		"reinforcement_BattleReinforcement": 0,
		"initial_direction": 90.0,
		"ai_move_group": 0,
		"ai_target_move_x": -1,
		"ai_target_move_y": -1,
		"ai_skill_function": "",
		"ai_attack": "",
		"ai_move": "IF(turn <=6,0,1)",
		"ai_heal": "",
		"ai_skill": "",
		"ai_use": "",
		"skill_group_id": 550,
		"gear_GearGear": 80010,
		"gear_rank": 1,
		"proficiency_UnitProficiency": 3,
		"level": 60,
		"hp": 75,
		"strength": 9,
		"vitality": 38,
		"intelligence": 67,
		"mind": 56,
		"agility": 48,
		"dexterity": 64,
		"lucky": 15,
		"parameter_table_BattleEnemyParameterTable": 0,
		"parameter_deviation_table_BattleEnemyParameterDeviationTable": 0,
		"acquire_skill_group_id": 0,
		"level_correction": 0,
		"group_id": 0,
		"ai_script_id_BattleAIScript": 0
	},
	{
		"ID": 44453,
		"stage_BattleStage": 310085301,
		"unit_UnitUnit": 830008,
		"money": 310,
		"initial_coordinate_x": 5,
		"initial_coordinate_y": 8,
		"reinforcement_BattleReinforcement": 0,
		"initial_direction": 90.0,
		"ai_move_group": 0,
		"ai_target_move_x": -1,
		"ai_target_move_y": -1,
		"ai_skill_function": "",
		"ai_attack": "",
		"ai_move": "IF(turn <=6,0,1)",
		"ai_heal": "",
		"ai_skill": "",
		"ai_use": "",
		"skill_group_id": 470,
		"gear_GearGear": 32003,
		"gear_rank": 1,
		"proficiency_UnitProficiency": 2,
		"level": 62,
		"hp": 122,
		"strength": 81,
		"vitality": 67,
		"intelligence": 3,
		"mind": 32,
		"agility": 47,
		"dexterity": 72,
		"lucky": 6,
		"parameter_table_BattleEnemyParameterTable": 0,
		"parameter_deviation_table_BattleEnemyParameterDeviationTable": 0,
		"acquire_skill_group_id": 0,
		"level_correction": 0,
		"group_id": 0,
		"ai_script_id_BattleAIScript": 0
	},
	{
		"ID": 44454,
		"stage_BattleStage": 310085301,
		"unit_UnitUnit": 860010,
		"money": 300,
		"initial_coordinate_x": 4,
		"initial_coordinate_y": 8,
		"reinforcement_BattleReinforcement": 0,
		"initial_direction": 90.0,
		"ai_move_group": 0,
		"ai_target_move_x": -1,
		"ai_target_move_y": -1,
		"ai_skill_function": "",
		"ai_attack": "",
		"ai_move": "IF(turn <=6,0,1)",
		"ai_heal": "",
		"ai_skill": "",
		"ai_use": "",
		"skill_group_id": 550,
		"gear_GearGear": 80010,
		"gear_rank": 1,
		"proficiency_UnitProficiency": 3,
		"level": 60,
		"hp": 75,
		"strength": 9,
		"vitality": 36,
		"intelligence": 66,
		"mind": 57,
		"agility": 48,
		"dexterity": 63,
		"lucky": 15,
		"parameter_table_BattleEnemyParameterTable": 0,
		"parameter_deviation_table_BattleEnemyParameterDeviationTable": 0,
		"acquire_skill_group_id": 0,
		"level_correction": 0,
		"group_id": 0,
		"ai_script_id_BattleAIScript": 0
	},
	{
		"ID": 44455,
		"stage_BattleStage": 310085301,
		"unit_UnitUnit": 830008,
		"money": 310,
		"initial_coordinate_x": 4,
		"initial_coordinate_y": 5,
		"reinforcement_BattleReinforcement": 0,
		"initial_direction": 90.0,
		"ai_move_group": 0,
		"ai_target_move_x": -1,
		"ai_target_move_y": -1,
		"ai_skill_function": "",
		"ai_attack": "",
		"ai_move": "",
		"ai_heal": "",
		"ai_skill": "",
		"ai_use": "",
		"skill_group_id": 470,
		"gear_GearGear": 32003,
		"gear_rank": 1,
		"proficiency_UnitProficiency": 2,
		"level": 62,
		"hp": 121,
		"strength": 79,
		"vitality": 67,
		"intelligence": 3,
		"mind": 32,
		"agility": 49,
		"dexterity": 72,
		"lucky": 8,
		"parameter_table_BattleEnemyParameterTable": 0,
		"parameter_deviation_table_BattleEnemyParameterDeviationTable": 0,
		"acquire_skill_group_id": 0,
		"level_correction": 0,
		"group_id": 0,
		"ai_script_id_BattleAIScript": 0
	},
	{
		"ID": 44456,
		"stage_BattleStage": 310085301,
		"unit_UnitUnit": 860010,
		"money": 300,
		"initial_coordinate_x": 3,
		"initial_coordinate_y": 4,
		"reinforcement_BattleReinforcement": 0,
		"initial_direction": 90.0,
		"ai_move_group": 0,
		"ai_target_move_x": -1,
		"ai_target_move_y": -1,
		"ai_skill_function": "",
		"ai_attack": "",
		"ai_move": "",
		"ai_heal": "",
		"ai_skill": "",
		"ai_use": "",
		"skill_group_id": 550,
		"gear_GearGear": 80010,
		"gear_rank": 1,
		"proficiency_UnitProficiency": 3,
		"level": 60,
		"hp": 75,
		"strength": 10,
		"vitality": 38,
		"intelligence": 66,
		"mind": 58,
		"agility": 48,
		"dexterity": 64,
		"lucky": 15,
		"parameter_table_BattleEnemyParameterTable": 0,
		"parameter_deviation_table_BattleEnemyParameterDeviationTable": 0,
		"acquire_skill_group_id": 0,
		"level_correction": 0,
		"group_id": 0,
		"ai_script_id_BattleAIScript": 0
	},
	{
		"ID": 44457,
		"stage_BattleStage": 310085301,
		"unit_UnitUnit": 860010,
		"money": 300,
		"initial_coordinate_x": 3,
		"initial_coordinate_y": 6,
		"reinforcement_BattleReinforcement": 0,
		"initial_direction": 90.0,
		"ai_move_group": 0,
		"ai_target_move_x": -1,
		"ai_target_move_y": -1,
		"ai_skill_function": "",
		"ai_attack": "",
		"ai_move": "",
		"ai_heal": "",
		"ai_skill": "",
		"ai_use": "",
		"skill_group_id": 550,
		"gear_GearGear": 80010,
		"gear_rank": 1,
		"proficiency_UnitProficiency": 3,
		"level": 60,
		"hp": 76,
		"strength": 8,
		"vitality": 36,
		"intelligence": 66,
		"mind": 56,
		"agility": 49,
		"dexterity": 64,
		"lucky": 16,
		"parameter_table_BattleEnemyParameterTable": 0,
		"parameter_deviation_table_BattleEnemyParameterDeviationTable": 0,
		"acquire_skill_group_id": 0,
		"level_correction": 0,
		"group_id": 0,
		"ai_script_id_BattleAIScript": 0
	}
]