[
	{
		"ID": 50000,
		"stage_BattleStage": 321005131,
		"unit_UnitUnit": 2100513,
		"money": 425,
		"initial_coordinate_x": 4,
		"initial_coordinate_y": 1,
		"reinforcement_BattleReinforcement": 3,
		"initial_direction": 90.0,
		"ai_move_group": 0,
		"ai_target_move_x": -1,
		"ai_target_move_y": -1,
		"ai_skill_function": "",
		"ai_attack": "IF( turn <=4 ,IF(panel_move_distance <= 4, 1, 0),1)",
		"ai_move": "IF(turn <=4,0,1)",
		"ai_heal": "",
		"ai_skill": "",
		"ai_use": "",
		"skill_group_id": 560,
		"gear_GearGear": 15002,
		"gear_rank": 1,
		"proficiency_UnitProficiency": 5,
		"level": 85,
		"hp": 112,
		"strength": 97,
		"vitality": 85,
		"intelligence": 11,
		"mind": 50,
		"agility": 80,
		"dexterity": 85,
		"lucky": 13,
		"parameter_table_BattleEnemyParameterTable": 0,
		"parameter_deviation_table_BattleEnemyParameterDeviationTable": 0,
		"acquire_skill_group_id": 0,
		"level_correction": 0,
		"group_id": 0,
		"ai_script_id_BattleAIScript": 0
	},
	{
		"ID": 50001,
		"stage_BattleStage": 321005131,
		"unit_UnitUnit": 2100512,
		"money": 400,
		"initial_coordinate_x": 5,
		"initial_coordinate_y": 1,
		"reinforcement_BattleReinforcement": 2,
		"initial_direction": 90.0,
		"ai_move_group": 0,
		"ai_target_move_x": -1,
		"ai_target_move_y": -1,
		"ai_skill_function": "",
		"ai_attack": "IF( turn <=2 ,IF(panel_move_distance <= 4, 1, 0),1)",
		"ai_move": "IF(turn <=2,0,1)",
		"ai_heal": "",
		"ai_skill": "",
		"ai_use": "",
		"skill_group_id": 560,
		"gear_GearGear": 14001,
		"gear_rank": 1,
		"proficiency_UnitProficiency": 4,
		"level": 80,
		"hp": 107,
		"strength": 88,
		"vitality": 76,
		"intelligence": 9,
		"mind": 45,
		"agility": 75,
		"dexterity": 80,
		"lucky": 11,
		"parameter_table_BattleEnemyParameterTable": 0,
		"parameter_deviation_table_BattleEnemyParameterDeviationTable": 0,
		"acquire_skill_group_id": 0,
		"level_correction": 0,
		"group_id": 0,
		"ai_script_id_BattleAIScript": 0
	},
	{
		"ID": 50002,
		"stage_BattleStage": 321005131,
		"unit_UnitUnit": 2100511,
		"money": 350,
		"initial_coordinate_x": 4,
		"initial_coordinate_y": 2,
		"reinforcement_BattleReinforcement": 0,
		"initial_direction": 90.0,
		"ai_move_group": 0,
		"ai_target_move_x": -1,
		"ai_target_move_y": -1,
		"ai_skill_function": "",
		"ai_attack": "IF( turn <=1 ,IF(panel_move_distance <= 4, 1, 0),1)",
		"ai_move": "IF(turn <=1,0,1)",
		"ai_heal": "",
		"ai_skill": "",
		"ai_use": "",
		"skill_group_id": 470,
		"gear_GearGear": 13001,
		"gear_rank": 1,
		"proficiency_UnitProficiency": 3,
		"level": 70,
		"hp": 98,
		"strength": 79,
		"vitality": 67,
		"intelligence": 7,
		"mind": 40,
		"agility": 70,
		"dexterity": 75,
		"lucky": 9,
		"parameter_table_BattleEnemyParameterTable": 0,
		"parameter_deviation_table_BattleEnemyParameterDeviationTable": 0,
		"acquire_skill_group_id": 0,
		"level_correction": 0,
		"group_id": 0,
		"ai_script_id_BattleAIScript": 0
	},
	{
		"ID": 50003,
		"stage_BattleStage": 321005131,
		"unit_UnitUnit": 2821004,
		"money": 310,
		"initial_coordinate_x": 4,
		"initial_coordinate_y": 4,
		"reinforcement_BattleReinforcement": 0,
		"initial_direction": 90.0,
		"ai_move_group": 0,
		"ai_target_move_x": -1,
		"ai_target_move_y": -1,
		"ai_skill_function": "",
		"ai_attack": "IF( turn <=2 ,IF(panel_move_distance <= 4, 1, 0),1)",
		"ai_move": "IF(turn <=2,0,10)",
		"ai_heal": "",
		"ai_skill": "",
		"ai_use": "",
		"skill_group_id": 470,
		"gear_GearGear": 23001,
		"gear_rank": 1,
		"proficiency_UnitProficiency": 3,
		"level": 62,
		"hp": 92,
		"strength": 79,
		"vitality": 44,
		"intelligence": 6,
		"mind": 27,
		"agility": 53,
		"dexterity": 66,
		"lucky": 17,
		"parameter_table_BattleEnemyParameterTable": 0,
		"parameter_deviation_table_BattleEnemyParameterDeviationTable": 0,
		"acquire_skill_group_id": 0,
		"level_correction": 0,
		"group_id": 0,
		"ai_script_id_BattleAIScript": 0
	},
	{
		"ID": 50004,
		"stage_BattleStage": 321005131,
		"unit_UnitUnit": 820007,
		"money": 315,
		"initial_coordinate_x": 5,
		"initial_coordinate_y": 3,
		"reinforcement_BattleReinforcement": 0,
		"initial_direction": 90.0,
		"ai_move_group": 0,
		"ai_target_move_x": -1,
		"ai_target_move_y": -1,
		"ai_skill_function": "",
		"ai_attack": "IF( turn <=2 ,IF(panel_move_distance <= 6, 1, 0),1)",
		"ai_move": "IF(turn <=2,0,1)",
		"ai_heal": "",
		"ai_skill": "",
		"ai_use": "",
		"skill_group_id": 470,
		"gear_GearGear": 23001,
		"gear_rank": 1,
		"proficiency_UnitProficiency": 3,
		"level": 63,
		"hp": 101,
		"strength": 84,
		"vitality": 61,
		"intelligence": 8,
		"mind": 20,
		"agility": 39,
		"dexterity": 58,
		"lucky": 16,
		"parameter_table_BattleEnemyParameterTable": 0,
		"parameter_deviation_table_BattleEnemyParameterDeviationTable": 0,
		"acquire_skill_group_id": 0,
		"level_correction": 0,
		"group_id": 0,
		"ai_script_id_BattleAIScript": 0
	},
	{
		"ID": 50005,
		"stage_BattleStage": 321005131,
		"unit_UnitUnit": 820007,
		"money": 315,
		"initial_coordinate_x": 6,
		"initial_coordinate_y": 2,
		"reinforcement_BattleReinforcement": 0,
		"initial_direction": 90.0,
		"ai_move_group": 0,
		"ai_target_move_x": -1,
		"ai_target_move_y": -1,
		"ai_skill_function": "",
		"ai_attack": "IF( turn <=2 ,IF(panel_move_distance <= 6, 1, 0),1)",
		"ai_move": "IF(turn <=2,0,1)",
		"ai_heal": "",
		"ai_skill": "",
		"ai_use": "",
		"skill_group_id": 470,
		"gear_GearGear": 23001,
		"gear_rank": 1,
		"proficiency_UnitProficiency": 3,
		"level": 63,
		"hp": 102,
		"strength": 85,
		"vitality": 61,
		"intelligence": 8,
		"mind": 21,
		"agility": 40,
		"dexterity": 59,
		"lucky": 17,
		"parameter_table_BattleEnemyParameterTable": 0,
		"parameter_deviation_table_BattleEnemyParameterDeviationTable": 0,
		"acquire_skill_group_id": 0,
		"level_correction": 0,
		"group_id": 0,
		"ai_script_id_BattleAIScript": 0
	},
	{
		"ID": 50006,
		"stage_BattleStage": 321005131,
		"unit_UnitUnit": 2821004,
		"money": 310,
		"initial_coordinate_x": 7,
		"initial_coordinate_y": 1,
		"reinforcement_BattleReinforcement": 0,
		"initial_direction": 90.0,
		"ai_move_group": 0,
		"ai_target_move_x": -1,
		"ai_target_move_y": -1,
		"ai_skill_function": "",
		"ai_attack": "IF( turn <=2 ,IF(panel_move_distance <= 4, 1, 0),1)",
		"ai_move": "IF(turn <=2,0,10)",
		"ai_heal": "",
		"ai_skill": "",
		"ai_use": "",
		"skill_group_id": 470,
		"gear_GearGear": 23001,
		"gear_rank": 1,
		"proficiency_UnitProficiency": 3,
		"level": 62,
		"hp": 90,
		"strength": 79,
		"vitality": 45,
		"intelligence": 8,
		"mind": 28,
		"agility": 52,
		"dexterity": 66,
		"lucky": 16,
		"parameter_table_BattleEnemyParameterTable": 0,
		"parameter_deviation_table_BattleEnemyParameterDeviationTable": 0,
		"acquire_skill_group_id": 0,
		"level_correction": 0,
		"group_id": 0,
		"ai_script_id_BattleAIScript": 0
	},
	{
		"ID": 50007,
		"stage_BattleStage": 321005131,
		"unit_UnitUnit": 2821004,
		"money": 300,
		"initial_coordinate_x": 3,
		"initial_coordinate_y": 10,
		"reinforcement_BattleReinforcement": 0,
		"initial_direction": 90.0,
		"ai_move_group": 0,
		"ai_target_move_x": -1,
		"ai_target_move_y": -1,
		"ai_skill_function": "",
		"ai_attack": "IF( turn <=3 ,IF(panel_move_distance <= 4, 1, 0),1)",
		"ai_move": "IF(turn <=3,0,10)",
		"ai_heal": "",
		"ai_skill": "",
		"ai_use": "",
		"skill_group_id": 470,
		"gear_GearGear": 23001,
		"gear_rank": 1,
		"proficiency_UnitProficiency": 3,
		"level": 60,
		"hp": 89,
		"strength": 78,
		"vitality": 42,
		"intelligence": 7,
		"mind": 27,
		"agility": 51,
		"dexterity": 65,
		"lucky": 16,
		"parameter_table_BattleEnemyParameterTable": 0,
		"parameter_deviation_table_BattleEnemyParameterDeviationTable": 0,
		"acquire_skill_group_id": 0,
		"level_correction": 0,
		"group_id": 0,
		"ai_script_id_BattleAIScript": 0
	},
	{
		"ID": 50008,
		"stage_BattleStage": 321005131,
		"unit_UnitUnit": 2841004,
		"money": 305,
		"initial_coordinate_x": 2,
		"initial_coordinate_y": 9,
		"reinforcement_BattleReinforcement": 0,
		"initial_direction": 90.0,
		"ai_move_group": 0,
		"ai_target_move_x": -1,
		"ai_target_move_y": -1,
		"ai_skill_function": "",
		"ai_attack": "IF( turn <=3 ,IF(panel_move_distance <= 4, 1, 0),1)",
		"ai_move": "IF(turn <=3,0,1)",
		"ai_heal": "",
		"ai_skill": "",
		"ai_use": "",
		"skill_group_id": 470,
		"gear_GearGear": 43001,
		"gear_rank": 1,
		"proficiency_UnitProficiency": 3,
		"level": 61,
		"hp": 86,
		"strength": 73,
		"vitality": 43,
		"intelligence": 6,
		"mind": 29,
		"agility": 60,
		"dexterity": 70,
		"lucky": 18,
		"parameter_table_BattleEnemyParameterTable": 0,
		"parameter_deviation_table_BattleEnemyParameterDeviationTable": 0,
		"acquire_skill_group_id": 0,
		"level_correction": 0,
		"group_id": 0,
		"ai_script_id_BattleAIScript": 0
	},
	{
		"ID": 50009,
		"stage_BattleStage": 321005131,
		"unit_UnitUnit": 2821004,
		"money": 300,
		"initial_coordinate_x": 3,
		"initial_coordinate_y": 8,
		"reinforcement_BattleReinforcement": 0,
		"initial_direction": 90.0,
		"ai_move_group": 0,
		"ai_target_move_x": -1,
		"ai_target_move_y": -1,
		"ai_skill_function": "",
		"ai_attack": "IF( turn <=3 ,IF(panel_move_distance <= 4, 1, 0),1)",
		"ai_move": "IF(turn <=3,0,10)",
		"ai_heal": "",
		"ai_skill": "",
		"ai_use": "",
		"skill_group_id": 470,
		"gear_GearGear": 23001,
		"gear_rank": 1,
		"proficiency_UnitProficiency": 3,
		"level": 60,
		"hp": 88,
		"strength": 76,
		"vitality": 44,
		"intelligence": 8,
		"mind": 25,
		"agility": 50,
		"dexterity": 66,
		"lucky": 17,
		"parameter_table_BattleEnemyParameterTable": 0,
		"parameter_deviation_table_BattleEnemyParameterDeviationTable": 0,
		"acquire_skill_group_id": 0,
		"level_correction": 0,
		"group_id": 0,
		"ai_script_id_BattleAIScript": 0
	},
	{
		"ID": 50010,
		"stage_BattleStage": 321005131,
		"unit_UnitUnit": 2821004,
		"money": 305,
		"initial_coordinate_x": 5,
		"initial_coordinate_y": 13,
		"reinforcement_BattleReinforcement": 0,
		"initial_direction": 90.0,
		"ai_move_group": 0,
		"ai_target_move_x": -1,
		"ai_target_move_y": -1,
		"ai_skill_function": "",
		"ai_attack": "IF( turn <=3 ,IF(panel_move_distance <= 4, 1, 0),1)",
		"ai_move": "IF(turn <=3,0,1)",
		"ai_heal": "",
		"ai_skill": "",
		"ai_use": "",
		"skill_group_id": 470,
		"gear_GearGear": 23001,
		"gear_rank": 1,
		"proficiency_UnitProficiency": 3,
		"level": 61,
		"hp": 90,
		"strength": 77,
		"vitality": 43,
		"intelligence": 6,
		"mind": 28,
		"agility": 52,
		"dexterity": 67,
		"lucky": 16,
		"parameter_table_BattleEnemyParameterTable": 0,
		"parameter_deviation_table_BattleEnemyParameterDeviationTable": 0,
		"acquire_skill_group_id": 0,
		"level_correction": 0,
		"group_id": 0,
		"ai_script_id_BattleAIScript": 0
	},
	{
		"ID": 50011,
		"stage_BattleStage": 321005131,
		"unit_UnitUnit": 2821004,
		"money": 300,
		"initial_coordinate_x": 6,
		"initial_coordinate_y": 15,
		"reinforcement_BattleReinforcement": 0,
		"initial_direction": 90.0,
		"ai_move_group": 0,
		"ai_target_move_x": -1,
		"ai_target_move_y": -1,
		"ai_skill_function": "",
		"ai_attack": "IF( turn <=3 ,IF(panel_move_distance <= 4, 1, 0),1)",
		"ai_move": "IF(turn <=3,0,1)",
		"ai_heal": "",
		"ai_skill": "",
		"ai_use": "",
		"skill_group_id": 470,
		"gear_GearGear": 23001,
		"gear_rank": 1,
		"proficiency_UnitProficiency": 3,
		"level": 60,
		"hp": 89,
		"strength": 77,
		"vitality": 44,
		"intelligence": 8,
		"mind": 26,
		"agility": 50,
		"dexterity": 65,
		"lucky": 15,
		"parameter_table_BattleEnemyParameterTable": 0,
		"parameter_deviation_table_BattleEnemyParameterDeviationTable": 0,
		"acquire_skill_group_id": 0,
		"level_correction": 0,
		"group_id": 0,
		"ai_script_id_BattleAIScript": 0
	},
	{
		"ID": 50012,
		"stage_BattleStage": 321005131,
		"unit_UnitUnit": 2841004,
		"money": 305,
		"initial_coordinate_x": 4,
		"initial_coordinate_y": 16,
		"reinforcement_BattleReinforcement": 0,
		"initial_direction": 90.0,
		"ai_move_group": 0,
		"ai_target_move_x": -1,
		"ai_target_move_y": -1,
		"ai_skill_function": "",
		"ai_attack": "IF( turn <=3 ,IF(panel_move_distance <= 4, 1, 0),1)",
		"ai_move": "IF(turn <=3,0,1)",
		"ai_heal": "",
		"ai_skill": "",
		"ai_use": "",
		"skill_group_id": 470,
		"gear_GearGear": 43001,
		"gear_rank": 1,
		"proficiency_UnitProficiency": 3,
		"level": 61,
		"hp": 86,
		"strength": 73,
		"vitality": 44,
		"intelligence": 6,
		"mind": 29,
		"agility": 59,
		"dexterity": 69,
		"lucky": 17,
		"parameter_table_BattleEnemyParameterTable": 0,
		"parameter_deviation_table_BattleEnemyParameterDeviationTable": 0,
		"acquire_skill_group_id": 0,
		"level_correction": 0,
		"group_id": 0,
		"ai_script_id_BattleAIScript": 0
	},
	{
		"ID": 50013,
		"stage_BattleStage": 321005131,
		"unit_UnitUnit": 2841004,
		"money": 290,
		"initial_coordinate_x": 3,
		"initial_coordinate_y": 15,
		"reinforcement_BattleReinforcement": 0,
		"initial_direction": 90.0,
		"ai_move_group": 0,
		"ai_target_move_x": -1,
		"ai_target_move_y": -1,
		"ai_skill_function": "",
		"ai_attack": "IF( turn <=3 ,IF(panel_move_distance <= 4, 1, 0),1)",
		"ai_move": "IF(turn <=3,0,1)",
		"ai_heal": "",
		"ai_skill": "",
		"ai_use": "",
		"skill_group_id": 470,
		"gear_GearGear": 43001,
		"gear_rank": 1,
		"proficiency_UnitProficiency": 3,
		"level": 58,
		"hp": 82,
		"strength": 70,
		"vitality": 42,
		"intelligence": 6,
		"mind": 26,
		"agility": 58,
		"dexterity": 67,
		"lucky": 16,
		"parameter_table_BattleEnemyParameterTable": 0,
		"parameter_deviation_table_BattleEnemyParameterDeviationTable": 0,
		"acquire_skill_group_id": 0,
		"level_correction": 0,
		"group_id": 0,
		"ai_script_id_BattleAIScript": 0
	},
	{
		"ID": 50014,
		"stage_BattleStage": 321005131,
		"unit_UnitUnit": 2821004,
		"money": 290,
		"initial_coordinate_x": 10,
		"initial_coordinate_y": 5,
		"reinforcement_BattleReinforcement": 0,
		"initial_direction": 0.0,
		"ai_move_group": 0,
		"ai_target_move_x": -1,
		"ai_target_move_y": -1,
		"ai_skill_function": "",
		"ai_attack": "IF( turn <=1 ,IF(panel_move_distance <= 3, 1, 0),1)",
		"ai_move": "IF(turn <=1,0,10)",
		"ai_heal": "",
		"ai_skill": "",
		"ai_use": "",
		"skill_group_id": 470,
		"gear_GearGear": 23001,
		"gear_rank": 1,
		"proficiency_UnitProficiency": 3,
		"level": 58,
		"hp": 88,
		"strength": 74,
		"vitality": 40,
		"intelligence": 5,
		"mind": 26,
		"agility": 48,
		"dexterity": 64,
		"lucky": 17,
		"parameter_table_BattleEnemyParameterTable": 0,
		"parameter_deviation_table_BattleEnemyParameterDeviationTable": 0,
		"acquire_skill_group_id": 0,
		"level_correction": 0,
		"group_id": 0,
		"ai_script_id_BattleAIScript": 0
	},
	{
		"ID": 50015,
		"stage_BattleStage": 321005131,
		"unit_UnitUnit": 2821004,
		"money": 290,
		"initial_coordinate_x": 11,
		"initial_coordinate_y": 5,
		"reinforcement_BattleReinforcement": 0,
		"initial_direction": 0.0,
		"ai_move_group": 0,
		"ai_target_move_x": -1,
		"ai_target_move_y": -1,
		"ai_skill_function": "",
		"ai_attack": "IF( turn <=1 ,IF(panel_move_distance <= 3, 1, 0),1)",
		"ai_move": "IF(turn <=1,0,10)",
		"ai_heal": "",
		"ai_skill": "",
		"ai_use": "",
		"skill_group_id": 470,
		"gear_GearGear": 23001,
		"gear_rank": 1,
		"proficiency_UnitProficiency": 3,
		"level": 58,
		"hp": 87,
		"strength": 74,
		"vitality": 41,
		"intelligence": 5,
		"mind": 24,
		"agility": 50,
		"dexterity": 64,
		"lucky": 15,
		"parameter_table_BattleEnemyParameterTable": 0,
		"parameter_deviation_table_BattleEnemyParameterDeviationTable": 0,
		"acquire_skill_group_id": 0,
		"level_correction": 0,
		"group_id": 0,
		"ai_script_id_BattleAIScript": 0
	},
	{
		"ID": 50016,
		"stage_BattleStage": 321005131,
		"unit_UnitUnit": 2841004,
		"money": 290,
		"initial_coordinate_x": 10,
		"initial_coordinate_y": 3,
		"reinforcement_BattleReinforcement": 0,
		"initial_direction": 0.0,
		"ai_move_group": 0,
		"ai_target_move_x": -1,
		"ai_target_move_y": -1,
		"ai_skill_function": "",
		"ai_attack": "IF( turn <=2 ,IF(panel_move_distance <= 4, 1, 0),1)",
		"ai_move": "IF(turn <=2,0,1)",
		"ai_heal": "",
		"ai_skill": "",
		"ai_use": "",
		"skill_group_id": 470,
		"gear_GearGear": 43001,
		"gear_rank": 1,
		"proficiency_UnitProficiency": 3,
		"level": 58,
		"hp": 83,
		"strength": 68,
		"vitality": 41,
		"intelligence": 6,
		"mind": 28,
		"agility": 56,
		"dexterity": 67,
		"lucky": 15,
		"parameter_table_BattleEnemyParameterTable": 0,
		"parameter_deviation_table_BattleEnemyParameterDeviationTable": 0,
		"acquire_skill_group_id": 0,
		"level_correction": 0,
		"group_id": 0,
		"ai_script_id_BattleAIScript": 0
	},
	{
		"ID": 50017,
		"stage_BattleStage": 321005131,
		"unit_UnitUnit": 2841004,
		"money": 275,
		"initial_coordinate_x": 11,
		"initial_coordinate_y": 3,
		"reinforcement_BattleReinforcement": 0,
		"initial_direction": 0.0,
		"ai_move_group": 0,
		"ai_target_move_x": -1,
		"ai_target_move_y": -1,
		"ai_skill_function": "",
		"ai_attack": "IF( turn <=2 ,IF(panel_move_distance <= 4, 1, 0),1)",
		"ai_move": "IF(turn <=2,0,1)",
		"ai_heal": "",
		"ai_skill": "",
		"ai_use": "",
		"skill_group_id": 470,
		"gear_GearGear": 43001,
		"gear_rank": 1,
		"proficiency_UnitProficiency": 3,
		"level": 55,
		"hp": 80,
		"strength": 66,
		"vitality": 38,
		"intelligence": 5,
		"mind": 27,
		"agility": 56,
		"dexterity": 66,
		"lucky": 17,
		"parameter_table_BattleEnemyParameterTable": 0,
		"parameter_deviation_table_BattleEnemyParameterDeviationTable": 0,
		"acquire_skill_group_id": 0,
		"level_correction": 0,
		"group_id": 0,
		"ai_script_id_BattleAIScript": 0
	},
	{
		"ID": 50018,
		"stage_BattleStage": 321005131,
		"unit_UnitUnit": 2821004,
		"money": 275,
		"initial_coordinate_x": 9,
		"initial_coordinate_y": 12,
		"reinforcement_BattleReinforcement": 0,
		"initial_direction": 90.0,
		"ai_move_group": 0,
		"ai_target_move_x": -1,
		"ai_target_move_y": -1,
		"ai_skill_function": "",
		"ai_attack": "",
		"ai_move": "10.0",
		"ai_heal": "",
		"ai_skill": "",
		"ai_use": "",
		"skill_group_id": 470,
		"gear_GearGear": 23001,
		"gear_rank": 1,
		"proficiency_UnitProficiency": 3,
		"level": 55,
		"hp": 83,
		"strength": 73,
		"vitality": 39,
		"intelligence": 5,
		"mind": 23,
		"agility": 48,
		"dexterity": 61,
		"lucky": 17,
		"parameter_table_BattleEnemyParameterTable": 0,
		"parameter_deviation_table_BattleEnemyParameterDeviationTable": 0,
		"acquire_skill_group_id": 0,
		"level_correction": 0,
		"group_id": 0,
		"ai_script_id_BattleAIScript": 0
	},
	{
		"ID": 50019,
		"stage_BattleStage": 321005131,
		"unit_UnitUnit": 2821004,
		"money": 275,
		"initial_coordinate_x": 9,
		"initial_coordinate_y": 9,
		"reinforcement_BattleReinforcement": 0,
		"initial_direction": 90.0,
		"ai_move_group": 0,
		"ai_target_move_x": -1,
		"ai_target_move_y": -1,
		"ai_skill_function": "",
		"ai_attack": "",
		"ai_move": "10.0",
		"ai_heal": "",
		"ai_skill": "",
		"ai_use": "",
		"skill_group_id": 470,
		"gear_GearGear": 23001,
		"gear_rank": 1,
		"proficiency_UnitProficiency": 3,
		"level": 55,
		"hp": 83,
		"strength": 72,
		"vitality": 41,
		"intelligence": 7,
		"mind": 25,
		"agility": 47,
		"dexterity": 61,
		"lucky": 16,
		"parameter_table_BattleEnemyParameterTable": 0,
		"parameter_deviation_table_BattleEnemyParameterDeviationTable": 0,
		"acquire_skill_group_id": 0,
		"level_correction": 0,
		"group_id": 0,
		"ai_script_id_BattleAIScript": 0
	}
]