[
	{
		"ID": 47714,
		"stage_BattleStage": 325003131,
		"unit_UnitUnit": 2500311,
		"money": 350,
		"initial_coordinate_x": 8,
		"initial_coordinate_y": 9,
		"reinforcement_BattleReinforcement": 0,
		"initial_direction": 180.0,
		"ai_move_group": 0,
		"ai_target_move_x": -1,
		"ai_target_move_y": -1,
		"ai_skill_function": "",
		"ai_attack": "",
		"ai_move": "",
		"ai_heal": "",
		"ai_skill": "",
		"ai_use": "",
		"skill_group_id": 1745,
		"gear_GearGear": 53003,
		"gear_rank": 1,
		"proficiency_UnitProficiency": 3,
		"level": 70,
		"hp": 90,
		"strength": 6,
		"vitality": 24,
		"intelligence": 79,
		"mind": 55,
		"agility": 70,
		"dexterity": 70,
		"lucky": 15,
		"parameter_table_BattleEnemyParameterTable": 0,
		"parameter_deviation_table_BattleEnemyParameterDeviationTable": 0,
		"acquire_skill_group_id": 0,
		"level_correction": 0,
		"group_id": 0,
		"ai_script_id_BattleAIScript": 0
	},
	{
		"ID": 47715,
		"stage_BattleStage": 325003131,
		"unit_UnitUnit": 2500312,
		"money": 375,
		"initial_coordinate_x": 8,
		"initial_coordinate_y": 8,
		"reinforcement_BattleReinforcement": 3,
		"initial_direction": 180.0,
		"ai_move_group": 0,
		"ai_target_move_x": -1,
		"ai_target_move_y": -1,
		"ai_skill_function": "",
		"ai_attack": "",
		"ai_move": "",
		"ai_heal": "",
		"ai_skill": "",
		"ai_use": "",
		"skill_group_id": 1745,
		"gear_GearGear": 54001,
		"gear_rank": 1,
		"proficiency_UnitProficiency": 4,
		"level": 75,
		"hp": 95,
		"strength": 7,
		"vitality": 32,
		"intelligence": 87,
		"mind": 62,
		"agility": 74,
		"dexterity": 75,
		"lucky": 18,
		"parameter_table_BattleEnemyParameterTable": 0,
		"parameter_deviation_table_BattleEnemyParameterDeviationTable": 0,
		"acquire_skill_group_id": 0,
		"level_correction": 0,
		"group_id": 0,
		"ai_script_id_BattleAIScript": 0
	},
	{
		"ID": 47716,
		"stage_BattleStage": 325003131,
		"unit_UnitUnit": 2500313,
		"money": 400,
		"initial_coordinate_x": 9,
		"initial_coordinate_y": 8,
		"reinforcement_BattleReinforcement": 4,
		"initial_direction": 180.0,
		"ai_move_group": 0,
		"ai_target_move_x": -1,
		"ai_target_move_y": -1,
		"ai_skill_function": "",
		"ai_attack": "",
		"ai_move": "",
		"ai_heal": "",
		"ai_skill": "",
		"ai_use": "",
		"skill_group_id": 12395,
		"gear_GearGear": 55002,
		"gear_rank": 1,
		"proficiency_UnitProficiency": 5,
		"level": 80,
		"hp": 100,
		"strength": 8,
		"vitality": 40,
		"intelligence": 98,
		"mind": 72,
		"agility": 82,
		"dexterity": 82,
		"lucky": 24,
		"parameter_table_BattleEnemyParameterTable": 0,
		"parameter_deviation_table_BattleEnemyParameterDeviationTable": 0,
		"acquire_skill_group_id": 0,
		"level_correction": 0,
		"group_id": 0,
		"ai_script_id_BattleAIScript": 0
	},
	{
		"ID": 47717,
		"stage_BattleStage": 325003131,
		"unit_UnitUnit": 2810004,
		"money": 280,
		"initial_coordinate_x": 3,
		"initial_coordinate_y": 1,
		"reinforcement_BattleReinforcement": 0,
		"initial_direction": 90.0,
		"ai_move_group": 0,
		"ai_target_move_x": -1,
		"ai_target_move_y": -1,
		"ai_skill_function": "",
		"ai_attack": "IF( turn <=2 ,IF(panel_move_distance <= 3, 1, 0),1)",
		"ai_move": "IF(turn <=2,0,1)",
		"ai_heal": "",
		"ai_skill": "",
		"ai_use": "",
		"skill_group_id": 470,
		"gear_GearGear": 13003,
		"gear_rank": 1,
		"proficiency_UnitProficiency": 3,
		"level": 56,
		"hp": 84,
		"strength": 68,
		"vitality": 41,
		"intelligence": 6,
		"mind": 24,
		"agility": 55,
		"dexterity": 66,
		"lucky": 17,
		"parameter_table_BattleEnemyParameterTable": 0,
		"parameter_deviation_table_BattleEnemyParameterDeviationTable": 0,
		"acquire_skill_group_id": 0,
		"level_correction": 0,
		"group_id": 0,
		"ai_script_id_BattleAIScript": 0
	},
	{
		"ID": 47718,
		"stage_BattleStage": 325003131,
		"unit_UnitUnit": 2810004,
		"money": 280,
		"initial_coordinate_x": 4,
		"initial_coordinate_y": 2,
		"reinforcement_BattleReinforcement": 0,
		"initial_direction": 90.0,
		"ai_move_group": 0,
		"ai_target_move_x": -1,
		"ai_target_move_y": -1,
		"ai_skill_function": "",
		"ai_attack": "IF( turn <=2 ,IF(panel_move_distance <= 3, 1, 0),1)",
		"ai_move": "IF(turn <=2,0,1)",
		"ai_heal": "",
		"ai_skill": "",
		"ai_use": "",
		"skill_group_id": 470,
		"gear_GearGear": 13003,
		"gear_rank": 1,
		"proficiency_UnitProficiency": 3,
		"level": 56,
		"hp": 85,
		"strength": 70,
		"vitality": 40,
		"intelligence": 7,
		"mind": 23,
		"agility": 56,
		"dexterity": 67,
		"lucky": 17,
		"parameter_table_BattleEnemyParameterTable": 0,
		"parameter_deviation_table_BattleEnemyParameterDeviationTable": 0,
		"acquire_skill_group_id": 0,
		"level_correction": 0,
		"group_id": 0,
		"ai_script_id_BattleAIScript": 0
	},
	{
		"ID": 47719,
		"stage_BattleStage": 325003131,
		"unit_UnitUnit": 2810004,
		"money": 280,
		"initial_coordinate_x": 3,
		"initial_coordinate_y": 3,
		"reinforcement_BattleReinforcement": 0,
		"initial_direction": 90.0,
		"ai_move_group": 0,
		"ai_target_move_x": -1,
		"ai_target_move_y": -1,
		"ai_skill_function": "",
		"ai_attack": "IF( turn <=2 ,IF(panel_move_distance <= 3, 1, 0),1)",
		"ai_move": "IF(turn <=2,0,1)",
		"ai_heal": "",
		"ai_skill": "",
		"ai_use": "",
		"skill_group_id": 470,
		"gear_GearGear": 13003,
		"gear_rank": 1,
		"proficiency_UnitProficiency": 3,
		"level": 56,
		"hp": 85,
		"strength": 70,
		"vitality": 41,
		"intelligence": 7,
		"mind": 22,
		"agility": 55,
		"dexterity": 66,
		"lucky": 15,
		"parameter_table_BattleEnemyParameterTable": 0,
		"parameter_deviation_table_BattleEnemyParameterDeviationTable": 0,
		"acquire_skill_group_id": 0,
		"level_correction": 0,
		"group_id": 0,
		"ai_script_id_BattleAIScript": 0
	},
	{
		"ID": 47720,
		"stage_BattleStage": 325003131,
		"unit_UnitUnit": 820008,
		"money": 295,
		"initial_coordinate_x": 2,
		"initial_coordinate_y": 9,
		"reinforcement_BattleReinforcement": 0,
		"initial_direction": 180.0,
		"ai_move_group": 0,
		"ai_target_move_x": -1,
		"ai_target_move_y": -1,
		"ai_skill_function": "",
		"ai_attack": "IF( turn <=2 ,IF(panel_move_distance <= 3, 1, 0),1)",
		"ai_move": "IF(turn <=2,0,1)",
		"ai_heal": "",
		"ai_skill": "",
		"ai_use": "",
		"skill_group_id": 470,
		"gear_GearGear": 24001,
		"gear_rank": 1,
		"proficiency_UnitProficiency": 4,
		"level": 59,
		"hp": 120,
		"strength": 81,
		"vitality": 63,
		"intelligence": 4,
		"mind": 29,
		"agility": 39,
		"dexterity": 69,
		"lucky": 7,
		"parameter_table_BattleEnemyParameterTable": 0,
		"parameter_deviation_table_BattleEnemyParameterDeviationTable": 0,
		"acquire_skill_group_id": 0,
		"level_correction": 0,
		"group_id": 0,
		"ai_script_id_BattleAIScript": 0
	},
	{
		"ID": 47721,
		"stage_BattleStage": 325003131,
		"unit_UnitUnit": 820008,
		"money": 295,
		"initial_coordinate_x": 3,
		"initial_coordinate_y": 10,
		"reinforcement_BattleReinforcement": 0,
		"initial_direction": 180.0,
		"ai_move_group": 0,
		"ai_target_move_x": -1,
		"ai_target_move_y": -1,
		"ai_skill_function": "",
		"ai_attack": "IF( turn <=2 ,IF(panel_move_distance <= 3, 1, 0),1)",
		"ai_move": "IF(turn <=2,0,1)",
		"ai_heal": "",
		"ai_skill": "",
		"ai_use": "",
		"skill_group_id": 470,
		"gear_GearGear": 24001,
		"gear_rank": 1,
		"proficiency_UnitProficiency": 4,
		"level": 59,
		"hp": 121,
		"strength": 82,
		"vitality": 64,
		"intelligence": 5,
		"mind": 29,
		"agility": 41,
		"dexterity": 68,
		"lucky": 6,
		"parameter_table_BattleEnemyParameterTable": 0,
		"parameter_deviation_table_BattleEnemyParameterDeviationTable": 0,
		"acquire_skill_group_id": 0,
		"level_correction": 0,
		"group_id": 0,
		"ai_script_id_BattleAIScript": 0
	},
	{
		"ID": 47722,
		"stage_BattleStage": 325003131,
		"unit_UnitUnit": 820008,
		"money": 295,
		"initial_coordinate_x": 4,
		"initial_coordinate_y": 10,
		"reinforcement_BattleReinforcement": 0,
		"initial_direction": 180.0,
		"ai_move_group": 0,
		"ai_target_move_x": -1,
		"ai_target_move_y": -1,
		"ai_skill_function": "",
		"ai_attack": "IF( turn <=2 ,IF(panel_move_distance <= 3, 1, 0),1)",
		"ai_move": "IF(turn <=2,0,1)",
		"ai_heal": "",
		"ai_skill": "",
		"ai_use": "",
		"skill_group_id": 470,
		"gear_GearGear": 24001,
		"gear_rank": 1,
		"proficiency_UnitProficiency": 4,
		"level": 59,
		"hp": 119,
		"strength": 81,
		"vitality": 63,
		"intelligence": 3,
		"mind": 29,
		"agility": 39,
		"dexterity": 69,
		"lucky": 7,
		"parameter_table_BattleEnemyParameterTable": 0,
		"parameter_deviation_table_BattleEnemyParameterDeviationTable": 0,
		"acquire_skill_group_id": 0,
		"level_correction": 0,
		"group_id": 0,
		"ai_script_id_BattleAIScript": 0
	},
	{
		"ID": 47723,
		"stage_BattleStage": 325003131,
		"unit_UnitUnit": 820008,
		"money": 295,
		"initial_coordinate_x": 5,
		"initial_coordinate_y": 9,
		"reinforcement_BattleReinforcement": 0,
		"initial_direction": 180.0,
		"ai_move_group": 0,
		"ai_target_move_x": -1,
		"ai_target_move_y": -1,
		"ai_skill_function": "",
		"ai_attack": "IF( turn <=2 ,IF(panel_move_distance <= 3, 1, 0),1)",
		"ai_move": "IF(turn <=2,0,1)",
		"ai_heal": "",
		"ai_skill": "",
		"ai_use": "",
		"skill_group_id": 470,
		"gear_GearGear": 24001,
		"gear_rank": 1,
		"proficiency_UnitProficiency": 4,
		"level": 59,
		"hp": 120,
		"strength": 80,
		"vitality": 63,
		"intelligence": 4,
		"mind": 29,
		"agility": 40,
		"dexterity": 68,
		"lucky": 7,
		"parameter_table_BattleEnemyParameterTable": 0,
		"parameter_deviation_table_BattleEnemyParameterDeviationTable": 0,
		"acquire_skill_group_id": 0,
		"level_correction": 0,
		"group_id": 0,
		"ai_script_id_BattleAIScript": 0
	},
	{
		"ID": 47724,
		"stage_BattleStage": 325003131,
		"unit_UnitUnit": 2810004,
		"money": 310,
		"initial_coordinate_x": 1,
		"initial_coordinate_y": 14,
		"reinforcement_BattleReinforcement": 3,
		"initial_direction": 180.0,
		"ai_move_group": 0,
		"ai_target_move_x": -1,
		"ai_target_move_y": -1,
		"ai_skill_function": "",
		"ai_attack": "IF( turn <=3 ,IF(panel_move_distance <= 3, 1, 0),1)",
		"ai_move": "IF(turn <=3,0,1)",
		"ai_heal": "",
		"ai_skill": "",
		"ai_use": "",
		"skill_group_id": 470,
		"gear_GearGear": 13003,
		"gear_rank": 1,
		"proficiency_UnitProficiency": 3,
		"level": 62,
		"hp": 91,
		"strength": 74,
		"vitality": 44,
		"intelligence": 8,
		"mind": 27,
		"agility": 60,
		"dexterity": 72,
		"lucky": 17,
		"parameter_table_BattleEnemyParameterTable": 0,
		"parameter_deviation_table_BattleEnemyParameterDeviationTable": 0,
		"acquire_skill_group_id": 0,
		"level_correction": 0,
		"group_id": 0,
		"ai_script_id_BattleAIScript": 0
	},
	{
		"ID": 47725,
		"stage_BattleStage": 325003131,
		"unit_UnitUnit": 2810004,
		"money": 310,
		"initial_coordinate_x": 2,
		"initial_coordinate_y": 14,
		"reinforcement_BattleReinforcement": 3,
		"initial_direction": 180.0,
		"ai_move_group": 0,
		"ai_target_move_x": -1,
		"ai_target_move_y": -1,
		"ai_skill_function": "",
		"ai_attack": "IF( turn <=3 ,IF(panel_move_distance <= 3, 1, 0),1)",
		"ai_move": "IF(turn <=3,0,1)",
		"ai_heal": "",
		"ai_skill": "",
		"ai_use": "",
		"skill_group_id": 470,
		"gear_GearGear": 13003,
		"gear_rank": 1,
		"proficiency_UnitProficiency": 3,
		"level": 62,
		"hp": 92,
		"strength": 75,
		"vitality": 43,
		"intelligence": 6,
		"mind": 25,
		"agility": 60,
		"dexterity": 70,
		"lucky": 17,
		"parameter_table_BattleEnemyParameterTable": 0,
		"parameter_deviation_table_BattleEnemyParameterDeviationTable": 0,
		"acquire_skill_group_id": 0,
		"level_correction": 0,
		"group_id": 0,
		"ai_script_id_BattleAIScript": 0
	},
	{
		"ID": 47726,
		"stage_BattleStage": 325003131,
		"unit_UnitUnit": 2810004,
		"money": 310,
		"initial_coordinate_x": 1,
		"initial_coordinate_y": 13,
		"reinforcement_BattleReinforcement": 3,
		"initial_direction": 180.0,
		"ai_move_group": 0,
		"ai_target_move_x": -1,
		"ai_target_move_y": -1,
		"ai_skill_function": "",
		"ai_attack": "IF( turn <=3 ,IF(panel_move_distance <= 3, 1, 0),1)",
		"ai_move": "IF(turn <=3,0,1)",
		"ai_heal": "",
		"ai_skill": "",
		"ai_use": "",
		"skill_group_id": 470,
		"gear_GearGear": 13003,
		"gear_rank": 1,
		"proficiency_UnitProficiency": 3,
		"level": 62,
		"hp": 92,
		"strength": 76,
		"vitality": 43,
		"intelligence": 7,
		"mind": 27,
		"agility": 59,
		"dexterity": 72,
		"lucky": 16,
		"parameter_table_BattleEnemyParameterTable": 0,
		"parameter_deviation_table_BattleEnemyParameterDeviationTable": 0,
		"acquire_skill_group_id": 0,
		"level_correction": 0,
		"group_id": 0,
		"ai_script_id_BattleAIScript": 0
	},
	{
		"ID": 47727,
		"stage_BattleStage": 325003131,
		"unit_UnitUnit": 2810004,
		"money": 310,
		"initial_coordinate_x": 2,
		"initial_coordinate_y": 13,
		"reinforcement_BattleReinforcement": 3,
		"initial_direction": 180.0,
		"ai_move_group": 0,
		"ai_target_move_x": -1,
		"ai_target_move_y": -1,
		"ai_skill_function": "",
		"ai_attack": "IF( turn <=3 ,IF(panel_move_distance <= 3, 1, 0),1)",
		"ai_move": "IF(turn <=3,0,1)",
		"ai_heal": "",
		"ai_skill": "",
		"ai_use": "",
		"skill_group_id": 470,
		"gear_GearGear": 13003,
		"gear_rank": 1,
		"proficiency_UnitProficiency": 3,
		"level": 62,
		"hp": 92,
		"strength": 74,
		"vitality": 44,
		"intelligence": 7,
		"mind": 25,
		"agility": 60,
		"dexterity": 70,
		"lucky": 18,
		"parameter_table_BattleEnemyParameterTable": 0,
		"parameter_deviation_table_BattleEnemyParameterDeviationTable": 0,
		"acquire_skill_group_id": 0,
		"level_correction": 0,
		"group_id": 0,
		"ai_script_id_BattleAIScript": 0
	},
	{
		"ID": 47728,
		"stage_BattleStage": 325003131,
		"unit_UnitUnit": 831002,
		"money": 310,
		"initial_coordinate_x": 7,
		"initial_coordinate_y": 14,
		"reinforcement_BattleReinforcement": 0,
		"initial_direction": 180.0,
		"ai_move_group": 0,
		"ai_target_move_x": -1,
		"ai_target_move_y": -1,
		"ai_skill_function": "",
		"ai_attack": "IF( turn <=4 ,IF(panel_move_distance <= 3, 1, 0),1)",
		"ai_move": "IF(turn <=4,0,1)",
		"ai_heal": "",
		"ai_skill": "",
		"ai_use": "",
		"skill_group_id": 470,
		"gear_GearGear": 34002,
		"gear_rank": 1,
		"proficiency_UnitProficiency": 4,
		"level": 62,
		"hp": 97,
		"strength": 73,
		"vitality": 45,
		"intelligence": 6,
		"mind": 30,
		"agility": 57,
		"dexterity": 60,
		"lucky": 16,
		"parameter_table_BattleEnemyParameterTable": 0,
		"parameter_deviation_table_BattleEnemyParameterDeviationTable": 0,
		"acquire_skill_group_id": 0,
		"level_correction": 0,
		"group_id": 0,
		"ai_script_id_BattleAIScript": 0
	},
	{
		"ID": 47729,
		"stage_BattleStage": 325003131,
		"unit_UnitUnit": 831002,
		"money": 310,
		"initial_coordinate_x": 8,
		"initial_coordinate_y": 13,
		"reinforcement_BattleReinforcement": 0,
		"initial_direction": 180.0,
		"ai_move_group": 0,
		"ai_target_move_x": -1,
		"ai_target_move_y": -1,
		"ai_skill_function": "",
		"ai_attack": "IF( turn <=4 ,IF(panel_move_distance <= 3, 1, 0),1)",
		"ai_move": "IF(turn <=4,0,1)",
		"ai_heal": "",
		"ai_skill": "",
		"ai_use": "",
		"skill_group_id": 470,
		"gear_GearGear": 34002,
		"gear_rank": 1,
		"proficiency_UnitProficiency": 4,
		"level": 62,
		"hp": 98,
		"strength": 73,
		"vitality": 47,
		"intelligence": 6,
		"mind": 30,
		"agility": 57,
		"dexterity": 62,
		"lucky": 16,
		"parameter_table_BattleEnemyParameterTable": 0,
		"parameter_deviation_table_BattleEnemyParameterDeviationTable": 0,
		"acquire_skill_group_id": 0,
		"level_correction": 0,
		"group_id": 0,
		"ai_script_id_BattleAIScript": 0
	},
	{
		"ID": 47730,
		"stage_BattleStage": 325003131,
		"unit_UnitUnit": 831002,
		"money": 310,
		"initial_coordinate_x": 9,
		"initial_coordinate_y": 14,
		"reinforcement_BattleReinforcement": 0,
		"initial_direction": 180.0,
		"ai_move_group": 0,
		"ai_target_move_x": -1,
		"ai_target_move_y": -1,
		"ai_skill_function": "",
		"ai_attack": "IF( turn <=4 ,IF(panel_move_distance <= 3, 1, 0),1)",
		"ai_move": "IF(turn <=4,0,1)",
		"ai_heal": "",
		"ai_skill": "",
		"ai_use": "",
		"skill_group_id": 470,
		"gear_GearGear": 34002,
		"gear_rank": 1,
		"proficiency_UnitProficiency": 4,
		"level": 62,
		"hp": 96,
		"strength": 73,
		"vitality": 47,
		"intelligence": 6,
		"mind": 28,
		"agility": 55,
		"dexterity": 60,
		"lucky": 17,
		"parameter_table_BattleEnemyParameterTable": 0,
		"parameter_deviation_table_BattleEnemyParameterDeviationTable": 0,
		"acquire_skill_group_id": 0,
		"level_correction": 0,
		"group_id": 0,
		"ai_script_id_BattleAIScript": 0
	},
	{
		"ID": 47731,
		"stage_BattleStage": 325003131,
		"unit_UnitUnit": 831002,
		"money": 310,
		"initial_coordinate_x": 12,
		"initial_coordinate_y": 12,
		"reinforcement_BattleReinforcement": 0,
		"initial_direction": 180.0,
		"ai_move_group": 0,
		"ai_target_move_x": -1,
		"ai_target_move_y": -1,
		"ai_skill_function": "",
		"ai_attack": "IF( turn <=4 ,IF(panel_move_distance <= 3, 1, 0),1)",
		"ai_move": "IF(turn <=4,0,1)",
		"ai_heal": "",
		"ai_skill": "",
		"ai_use": "",
		"skill_group_id": 470,
		"gear_GearGear": 34002,
		"gear_rank": 1,
		"proficiency_UnitProficiency": 4,
		"level": 62,
		"hp": 96,
		"strength": 73,
		"vitality": 45,
		"intelligence": 6,
		"mind": 28,
		"agility": 57,
		"dexterity": 61,
		"lucky": 18,
		"parameter_table_BattleEnemyParameterTable": 0,
		"parameter_deviation_table_BattleEnemyParameterDeviationTable": 0,
		"acquire_skill_group_id": 0,
		"level_correction": 0,
		"group_id": 0,
		"ai_script_id_BattleAIScript": 0
	},
	{
		"ID": 47732,
		"stage_BattleStage": 325003131,
		"unit_UnitUnit": 831002,
		"money": 310,
		"initial_coordinate_x": 11,
		"initial_coordinate_y": 11,
		"reinforcement_BattleReinforcement": 0,
		"initial_direction": 180.0,
		"ai_move_group": 0,
		"ai_target_move_x": -1,
		"ai_target_move_y": -1,
		"ai_skill_function": "",
		"ai_attack": "IF( turn <=4 ,IF(panel_move_distance <= 3, 1, 0),1)",
		"ai_move": "IF(turn <=4,0,1)",
		"ai_heal": "",
		"ai_skill": "",
		"ai_use": "",
		"skill_group_id": 470,
		"gear_GearGear": 34002,
		"gear_rank": 1,
		"proficiency_UnitProficiency": 4,
		"level": 62,
		"hp": 96,
		"strength": 74,
		"vitality": 45,
		"intelligence": 6,
		"mind": 28,
		"agility": 57,
		"dexterity": 62,
		"lucky": 17,
		"parameter_table_BattleEnemyParameterTable": 0,
		"parameter_deviation_table_BattleEnemyParameterDeviationTable": 0,
		"acquire_skill_group_id": 0,
		"level_correction": 0,
		"group_id": 0,
		"ai_script_id_BattleAIScript": 0
	},
	{
		"ID": 47733,
		"stage_BattleStage": 325003131,
		"unit_UnitUnit": 831002,
		"money": 310,
		"initial_coordinate_x": 12,
		"initial_coordinate_y": 10,
		"reinforcement_BattleReinforcement": 0,
		"initial_direction": 180.0,
		"ai_move_group": 0,
		"ai_target_move_x": -1,
		"ai_target_move_y": -1,
		"ai_skill_function": "",
		"ai_attack": "IF( turn <=4 ,IF(panel_move_distance <= 3, 1, 0),1)",
		"ai_move": "IF(turn <=4,0,1)",
		"ai_heal": "",
		"ai_skill": "",
		"ai_use": "",
		"skill_group_id": 470,
		"gear_GearGear": 34002,
		"gear_rank": 1,
		"proficiency_UnitProficiency": 4,
		"level": 62,
		"hp": 98,
		"strength": 74,
		"vitality": 47,
		"intelligence": 7,
		"mind": 28,
		"agility": 57,
		"dexterity": 61,
		"lucky": 17,
		"parameter_table_BattleEnemyParameterTable": 0,
		"parameter_deviation_table_BattleEnemyParameterDeviationTable": 0,
		"acquire_skill_group_id": 0,
		"level_correction": 0,
		"group_id": 0,
		"ai_script_id_BattleAIScript": 0
	}
]