[
	{
		"ID": 54050,
		"stage_BattleStage": 330024202,
		"unit_UnitUnit": 830004,
		"money": 190,
		"initial_coordinate_x": 12,
		"initial_coordinate_y": 5,
		"reinforcement_BattleReinforcement": 0,
		"initial_direction": 180.0,
		"ai_move_group": 0,
		"ai_target_move_x": -1,
		"ai_target_move_y": -1,
		"ai_skill_function": "",
		"ai_attack": "IF( turn <=2 ,IF(panel_move_distance <= 3, 1, 0),1)",
		"ai_move": "IF(turn <=2,0,1)",
		"ai_heal": "",
		"ai_skill": "",
		"ai_use": "",
		"skill_group_id": 0,
		"gear_GearGear": 33001,
		"gear_rank": 1,
		"proficiency_UnitProficiency": 3,
		"level": 38,
		"hp": 67,
		"strength": 51,
		"vitality": 29,
		"intelligence": 4,
		"mind": 16,
		"agility": 41,
		"dexterity": 50,
		"lucky": 13,
		"parameter_table_BattleEnemyParameterTable": 0,
		"parameter_deviation_table_BattleEnemyParameterDeviationTable": 0,
		"acquire_skill_group_id": 0,
		"level_correction": 0,
		"group_id": 0,
		"ai_script_id_BattleAIScript": 0
	},
	{
		"ID": 54051,
		"stage_BattleStage": 330024202,
		"unit_UnitUnit": 830004,
		"money": 190,
		"initial_coordinate_x": 13,
		"initial_coordinate_y": 6,
		"reinforcement_BattleReinforcement": 0,
		"initial_direction": 180.0,
		"ai_move_group": 0,
		"ai_target_move_x": -1,
		"ai_target_move_y": -1,
		"ai_skill_function": "",
		"ai_attack": "IF( turn <=2 ,IF(panel_move_distance <= 3, 1, 0),1)",
		"ai_move": "IF(turn <=2,0,1)",
		"ai_heal": "",
		"ai_skill": "",
		"ai_use": "",
		"skill_group_id": 0,
		"gear_GearGear": 33001,
		"gear_rank": 1,
		"proficiency_UnitProficiency": 3,
		"level": 38,
		"hp": 67,
		"strength": 49,
		"vitality": 31,
		"intelligence": 4,
		"mind": 18,
		"agility": 42,
		"dexterity": 48,
		"lucky": 13,
		"parameter_table_BattleEnemyParameterTable": 0,
		"parameter_deviation_table_BattleEnemyParameterDeviationTable": 0,
		"acquire_skill_group_id": 0,
		"level_correction": 0,
		"group_id": 0,
		"ai_script_id_BattleAIScript": 0
	},
	{
		"ID": 54052,
		"stage_BattleStage": 330024202,
		"unit_UnitUnit": 830004,
		"money": 190,
		"initial_coordinate_x": 12,
		"initial_coordinate_y": 8,
		"reinforcement_BattleReinforcement": 0,
		"initial_direction": 180.0,
		"ai_move_group": 0,
		"ai_target_move_x": -1,
		"ai_target_move_y": -1,
		"ai_skill_function": "",
		"ai_attack": "IF( turn <=2 ,IF(panel_move_distance <= 3, 1, 0),1)",
		"ai_move": "IF(turn <=2,0,1)",
		"ai_heal": "",
		"ai_skill": "",
		"ai_use": "",
		"skill_group_id": 0,
		"gear_GearGear": 33001,
		"gear_rank": 1,
		"proficiency_UnitProficiency": 3,
		"level": 38,
		"hp": 66,
		"strength": 50,
		"vitality": 31,
		"intelligence": 5,
		"mind": 18,
		"agility": 42,
		"dexterity": 48,
		"lucky": 12,
		"parameter_table_BattleEnemyParameterTable": 0,
		"parameter_deviation_table_BattleEnemyParameterDeviationTable": 0,
		"acquire_skill_group_id": 0,
		"level_correction": 0,
		"group_id": 0,
		"ai_script_id_BattleAIScript": 0
	},
	{
		"ID": 54053,
		"stage_BattleStage": 330024202,
		"unit_UnitUnit": 830004,
		"money": 200,
		"initial_coordinate_x": 11,
		"initial_coordinate_y": 9,
		"reinforcement_BattleReinforcement": 0,
		"initial_direction": 180.0,
		"ai_move_group": 0,
		"ai_target_move_x": -1,
		"ai_target_move_y": -1,
		"ai_skill_function": "",
		"ai_attack": "IF( turn <=2 ,IF(panel_move_distance <= 3, 1, 0),1)",
		"ai_move": "IF(turn <=2,0,1)",
		"ai_heal": "",
		"ai_skill": "",
		"ai_use": "",
		"skill_group_id": 0,
		"gear_GearGear": 33001,
		"gear_rank": 1,
		"proficiency_UnitProficiency": 3,
		"level": 40,
		"hp": 69,
		"strength": 53,
		"vitality": 32,
		"intelligence": 4,
		"mind": 16,
		"agility": 44,
		"dexterity": 52,
		"lucky": 14,
		"parameter_table_BattleEnemyParameterTable": 0,
		"parameter_deviation_table_BattleEnemyParameterDeviationTable": 0,
		"acquire_skill_group_id": 0,
		"level_correction": 0,
		"group_id": 0,
		"ai_script_id_BattleAIScript": 0
	},
	{
		"ID": 54054,
		"stage_BattleStage": 330024202,
		"unit_UnitUnit": 830004,
		"money": 200,
		"initial_coordinate_x": 9,
		"initial_coordinate_y": 9,
		"reinforcement_BattleReinforcement": 0,
		"initial_direction": 180.0,
		"ai_move_group": 0,
		"ai_target_move_x": -1,
		"ai_target_move_y": -1,
		"ai_skill_function": "",
		"ai_attack": "IF( turn <=2 ,IF(panel_move_distance <= 3, 1, 0),1)",
		"ai_move": "IF(turn <=2,0,1)",
		"ai_heal": "",
		"ai_skill": "",
		"ai_use": "",
		"skill_group_id": 0,
		"gear_GearGear": 33001,
		"gear_rank": 1,
		"proficiency_UnitProficiency": 3,
		"level": 40,
		"hp": 69,
		"strength": 53,
		"vitality": 32,
		"intelligence": 5,
		"mind": 16,
		"agility": 42,
		"dexterity": 51,
		"lucky": 14,
		"parameter_table_BattleEnemyParameterTable": 0,
		"parameter_deviation_table_BattleEnemyParameterDeviationTable": 0,
		"acquire_skill_group_id": 0,
		"level_correction": 0,
		"group_id": 0,
		"ai_script_id_BattleAIScript": 0
	},
	{
		"ID": 54055,
		"stage_BattleStage": 330024202,
		"unit_UnitUnit": 830004,
		"money": 200,
		"initial_coordinate_x": 7,
		"initial_coordinate_y": 9,
		"reinforcement_BattleReinforcement": 0,
		"initial_direction": 180.0,
		"ai_move_group": 0,
		"ai_target_move_x": -1,
		"ai_target_move_y": -1,
		"ai_skill_function": "",
		"ai_attack": "IF( turn <=2 ,IF(panel_move_distance <= 3, 1, 0),1)",
		"ai_move": "IF(turn <=2,0,1)",
		"ai_heal": "",
		"ai_skill": "",
		"ai_use": "",
		"skill_group_id": 0,
		"gear_GearGear": 33001,
		"gear_rank": 1,
		"proficiency_UnitProficiency": 3,
		"level": 40,
		"hp": 68,
		"strength": 51,
		"vitality": 31,
		"intelligence": 5,
		"mind": 17,
		"agility": 42,
		"dexterity": 51,
		"lucky": 13,
		"parameter_table_BattleEnemyParameterTable": 0,
		"parameter_deviation_table_BattleEnemyParameterDeviationTable": 0,
		"acquire_skill_group_id": 0,
		"level_correction": 0,
		"group_id": 0,
		"ai_script_id_BattleAIScript": 0
	},
	{
		"ID": 54056,
		"stage_BattleStage": 330024202,
		"unit_UnitUnit": 810008,
		"money": 200,
		"initial_coordinate_x": 12,
		"initial_coordinate_y": 10,
		"reinforcement_BattleReinforcement": 0,
		"initial_direction": 180.0,
		"ai_move_group": 0,
		"ai_target_move_x": -1,
		"ai_target_move_y": -1,
		"ai_skill_function": "",
		"ai_attack": "IF( turn <=2 ,IF(panel_move_distance <= 3, 1, 0),1)",
		"ai_move": "IF(turn <=2,0,1)",
		"ai_heal": "",
		"ai_skill": "",
		"ai_use": "",
		"skill_group_id": 470,
		"gear_GearGear": 13003,
		"gear_rank": 1,
		"proficiency_UnitProficiency": 3,
		"level": 40,
		"hp": 82,
		"strength": 57,
		"vitality": 49,
		"intelligence": 5,
		"mind": 13,
		"agility": 24,
		"dexterity": 37,
		"lucky": 14,
		"parameter_table_BattleEnemyParameterTable": 0,
		"parameter_deviation_table_BattleEnemyParameterDeviationTable": 0,
		"acquire_skill_group_id": 0,
		"level_correction": 0,
		"group_id": 0,
		"ai_script_id_BattleAIScript": 0
	},
	{
		"ID": 54057,
		"stage_BattleStage": 330024202,
		"unit_UnitUnit": 810008,
		"money": 190,
		"initial_coordinate_x": 10,
		"initial_coordinate_y": 10,
		"reinforcement_BattleReinforcement": 0,
		"initial_direction": 180.0,
		"ai_move_group": 0,
		"ai_target_move_x": -1,
		"ai_target_move_y": -1,
		"ai_skill_function": "",
		"ai_attack": "IF( turn <=2 ,IF(panel_move_distance <= 3, 1, 0),1)",
		"ai_move": "IF(turn <=2,0,1)",
		"ai_heal": "",
		"ai_skill": "",
		"ai_use": "",
		"skill_group_id": 470,
		"gear_GearGear": 13003,
		"gear_rank": 1,
		"proficiency_UnitProficiency": 3,
		"level": 38,
		"hp": 82,
		"strength": 53,
		"vitality": 50,
		"intelligence": 4,
		"mind": 11,
		"agility": 23,
		"dexterity": 36,
		"lucky": 12,
		"parameter_table_BattleEnemyParameterTable": 0,
		"parameter_deviation_table_BattleEnemyParameterDeviationTable": 0,
		"acquire_skill_group_id": 0,
		"level_correction": 0,
		"group_id": 0,
		"ai_script_id_BattleAIScript": 0
	},
	{
		"ID": 54058,
		"stage_BattleStage": 330024202,
		"unit_UnitUnit": 810008,
		"money": 190,
		"initial_coordinate_x": 8,
		"initial_coordinate_y": 10,
		"reinforcement_BattleReinforcement": 0,
		"initial_direction": 180.0,
		"ai_move_group": 0,
		"ai_target_move_x": -1,
		"ai_target_move_y": -1,
		"ai_skill_function": "",
		"ai_attack": "IF( turn <=2 ,IF(panel_move_distance <= 3, 1, 0),1)",
		"ai_move": "IF(turn <=2,0,1)",
		"ai_heal": "",
		"ai_skill": "",
		"ai_use": "",
		"skill_group_id": 470,
		"gear_GearGear": 13003,
		"gear_rank": 1,
		"proficiency_UnitProficiency": 3,
		"level": 38,
		"hp": 80,
		"strength": 55,
		"vitality": 50,
		"intelligence": 5,
		"mind": 11,
		"agility": 22,
		"dexterity": 37,
		"lucky": 12,
		"parameter_table_BattleEnemyParameterTable": 0,
		"parameter_deviation_table_BattleEnemyParameterDeviationTable": 0,
		"acquire_skill_group_id": 0,
		"level_correction": 0,
		"group_id": 0,
		"ai_script_id_BattleAIScript": 0
	},
	{
		"ID": 54059,
		"stage_BattleStage": 330024202,
		"unit_UnitUnit": 810004,
		"money": 190,
		"initial_coordinate_x": 4,
		"initial_coordinate_y": 10,
		"reinforcement_BattleReinforcement": 2,
		"initial_direction": 180.0,
		"ai_move_group": 0,
		"ai_target_move_x": -1,
		"ai_target_move_y": -1,
		"ai_skill_function": "",
		"ai_attack": "",
		"ai_move": "",
		"ai_heal": "",
		"ai_skill": "",
		"ai_use": "",
		"skill_group_id": 0,
		"gear_GearGear": 13003,
		"gear_rank": 1,
		"proficiency_UnitProficiency": 3,
		"level": 38,
		"hp": 81,
		"strength": 55,
		"vitality": 50,
		"intelligence": 5,
		"mind": 10,
		"agility": 24,
		"dexterity": 36,
		"lucky": 13,
		"parameter_table_BattleEnemyParameterTable": 0,
		"parameter_deviation_table_BattleEnemyParameterDeviationTable": 0,
		"acquire_skill_group_id": 0,
		"level_correction": 0,
		"group_id": 0,
		"ai_script_id_BattleAIScript": 0
	},
	{
		"ID": 54060,
		"stage_BattleStage": 330024202,
		"unit_UnitUnit": 830008,
		"money": 190,
		"initial_coordinate_x": 3,
		"initial_coordinate_y": 10,
		"reinforcement_BattleReinforcement": 2,
		"initial_direction": 180.0,
		"ai_move_group": 0,
		"ai_target_move_x": -1,
		"ai_target_move_y": -1,
		"ai_skill_function": "",
		"ai_attack": "",
		"ai_move": "",
		"ai_heal": "",
		"ai_skill": "",
		"ai_use": "",
		"skill_group_id": 470,
		"gear_GearGear": 33001,
		"gear_rank": 1,
		"proficiency_UnitProficiency": 3,
		"level": 38,
		"hp": 65,
		"strength": 49,
		"vitality": 30,
		"intelligence": 4,
		"mind": 17,
		"agility": 42,
		"dexterity": 50,
		"lucky": 14,
		"parameter_table_BattleEnemyParameterTable": 0,
		"parameter_deviation_table_BattleEnemyParameterDeviationTable": 0,
		"acquire_skill_group_id": 0,
		"level_correction": 0,
		"group_id": 0,
		"ai_script_id_BattleAIScript": 0
	},
	{
		"ID": 54061,
		"stage_BattleStage": 330024202,
		"unit_UnitUnit": 810004,
		"money": 190,
		"initial_coordinate_x": 3,
		"initial_coordinate_y": 9,
		"reinforcement_BattleReinforcement": 2,
		"initial_direction": 180.0,
		"ai_move_group": 0,
		"ai_target_move_x": -1,
		"ai_target_move_y": -1,
		"ai_skill_function": "",
		"ai_attack": "",
		"ai_move": "",
		"ai_heal": "",
		"ai_skill": "",
		"ai_use": "",
		"skill_group_id": 0,
		"gear_GearGear": 13003,
		"gear_rank": 1,
		"proficiency_UnitProficiency": 3,
		"level": 38,
		"hp": 64,
		"strength": 49,
		"vitality": 31,
		"intelligence": 5,
		"mind": 17,
		"agility": 42,
		"dexterity": 50,
		"lucky": 13,
		"parameter_table_BattleEnemyParameterTable": 0,
		"parameter_deviation_table_BattleEnemyParameterDeviationTable": 0,
		"acquire_skill_group_id": 0,
		"level_correction": 0,
		"group_id": 0,
		"ai_script_id_BattleAIScript": 0
	},
	{
		"ID": 54062,
		"stage_BattleStage": 330024202,
		"unit_UnitUnit": 810004,
		"money": 190,
		"initial_coordinate_x": 4,
		"initial_coordinate_y": 7,
		"reinforcement_BattleReinforcement": 0,
		"initial_direction": 180.0,
		"ai_move_group": 0,
		"ai_target_move_x": -1,
		"ai_target_move_y": -1,
		"ai_skill_function": "",
		"ai_attack": "IF( turn <=2 ,IF(panel_move_distance <= 3, 1, 0),1)",
		"ai_move": "IF(turn <=2,0,1)",
		"ai_heal": "",
		"ai_skill": "",
		"ai_use": "",
		"skill_group_id": 0,
		"gear_GearGear": 13003,
		"gear_rank": 1,
		"proficiency_UnitProficiency": 3,
		"level": 38,
		"hp": 65,
		"strength": 50,
		"vitality": 29,
		"intelligence": 5,
		"mind": 18,
		"agility": 43,
		"dexterity": 48,
		"lucky": 12,
		"parameter_table_BattleEnemyParameterTable": 0,
		"parameter_deviation_table_BattleEnemyParameterDeviationTable": 0,
		"acquire_skill_group_id": 0,
		"level_correction": 0,
		"group_id": 0,
		"ai_script_id_BattleAIScript": 0
	},
	{
		"ID": 54063,
		"stage_BattleStage": 330024202,
		"unit_UnitUnit": 810004,
		"money": 190,
		"initial_coordinate_x": 3,
		"initial_coordinate_y": 7,
		"reinforcement_BattleReinforcement": 0,
		"initial_direction": 180.0,
		"ai_move_group": 0,
		"ai_target_move_x": -1,
		"ai_target_move_y": -1,
		"ai_skill_function": "",
		"ai_attack": "IF( turn <=2 ,IF(panel_move_distance <= 3, 1, 0),1)",
		"ai_move": "IF(turn <=2,0,1)",
		"ai_heal": "",
		"ai_skill": "",
		"ai_use": "",
		"skill_group_id": 0,
		"gear_GearGear": 13003,
		"gear_rank": 1,
		"proficiency_UnitProficiency": 3,
		"level": 38,
		"hp": 65,
		"strength": 48,
		"vitality": 30,
		"intelligence": 3,
		"mind": 17,
		"agility": 43,
		"dexterity": 48,
		"lucky": 13,
		"parameter_table_BattleEnemyParameterTable": 0,
		"parameter_deviation_table_BattleEnemyParameterDeviationTable": 0,
		"acquire_skill_group_id": 0,
		"level_correction": 0,
		"group_id": 0,
		"ai_script_id_BattleAIScript": 0
	},
	{
		"ID": 54064,
		"stage_BattleStage": 330024202,
		"unit_UnitUnit": 810004,
		"money": 210,
		"initial_coordinate_x": 2,
		"initial_coordinate_y": 6,
		"reinforcement_BattleReinforcement": 0,
		"initial_direction": 180.0,
		"ai_move_group": 0,
		"ai_target_move_x": -1,
		"ai_target_move_y": -1,
		"ai_skill_function": "",
		"ai_attack": "IF( turn <=2 ,IF(panel_move_distance <= 3, 1, 0),1)",
		"ai_move": "IF(turn <=2,0,1)",
		"ai_heal": "",
		"ai_skill": "",
		"ai_use": "",
		"skill_group_id": 0,
		"gear_GearGear": 13003,
		"gear_rank": 1,
		"proficiency_UnitProficiency": 3,
		"level": 42,
		"hp": 73,
		"strength": 54,
		"vitality": 36,
		"intelligence": 4,
		"mind": 22,
		"agility": 43,
		"dexterity": 49,
		"lucky": 15,
		"parameter_table_BattleEnemyParameterTable": 0,
		"parameter_deviation_table_BattleEnemyParameterDeviationTable": 0,
		"acquire_skill_group_id": 0,
		"level_correction": 0,
		"group_id": 0,
		"ai_script_id_BattleAIScript": 0
	},
	{
		"ID": 54065,
		"stage_BattleStage": 330024202,
		"unit_UnitUnit": 810004,
		"money": 210,
		"initial_coordinate_x": 2,
		"initial_coordinate_y": 2,
		"reinforcement_BattleReinforcement": 2,
		"initial_direction": 0.0,
		"ai_move_group": 0,
		"ai_target_move_x": -1,
		"ai_target_move_y": -1,
		"ai_skill_function": "",
		"ai_attack": "",
		"ai_move": "",
		"ai_heal": "",
		"ai_skill": "",
		"ai_use": "",
		"skill_group_id": 0,
		"gear_GearGear": 13003,
		"gear_rank": 1,
		"proficiency_UnitProficiency": 3,
		"level": 42,
		"hp": 73,
		"strength": 52,
		"vitality": 36,
		"intelligence": 6,
		"mind": 21,
		"agility": 41,
		"dexterity": 51,
		"lucky": 13,
		"parameter_table_BattleEnemyParameterTable": 0,
		"parameter_deviation_table_BattleEnemyParameterDeviationTable": 0,
		"acquire_skill_group_id": 0,
		"level_correction": 0,
		"group_id": 0,
		"ai_script_id_BattleAIScript": 0
	},
	{
		"ID": 54066,
		"stage_BattleStage": 330024202,
		"unit_UnitUnit": 830008,
		"money": 210,
		"initial_coordinate_x": 2,
		"initial_coordinate_y": 1,
		"reinforcement_BattleReinforcement": 2,
		"initial_direction": 0.0,
		"ai_move_group": 0,
		"ai_target_move_x": -1,
		"ai_target_move_y": -1,
		"ai_skill_function": "",
		"ai_attack": "",
		"ai_move": "",
		"ai_heal": "",
		"ai_skill": "",
		"ai_use": "",
		"skill_group_id": 470,
		"gear_GearGear": 33001,
		"gear_rank": 1,
		"proficiency_UnitProficiency": 3,
		"level": 42,
		"hp": 75,
		"strength": 54,
		"vitality": 37,
		"intelligence": 5,
		"mind": 21,
		"agility": 43,
		"dexterity": 49,
		"lucky": 13,
		"parameter_table_BattleEnemyParameterTable": 0,
		"parameter_deviation_table_BattleEnemyParameterDeviationTable": 0,
		"acquire_skill_group_id": 0,
		"level_correction": 0,
		"group_id": 0,
		"ai_script_id_BattleAIScript": 0
	},
	{
		"ID": 54067,
		"stage_BattleStage": 330024202,
		"unit_UnitUnit": 810004,
		"money": 210,
		"initial_coordinate_x": 3,
		"initial_coordinate_y": 1,
		"reinforcement_BattleReinforcement": 2,
		"initial_direction": 0.0,
		"ai_move_group": 0,
		"ai_target_move_x": -1,
		"ai_target_move_y": -1,
		"ai_skill_function": "",
		"ai_attack": "",
		"ai_move": "",
		"ai_heal": "",
		"ai_skill": "",
		"ai_use": "",
		"skill_group_id": 0,
		"gear_GearGear": 13003,
		"gear_rank": 1,
		"proficiency_UnitProficiency": 3,
		"level": 42,
		"hp": 73,
		"strength": 52,
		"vitality": 35,
		"intelligence": 5,
		"mind": 21,
		"agility": 42,
		"dexterity": 50,
		"lucky": 15,
		"parameter_table_BattleEnemyParameterTable": 0,
		"parameter_deviation_table_BattleEnemyParameterDeviationTable": 0,
		"acquire_skill_group_id": 0,
		"level_correction": 0,
		"group_id": 0,
		"ai_script_id_BattleAIScript": 0
	}
]