[
	{
		"ID": 69465,
		"stage_BattleStage": 332019121,
		"unit_UnitUnit": 3820002,
		"money": 100,
		"initial_coordinate_x": 2,
		"initial_coordinate_y": 6,
		"reinforcement_BattleReinforcement": 0,
		"initial_direction": 90.0,
		"ai_move_group": 0,
		"ai_target_move_x": -1,
		"ai_target_move_y": -1,
		"ai_skill_function": "",
		"ai_attack": "1.0",
		"ai_move": "1.0",
		"ai_heal": "",
		"ai_skill": "",
		"ai_use": "",
		"skill_group_id": 16566,
		"gear_GearGear": 21002,
		"gear_rank": 1,
		"proficiency_UnitProficiency": 1,
		"level": 20,
		"hp": 35,
		"strength": 21,
		"vitality": 20,
		"intelligence": 1,
		"mind": 13,
		"agility": 20,
		"dexterity": 20,
		"lucky": 11,
		"parameter_table_BattleEnemyParameterTable": 0,
		"parameter_deviation_table_BattleEnemyParameterDeviationTable": 0,
		"acquire_skill_group_id": 0,
		"level_correction": 0,
		"group_id": 0,
		"ai_script_id_BattleAIScript": 0
	},
	{
		"ID": 69466,
		"stage_BattleStage": 332019121,
		"unit_UnitUnit": 3820002,
		"money": 100,
		"initial_coordinate_x": 3,
		"initial_coordinate_y": 7,
		"reinforcement_BattleReinforcement": 0,
		"initial_direction": 90.0,
		"ai_move_group": 0,
		"ai_target_move_x": -1,
		"ai_target_move_y": -1,
		"ai_skill_function": "",
		"ai_attack": "1.0",
		"ai_move": "1.0",
		"ai_heal": "",
		"ai_skill": "",
		"ai_use": "",
		"skill_group_id": 16566,
		"gear_GearGear": 21002,
		"gear_rank": 1,
		"proficiency_UnitProficiency": 1,
		"level": 20,
		"hp": 35,
		"strength": 21,
		"vitality": 20,
		"intelligence": 1,
		"mind": 13,
		"agility": 20,
		"dexterity": 20,
		"lucky": 11,
		"parameter_table_BattleEnemyParameterTable": 0,
		"parameter_deviation_table_BattleEnemyParameterDeviationTable": 0,
		"acquire_skill_group_id": 0,
		"level_correction": 0,
		"group_id": 0,
		"ai_script_id_BattleAIScript": 0
	},
	{
		"ID": 69467,
		"stage_BattleStage": 332019121,
		"unit_UnitUnit": 3820002,
		"money": 100,
		"initial_coordinate_x": 11,
		"initial_coordinate_y": 6,
		"reinforcement_BattleReinforcement": 0,
		"initial_direction": 270.0,
		"ai_move_group": 0,
		"ai_target_move_x": -1,
		"ai_target_move_y": -1,
		"ai_skill_function": "",
		"ai_attack": "1.0",
		"ai_move": "1.0",
		"ai_heal": "",
		"ai_skill": "",
		"ai_use": "",
		"skill_group_id": 16566,
		"gear_GearGear": 21002,
		"gear_rank": 1,
		"proficiency_UnitProficiency": 1,
		"level": 20,
		"hp": 35,
		"strength": 21,
		"vitality": 20,
		"intelligence": 1,
		"mind": 13,
		"agility": 20,
		"dexterity": 20,
		"lucky": 11,
		"parameter_table_BattleEnemyParameterTable": 0,
		"parameter_deviation_table_BattleEnemyParameterDeviationTable": 0,
		"acquire_skill_group_id": 0,
		"level_correction": 0,
		"group_id": 0,
		"ai_script_id_BattleAIScript": 0
	},
	{
		"ID": 69468,
		"stage_BattleStage": 332019121,
		"unit_UnitUnit": 3820002,
		"money": 100,
		"initial_coordinate_x": 10,
		"initial_coordinate_y": 7,
		"reinforcement_BattleReinforcement": 0,
		"initial_direction": 270.0,
		"ai_move_group": 0,
		"ai_target_move_x": -1,
		"ai_target_move_y": -1,
		"ai_skill_function": "",
		"ai_attack": "1.0",
		"ai_move": "1.0",
		"ai_heal": "",
		"ai_skill": "",
		"ai_use": "",
		"skill_group_id": 16566,
		"gear_GearGear": 21002,
		"gear_rank": 1,
		"proficiency_UnitProficiency": 1,
		"level": 20,
		"hp": 31,
		"strength": 19,
		"vitality": 15,
		"intelligence": 1,
		"mind": 13,
		"agility": 20,
		"dexterity": 22,
		"lucky": 11,
		"parameter_table_BattleEnemyParameterTable": 0,
		"parameter_deviation_table_BattleEnemyParameterDeviationTable": 0,
		"acquire_skill_group_id": 0,
		"level_correction": 0,
		"group_id": 0,
		"ai_script_id_BattleAIScript": 0
	},
	{
		"ID": 69469,
		"stage_BattleStage": 332019121,
		"unit_UnitUnit": 3820002,
		"money": 100,
		"initial_coordinate_x": 4,
		"initial_coordinate_y": 9,
		"reinforcement_BattleReinforcement": 0,
		"initial_direction": 180.0,
		"ai_move_group": 0,
		"ai_target_move_x": -1,
		"ai_target_move_y": -1,
		"ai_skill_function": "",
		"ai_attack": "1.0",
		"ai_move": "1.0",
		"ai_heal": "",
		"ai_skill": "",
		"ai_use": "",
		"skill_group_id": 16566,
		"gear_GearGear": 21002,
		"gear_rank": 1,
		"proficiency_UnitProficiency": 1,
		"level": 20,
		"hp": 35,
		"strength": 21,
		"vitality": 20,
		"intelligence": 1,
		"mind": 13,
		"agility": 20,
		"dexterity": 20,
		"lucky": 11,
		"parameter_table_BattleEnemyParameterTable": 0,
		"parameter_deviation_table_BattleEnemyParameterDeviationTable": 0,
		"acquire_skill_group_id": 0,
		"level_correction": 0,
		"group_id": 0,
		"ai_script_id_BattleAIScript": 0
	},
	{
		"ID": 69470,
		"stage_BattleStage": 332019121,
		"unit_UnitUnit": 3820002,
		"money": 100,
		"initial_coordinate_x": 5,
		"initial_coordinate_y": 9,
		"reinforcement_BattleReinforcement": 0,
		"initial_direction": 180.0,
		"ai_move_group": 0,
		"ai_target_move_x": -1,
		"ai_target_move_y": -1,
		"ai_skill_function": "",
		"ai_attack": "1.0",
		"ai_move": "1.0",
		"ai_heal": "",
		"ai_skill": "",
		"ai_use": "",
		"skill_group_id": 16566,
		"gear_GearGear": 21002,
		"gear_rank": 1,
		"proficiency_UnitProficiency": 1,
		"level": 20,
		"hp": 35,
		"strength": 21,
		"vitality": 20,
		"intelligence": 1,
		"mind": 13,
		"agility": 20,
		"dexterity": 20,
		"lucky": 11,
		"parameter_table_BattleEnemyParameterTable": 0,
		"parameter_deviation_table_BattleEnemyParameterDeviationTable": 0,
		"acquire_skill_group_id": 0,
		"level_correction": 0,
		"group_id": 0,
		"ai_script_id_BattleAIScript": 0
	},
	{
		"ID": 69471,
		"stage_BattleStage": 332019121,
		"unit_UnitUnit": 3820002,
		"money": 100,
		"initial_coordinate_x": 8,
		"initial_coordinate_y": 9,
		"reinforcement_BattleReinforcement": 0,
		"initial_direction": 180.0,
		"ai_move_group": 0,
		"ai_target_move_x": -1,
		"ai_target_move_y": -1,
		"ai_skill_function": "",
		"ai_attack": "1.0",
		"ai_move": "1.0",
		"ai_heal": "",
		"ai_skill": "",
		"ai_use": "",
		"skill_group_id": 16566,
		"gear_GearGear": 21002,
		"gear_rank": 1,
		"proficiency_UnitProficiency": 1,
		"level": 20,
		"hp": 35,
		"strength": 21,
		"vitality": 20,
		"intelligence": 1,
		"mind": 13,
		"agility": 20,
		"dexterity": 20,
		"lucky": 11,
		"parameter_table_BattleEnemyParameterTable": 0,
		"parameter_deviation_table_BattleEnemyParameterDeviationTable": 0,
		"acquire_skill_group_id": 0,
		"level_correction": 0,
		"group_id": 0,
		"ai_script_id_BattleAIScript": 0
	},
	{
		"ID": 69472,
		"stage_BattleStage": 332019121,
		"unit_UnitUnit": 3820002,
		"money": 100,
		"initial_coordinate_x": 9,
		"initial_coordinate_y": 9,
		"reinforcement_BattleReinforcement": 0,
		"initial_direction": 180.0,
		"ai_move_group": 0,
		"ai_target_move_x": -1,
		"ai_target_move_y": -1,
		"ai_skill_function": "",
		"ai_attack": "1.0",
		"ai_move": "1.0",
		"ai_heal": "",
		"ai_skill": "",
		"ai_use": "",
		"skill_group_id": 16566,
		"gear_GearGear": 21002,
		"gear_rank": 1,
		"proficiency_UnitProficiency": 1,
		"level": 20,
		"hp": 31,
		"strength": 19,
		"vitality": 15,
		"intelligence": 1,
		"mind": 13,
		"agility": 20,
		"dexterity": 22,
		"lucky": 11,
		"parameter_table_BattleEnemyParameterTable": 0,
		"parameter_deviation_table_BattleEnemyParameterDeviationTable": 0,
		"acquire_skill_group_id": 0,
		"level_correction": 0,
		"group_id": 0,
		"ai_script_id_BattleAIScript": 0
	},
	{
		"ID": 69473,
		"stage_BattleStage": 332019121,
		"unit_UnitUnit": 3820005,
		"money": 100,
		"initial_coordinate_x": 6,
		"initial_coordinate_y": 11,
		"reinforcement_BattleReinforcement": 0,
		"initial_direction": 180.0,
		"ai_move_group": 0,
		"ai_target_move_x": -1,
		"ai_target_move_y": -1,
		"ai_skill_function": "",
		"ai_attack": "1.0",
		"ai_move": "1.0",
		"ai_heal": "",
		"ai_skill": "",
		"ai_use": "",
		"skill_group_id": 16656,
		"gear_GearGear": 51002,
		"gear_rank": 1,
		"proficiency_UnitProficiency": 1,
		"level": 20,
		"hp": 29,
		"strength": 1,
		"vitality": 13,
		"intelligence": 20,
		"mind": 23,
		"agility": 18,
		"dexterity": 18,
		"lucky": 11,
		"parameter_table_BattleEnemyParameterTable": 0,
		"parameter_deviation_table_BattleEnemyParameterDeviationTable": 0,
		"acquire_skill_group_id": 0,
		"level_correction": 0,
		"group_id": 0,
		"ai_script_id_BattleAIScript": 0
	},
	{
		"ID": 69474,
		"stage_BattleStage": 332019121,
		"unit_UnitUnit": 3820005,
		"money": 100,
		"initial_coordinate_x": 7,
		"initial_coordinate_y": 11,
		"reinforcement_BattleReinforcement": 0,
		"initial_direction": 180.0,
		"ai_move_group": 0,
		"ai_target_move_x": -1,
		"ai_target_move_y": -1,
		"ai_skill_function": "",
		"ai_attack": "1.0",
		"ai_move": "1.0",
		"ai_heal": "",
		"ai_skill": "",
		"ai_use": "",
		"skill_group_id": 16656,
		"gear_GearGear": 51002,
		"gear_rank": 1,
		"proficiency_UnitProficiency": 1,
		"level": 20,
		"hp": 29,
		"strength": 1,
		"vitality": 13,
		"intelligence": 20,
		"mind": 23,
		"agility": 18,
		"dexterity": 18,
		"lucky": 11,
		"parameter_table_BattleEnemyParameterTable": 0,
		"parameter_deviation_table_BattleEnemyParameterDeviationTable": 0,
		"acquire_skill_group_id": 0,
		"level_correction": 0,
		"group_id": 0,
		"ai_script_id_BattleAIScript": 0
	}
]