[
	{
		"ID": 37602,
		"stage_BattleStage": 610040111,
		"unit_UnitUnit": 100622,
		"money": 15,
		"initial_coordinate_x": 3,
		"initial_coordinate_y": 14,
		"reinforcement_BattleReinforcement": 0,
		"initial_direction": 180.0,
		"ai_move_group": 0,
		"ai_target_move_x": 3,
		"ai_target_move_y": 19,
		"ai_skill_function": "",
		"ai_attack": "IF(panel_move_distance <= 0, 1, 0)",
		"ai_move": "IF(turn <=1,1,0)",
		"ai_heal": "",
		"ai_skill": "",
		"ai_use": "",
		"skill_group_id": 11276,
		"gear_GearGear": 10001,
		"gear_rank": 1,
		"proficiency_UnitProficiency": 1,
		"level": 3,
		"hp": 19,
		"strength": 7,
		"vitality": 4,
		"intelligence": 0,
		"mind": 8,
		"agility": 9,
		"dexterity": 10,
		"lucky": 1,
		"parameter_table_BattleEnemyParameterTable": 0,
		"parameter_deviation_table_BattleEnemyParameterDeviationTable": 0,
		"acquire_skill_group_id": 0,
		"level_correction": 0,
		"group_id": 0,
		"ai_script_id_BattleAIScript": 0
	},
	{
		"ID": 37603,
		"stage_BattleStage": 610040111,
		"unit_UnitUnit": 820004,
		"money": 10,
		"initial_coordinate_x": 2,
		"initial_coordinate_y": 17,
		"reinforcement_BattleReinforcement": 0,
		"initial_direction": 180.0,
		"ai_move_group": 0,
		"ai_target_move_x": -1,
		"ai_target_move_y": -1,
		"ai_skill_function": "",
		"ai_attack": "IF(panel_move_distance <= 2, 1, 0)",
		"ai_move": "0.0",
		"ai_heal": "",
		"ai_skill": "",
		"ai_use": "",
		"skill_group_id": 9962,
		"gear_GearGear": 20001,
		"gear_rank": 1,
		"proficiency_UnitProficiency": 1,
		"level": 2,
		"hp": 13,
		"strength": 4,
		"vitality": 9,
		"intelligence": 0,
		"mind": 4,
		"agility": 9,
		"dexterity": 8,
		"lucky": 1,
		"parameter_table_BattleEnemyParameterTable": 0,
		"parameter_deviation_table_BattleEnemyParameterDeviationTable": 0,
		"acquire_skill_group_id": 0,
		"level_correction": 0,
		"group_id": 0,
		"ai_script_id_BattleAIScript": 0
	},
	{
		"ID": 37604,
		"stage_BattleStage": 610040111,
		"unit_UnitUnit": 820004,
		"money": 10,
		"initial_coordinate_x": 4,
		"initial_coordinate_y": 17,
		"reinforcement_BattleReinforcement": 0,
		"initial_direction": 180.0,
		"ai_move_group": 0,
		"ai_target_move_x": -1,
		"ai_target_move_y": -1,
		"ai_skill_function": "",
		"ai_attack": "IF(panel_move_distance <= 2, 1, 0)",
		"ai_move": "0.0",
		"ai_heal": "",
		"ai_skill": "",
		"ai_use": "",
		"skill_group_id": 9962,
		"gear_GearGear": 20001,
		"gear_rank": 1,
		"proficiency_UnitProficiency": 1,
		"level": 2,
		"hp": 12,
		"strength": 3,
		"vitality": 8,
		"intelligence": 0,
		"mind": 4,
		"agility": 8,
		"dexterity": 9,
		"lucky": 1,
		"parameter_table_BattleEnemyParameterTable": 0,
		"parameter_deviation_table_BattleEnemyParameterDeviationTable": 0,
		"acquire_skill_group_id": 0,
		"level_correction": 0,
		"group_id": 0,
		"ai_script_id_BattleAIScript": 0
	},
	{
		"ID": 37605,
		"stage_BattleStage": 610040111,
		"unit_UnitUnit": 820004,
		"money": 10,
		"initial_coordinate_x": 3,
		"initial_coordinate_y": 11,
		"reinforcement_BattleReinforcement": 2,
		"initial_direction": 180.0,
		"ai_move_group": 0,
		"ai_target_move_x": -1,
		"ai_target_move_y": -1,
		"ai_skill_function": "",
		"ai_attack": "",
		"ai_move": "",
		"ai_heal": "",
		"ai_skill": "",
		"ai_use": "",
		"skill_group_id": 9962,
		"gear_GearGear": 20001,
		"gear_rank": 1,
		"proficiency_UnitProficiency": 1,
		"level": 2,
		"hp": 10,
		"strength": 4,
		"vitality": 3,
		"intelligence": 0,
		"mind": 9,
		"agility": 8,
		"dexterity": 7,
		"lucky": 1,
		"parameter_table_BattleEnemyParameterTable": 0,
		"parameter_deviation_table_BattleEnemyParameterDeviationTable": 0,
		"acquire_skill_group_id": 0,
		"level_correction": 0,
		"group_id": 0,
		"ai_script_id_BattleAIScript": 0
	},
	{
		"ID": 37606,
		"stage_BattleStage": 610040111,
		"unit_UnitUnit": 860006,
		"money": 10,
		"initial_coordinate_x": 3,
		"initial_coordinate_y": 13,
		"reinforcement_BattleReinforcement": 2,
		"initial_direction": 180.0,
		"ai_move_group": 0,
		"ai_target_move_x": -1,
		"ai_target_move_y": -1,
		"ai_skill_function": "",
		"ai_attack": "",
		"ai_move": "",
		"ai_heal": "",
		"ai_skill": "",
		"ai_use": "",
		"skill_group_id": 245,
		"gear_GearGear": 80008,
		"gear_rank": 1,
		"proficiency_UnitProficiency": 1,
		"level": 2,
		"hp": 8,
		"strength": 0,
		"vitality": 3,
		"intelligence": 3,
		"mind": 9,
		"agility": 8,
		"dexterity": 7,
		"lucky": 1,
		"parameter_table_BattleEnemyParameterTable": 0,
		"parameter_deviation_table_BattleEnemyParameterDeviationTable": 0,
		"acquire_skill_group_id": 0,
		"level_correction": 0,
		"group_id": 0,
		"ai_script_id_BattleAIScript": 0
	}
]