[
	{
		"ID": 96645,
		"stage_BattleStage": 610110501,
		"unit_UnitUnit": 810004,
		"money": 200,
		"initial_coordinate_x": 6,
		"initial_coordinate_y": 10,
		"reinforcement_BattleReinforcement": 0,
		"initial_direction": 0.0,
		"ai_move_group": 0,
		"ai_target_move_x": -1,
		"ai_target_move_y": -1,
		"ai_skill_function": "",
		"ai_attack": "",
		"ai_move": "",
		"ai_heal": "",
		"ai_skill": "",
		"ai_use": "",
		"skill_group_id": 21816,
		"gear_GearGear": 11002,
		"gear_rank": 10,
		"proficiency_UnitProficiency": 1,
		"level": 40,
		"hp": 79,
		"strength": 48,
		"vitality": 35,
		"intelligence": 6,
		"mind": 16,
		"agility": 26,
		"dexterity": 38,
		"lucky": 12,
		"parameter_table_BattleEnemyParameterTable": 0,
		"parameter_deviation_table_BattleEnemyParameterDeviationTable": 0,
		"acquire_skill_group_id": 0,
		"level_correction": 0,
		"group_id": 0,
		"ai_script_id_BattleAIScript": 0
	},
	{
		"ID": 96646,
		"stage_BattleStage": 610110501,
		"unit_UnitUnit": 820004,
		"money": 200,
		"initial_coordinate_x": 7,
		"initial_coordinate_y": 10,
		"reinforcement_BattleReinforcement": 0,
		"initial_direction": 0.0,
		"ai_move_group": 0,
		"ai_target_move_x": -1,
		"ai_target_move_y": -1,
		"ai_skill_function": "",
		"ai_attack": "",
		"ai_move": "",
		"ai_heal": "",
		"ai_skill": "",
		"ai_use": "",
		"skill_group_id": 21816,
		"gear_GearGear": 21002,
		"gear_rank": 10,
		"proficiency_UnitProficiency": 1,
		"level": 40,
		"hp": 70,
		"strength": 42,
		"vitality": 40,
		"intelligence": 11,
		"mind": 16,
		"agility": 30,
		"dexterity": 40,
		"lucky": 10,
		"parameter_table_BattleEnemyParameterTable": 0,
		"parameter_deviation_table_BattleEnemyParameterDeviationTable": 0,
		"acquire_skill_group_id": 0,
		"level_correction": 0,
		"group_id": 0,
		"ai_script_id_BattleAIScript": 0
	},
	{
		"ID": 96647,
		"stage_BattleStage": 610110501,
		"unit_UnitUnit": 830004,
		"money": 200,
		"initial_coordinate_x": 3,
		"initial_coordinate_y": 11,
		"reinforcement_BattleReinforcement": 0,
		"initial_direction": 0.0,
		"ai_move_group": 0,
		"ai_target_move_x": -1,
		"ai_target_move_y": -1,
		"ai_skill_function": "",
		"ai_attack": "",
		"ai_move": "",
		"ai_heal": "",
		"ai_skill": "",
		"ai_use": "",
		"skill_group_id": 21816,
		"gear_GearGear": 31002,
		"gear_rank": 10,
		"proficiency_UnitProficiency": 1,
		"level": 40,
		"hp": 70,
		"strength": 41,
		"vitality": 37,
		"intelligence": 14,
		"mind": 18,
		"agility": 25,
		"dexterity": 39,
		"lucky": 10,
		"parameter_table_BattleEnemyParameterTable": 0,
		"parameter_deviation_table_BattleEnemyParameterDeviationTable": 0,
		"acquire_skill_group_id": 0,
		"level_correction": 0,
		"group_id": 0,
		"ai_script_id_BattleAIScript": 0
	},
	{
		"ID": 96648,
		"stage_BattleStage": 610110501,
		"unit_UnitUnit": 810004,
		"money": 200,
		"initial_coordinate_x": 4,
		"initial_coordinate_y": 10,
		"reinforcement_BattleReinforcement": 0,
		"initial_direction": 0.0,
		"ai_move_group": 0,
		"ai_target_move_x": -1,
		"ai_target_move_y": -1,
		"ai_skill_function": "",
		"ai_attack": "",
		"ai_move": "",
		"ai_heal": "",
		"ai_skill": "",
		"ai_use": "",
		"skill_group_id": 21816,
		"gear_GearGear": 11002,
		"gear_rank": 10,
		"proficiency_UnitProficiency": 1,
		"level": 40,
		"hp": 80,
		"strength": 45,
		"vitality": 40,
		"intelligence": 14,
		"mind": 19,
		"agility": 25,
		"dexterity": 37,
		"lucky": 12,
		"parameter_table_BattleEnemyParameterTable": 0,
		"parameter_deviation_table_BattleEnemyParameterDeviationTable": 0,
		"acquire_skill_group_id": 0,
		"level_correction": 0,
		"group_id": 0,
		"ai_script_id_BattleAIScript": 0
	},
	{
		"ID": 96649,
		"stage_BattleStage": 610110501,
		"unit_UnitUnit": 820004,
		"money": 200,
		"initial_coordinate_x": 9,
		"initial_coordinate_y": 10,
		"reinforcement_BattleReinforcement": 0,
		"initial_direction": 0.0,
		"ai_move_group": 0,
		"ai_target_move_x": -1,
		"ai_target_move_y": -1,
		"ai_skill_function": "",
		"ai_attack": "",
		"ai_move": "",
		"ai_heal": "",
		"ai_skill": "",
		"ai_use": "",
		"skill_group_id": 21816,
		"gear_GearGear": 21002,
		"gear_rank": 10,
		"proficiency_UnitProficiency": 1,
		"level": 40,
		"hp": 82,
		"strength": 49,
		"vitality": 40,
		"intelligence": 10,
		"mind": 20,
		"agility": 26,
		"dexterity": 36,
		"lucky": 14,
		"parameter_table_BattleEnemyParameterTable": 0,
		"parameter_deviation_table_BattleEnemyParameterDeviationTable": 0,
		"acquire_skill_group_id": 0,
		"level_correction": 0,
		"group_id": 0,
		"ai_script_id_BattleAIScript": 0
	},
	{
		"ID": 96650,
		"stage_BattleStage": 610110501,
		"unit_UnitUnit": 830004,
		"money": 200,
		"initial_coordinate_x": 10,
		"initial_coordinate_y": 11,
		"reinforcement_BattleReinforcement": 0,
		"initial_direction": 0.0,
		"ai_move_group": 0,
		"ai_target_move_x": -1,
		"ai_target_move_y": -1,
		"ai_skill_function": "",
		"ai_attack": "",
		"ai_move": "",
		"ai_heal": "",
		"ai_skill": "",
		"ai_use": "",
		"skill_group_id": 21816,
		"gear_GearGear": 31002,
		"gear_rank": 10,
		"proficiency_UnitProficiency": 1,
		"level": 40,
		"hp": 60,
		"strength": 45,
		"vitality": 39,
		"intelligence": 11,
		"mind": 16,
		"agility": 30,
		"dexterity": 39,
		"lucky": 14,
		"parameter_table_BattleEnemyParameterTable": 0,
		"parameter_deviation_table_BattleEnemyParameterDeviationTable": 0,
		"acquire_skill_group_id": 0,
		"level_correction": 0,
		"group_id": 0,
		"ai_script_id_BattleAIScript": 0
	},
	{
		"ID": 96651,
		"stage_BattleStage": 610110501,
		"unit_UnitUnit": 810004,
		"money": 200,
		"initial_coordinate_x": 6,
		"initial_coordinate_y": 8,
		"reinforcement_BattleReinforcement": 0,
		"initial_direction": 0.0,
		"ai_move_group": 0,
		"ai_target_move_x": -1,
		"ai_target_move_y": -1,
		"ai_skill_function": "",
		"ai_attack": "",
		"ai_move": "",
		"ai_heal": "",
		"ai_skill": "",
		"ai_use": "",
		"skill_group_id": 21816,
		"gear_GearGear": 11002,
		"gear_rank": 10,
		"proficiency_UnitProficiency": 1,
		"level": 40,
		"hp": 65,
		"strength": 48,
		"vitality": 38,
		"intelligence": 8,
		"mind": 16,
		"agility": 27,
		"dexterity": 35,
		"lucky": 10,
		"parameter_table_BattleEnemyParameterTable": 0,
		"parameter_deviation_table_BattleEnemyParameterDeviationTable": 0,
		"acquire_skill_group_id": 0,
		"level_correction": 0,
		"group_id": 0,
		"ai_script_id_BattleAIScript": 0
	},
	{
		"ID": 96652,
		"stage_BattleStage": 610110501,
		"unit_UnitUnit": 820004,
		"money": 200,
		"initial_coordinate_x": 7,
		"initial_coordinate_y": 8,
		"reinforcement_BattleReinforcement": 0,
		"initial_direction": 0.0,
		"ai_move_group": 0,
		"ai_target_move_x": -1,
		"ai_target_move_y": -1,
		"ai_skill_function": "",
		"ai_attack": "",
		"ai_move": "",
		"ai_heal": "",
		"ai_skill": "",
		"ai_use": "",
		"skill_group_id": 21816,
		"gear_GearGear": 21002,
		"gear_rank": 10,
		"proficiency_UnitProficiency": 1,
		"level": 40,
		"hp": 85,
		"strength": 46,
		"vitality": 36,
		"intelligence": 8,
		"mind": 19,
		"agility": 30,
		"dexterity": 40,
		"lucky": 14,
		"parameter_table_BattleEnemyParameterTable": 0,
		"parameter_deviation_table_BattleEnemyParameterDeviationTable": 0,
		"acquire_skill_group_id": 0,
		"level_correction": 0,
		"group_id": 0,
		"ai_script_id_BattleAIScript": 0
	},
	{
		"ID": 96653,
		"stage_BattleStage": 610110501,
		"unit_UnitUnit": 830004,
		"money": 200,
		"initial_coordinate_x": 5,
		"initial_coordinate_y": 7,
		"reinforcement_BattleReinforcement": 0,
		"initial_direction": 0.0,
		"ai_move_group": 0,
		"ai_target_move_x": -1,
		"ai_target_move_y": -1,
		"ai_skill_function": "",
		"ai_attack": "",
		"ai_move": "",
		"ai_heal": "",
		"ai_skill": "",
		"ai_use": "",
		"skill_group_id": 21816,
		"gear_GearGear": 31002,
		"gear_rank": 10,
		"proficiency_UnitProficiency": 1,
		"level": 40,
		"hp": 65,
		"strength": 44,
		"vitality": 40,
		"intelligence": 14,
		"mind": 16,
		"agility": 25,
		"dexterity": 35,
		"lucky": 12,
		"parameter_table_BattleEnemyParameterTable": 0,
		"parameter_deviation_table_BattleEnemyParameterDeviationTable": 0,
		"acquire_skill_group_id": 0,
		"level_correction": 0,
		"group_id": 0,
		"ai_script_id_BattleAIScript": 0
	},
	{
		"ID": 96654,
		"stage_BattleStage": 610110501,
		"unit_UnitUnit": 810004,
		"money": 200,
		"initial_coordinate_x": 8,
		"initial_coordinate_y": 7,
		"reinforcement_BattleReinforcement": 0,
		"initial_direction": 0.0,
		"ai_move_group": 0,
		"ai_target_move_x": -1,
		"ai_target_move_y": -1,
		"ai_skill_function": "",
		"ai_attack": "",
		"ai_move": "",
		"ai_heal": "",
		"ai_skill": "",
		"ai_use": "",
		"skill_group_id": 21816,
		"gear_GearGear": 11002,
		"gear_rank": 10,
		"proficiency_UnitProficiency": 1,
		"level": 40,
		"hp": 74,
		"strength": 48,
		"vitality": 38,
		"intelligence": 6,
		"mind": 19,
		"agility": 27,
		"dexterity": 38,
		"lucky": 14,
		"parameter_table_BattleEnemyParameterTable": 0,
		"parameter_deviation_table_BattleEnemyParameterDeviationTable": 0,
		"acquire_skill_group_id": 0,
		"level_correction": 0,
		"group_id": 0,
		"ai_script_id_BattleAIScript": 0
	},
	{
		"ID": 96655,
		"stage_BattleStage": 610110501,
		"unit_UnitUnit": 830004,
		"money": 200,
		"initial_coordinate_x": 6,
		"initial_coordinate_y": 3,
		"reinforcement_BattleReinforcement": 0,
		"initial_direction": 0.0,
		"ai_move_group": 0,
		"ai_target_move_x": -1,
		"ai_target_move_y": -1,
		"ai_skill_function": "",
		"ai_attack": "",
		"ai_move": "",
		"ai_heal": "",
		"ai_skill": "",
		"ai_use": "",
		"skill_group_id": 21816,
		"gear_GearGear": 31002,
		"gear_rank": 10,
		"proficiency_UnitProficiency": 1,
		"level": 40,
		"hp": 62,
		"strength": 43,
		"vitality": 38,
		"intelligence": 8,
		"mind": 19,
		"agility": 27,
		"dexterity": 40,
		"lucky": 10,
		"parameter_table_BattleEnemyParameterTable": 0,
		"parameter_deviation_table_BattleEnemyParameterDeviationTable": 0,
		"acquire_skill_group_id": 0,
		"level_correction": 0,
		"group_id": 0,
		"ai_script_id_BattleAIScript": 0
	},
	{
		"ID": 96656,
		"stage_BattleStage": 610110501,
		"unit_UnitUnit": 830004,
		"money": 200,
		"initial_coordinate_x": 7,
		"initial_coordinate_y": 3,
		"reinforcement_BattleReinforcement": 0,
		"initial_direction": 0.0,
		"ai_move_group": 0,
		"ai_target_move_x": -1,
		"ai_target_move_y": -1,
		"ai_skill_function": "",
		"ai_attack": "",
		"ai_move": "",
		"ai_heal": "",
		"ai_skill": "",
		"ai_use": "",
		"skill_group_id": 21816,
		"gear_GearGear": 31002,
		"gear_rank": 10,
		"proficiency_UnitProficiency": 1,
		"level": 40,
		"hp": 71,
		"strength": 49,
		"vitality": 40,
		"intelligence": 12,
		"mind": 19,
		"agility": 25,
		"dexterity": 38,
		"lucky": 10,
		"parameter_table_BattleEnemyParameterTable": 0,
		"parameter_deviation_table_BattleEnemyParameterDeviationTable": 0,
		"acquire_skill_group_id": 0,
		"level_correction": 0,
		"group_id": 0,
		"ai_script_id_BattleAIScript": 0
	},
	{
		"ID": 96657,
		"stage_BattleStage": 610110501,
		"unit_UnitUnit": 820004,
		"money": 200,
		"initial_coordinate_x": 6,
		"initial_coordinate_y": 2,
		"reinforcement_BattleReinforcement": 0,
		"initial_direction": 0.0,
		"ai_move_group": 0,
		"ai_target_move_x": -1,
		"ai_target_move_y": -1,
		"ai_skill_function": "",
		"ai_attack": "",
		"ai_move": "",
		"ai_heal": "",
		"ai_skill": "",
		"ai_use": "",
		"skill_group_id": 21816,
		"gear_GearGear": 21002,
		"gear_rank": 10,
		"proficiency_UnitProficiency": 1,
		"level": 40,
		"hp": 68,
		"strength": 45,
		"vitality": 39,
		"intelligence": 5,
		"mind": 19,
		"agility": 26,
		"dexterity": 40,
		"lucky": 14,
		"parameter_table_BattleEnemyParameterTable": 0,
		"parameter_deviation_table_BattleEnemyParameterDeviationTable": 0,
		"acquire_skill_group_id": 0,
		"level_correction": 0,
		"group_id": 0,
		"ai_script_id_BattleAIScript": 0
	},
	{
		"ID": 96658,
		"stage_BattleStage": 610110501,
		"unit_UnitUnit": 820004,
		"money": 200,
		"initial_coordinate_x": 7,
		"initial_coordinate_y": 2,
		"reinforcement_BattleReinforcement": 0,
		"initial_direction": 0.0,
		"ai_move_group": 0,
		"ai_target_move_x": -1,
		"ai_target_move_y": -1,
		"ai_skill_function": "",
		"ai_attack": "",
		"ai_move": "",
		"ai_heal": "",
		"ai_skill": "",
		"ai_use": "",
		"skill_group_id": 21816,
		"gear_GearGear": 21002,
		"gear_rank": 10,
		"proficiency_UnitProficiency": 1,
		"level": 40,
		"hp": 69,
		"strength": 40,
		"vitality": 36,
		"intelligence": 11,
		"mind": 20,
		"agility": 29,
		"dexterity": 35,
		"lucky": 15,
		"parameter_table_BattleEnemyParameterTable": 0,
		"parameter_deviation_table_BattleEnemyParameterDeviationTable": 0,
		"acquire_skill_group_id": 0,
		"level_correction": 0,
		"group_id": 0,
		"ai_script_id_BattleAIScript": 0
	},
	{
		"ID": 96659,
		"stage_BattleStage": 610110501,
		"unit_UnitUnit": 810004,
		"money": 200,
		"initial_coordinate_x": 4,
		"initial_coordinate_y": 6,
		"reinforcement_BattleReinforcement": 0,
		"initial_direction": 0.0,
		"ai_move_group": 0,
		"ai_target_move_x": -1,
		"ai_target_move_y": -1,
		"ai_skill_function": "",
		"ai_attack": "",
		"ai_move": "",
		"ai_heal": "",
		"ai_skill": "",
		"ai_use": "",
		"skill_group_id": 21816,
		"gear_GearGear": 11002,
		"gear_rank": 10,
		"proficiency_UnitProficiency": 1,
		"level": 40,
		"hp": 75,
		"strength": 46,
		"vitality": 37,
		"intelligence": 8,
		"mind": 19,
		"agility": 30,
		"dexterity": 36,
		"lucky": 13,
		"parameter_table_BattleEnemyParameterTable": 0,
		"parameter_deviation_table_BattleEnemyParameterDeviationTable": 0,
		"acquire_skill_group_id": 0,
		"level_correction": 0,
		"group_id": 0,
		"ai_script_id_BattleAIScript": 0
	},
	{
		"ID": 96660,
		"stage_BattleStage": 610110501,
		"unit_UnitUnit": 810004,
		"money": 250,
		"initial_coordinate_x": 3,
		"initial_coordinate_y": 5,
		"reinforcement_BattleReinforcement": 0,
		"initial_direction": 0.0,
		"ai_move_group": 0,
		"ai_target_move_x": -1,
		"ai_target_move_y": -1,
		"ai_skill_function": "",
		"ai_attack": "",
		"ai_move": "",
		"ai_heal": "",
		"ai_skill": "",
		"ai_use": "",
		"skill_group_id": 21817,
		"gear_GearGear": 11002,
		"gear_rank": 10,
		"proficiency_UnitProficiency": 1,
		"level": 50,
		"hp": 99,
		"strength": 60,
		"vitality": 48,
		"intelligence": 7,
		"mind": 25,
		"agility": 40,
		"dexterity": 40,
		"lucky": 20,
		"parameter_table_BattleEnemyParameterTable": 0,
		"parameter_deviation_table_BattleEnemyParameterDeviationTable": 0,
		"acquire_skill_group_id": 0,
		"level_correction": 0,
		"group_id": 0,
		"ai_script_id_BattleAIScript": 0
	},
	{
		"ID": 96661,
		"stage_BattleStage": 610110501,
		"unit_UnitUnit": 830004,
		"money": 200,
		"initial_coordinate_x": 9,
		"initial_coordinate_y": 6,
		"reinforcement_BattleReinforcement": 0,
		"initial_direction": 0.0,
		"ai_move_group": 0,
		"ai_target_move_x": -1,
		"ai_target_move_y": -1,
		"ai_skill_function": "",
		"ai_attack": "",
		"ai_move": "",
		"ai_heal": "",
		"ai_skill": "",
		"ai_use": "",
		"skill_group_id": 21816,
		"gear_GearGear": 31002,
		"gear_rank": 10,
		"proficiency_UnitProficiency": 1,
		"level": 40,
		"hp": 60,
		"strength": 50,
		"vitality": 35,
		"intelligence": 12,
		"mind": 19,
		"agility": 29,
		"dexterity": 37,
		"lucky": 15,
		"parameter_table_BattleEnemyParameterTable": 0,
		"parameter_deviation_table_BattleEnemyParameterDeviationTable": 0,
		"acquire_skill_group_id": 0,
		"level_correction": 0,
		"group_id": 0,
		"ai_script_id_BattleAIScript": 0
	},
	{
		"ID": 96662,
		"stage_BattleStage": 610110501,
		"unit_UnitUnit": 830004,
		"money": 200,
		"initial_coordinate_x": 10,
		"initial_coordinate_y": 5,
		"reinforcement_BattleReinforcement": 0,
		"initial_direction": 0.0,
		"ai_move_group": 0,
		"ai_target_move_x": -1,
		"ai_target_move_y": -1,
		"ai_skill_function": "",
		"ai_attack": "",
		"ai_move": "",
		"ai_heal": "",
		"ai_skill": "",
		"ai_use": "",
		"skill_group_id": 21816,
		"gear_GearGear": 31002,
		"gear_rank": 10,
		"proficiency_UnitProficiency": 1,
		"level": 40,
		"hp": 84,
		"strength": 48,
		"vitality": 38,
		"intelligence": 13,
		"mind": 18,
		"agility": 30,
		"dexterity": 36,
		"lucky": 14,
		"parameter_table_BattleEnemyParameterTable": 0,
		"parameter_deviation_table_BattleEnemyParameterDeviationTable": 0,
		"acquire_skill_group_id": 0,
		"level_correction": 0,
		"group_id": 0,
		"ai_script_id_BattleAIScript": 0
	},
	{
		"ID": 96663,
		"stage_BattleStage": 610110501,
		"unit_UnitUnit": 820004,
		"money": 200,
		"initial_coordinate_x": 5,
		"initial_coordinate_y": 4,
		"reinforcement_BattleReinforcement": 0,
		"initial_direction": 0.0,
		"ai_move_group": 0,
		"ai_target_move_x": -1,
		"ai_target_move_y": -1,
		"ai_skill_function": "",
		"ai_attack": "",
		"ai_move": "",
		"ai_heal": "",
		"ai_skill": "",
		"ai_use": "",
		"skill_group_id": 21816,
		"gear_GearGear": 21002,
		"gear_rank": 10,
		"proficiency_UnitProficiency": 1,
		"level": 40,
		"hp": 69,
		"strength": 45,
		"vitality": 37,
		"intelligence": 6,
		"mind": 15,
		"agility": 30,
		"dexterity": 40,
		"lucky": 11,
		"parameter_table_BattleEnemyParameterTable": 0,
		"parameter_deviation_table_BattleEnemyParameterDeviationTable": 0,
		"acquire_skill_group_id": 0,
		"level_correction": 0,
		"group_id": 0,
		"ai_script_id_BattleAIScript": 0
	},
	{
		"ID": 96664,
		"stage_BattleStage": 610110501,
		"unit_UnitUnit": 820004,
		"money": 200,
		"initial_coordinate_x": 8,
		"initial_coordinate_y": 4,
		"reinforcement_BattleReinforcement": 0,
		"initial_direction": 0.0,
		"ai_move_group": 0,
		"ai_target_move_x": -1,
		"ai_target_move_y": -1,
		"ai_skill_function": "",
		"ai_attack": "",
		"ai_move": "",
		"ai_heal": "",
		"ai_skill": "",
		"ai_use": "",
		"skill_group_id": 21816,
		"gear_GearGear": 21002,
		"gear_rank": 10,
		"proficiency_UnitProficiency": 1,
		"level": 40,
		"hp": 74,
		"strength": 47,
		"vitality": 36,
		"intelligence": 14,
		"mind": 18,
		"agility": 27,
		"dexterity": 39,
		"lucky": 15,
		"parameter_table_BattleEnemyParameterTable": 0,
		"parameter_deviation_table_BattleEnemyParameterDeviationTable": 0,
		"acquire_skill_group_id": 0,
		"level_correction": 0,
		"group_id": 0,
		"ai_script_id_BattleAIScript": 0
	}
]