[
	{
		"ID": 90714,
		"stage_BattleStage": 736013101,
		"unit_UnitUnit": 3601311,
		"money": 75,
		"initial_coordinate_x": 7,
		"initial_coordinate_y": 4,
		"reinforcement_BattleReinforcement": 0,
		"initial_direction": 270.0,
		"ai_move_group": 0,
		"ai_target_move_x": -1,
		"ai_target_move_y": -1,
		"ai_skill_function": "",
		"ai_attack": "",
		"ai_move": "IF(turn <=1,0,1)",
		"ai_heal": "",
		"ai_skill": "",
		"ai_use": "",
		"skill_group_id": 20851,
		"gear_GearGear": 61002,
		"gear_rank": 1,
		"proficiency_UnitProficiency": 1,
		"level": 15,
		"hp": 33,
		"strength": 5,
		"vitality": 5,
		"intelligence": 26,
		"mind": 20,
		"agility": 23,
		"dexterity": 17,
		"lucky": 13,
		"parameter_table_BattleEnemyParameterTable": 0,
		"parameter_deviation_table_BattleEnemyParameterDeviationTable": 0,
		"acquire_skill_group_id": 0,
		"level_correction": 0,
		"group_id": 0,
		"ai_script_id_BattleAIScript": 0
	},
	{
		"ID": 90715,
		"stage_BattleStage": 736013101,
		"unit_UnitUnit": 3830001,
		"money": 50,
		"initial_coordinate_x": 6,
		"initial_coordinate_y": 4,
		"reinforcement_BattleReinforcement": 0,
		"initial_direction": 270.0,
		"ai_move_group": 0,
		"ai_target_move_x": -1,
		"ai_target_move_y": -1,
		"ai_skill_function": "",
		"ai_attack": "",
		"ai_move": "IF(turn <=1,0,1)",
		"ai_heal": "",
		"ai_skill": "",
		"ai_use": "",
		"skill_group_id": 20852,
		"gear_GearGear": 11002,
		"gear_rank": 1,
		"proficiency_UnitProficiency": 1,
		"level": 10,
		"hp": 28,
		"strength": 20,
		"vitality": 16,
		"intelligence": 3,
		"mind": 3,
		"agility": 16,
		"dexterity": 11,
		"lucky": 5,
		"parameter_table_BattleEnemyParameterTable": 0,
		"parameter_deviation_table_BattleEnemyParameterDeviationTable": 0,
		"acquire_skill_group_id": 0,
		"level_correction": 0,
		"group_id": 0,
		"ai_script_id_BattleAIScript": 0
	},
	{
		"ID": 90716,
		"stage_BattleStage": 736013101,
		"unit_UnitUnit": 3830001,
		"money": 50,
		"initial_coordinate_x": 6,
		"initial_coordinate_y": 3,
		"reinforcement_BattleReinforcement": 0,
		"initial_direction": 270.0,
		"ai_move_group": 0,
		"ai_target_move_x": -1,
		"ai_target_move_y": -1,
		"ai_skill_function": "",
		"ai_attack": "",
		"ai_move": "IF(turn <=2,0,1)",
		"ai_heal": "",
		"ai_skill": "",
		"ai_use": "",
		"skill_group_id": 20852,
		"gear_GearGear": 11002,
		"gear_rank": 1,
		"proficiency_UnitProficiency": 1,
		"level": 10,
		"hp": 28,
		"strength": 20,
		"vitality": 18,
		"intelligence": 3,
		"mind": 2,
		"agility": 17,
		"dexterity": 13,
		"lucky": 6,
		"parameter_table_BattleEnemyParameterTable": 0,
		"parameter_deviation_table_BattleEnemyParameterDeviationTable": 0,
		"acquire_skill_group_id": 0,
		"level_correction": 0,
		"group_id": 0,
		"ai_script_id_BattleAIScript": 0
	},
	{
		"ID": 90717,
		"stage_BattleStage": 736013101,
		"unit_UnitUnit": 3830001,
		"money": 50,
		"initial_coordinate_x": 6,
		"initial_coordinate_y": 5,
		"reinforcement_BattleReinforcement": 0,
		"initial_direction": 270.0,
		"ai_move_group": 0,
		"ai_target_move_x": -1,
		"ai_target_move_y": -1,
		"ai_skill_function": "",
		"ai_attack": "",
		"ai_move": "IF(turn <=2,0,1)",
		"ai_heal": "",
		"ai_skill": "",
		"ai_use": "",
		"skill_group_id": 20852,
		"gear_GearGear": 11002,
		"gear_rank": 1,
		"proficiency_UnitProficiency": 1,
		"level": 10,
		"hp": 29,
		"strength": 21,
		"vitality": 17,
		"intelligence": 4,
		"mind": 3,
		"agility": 15,
		"dexterity": 11,
		"lucky": 5,
		"parameter_table_BattleEnemyParameterTable": 0,
		"parameter_deviation_table_BattleEnemyParameterDeviationTable": 0,
		"acquire_skill_group_id": 0,
		"level_correction": 0,
		"group_id": 0,
		"ai_script_id_BattleAIScript": 0
	}
]