[
	{
		"ID": 59296,
		"stage_BattleStage": 810001090,
		"unit_UnitUnit": 960020,
		"money": 0,
		"initial_coordinate_x": 2,
		"initial_coordinate_y": 17,
		"reinforcement_BattleReinforcement": 0,
		"initial_direction": 180.0,
		"ai_move_group": 0,
		"ai_target_move_x": -1,
		"ai_target_move_y": -1,
		"ai_skill_function": "",
		"ai_attack": "IF(panel_move_distance <= 5, 1, 0)",
		"ai_move": "IF(turn <=7,0,1)",
		"ai_heal": "",
		"ai_skill": "",
		"ai_use": "",
		"skill_group_id": 17288,
		"gear_GearGear": 26014,
		"gear_rank": 10,
		"proficiency_UnitProficiency": 6,
		"level": 100,
		"hp": 5000,
		"strength": 124,
		"vitality": 105,
		"intelligence": 33,
		"mind": 104,
		"agility": 130,
		"dexterity": 130,
		"lucky": 72,
		"parameter_table_BattleEnemyParameterTable": 0,
		"parameter_deviation_table_BattleEnemyParameterDeviationTable": 0,
		"acquire_skill_group_id": 0,
		"level_correction": 0,
		"group_id": 0,
		"ai_script_id_BattleAIScript": 0
	},
	{
		"ID": 59297,
		"stage_BattleStage": 810001090,
		"unit_UnitUnit": 860010,
		"money": 0,
		"initial_coordinate_x": 1,
		"initial_coordinate_y": 18,
		"reinforcement_BattleReinforcement": 0,
		"initial_direction": 180.0,
		"ai_move_group": 0,
		"ai_target_move_x": -1,
		"ai_target_move_y": -1,
		"ai_skill_function": "",
		"ai_attack": "IF(panel_move_distance <= 5, 1, 0)",
		"ai_move": "IF(turn <=7,0,1)",
		"ai_heal": "",
		"ai_skill": "",
		"ai_use": "",
		"skill_group_id": 17279,
		"gear_GearGear": 76005,
		"gear_rank": 10,
		"proficiency_UnitProficiency": 6,
		"level": 90,
		"hp": 115,
		"strength": 10,
		"vitality": 101,
		"intelligence": 106,
		"mind": 123,
		"agility": 109,
		"dexterity": 111,
		"lucky": 63,
		"parameter_table_BattleEnemyParameterTable": 0,
		"parameter_deviation_table_BattleEnemyParameterDeviationTable": 0,
		"acquire_skill_group_id": 0,
		"level_correction": 0,
		"group_id": 0,
		"ai_script_id_BattleAIScript": 0
	},
	{
		"ID": 59298,
		"stage_BattleStage": 810001090,
		"unit_UnitUnit": 910019,
		"money": 0,
		"initial_coordinate_x": 1,
		"initial_coordinate_y": 16,
		"reinforcement_BattleReinforcement": 0,
		"initial_direction": 180.0,
		"ai_move_group": 0,
		"ai_target_move_x": -1,
		"ai_target_move_y": -1,
		"ai_skill_function": "",
		"ai_attack": "IF(panel_move_distance <= 5, 1, 0)",
		"ai_move": "IF(turn <=7,0,1)",
		"ai_heal": "",
		"ai_skill": "",
		"ai_use": "",
		"skill_group_id": 17281,
		"gear_GearGear": 16001,
		"gear_rank": 10,
		"proficiency_UnitProficiency": 6,
		"level": 90,
		"hp": 121,
		"strength": 110,
		"vitality": 86,
		"intelligence": 11,
		"mind": 73,
		"agility": 132,
		"dexterity": 137,
		"lucky": 59,
		"parameter_table_BattleEnemyParameterTable": 0,
		"parameter_deviation_table_BattleEnemyParameterDeviationTable": 0,
		"acquire_skill_group_id": 0,
		"level_correction": 0,
		"group_id": 0,
		"ai_script_id_BattleAIScript": 0
	},
	{
		"ID": 59299,
		"stage_BattleStage": 810001090,
		"unit_UnitUnit": 860010,
		"money": 0,
		"initial_coordinate_x": 13,
		"initial_coordinate_y": 17,
		"reinforcement_BattleReinforcement": 0,
		"initial_direction": 180.0,
		"ai_move_group": 0,
		"ai_target_move_x": -1,
		"ai_target_move_y": -1,
		"ai_skill_function": "",
		"ai_attack": "IF(panel_move_distance <= 5, 1, 0)",
		"ai_move": "IF(turn <=6,0,1)",
		"ai_heal": "",
		"ai_skill": "",
		"ai_use": "",
		"skill_group_id": 17279,
		"gear_GearGear": 76005,
		"gear_rank": 10,
		"proficiency_UnitProficiency": 6,
		"level": 90,
		"hp": 115,
		"strength": 10,
		"vitality": 101,
		"intelligence": 106,
		"mind": 123,
		"agility": 109,
		"dexterity": 111,
		"lucky": 63,
		"parameter_table_BattleEnemyParameterTable": 0,
		"parameter_deviation_table_BattleEnemyParameterDeviationTable": 0,
		"acquire_skill_group_id": 0,
		"level_correction": 0,
		"group_id": 0,
		"ai_script_id_BattleAIScript": 0
	},
	{
		"ID": 59300,
		"stage_BattleStage": 810001090,
		"unit_UnitUnit": 910019,
		"money": 0,
		"initial_coordinate_x": 14,
		"initial_coordinate_y": 18,
		"reinforcement_BattleReinforcement": 0,
		"initial_direction": 180.0,
		"ai_move_group": 0,
		"ai_target_move_x": -1,
		"ai_target_move_y": -1,
		"ai_skill_function": "",
		"ai_attack": "IF(panel_move_distance <= 5, 1, 0)",
		"ai_move": "IF(turn <=6,0,1)",
		"ai_heal": "",
		"ai_skill": "",
		"ai_use": "",
		"skill_group_id": 17281,
		"gear_GearGear": 16001,
		"gear_rank": 10,
		"proficiency_UnitProficiency": 6,
		"level": 90,
		"hp": 121,
		"strength": 110,
		"vitality": 86,
		"intelligence": 11,
		"mind": 73,
		"agility": 132,
		"dexterity": 137,
		"lucky": 59,
		"parameter_table_BattleEnemyParameterTable": 0,
		"parameter_deviation_table_BattleEnemyParameterDeviationTable": 0,
		"acquire_skill_group_id": 0,
		"level_correction": 0,
		"group_id": 0,
		"ai_script_id_BattleAIScript": 0
	},
	{
		"ID": 59301,
		"stage_BattleStage": 810001090,
		"unit_UnitUnit": 840018,
		"money": 0,
		"initial_coordinate_x": 18,
		"initial_coordinate_y": 13,
		"reinforcement_BattleReinforcement": 0,
		"initial_direction": 180.0,
		"ai_move_group": 0,
		"ai_target_move_x": -1,
		"ai_target_move_y": -1,
		"ai_skill_function": "",
		"ai_attack": "IF(panel_move_distance <= 5, 1, 0)",
		"ai_move": "IF(turn <=5,0,1)",
		"ai_heal": "",
		"ai_skill": "",
		"ai_use": "",
		"skill_group_id": 17283,
		"gear_GearGear": 46002,
		"gear_rank": 10,
		"proficiency_UnitProficiency": 6,
		"level": 90,
		"hp": 138,
		"strength": 122,
		"vitality": 93,
		"intelligence": 11,
		"mind": 82,
		"agility": 118,
		"dexterity": 114,
		"lucky": 59,
		"parameter_table_BattleEnemyParameterTable": 0,
		"parameter_deviation_table_BattleEnemyParameterDeviationTable": 0,
		"acquire_skill_group_id": 0,
		"level_correction": 0,
		"group_id": 0,
		"ai_script_id_BattleAIScript": 0
	},
	{
		"ID": 59302,
		"stage_BattleStage": 810001090,
		"unit_UnitUnit": 960020,
		"money": 0,
		"initial_coordinate_x": 16,
		"initial_coordinate_y": 11,
		"reinforcement_BattleReinforcement": 0,
		"initial_direction": 180.0,
		"ai_move_group": 0,
		"ai_target_move_x": -1,
		"ai_target_move_y": -1,
		"ai_skill_function": "",
		"ai_attack": "IF(panel_move_distance <= 5, 1, 0)",
		"ai_move": "IF(turn <=5,0,1)",
		"ai_heal": "",
		"ai_skill": "",
		"ai_use": "",
		"skill_group_id": 17286,
		"gear_GearGear": 26014,
		"gear_rank": 10,
		"proficiency_UnitProficiency": 6,
		"level": 90,
		"hp": 800,
		"strength": 112,
		"vitality": 100,
		"intelligence": 30,
		"mind": 100,
		"agility": 115,
		"dexterity": 115,
		"lucky": 66,
		"parameter_table_BattleEnemyParameterTable": 0,
		"parameter_deviation_table_BattleEnemyParameterDeviationTable": 0,
		"acquire_skill_group_id": 0,
		"level_correction": 0,
		"group_id": 0,
		"ai_script_id_BattleAIScript": 0
	},
	{
		"ID": 59303,
		"stage_BattleStage": 810001090,
		"unit_UnitUnit": 840018,
		"money": 0,
		"initial_coordinate_x": 18,
		"initial_coordinate_y": 9,
		"reinforcement_BattleReinforcement": 0,
		"initial_direction": 180.0,
		"ai_move_group": 0,
		"ai_target_move_x": -1,
		"ai_target_move_y": -1,
		"ai_skill_function": "",
		"ai_attack": "IF(panel_move_distance <= 5, 1, 0)",
		"ai_move": "IF(turn <=5,0,1)",
		"ai_heal": "",
		"ai_skill": "",
		"ai_use": "",
		"skill_group_id": 17283,
		"gear_GearGear": 46002,
		"gear_rank": 10,
		"proficiency_UnitProficiency": 6,
		"level": 90,
		"hp": 138,
		"strength": 122,
		"vitality": 93,
		"intelligence": 11,
		"mind": 82,
		"agility": 118,
		"dexterity": 114,
		"lucky": 59,
		"parameter_table_BattleEnemyParameterTable": 0,
		"parameter_deviation_table_BattleEnemyParameterDeviationTable": 0,
		"acquire_skill_group_id": 0,
		"level_correction": 0,
		"group_id": 0,
		"ai_script_id_BattleAIScript": 0
	},
	{
		"ID": 59304,
		"stage_BattleStage": 810001090,
		"unit_UnitUnit": 820003,
		"money": 0,
		"initial_coordinate_x": 13,
		"initial_coordinate_y": 12,
		"reinforcement_BattleReinforcement": 0,
		"initial_direction": 180.0,
		"ai_move_group": 0,
		"ai_target_move_x": -1,
		"ai_target_move_y": -1,
		"ai_skill_function": "",
		"ai_attack": "IF(panel_move_distance <= 5, 1, 0)",
		"ai_move": "IF(turn <=5,0,1)",
		"ai_heal": "",
		"ai_skill": "",
		"ai_use": "",
		"skill_group_id": 17284,
		"gear_GearGear": 26001,
		"gear_rank": 10,
		"proficiency_UnitProficiency": 6,
		"level": 90,
		"hp": 173,
		"strength": 118,
		"vitality": 150,
		"intelligence": 10,
		"mind": 84,
		"agility": 108,
		"dexterity": 114,
		"lucky": 63,
		"parameter_table_BattleEnemyParameterTable": 0,
		"parameter_deviation_table_BattleEnemyParameterDeviationTable": 0,
		"acquire_skill_group_id": 0,
		"level_correction": 0,
		"group_id": 0,
		"ai_script_id_BattleAIScript": 0
	},
	{
		"ID": 59305,
		"stage_BattleStage": 810001090,
		"unit_UnitUnit": 820003,
		"money": 0,
		"initial_coordinate_x": 13,
		"initial_coordinate_y": 11,
		"reinforcement_BattleReinforcement": 0,
		"initial_direction": 180.0,
		"ai_move_group": 0,
		"ai_target_move_x": -1,
		"ai_target_move_y": -1,
		"ai_skill_function": "",
		"ai_attack": "IF(panel_move_distance <= 5, 1, 0)",
		"ai_move": "IF(turn <=5,0,1)",
		"ai_heal": "",
		"ai_skill": "",
		"ai_use": "",
		"skill_group_id": 17284,
		"gear_GearGear": 26001,
		"gear_rank": 10,
		"proficiency_UnitProficiency": 6,
		"level": 90,
		"hp": 173,
		"strength": 118,
		"vitality": 150,
		"intelligence": 10,
		"mind": 84,
		"agility": 108,
		"dexterity": 114,
		"lucky": 63,
		"parameter_table_BattleEnemyParameterTable": 0,
		"parameter_deviation_table_BattleEnemyParameterDeviationTable": 0,
		"acquire_skill_group_id": 0,
		"level_correction": 0,
		"group_id": 0,
		"ai_script_id_BattleAIScript": 0
	},
	{
		"ID": 59306,
		"stage_BattleStage": 810001090,
		"unit_UnitUnit": 900019,
		"money": 0,
		"initial_coordinate_x": 19,
		"initial_coordinate_y": 5,
		"reinforcement_BattleReinforcement": 0,
		"initial_direction": 270.0,
		"ai_move_group": 0,
		"ai_target_move_x": -1,
		"ai_target_move_y": -1,
		"ai_skill_function": "",
		"ai_attack": "IF(panel_move_distance <= 5, 1, 0)",
		"ai_move": "IF(turn <=6,0,1)",
		"ai_heal": "",
		"ai_skill": "",
		"ai_use": "",
		"skill_group_id": 17282,
		"gear_GearGear": 80026,
		"gear_rank": 10,
		"proficiency_UnitProficiency": 1,
		"level": 90,
		"hp": 168,
		"strength": 18,
		"vitality": 98,
		"intelligence": 123,
		"mind": 115,
		"agility": 108,
		"dexterity": 120,
		"lucky": 59,
		"parameter_table_BattleEnemyParameterTable": 0,
		"parameter_deviation_table_BattleEnemyParameterDeviationTable": 0,
		"acquire_skill_group_id": 0,
		"level_correction": 0,
		"group_id": 0,
		"ai_script_id_BattleAIScript": 0
	},
	{
		"ID": 59307,
		"stage_BattleStage": 810001090,
		"unit_UnitUnit": 960020,
		"money": 0,
		"initial_coordinate_x": 19,
		"initial_coordinate_y": 3,
		"reinforcement_BattleReinforcement": 0,
		"initial_direction": 270.0,
		"ai_move_group": 0,
		"ai_target_move_x": -1,
		"ai_target_move_y": -1,
		"ai_skill_function": "",
		"ai_attack": "IF(panel_move_distance <= 5, 1, 0)",
		"ai_move": "IF(turn <=6,0,1)",
		"ai_heal": "",
		"ai_skill": "",
		"ai_use": "",
		"skill_group_id": 17287,
		"gear_GearGear": 26014,
		"gear_rank": 10,
		"proficiency_UnitProficiency": 6,
		"level": 90,
		"hp": 800,
		"strength": 112,
		"vitality": 100,
		"intelligence": 30,
		"mind": 100,
		"agility": 115,
		"dexterity": 115,
		"lucky": 66,
		"parameter_table_BattleEnemyParameterTable": 0,
		"parameter_deviation_table_BattleEnemyParameterDeviationTable": 0,
		"acquire_skill_group_id": 0,
		"level_correction": 0,
		"group_id": 0,
		"ai_script_id_BattleAIScript": 0
	},
	{
		"ID": 59308,
		"stage_BattleStage": 810001090,
		"unit_UnitUnit": 840018,
		"money": 0,
		"initial_coordinate_x": 14,
		"initial_coordinate_y": 6,
		"reinforcement_BattleReinforcement": 0,
		"initial_direction": 270.0,
		"ai_move_group": 0,
		"ai_target_move_x": -1,
		"ai_target_move_y": -1,
		"ai_skill_function": "",
		"ai_attack": "IF(panel_move_distance <= 5, 1, 0)",
		"ai_move": "IF(turn <=4,0,1)",
		"ai_heal": "",
		"ai_skill": "",
		"ai_use": "",
		"skill_group_id": 17283,
		"gear_GearGear": 46002,
		"gear_rank": 10,
		"proficiency_UnitProficiency": 6,
		"level": 90,
		"hp": 138,
		"strength": 122,
		"vitality": 93,
		"intelligence": 11,
		"mind": 82,
		"agility": 118,
		"dexterity": 114,
		"lucky": 59,
		"parameter_table_BattleEnemyParameterTable": 0,
		"parameter_deviation_table_BattleEnemyParameterDeviationTable": 0,
		"acquire_skill_group_id": 0,
		"level_correction": 0,
		"group_id": 0,
		"ai_script_id_BattleAIScript": 0
	},
	{
		"ID": 59309,
		"stage_BattleStage": 810001090,
		"unit_UnitUnit": 840018,
		"money": 0,
		"initial_coordinate_x": 13,
		"initial_coordinate_y": 7,
		"reinforcement_BattleReinforcement": 0,
		"initial_direction": 270.0,
		"ai_move_group": 0,
		"ai_target_move_x": -1,
		"ai_target_move_y": -1,
		"ai_skill_function": "",
		"ai_attack": "IF(panel_move_distance <= 5, 1, 0)",
		"ai_move": "IF(turn <=4,0,1)",
		"ai_heal": "",
		"ai_skill": "",
		"ai_use": "",
		"skill_group_id": 17283,
		"gear_GearGear": 46002,
		"gear_rank": 10,
		"proficiency_UnitProficiency": 6,
		"level": 90,
		"hp": 138,
		"strength": 122,
		"vitality": 93,
		"intelligence": 11,
		"mind": 82,
		"agility": 118,
		"dexterity": 114,
		"lucky": 59,
		"parameter_table_BattleEnemyParameterTable": 0,
		"parameter_deviation_table_BattleEnemyParameterDeviationTable": 0,
		"acquire_skill_group_id": 0,
		"level_correction": 0,
		"group_id": 0,
		"ai_script_id_BattleAIScript": 0
	},
	{
		"ID": 59310,
		"stage_BattleStage": 810001090,
		"unit_UnitUnit": 930019,
		"money": 0,
		"initial_coordinate_x": 10,
		"initial_coordinate_y": 6,
		"reinforcement_BattleReinforcement": 0,
		"initial_direction": 270.0,
		"ai_move_group": 0,
		"ai_target_move_x": -1,
		"ai_target_move_y": -1,
		"ai_skill_function": "",
		"ai_attack": "IF(panel_move_distance <= 5, 1, 0)",
		"ai_move": "IF(turn <=4,0,1)",
		"ai_heal": "",
		"ai_skill": "",
		"ai_use": "",
		"skill_group_id": 17285,
		"gear_GearGear": 36001,
		"gear_rank": 10,
		"proficiency_UnitProficiency": 6,
		"level": 90,
		"hp": 154,
		"strength": 128,
		"vitality": 125,
		"intelligence": 10,
		"mind": 96,
		"agility": 108,
		"dexterity": 108,
		"lucky": 59,
		"parameter_table_BattleEnemyParameterTable": 0,
		"parameter_deviation_table_BattleEnemyParameterDeviationTable": 0,
		"acquire_skill_group_id": 0,
		"level_correction": 0,
		"group_id": 0,
		"ai_script_id_BattleAIScript": 0
	},
	{
		"ID": 59311,
		"stage_BattleStage": 810001090,
		"unit_UnitUnit": 860010,
		"money": 0,
		"initial_coordinate_x": 10,
		"initial_coordinate_y": 4,
		"reinforcement_BattleReinforcement": 0,
		"initial_direction": 270.0,
		"ai_move_group": 0,
		"ai_target_move_x": -1,
		"ai_target_move_y": -1,
		"ai_skill_function": "",
		"ai_attack": "IF(panel_move_distance <= 5, 1, 0)",
		"ai_move": "IF(turn <=4,0,1)",
		"ai_heal": "",
		"ai_skill": "",
		"ai_use": "",
		"skill_group_id": 17279,
		"gear_GearGear": 76005,
		"gear_rank": 10,
		"proficiency_UnitProficiency": 6,
		"level": 90,
		"hp": 115,
		"strength": 10,
		"vitality": 101,
		"intelligence": 106,
		"mind": 123,
		"agility": 109,
		"dexterity": 111,
		"lucky": 63,
		"parameter_table_BattleEnemyParameterTable": 0,
		"parameter_deviation_table_BattleEnemyParameterDeviationTable": 0,
		"acquire_skill_group_id": 0,
		"level_correction": 0,
		"group_id": 0,
		"ai_script_id_BattleAIScript": 0
	},
	{
		"ID": 59312,
		"stage_BattleStage": 810001090,
		"unit_UnitUnit": 930019,
		"money": 0,
		"initial_coordinate_x": 8,
		"initial_coordinate_y": 6,
		"reinforcement_BattleReinforcement": 0,
		"initial_direction": 270.0,
		"ai_move_group": 0,
		"ai_target_move_x": -1,
		"ai_target_move_y": -1,
		"ai_skill_function": "",
		"ai_attack": "IF(panel_move_distance <= 5, 1, 0)",
		"ai_move": "IF(turn <=4,0,1)",
		"ai_heal": "",
		"ai_skill": "",
		"ai_use": "",
		"skill_group_id": 17285,
		"gear_GearGear": 36001,
		"gear_rank": 10,
		"proficiency_UnitProficiency": 6,
		"level": 90,
		"hp": 154,
		"strength": 128,
		"vitality": 124,
		"intelligence": 10,
		"mind": 96,
		"agility": 108,
		"dexterity": 108,
		"lucky": 59,
		"parameter_table_BattleEnemyParameterTable": 0,
		"parameter_deviation_table_BattleEnemyParameterDeviationTable": 0,
		"acquire_skill_group_id": 0,
		"level_correction": 0,
		"group_id": 0,
		"ai_script_id_BattleAIScript": 0
	},
	{
		"ID": 59313,
		"stage_BattleStage": 810001090,
		"unit_UnitUnit": 860010,
		"money": 0,
		"initial_coordinate_x": 8,
		"initial_coordinate_y": 4,
		"reinforcement_BattleReinforcement": 0,
		"initial_direction": 270.0,
		"ai_move_group": 0,
		"ai_target_move_x": -1,
		"ai_target_move_y": -1,
		"ai_skill_function": "",
		"ai_attack": "IF(panel_move_distance <= 5, 1, 0)",
		"ai_move": "IF(turn <=4,0,1)",
		"ai_heal": "",
		"ai_skill": "",
		"ai_use": "",
		"skill_group_id": 17279,
		"gear_GearGear": 76005,
		"gear_rank": 10,
		"proficiency_UnitProficiency": 6,
		"level": 90,
		"hp": 115,
		"strength": 10,
		"vitality": 101,
		"intelligence": 106,
		"mind": 123,
		"agility": 109,
		"dexterity": 111,
		"lucky": 63,
		"parameter_table_BattleEnemyParameterTable": 0,
		"parameter_deviation_table_BattleEnemyParameterDeviationTable": 0,
		"acquire_skill_group_id": 0,
		"level_correction": 0,
		"group_id": 0,
		"ai_script_id_BattleAIScript": 0
	},
	{
		"ID": 59314,
		"stage_BattleStage": 810001090,
		"unit_UnitUnit": 960020,
		"money": 0,
		"initial_coordinate_x": 11,
		"initial_coordinate_y": 1,
		"reinforcement_BattleReinforcement": 0,
		"initial_direction": 270.0,
		"ai_move_group": 0,
		"ai_target_move_x": -1,
		"ai_target_move_y": -1,
		"ai_skill_function": "",
		"ai_attack": "IF(panel_move_distance <= 5, 1, 0)",
		"ai_move": "IF(turn <=4,0,1)",
		"ai_heal": "",
		"ai_skill": "",
		"ai_use": "",
		"skill_group_id": 17286,
		"gear_GearGear": 26014,
		"gear_rank": 10,
		"proficiency_UnitProficiency": 6,
		"level": 90,
		"hp": 800,
		"strength": 112,
		"vitality": 100,
		"intelligence": 30,
		"mind": 100,
		"agility": 115,
		"dexterity": 115,
		"lucky": 66,
		"parameter_table_BattleEnemyParameterTable": 0,
		"parameter_deviation_table_BattleEnemyParameterDeviationTable": 0,
		"acquire_skill_group_id": 0,
		"level_correction": 0,
		"group_id": 0,
		"ai_script_id_BattleAIScript": 0
	},
	{
		"ID": 59315,
		"stage_BattleStage": 810001090,
		"unit_UnitUnit": 900019,
		"money": 0,
		"initial_coordinate_x": 13,
		"initial_coordinate_y": 1,
		"reinforcement_BattleReinforcement": 0,
		"initial_direction": 270.0,
		"ai_move_group": 0,
		"ai_target_move_x": -1,
		"ai_target_move_y": -1,
		"ai_skill_function": "",
		"ai_attack": "IF(panel_move_distance <= 5, 1, 0)",
		"ai_move": "IF(turn <=4,0,1)",
		"ai_heal": "",
		"ai_skill": "",
		"ai_use": "",
		"skill_group_id": 17280,
		"gear_GearGear": 80026,
		"gear_rank": 10,
		"proficiency_UnitProficiency": 1,
		"level": 90,
		"hp": 168,
		"strength": 18,
		"vitality": 98,
		"intelligence": 123,
		"mind": 115,
		"agility": 108,
		"dexterity": 120,
		"lucky": 59,
		"parameter_table_BattleEnemyParameterTable": 0,
		"parameter_deviation_table_BattleEnemyParameterDeviationTable": 0,
		"acquire_skill_group_id": 0,
		"level_correction": 0,
		"group_id": 0,
		"ai_script_id_BattleAIScript": 0
	},
	{
		"ID": 59316,
		"stage_BattleStage": 810001090,
		"unit_UnitUnit": 860010,
		"money": 0,
		"initial_coordinate_x": 8,
		"initial_coordinate_y": 12,
		"reinforcement_BattleReinforcement": 0,
		"initial_direction": 180.0,
		"ai_move_group": 0,
		"ai_target_move_x": -1,
		"ai_target_move_y": -1,
		"ai_skill_function": "",
		"ai_attack": "IF(panel_move_distance <= 5, 1, 0)",
		"ai_move": "IF(turn <=2,0,1)",
		"ai_heal": "",
		"ai_skill": "",
		"ai_use": "",
		"skill_group_id": 17279,
		"gear_GearGear": 76005,
		"gear_rank": 10,
		"proficiency_UnitProficiency": 6,
		"level": 90,
		"hp": 115,
		"strength": 10,
		"vitality": 101,
		"intelligence": 106,
		"mind": 123,
		"agility": 109,
		"dexterity": 111,
		"lucky": 63,
		"parameter_table_BattleEnemyParameterTable": 0,
		"parameter_deviation_table_BattleEnemyParameterDeviationTable": 0,
		"acquire_skill_group_id": 0,
		"level_correction": 0,
		"group_id": 0,
		"ai_script_id_BattleAIScript": 0
	},
	{
		"ID": 59317,
		"stage_BattleStage": 810001090,
		"unit_UnitUnit": 860010,
		"money": 0,
		"initial_coordinate_x": 8,
		"initial_coordinate_y": 11,
		"reinforcement_BattleReinforcement": 0,
		"initial_direction": 180.0,
		"ai_move_group": 0,
		"ai_target_move_x": -1,
		"ai_target_move_y": -1,
		"ai_skill_function": "",
		"ai_attack": "IF(panel_move_distance <= 5, 1, 0)",
		"ai_move": "IF(turn <=2,0,1)",
		"ai_heal": "",
		"ai_skill": "",
		"ai_use": "",
		"skill_group_id": 17279,
		"gear_GearGear": 76005,
		"gear_rank": 10,
		"proficiency_UnitProficiency": 6,
		"level": 90,
		"hp": 115,
		"strength": 10,
		"vitality": 101,
		"intelligence": 106,
		"mind": 123,
		"agility": 109,
		"dexterity": 111,
		"lucky": 63,
		"parameter_table_BattleEnemyParameterTable": 0,
		"parameter_deviation_table_BattleEnemyParameterDeviationTable": 0,
		"acquire_skill_group_id": 0,
		"level_correction": 0,
		"group_id": 0,
		"ai_script_id_BattleAIScript": 0
	},
	{
		"ID": 59318,
		"stage_BattleStage": 810001090,
		"unit_UnitUnit": 820003,
		"money": 0,
		"initial_coordinate_x": 6,
		"initial_coordinate_y": 12,
		"reinforcement_BattleReinforcement": 0,
		"initial_direction": 180.0,
		"ai_move_group": 0,
		"ai_target_move_x": -1,
		"ai_target_move_y": -1,
		"ai_skill_function": "",
		"ai_attack": "IF(panel_move_distance <= 5, 1, 0)",
		"ai_move": "IF(turn <=2,0,1)",
		"ai_heal": "",
		"ai_skill": "",
		"ai_use": "",
		"skill_group_id": 17284,
		"gear_GearGear": 26001,
		"gear_rank": 10,
		"proficiency_UnitProficiency": 6,
		"level": 90,
		"hp": 173,
		"strength": 118,
		"vitality": 150,
		"intelligence": 10,
		"mind": 84,
		"agility": 108,
		"dexterity": 114,
		"lucky": 63,
		"parameter_table_BattleEnemyParameterTable": 0,
		"parameter_deviation_table_BattleEnemyParameterDeviationTable": 0,
		"acquire_skill_group_id": 0,
		"level_correction": 0,
		"group_id": 0,
		"ai_script_id_BattleAIScript": 0
	},
	{
		"ID": 59319,
		"stage_BattleStage": 810001090,
		"unit_UnitUnit": 820003,
		"money": 0,
		"initial_coordinate_x": 6,
		"initial_coordinate_y": 11,
		"reinforcement_BattleReinforcement": 0,
		"initial_direction": 180.0,
		"ai_move_group": 0,
		"ai_target_move_x": -1,
		"ai_target_move_y": -1,
		"ai_skill_function": "",
		"ai_attack": "IF(panel_move_distance <= 5, 1, 0)",
		"ai_move": "IF(turn <=2,0,1)",
		"ai_heal": "",
		"ai_skill": "",
		"ai_use": "",
		"skill_group_id": 17284,
		"gear_GearGear": 26001,
		"gear_rank": 10,
		"proficiency_UnitProficiency": 6,
		"level": 90,
		"hp": 173,
		"strength": 118,
		"vitality": 150,
		"intelligence": 10,
		"mind": 84,
		"agility": 108,
		"dexterity": 114,
		"lucky": 63,
		"parameter_table_BattleEnemyParameterTable": 0,
		"parameter_deviation_table_BattleEnemyParameterDeviationTable": 0,
		"acquire_skill_group_id": 0,
		"level_correction": 0,
		"group_id": 0,
		"ai_script_id_BattleAIScript": 0
	},
	{
		"ID": 59320,
		"stage_BattleStage": 810001090,
		"unit_UnitUnit": 31022010,
		"money": 0,
		"initial_coordinate_x": 1,
		"initial_coordinate_y": 10,
		"reinforcement_BattleReinforcement": 0,
		"initial_direction": 0.0,
		"ai_move_group": 0,
		"ai_target_move_x": -1,
		"ai_target_move_y": -1,
		"ai_skill_function": "",
		"ai_attack": "",
		"ai_move": "",
		"ai_heal": "",
		"ai_skill": "",
		"ai_use": "",
		"skill_group_id": 0,
		"gear_GearGear": 80005,
		"gear_rank": 10,
		"proficiency_UnitProficiency": 1,
		"level": 1,
		"hp": 1,
		"strength": 1,
		"vitality": 1,
		"intelligence": 1,
		"mind": 1,
		"agility": 1,
		"dexterity": 1,
		"lucky": 1,
		"parameter_table_BattleEnemyParameterTable": 0,
		"parameter_deviation_table_BattleEnemyParameterDeviationTable": 0,
		"acquire_skill_group_id": 0,
		"level_correction": 0,
		"group_id": 0,
		"ai_script_id_BattleAIScript": 0
	},
	{
		"ID": 59321,
		"stage_BattleStage": 810001090,
		"unit_UnitUnit": 31022010,
		"money": 0,
		"initial_coordinate_x": 4,
		"initial_coordinate_y": 8,
		"reinforcement_BattleReinforcement": 0,
		"initial_direction": 0.0,
		"ai_move_group": 0,
		"ai_target_move_x": -1,
		"ai_target_move_y": -1,
		"ai_skill_function": "",
		"ai_attack": "",
		"ai_move": "",
		"ai_heal": "",
		"ai_skill": "",
		"ai_use": "",
		"skill_group_id": 0,
		"gear_GearGear": 80005,
		"gear_rank": 10,
		"proficiency_UnitProficiency": 1,
		"level": 1,
		"hp": 1,
		"strength": 1,
		"vitality": 1,
		"intelligence": 1,
		"mind": 1,
		"agility": 1,
		"dexterity": 1,
		"lucky": 1,
		"parameter_table_BattleEnemyParameterTable": 0,
		"parameter_deviation_table_BattleEnemyParameterDeviationTable": 0,
		"acquire_skill_group_id": 0,
		"level_correction": 0,
		"group_id": 0,
		"ai_script_id_BattleAIScript": 0
	},
	{
		"ID": 59322,
		"stage_BattleStage": 810001090,
		"unit_UnitUnit": 31022010,
		"money": 0,
		"initial_coordinate_x": 11,
		"initial_coordinate_y": 9,
		"reinforcement_BattleReinforcement": 0,
		"initial_direction": 0.0,
		"ai_move_group": 0,
		"ai_target_move_x": -1,
		"ai_target_move_y": -1,
		"ai_skill_function": "",
		"ai_attack": "",
		"ai_move": "",
		"ai_heal": "",
		"ai_skill": "",
		"ai_use": "",
		"skill_group_id": 0,
		"gear_GearGear": 80005,
		"gear_rank": 10,
		"proficiency_UnitProficiency": 1,
		"level": 1,
		"hp": 1,
		"strength": 1,
		"vitality": 1,
		"intelligence": 1,
		"mind": 1,
		"agility": 1,
		"dexterity": 1,
		"lucky": 1,
		"parameter_table_BattleEnemyParameterTable": 0,
		"parameter_deviation_table_BattleEnemyParameterDeviationTable": 0,
		"acquire_skill_group_id": 0,
		"level_correction": 0,
		"group_id": 0,
		"ai_script_id_BattleAIScript": 0
	},
	{
		"ID": 59323,
		"stage_BattleStage": 810001090,
		"unit_UnitUnit": 31022010,
		"money": 0,
		"initial_coordinate_x": 16,
		"initial_coordinate_y": 15,
		"reinforcement_BattleReinforcement": 0,
		"initial_direction": 0.0,
		"ai_move_group": 0,
		"ai_target_move_x": -1,
		"ai_target_move_y": -1,
		"ai_skill_function": "",
		"ai_attack": "",
		"ai_move": "",
		"ai_heal": "",
		"ai_skill": "",
		"ai_use": "",
		"skill_group_id": 0,
		"gear_GearGear": 80005,
		"gear_rank": 10,
		"proficiency_UnitProficiency": 1,
		"level": 1,
		"hp": 1,
		"strength": 1,
		"vitality": 1,
		"intelligence": 1,
		"mind": 1,
		"agility": 1,
		"dexterity": 1,
		"lucky": 1,
		"parameter_table_BattleEnemyParameterTable": 0,
		"parameter_deviation_table_BattleEnemyParameterDeviationTable": 0,
		"acquire_skill_group_id": 0,
		"level_correction": 0,
		"group_id": 0,
		"ai_script_id_BattleAIScript": 0
	},
	{
		"ID": 59324,
		"stage_BattleStage": 810001090,
		"unit_UnitUnit": 31022010,
		"money": 0,
		"initial_coordinate_x": 6,
		"initial_coordinate_y": 18,
		"reinforcement_BattleReinforcement": 0,
		"initial_direction": 0.0,
		"ai_move_group": 0,
		"ai_target_move_x": -1,
		"ai_target_move_y": -1,
		"ai_skill_function": "",
		"ai_attack": "",
		"ai_move": "",
		"ai_heal": "",
		"ai_skill": "",
		"ai_use": "",
		"skill_group_id": 0,
		"gear_GearGear": 80005,
		"gear_rank": 10,
		"proficiency_UnitProficiency": 1,
		"level": 1,
		"hp": 1,
		"strength": 1,
		"vitality": 1,
		"intelligence": 1,
		"mind": 1,
		"agility": 1,
		"dexterity": 1,
		"lucky": 1,
		"parameter_table_BattleEnemyParameterTable": 0,
		"parameter_deviation_table_BattleEnemyParameterDeviationTable": 0,
		"acquire_skill_group_id": 0,
		"level_correction": 0,
		"group_id": 0,
		"ai_script_id_BattleAIScript": 0
	},
	{
		"ID": 59325,
		"stage_BattleStage": 810001090,
		"unit_UnitUnit": 31004030,
		"money": 0,
		"initial_coordinate_x": 2,
		"initial_coordinate_y": 11,
		"reinforcement_BattleReinforcement": 0,
		"initial_direction": 0.0,
		"ai_move_group": 0,
		"ai_target_move_x": -1,
		"ai_target_move_y": -1,
		"ai_skill_function": "",
		"ai_attack": "",
		"ai_move": "",
		"ai_heal": "",
		"ai_skill": "",
		"ai_use": "",
		"skill_group_id": 0,
		"gear_GearGear": 80005,
		"gear_rank": 10,
		"proficiency_UnitProficiency": 1,
		"level": 1,
		"hp": 1,
		"strength": 1,
		"vitality": 1,
		"intelligence": 1,
		"mind": 1,
		"agility": 1,
		"dexterity": 1,
		"lucky": 1,
		"parameter_table_BattleEnemyParameterTable": 0,
		"parameter_deviation_table_BattleEnemyParameterDeviationTable": 0,
		"acquire_skill_group_id": 0,
		"level_correction": 0,
		"group_id": 0,
		"ai_script_id_BattleAIScript": 0
	},
	{
		"ID": 59326,
		"stage_BattleStage": 810001090,
		"unit_UnitUnit": 31004030,
		"money": 0,
		"initial_coordinate_x": 1,
		"initial_coordinate_y": 11,
		"reinforcement_BattleReinforcement": 0,
		"initial_direction": 0.0,
		"ai_move_group": 0,
		"ai_target_move_x": -1,
		"ai_target_move_y": -1,
		"ai_skill_function": "",
		"ai_attack": "",
		"ai_move": "",
		"ai_heal": "",
		"ai_skill": "",
		"ai_use": "",
		"skill_group_id": 0,
		"gear_GearGear": 80005,
		"gear_rank": 10,
		"proficiency_UnitProficiency": 1,
		"level": 1,
		"hp": 1,
		"strength": 1,
		"vitality": 1,
		"intelligence": 1,
		"mind": 1,
		"agility": 1,
		"dexterity": 1,
		"lucky": 1,
		"parameter_table_BattleEnemyParameterTable": 0,
		"parameter_deviation_table_BattleEnemyParameterDeviationTable": 0,
		"acquire_skill_group_id": 0,
		"level_correction": 0,
		"group_id": 0,
		"ai_script_id_BattleAIScript": 0
	},
	{
		"ID": 59327,
		"stage_BattleStage": 810001090,
		"unit_UnitUnit": 31022010,
		"money": 0,
		"initial_coordinate_x": 13,
		"initial_coordinate_y": 4,
		"reinforcement_BattleReinforcement": 0,
		"initial_direction": 0.0,
		"ai_move_group": 0,
		"ai_target_move_x": -1,
		"ai_target_move_y": -1,
		"ai_skill_function": "",
		"ai_attack": "",
		"ai_move": "",
		"ai_heal": "",
		"ai_skill": "",
		"ai_use": "",
		"skill_group_id": 0,
		"gear_GearGear": 80005,
		"gear_rank": 10,
		"proficiency_UnitProficiency": 1,
		"level": 1,
		"hp": 1,
		"strength": 1,
		"vitality": 1,
		"intelligence": 1,
		"mind": 1,
		"agility": 1,
		"dexterity": 1,
		"lucky": 1,
		"parameter_table_BattleEnemyParameterTable": 0,
		"parameter_deviation_table_BattleEnemyParameterDeviationTable": 0,
		"acquire_skill_group_id": 0,
		"level_correction": 0,
		"group_id": 0,
		"ai_script_id_BattleAIScript": 0
	}
]