[
	{
		"ID": 71795,
		"stage_BattleStage": 810005022,
		"unit_UnitUnit": 910019,
		"money": 0,
		"initial_coordinate_x": 12,
		"initial_coordinate_y": 12,
		"reinforcement_BattleReinforcement": 0,
		"initial_direction": 180.0,
		"ai_move_group": 0,
		"ai_target_move_x": -1,
		"ai_target_move_y": -1,
		"ai_skill_function": "",
		"ai_attack": "IF( turn <=7 ,IF(panel_move_distance <= 2, 1, 0),1)",
		"ai_move": "IF(turn <7,0,1)",
		"ai_heal": "",
		"ai_skill": "",
		"ai_use": "",
		"skill_group_id": 12473,
		"gear_GearGear": 13004,
		"gear_rank": 1,
		"proficiency_UnitProficiency": 3,
		"level": 57,
		"hp": 118,
		"strength": 74,
		"vitality": 63,
		"intelligence": 5,
		"mind": 27,
		"agility": 45,
		"dexterity": 88,
		"lucky": 28,
		"parameter_table_BattleEnemyParameterTable": 0,
		"parameter_deviation_table_BattleEnemyParameterDeviationTable": 0,
		"acquire_skill_group_id": 0,
		"level_correction": 0,
		"group_id": 0,
		"ai_script_id_BattleAIScript": 0
	},
	{
		"ID": 71796,
		"stage_BattleStage": 810005022,
		"unit_UnitUnit": 810008,
		"money": 0,
		"initial_coordinate_x": 13,
		"initial_coordinate_y": 11,
		"reinforcement_BattleReinforcement": 0,
		"initial_direction": 180.0,
		"ai_move_group": 0,
		"ai_target_move_x": -1,
		"ai_target_move_y": -1,
		"ai_skill_function": "",
		"ai_attack": "IF( turn <=7 ,IF(panel_move_distance <= 2, 1, 0),1)",
		"ai_move": "IF(turn <7,0,1)",
		"ai_heal": "",
		"ai_skill": "",
		"ai_use": "",
		"skill_group_id": 9063,
		"gear_GearGear": 13004,
		"gear_rank": 1,
		"proficiency_UnitProficiency": 3,
		"level": 57,
		"hp": 119,
		"strength": 75,
		"vitality": 61,
		"intelligence": 3,
		"mind": 26,
		"agility": 46,
		"dexterity": 90,
		"lucky": 28,
		"parameter_table_BattleEnemyParameterTable": 0,
		"parameter_deviation_table_BattleEnemyParameterDeviationTable": 0,
		"acquire_skill_group_id": 0,
		"level_correction": 0,
		"group_id": 0,
		"ai_script_id_BattleAIScript": 0
	},
	{
		"ID": 71797,
		"stage_BattleStage": 810005022,
		"unit_UnitUnit": 910019,
		"money": 0,
		"initial_coordinate_x": 12,
		"initial_coordinate_y": 10,
		"reinforcement_BattleReinforcement": 0,
		"initial_direction": 180.0,
		"ai_move_group": 0,
		"ai_target_move_x": -1,
		"ai_target_move_y": -1,
		"ai_skill_function": "",
		"ai_attack": "IF( turn <=7 ,IF(panel_move_distance <= 2, 1, 0),1)",
		"ai_move": "IF(turn <7,0,1)",
		"ai_heal": "",
		"ai_skill": "",
		"ai_use": "",
		"skill_group_id": 12473,
		"gear_GearGear": 13004,
		"gear_rank": 1,
		"proficiency_UnitProficiency": 3,
		"level": 57,
		"hp": 119,
		"strength": 76,
		"vitality": 62,
		"intelligence": 5,
		"mind": 26,
		"agility": 47,
		"dexterity": 90,
		"lucky": 31,
		"parameter_table_BattleEnemyParameterTable": 0,
		"parameter_deviation_table_BattleEnemyParameterDeviationTable": 0,
		"acquire_skill_group_id": 0,
		"level_correction": 0,
		"group_id": 0,
		"ai_script_id_BattleAIScript": 0
	},
	{
		"ID": 71798,
		"stage_BattleStage": 810005022,
		"unit_UnitUnit": 810008,
		"money": 0,
		"initial_coordinate_x": 11,
		"initial_coordinate_y": 11,
		"reinforcement_BattleReinforcement": 0,
		"initial_direction": 180.0,
		"ai_move_group": 0,
		"ai_target_move_x": -1,
		"ai_target_move_y": -1,
		"ai_skill_function": "",
		"ai_attack": "IF( turn <=7 ,IF(panel_move_distance <= 2, 1, 0),1)",
		"ai_move": "IF(turn <7,0,1)",
		"ai_heal": "",
		"ai_skill": "",
		"ai_use": "",
		"skill_group_id": 9063,
		"gear_GearGear": 13004,
		"gear_rank": 1,
		"proficiency_UnitProficiency": 3,
		"level": 57,
		"hp": 119,
		"strength": 76,
		"vitality": 63,
		"intelligence": 3,
		"mind": 27,
		"agility": 46,
		"dexterity": 90,
		"lucky": 31,
		"parameter_table_BattleEnemyParameterTable": 0,
		"parameter_deviation_table_BattleEnemyParameterDeviationTable": 0,
		"acquire_skill_group_id": 0,
		"level_correction": 0,
		"group_id": 0,
		"ai_script_id_BattleAIScript": 0
	},
	{
		"ID": 71799,
		"stage_BattleStage": 810005022,
		"unit_UnitUnit": 840004,
		"money": 0,
		"initial_coordinate_x": 6,
		"initial_coordinate_y": 11,
		"reinforcement_BattleReinforcement": 0,
		"initial_direction": 180.0,
		"ai_move_group": 0,
		"ai_target_move_x": -1,
		"ai_target_move_y": -1,
		"ai_skill_function": "",
		"ai_attack": "IF( turn <=2 ,IF(panel_move_distance <= 2, 1, 0),1)",
		"ai_move": "IF(turn <2,0,1)",
		"ai_heal": "",
		"ai_skill": "",
		"ai_use": "",
		"skill_group_id": 903,
		"gear_GearGear": 42002,
		"gear_rank": 1,
		"proficiency_UnitProficiency": 2,
		"level": 57,
		"hp": 82,
		"strength": 68,
		"vitality": 39,
		"intelligence": 6,
		"mind": 28,
		"agility": 56,
		"dexterity": 84,
		"lucky": 45,
		"parameter_table_BattleEnemyParameterTable": 0,
		"parameter_deviation_table_BattleEnemyParameterDeviationTable": 0,
		"acquire_skill_group_id": 0,
		"level_correction": 0,
		"group_id": 0,
		"ai_script_id_BattleAIScript": 0
	},
	{
		"ID": 71800,
		"stage_BattleStage": 810005022,
		"unit_UnitUnit": 840004,
		"money": 0,
		"initial_coordinate_x": 4,
		"initial_coordinate_y": 11,
		"reinforcement_BattleReinforcement": 0,
		"initial_direction": 180.0,
		"ai_move_group": 0,
		"ai_target_move_x": -1,
		"ai_target_move_y": -1,
		"ai_skill_function": "",
		"ai_attack": "IF( turn <=2 ,IF(panel_move_distance <= 2, 1, 0),1)",
		"ai_move": "IF(turn <2,0,1)",
		"ai_heal": "",
		"ai_skill": "",
		"ai_use": "",
		"skill_group_id": 903,
		"gear_GearGear": 42002,
		"gear_rank": 1,
		"proficiency_UnitProficiency": 2,
		"level": 57,
		"hp": 83,
		"strength": 69,
		"vitality": 39,
		"intelligence": 6,
		"mind": 27,
		"agility": 56,
		"dexterity": 86,
		"lucky": 46,
		"parameter_table_BattleEnemyParameterTable": 0,
		"parameter_deviation_table_BattleEnemyParameterDeviationTable": 0,
		"acquire_skill_group_id": 0,
		"level_correction": 0,
		"group_id": 0,
		"ai_script_id_BattleAIScript": 0
	},
	{
		"ID": 71801,
		"stage_BattleStage": 810005022,
		"unit_UnitUnit": 840004,
		"money": 0,
		"initial_coordinate_x": 4,
		"initial_coordinate_y": 9,
		"reinforcement_BattleReinforcement": 0,
		"initial_direction": 180.0,
		"ai_move_group": 0,
		"ai_target_move_x": -1,
		"ai_target_move_y": -1,
		"ai_skill_function": "",
		"ai_attack": "IF( turn <=2 ,IF(panel_move_distance <= 2, 1, 0),1)",
		"ai_move": "IF(turn <2,0,1)",
		"ai_heal": "",
		"ai_skill": "",
		"ai_use": "",
		"skill_group_id": 903,
		"gear_GearGear": 42002,
		"gear_rank": 1,
		"proficiency_UnitProficiency": 2,
		"level": 57,
		"hp": 82,
		"strength": 67,
		"vitality": 39,
		"intelligence": 6,
		"mind": 28,
		"agility": 57,
		"dexterity": 84,
		"lucky": 46,
		"parameter_table_BattleEnemyParameterTable": 0,
		"parameter_deviation_table_BattleEnemyParameterDeviationTable": 0,
		"acquire_skill_group_id": 0,
		"level_correction": 0,
		"group_id": 0,
		"ai_script_id_BattleAIScript": 0
	},
	{
		"ID": 71802,
		"stage_BattleStage": 810005022,
		"unit_UnitUnit": 840004,
		"money": 0,
		"initial_coordinate_x": 6,
		"initial_coordinate_y": 9,
		"reinforcement_BattleReinforcement": 0,
		"initial_direction": 180.0,
		"ai_move_group": 0,
		"ai_target_move_x": -1,
		"ai_target_move_y": -1,
		"ai_skill_function": "",
		"ai_attack": "IF( turn <=2 ,IF(panel_move_distance <= 2, 1, 0),1)",
		"ai_move": "IF(turn <2,0,1)",
		"ai_heal": "",
		"ai_skill": "",
		"ai_use": "",
		"skill_group_id": 903,
		"gear_GearGear": 42002,
		"gear_rank": 1,
		"proficiency_UnitProficiency": 2,
		"level": 57,
		"hp": 82,
		"strength": 67,
		"vitality": 40,
		"intelligence": 5,
		"mind": 27,
		"agility": 57,
		"dexterity": 84,
		"lucky": 45,
		"parameter_table_BattleEnemyParameterTable": 0,
		"parameter_deviation_table_BattleEnemyParameterDeviationTable": 0,
		"acquire_skill_group_id": 0,
		"level_correction": 0,
		"group_id": 0,
		"ai_script_id_BattleAIScript": 0
	},
	{
		"ID": 71803,
		"stage_BattleStage": 810005022,
		"unit_UnitUnit": 930013,
		"money": 0,
		"initial_coordinate_x": 8,
		"initial_coordinate_y": 8,
		"reinforcement_BattleReinforcement": 0,
		"initial_direction": 180.0,
		"ai_move_group": 0,
		"ai_target_move_x": -1,
		"ai_target_move_y": -1,
		"ai_skill_function": "",
		"ai_attack": "IF( turn <=7 ,IF(panel_move_distance <= 2, 1, 0),1)",
		"ai_move": "IF(turn <7,0,1)",
		"ai_heal": "",
		"ai_skill": "",
		"ai_use": "",
		"skill_group_id": 13803,
		"gear_GearGear": 32003,
		"gear_rank": 1,
		"proficiency_UnitProficiency": 2,
		"level": 57,
		"hp": 85,
		"strength": 128,
		"vitality": 208,
		"intelligence": 6,
		"mind": 198,
		"agility": 89,
		"dexterity": 67,
		"lucky": 41,
		"parameter_table_BattleEnemyParameterTable": 0,
		"parameter_deviation_table_BattleEnemyParameterDeviationTable": 0,
		"acquire_skill_group_id": 0,
		"level_correction": 0,
		"group_id": 0,
		"ai_script_id_BattleAIScript": 0
	},
	{
		"ID": 71804,
		"stage_BattleStage": 810005022,
		"unit_UnitUnit": 930013,
		"money": 0,
		"initial_coordinate_x": 10,
		"initial_coordinate_y": 8,
		"reinforcement_BattleReinforcement": 0,
		"initial_direction": 180.0,
		"ai_move_group": 0,
		"ai_target_move_x": -1,
		"ai_target_move_y": -1,
		"ai_skill_function": "",
		"ai_attack": "IF( turn <=7 ,IF(panel_move_distance <= 2, 1, 0),1)",
		"ai_move": "IF(turn <7,0,1)",
		"ai_heal": "",
		"ai_skill": "",
		"ai_use": "",
		"skill_group_id": 13803,
		"gear_GearGear": 32003,
		"gear_rank": 1,
		"proficiency_UnitProficiency": 2,
		"level": 57,
		"hp": 86,
		"strength": 131,
		"vitality": 209,
		"intelligence": 5,
		"mind": 192,
		"agility": 90,
		"dexterity": 69,
		"lucky": 41,
		"parameter_table_BattleEnemyParameterTable": 0,
		"parameter_deviation_table_BattleEnemyParameterDeviationTable": 0,
		"acquire_skill_group_id": 0,
		"level_correction": 0,
		"group_id": 0,
		"ai_script_id_BattleAIScript": 0
	},
	{
		"ID": 71805,
		"stage_BattleStage": 810005022,
		"unit_UnitUnit": 910013,
		"money": 0,
		"initial_coordinate_x": 12,
		"initial_coordinate_y": 5,
		"reinforcement_BattleReinforcement": 0,
		"initial_direction": 180.0,
		"ai_move_group": 0,
		"ai_target_move_x": -1,
		"ai_target_move_y": -1,
		"ai_skill_function": "",
		"ai_attack": "IF( turn <=7 ,IF(panel_move_distance <= 2, 1, 0),1)",
		"ai_move": "IF(turn <7,0,1)",
		"ai_heal": "",
		"ai_skill": "",
		"ai_use": "",
		"skill_group_id": 13813,
		"gear_GearGear": 13004,
		"gear_rank": 1,
		"proficiency_UnitProficiency": 3,
		"level": 57,
		"hp": 73,
		"strength": 121,
		"vitality": 192,
		"intelligence": 6,
		"mind": 188,
		"agility": 106,
		"dexterity": 84,
		"lucky": 45,
		"parameter_table_BattleEnemyParameterTable": 0,
		"parameter_deviation_table_BattleEnemyParameterDeviationTable": 0,
		"acquire_skill_group_id": 0,
		"level_correction": 0,
		"group_id": 0,
		"ai_script_id_BattleAIScript": 0
	},
	{
		"ID": 71806,
		"stage_BattleStage": 810005022,
		"unit_UnitUnit": 920013,
		"money": 0,
		"initial_coordinate_x": 11,
		"initial_coordinate_y": 4,
		"reinforcement_BattleReinforcement": 0,
		"initial_direction": 180.0,
		"ai_move_group": 0,
		"ai_target_move_x": -1,
		"ai_target_move_y": -1,
		"ai_skill_function": "",
		"ai_attack": "IF( turn <=7 ,IF(panel_move_distance <= 2, 1, 0),1)",
		"ai_move": "IF(turn <7,0,1)",
		"ai_heal": "",
		"ai_skill": "",
		"ai_use": "",
		"skill_group_id": 13793,
		"gear_GearGear": 22003,
		"gear_rank": 1,
		"proficiency_UnitProficiency": 2,
		"level": 57,
		"hp": 79,
		"strength": 143,
		"vitality": 200,
		"intelligence": 7,
		"mind": 188,
		"agility": 88,
		"dexterity": 81,
		"lucky": 45,
		"parameter_table_BattleEnemyParameterTable": 0,
		"parameter_deviation_table_BattleEnemyParameterDeviationTable": 0,
		"acquire_skill_group_id": 0,
		"level_correction": 0,
		"group_id": 0,
		"ai_script_id_BattleAIScript": 0
	},
	{
		"ID": 71807,
		"stage_BattleStage": 810005022,
		"unit_UnitUnit": 930013,
		"money": 0,
		"initial_coordinate_x": 8,
		"initial_coordinate_y": 5,
		"reinforcement_BattleReinforcement": 0,
		"initial_direction": 180.0,
		"ai_move_group": 0,
		"ai_target_move_x": -1,
		"ai_target_move_y": -1,
		"ai_skill_function": "",
		"ai_attack": "IF( turn <=7 ,IF(panel_move_distance <= 2, 1, 0),1)",
		"ai_move": "IF(turn <7,0,1)",
		"ai_heal": "",
		"ai_skill": "",
		"ai_use": "",
		"skill_group_id": 13803,
		"gear_GearGear": 32003,
		"gear_rank": 1,
		"proficiency_UnitProficiency": 2,
		"level": 57,
		"hp": 86,
		"strength": 130,
		"vitality": 211,
		"intelligence": 7,
		"mind": 195,
		"agility": 95,
		"dexterity": 81,
		"lucky": 45,
		"parameter_table_BattleEnemyParameterTable": 0,
		"parameter_deviation_table_BattleEnemyParameterDeviationTable": 0,
		"acquire_skill_group_id": 0,
		"level_correction": 0,
		"group_id": 0,
		"ai_script_id_BattleAIScript": 0
	},
	{
		"ID": 71808,
		"stage_BattleStage": 810005022,
		"unit_UnitUnit": 920013,
		"money": 0,
		"initial_coordinate_x": 3,
		"initial_coordinate_y": 6,
		"reinforcement_BattleReinforcement": 0,
		"initial_direction": 180.0,
		"ai_move_group": 0,
		"ai_target_move_x": -1,
		"ai_target_move_y": -1,
		"ai_skill_function": "",
		"ai_attack": "IF( turn <=7 ,IF(panel_move_distance <= 2, 1, 0),1)",
		"ai_move": "IF(turn <7,0,1)",
		"ai_heal": "",
		"ai_skill": "",
		"ai_use": "",
		"skill_group_id": 13793,
		"gear_GearGear": 22003,
		"gear_rank": 1,
		"proficiency_UnitProficiency": 2,
		"level": 57,
		"hp": 81,
		"strength": 139,
		"vitality": 202,
		"intelligence": 5,
		"mind": 187,
		"agility": 90,
		"dexterity": 81,
		"lucky": 41,
		"parameter_table_BattleEnemyParameterTable": 0,
		"parameter_deviation_table_BattleEnemyParameterDeviationTable": 0,
		"acquire_skill_group_id": 0,
		"level_correction": 0,
		"group_id": 0,
		"ai_script_id_BattleAIScript": 0
	},
	{
		"ID": 71809,
		"stage_BattleStage": 810005022,
		"unit_UnitUnit": 910013,
		"money": 0,
		"initial_coordinate_x": 5,
		"initial_coordinate_y": 4,
		"reinforcement_BattleReinforcement": 0,
		"initial_direction": 180.0,
		"ai_move_group": 0,
		"ai_target_move_x": -1,
		"ai_target_move_y": -1,
		"ai_skill_function": "",
		"ai_attack": "IF( turn <=7 ,IF(panel_move_distance <= 2, 1, 0),1)",
		"ai_move": "IF(turn <7,0,1)",
		"ai_heal": "",
		"ai_skill": "",
		"ai_use": "",
		"skill_group_id": 13813,
		"gear_GearGear": 13004,
		"gear_rank": 1,
		"proficiency_UnitProficiency": 3,
		"level": 57,
		"hp": 74,
		"strength": 121,
		"vitality": 190,
		"intelligence": 6,
		"mind": 186,
		"agility": 105,
		"dexterity": 84,
		"lucky": 41,
		"parameter_table_BattleEnemyParameterTable": 0,
		"parameter_deviation_table_BattleEnemyParameterDeviationTable": 0,
		"acquire_skill_group_id": 0,
		"level_correction": 0,
		"group_id": 0,
		"ai_script_id_BattleAIScript": 0
	}
]