[
	{
		"ID": 51709,
		"stage_BattleStage": 810002055,
		"unit_UnitUnit": 2301813,
		"money": 0,
		"initial_coordinate_x": 3,
		"initial_coordinate_y": 16,
		"reinforcement_BattleReinforcement": 0,
		"initial_direction": 180.0,
		"ai_move_group": 0,
		"ai_target_move_x": -1,
		"ai_target_move_y": -1,
		"ai_skill_function": "",
		"ai_attack": "IF( turn <=5 ,IF(panel_move_distance <= 4, 1, 0),1)",
		"ai_move": "IF(turn <=5,0,1)",
		"ai_heal": "",
		"ai_skill": "",
		"ai_use": "",
		"skill_group_id": 14587,
		"gear_GearGear": 36013,
		"gear_rank": 10,
		"proficiency_UnitProficiency": 6,
		"level": 90,
		"hp": 360,
		"strength": 115,
		"vitality": 114,
		"intelligence": 12,
		"mind": 64,
		"agility": 113,
		"dexterity": 115,
		"lucky": 60,
		"parameter_table_BattleEnemyParameterTable": 0,
		"parameter_deviation_table_BattleEnemyParameterDeviationTable": 0,
		"acquire_skill_group_id": 0,
		"level_correction": 0,
		"group_id": 0,
		"ai_script_id_BattleAIScript": 0
	},
	{
		"ID": 51710,
		"stage_BattleStage": 810002055,
		"unit_UnitUnit": 2841004,
		"money": 0,
		"initial_coordinate_x": 1,
		"initial_coordinate_y": 17,
		"reinforcement_BattleReinforcement": 0,
		"initial_direction": 180.0,
		"ai_move_group": 0,
		"ai_target_move_x": -1,
		"ai_target_move_y": -1,
		"ai_skill_function": "",
		"ai_attack": "IF( turn <=5 ,IF(panel_move_distance <= 4, 1, 0),1)",
		"ai_move": "IF(turn <=5,0,1)",
		"ai_heal": "",
		"ai_skill": "",
		"ai_use": "",
		"skill_group_id": 14533,
		"gear_GearGear": 45001,
		"gear_rank": 5,
		"proficiency_UnitProficiency": 5,
		"level": 90,
		"hp": 113,
		"strength": 103,
		"vitality": 85,
		"intelligence": 13,
		"mind": 80,
		"agility": 110,
		"dexterity": 115,
		"lucky": 61,
		"parameter_table_BattleEnemyParameterTable": 0,
		"parameter_deviation_table_BattleEnemyParameterDeviationTable": 0,
		"acquire_skill_group_id": 0,
		"level_correction": 0,
		"group_id": 0,
		"ai_script_id_BattleAIScript": 0
	},
	{
		"ID": 51711,
		"stage_BattleStage": 810002055,
		"unit_UnitUnit": 2841004,
		"money": 0,
		"initial_coordinate_x": 1,
		"initial_coordinate_y": 15,
		"reinforcement_BattleReinforcement": 0,
		"initial_direction": 180.0,
		"ai_move_group": 0,
		"ai_target_move_x": -1,
		"ai_target_move_y": -1,
		"ai_skill_function": "",
		"ai_attack": "IF( turn <=5 ,IF(panel_move_distance <= 4, 1, 0),1)",
		"ai_move": "IF(turn <=5,0,1)",
		"ai_heal": "",
		"ai_skill": "",
		"ai_use": "",
		"skill_group_id": 14533,
		"gear_GearGear": 45001,
		"gear_rank": 5,
		"proficiency_UnitProficiency": 5,
		"level": 90,
		"hp": 114,
		"strength": 102,
		"vitality": 86,
		"intelligence": 14,
		"mind": 79,
		"agility": 111,
		"dexterity": 114,
		"lucky": 59,
		"parameter_table_BattleEnemyParameterTable": 0,
		"parameter_deviation_table_BattleEnemyParameterDeviationTable": 0,
		"acquire_skill_group_id": 0,
		"level_correction": 0,
		"group_id": 0,
		"ai_script_id_BattleAIScript": 0
	},
	{
		"ID": 51712,
		"stage_BattleStage": 810002055,
		"unit_UnitUnit": 2821004,
		"money": 0,
		"initial_coordinate_x": 5,
		"initial_coordinate_y": 17,
		"reinforcement_BattleReinforcement": 0,
		"initial_direction": 180.0,
		"ai_move_group": 0,
		"ai_target_move_x": -1,
		"ai_target_move_y": -1,
		"ai_skill_function": "",
		"ai_attack": "IF( turn <=5 ,IF(panel_move_distance <= 4, 1, 0),1)",
		"ai_move": "IF(turn <=5,0,1)",
		"ai_heal": "",
		"ai_skill": "",
		"ai_use": "",
		"skill_group_id": 14183,
		"gear_GearGear": 25002,
		"gear_rank": 5,
		"proficiency_UnitProficiency": 5,
		"level": 90,
		"hp": 142,
		"strength": 125,
		"vitality": 107,
		"intelligence": 13,
		"mind": 69,
		"agility": 96,
		"dexterity": 103,
		"lucky": 57,
		"parameter_table_BattleEnemyParameterTable": 0,
		"parameter_deviation_table_BattleEnemyParameterDeviationTable": 0,
		"acquire_skill_group_id": 0,
		"level_correction": 0,
		"group_id": 0,
		"ai_script_id_BattleAIScript": 0
	},
	{
		"ID": 51713,
		"stage_BattleStage": 810002055,
		"unit_UnitUnit": 2821004,
		"money": 0,
		"initial_coordinate_x": 5,
		"initial_coordinate_y": 15,
		"reinforcement_BattleReinforcement": 0,
		"initial_direction": 180.0,
		"ai_move_group": 0,
		"ai_target_move_x": -1,
		"ai_target_move_y": -1,
		"ai_skill_function": "",
		"ai_attack": "IF( turn <=5 ,IF(panel_move_distance <= 4, 1, 0),1)",
		"ai_move": "IF(turn <=5,0,1)",
		"ai_heal": "",
		"ai_skill": "",
		"ai_use": "",
		"skill_group_id": 14183,
		"gear_GearGear": 25002,
		"gear_rank": 5,
		"proficiency_UnitProficiency": 5,
		"level": 90,
		"hp": 142,
		"strength": 128,
		"vitality": 106,
		"intelligence": 10,
		"mind": 67,
		"agility": 96,
		"dexterity": 104,
		"lucky": 58,
		"parameter_table_BattleEnemyParameterTable": 0,
		"parameter_deviation_table_BattleEnemyParameterDeviationTable": 0,
		"acquire_skill_group_id": 0,
		"level_correction": 0,
		"group_id": 0,
		"ai_script_id_BattleAIScript": 0
	},
	{
		"ID": 51714,
		"stage_BattleStage": 810002055,
		"unit_UnitUnit": 831003,
		"money": 0,
		"initial_coordinate_x": 7,
		"initial_coordinate_y": 12,
		"reinforcement_BattleReinforcement": 0,
		"initial_direction": 180.0,
		"ai_move_group": 0,
		"ai_target_move_x": -1,
		"ai_target_move_y": -1,
		"ai_skill_function": "",
		"ai_attack": "IF( turn <=5 ,IF(panel_move_distance <= 1, 1, 0),1)",
		"ai_move": "IF(turn <=5,0,1)",
		"ai_heal": "",
		"ai_skill": "",
		"ai_use": "",
		"skill_group_id": 14213,
		"gear_GearGear": 35001,
		"gear_rank": 5,
		"proficiency_UnitProficiency": 5,
		"level": 90,
		"hp": 180,
		"strength": 107,
		"vitality": 137,
		"intelligence": 10,
		"mind": 76,
		"agility": 99,
		"dexterity": 105,
		"lucky": 60,
		"parameter_table_BattleEnemyParameterTable": 0,
		"parameter_deviation_table_BattleEnemyParameterDeviationTable": 0,
		"acquire_skill_group_id": 0,
		"level_correction": 0,
		"group_id": 0,
		"ai_script_id_BattleAIScript": 0
	},
	{
		"ID": 51715,
		"stage_BattleStage": 810002055,
		"unit_UnitUnit": 831003,
		"money": 0,
		"initial_coordinate_x": 8,
		"initial_coordinate_y": 13,
		"reinforcement_BattleReinforcement": 0,
		"initial_direction": 180.0,
		"ai_move_group": 0,
		"ai_target_move_x": -1,
		"ai_target_move_y": -1,
		"ai_skill_function": "",
		"ai_attack": "IF( turn <=5 ,IF(panel_move_distance <= 1, 1, 0),1)",
		"ai_move": "IF(turn <=5,0,1)",
		"ai_heal": "",
		"ai_skill": "",
		"ai_use": "",
		"skill_group_id": 14213,
		"gear_GearGear": 35001,
		"gear_rank": 5,
		"proficiency_UnitProficiency": 5,
		"level": 90,
		"hp": 182,
		"strength": 107,
		"vitality": 136,
		"intelligence": 13,
		"mind": 77,
		"agility": 102,
		"dexterity": 104,
		"lucky": 59,
		"parameter_table_BattleEnemyParameterTable": 0,
		"parameter_deviation_table_BattleEnemyParameterDeviationTable": 0,
		"acquire_skill_group_id": 0,
		"level_correction": 0,
		"group_id": 0,
		"ai_script_id_BattleAIScript": 0
	},
	{
		"ID": 51716,
		"stage_BattleStage": 810002055,
		"unit_UnitUnit": 831003,
		"money": 0,
		"initial_coordinate_x": 9,
		"initial_coordinate_y": 14,
		"reinforcement_BattleReinforcement": 0,
		"initial_direction": 180.0,
		"ai_move_group": 0,
		"ai_target_move_x": -1,
		"ai_target_move_y": -1,
		"ai_skill_function": "",
		"ai_attack": "IF( turn <=5 ,IF(panel_move_distance <= 1, 1, 0),1)",
		"ai_move": "IF(turn <=5,0,1)",
		"ai_heal": "",
		"ai_skill": "",
		"ai_use": "",
		"skill_group_id": 14213,
		"gear_GearGear": 35001,
		"gear_rank": 5,
		"proficiency_UnitProficiency": 5,
		"level": 90,
		"hp": 180,
		"strength": 110,
		"vitality": 136,
		"intelligence": 9,
		"mind": 76,
		"agility": 98,
		"dexterity": 103,
		"lucky": 61,
		"parameter_table_BattleEnemyParameterTable": 0,
		"parameter_deviation_table_BattleEnemyParameterDeviationTable": 0,
		"acquire_skill_group_id": 0,
		"level_correction": 0,
		"group_id": 0,
		"ai_script_id_BattleAIScript": 0
	},
	{
		"ID": 51717,
		"stage_BattleStage": 810002055,
		"unit_UnitUnit": 860010,
		"money": 0,
		"initial_coordinate_x": 7,
		"initial_coordinate_y": 15,
		"reinforcement_BattleReinforcement": 0,
		"initial_direction": 180.0,
		"ai_move_group": 0,
		"ai_target_move_x": -1,
		"ai_target_move_y": -1,
		"ai_skill_function": "",
		"ai_attack": "IF( turn <=5 ,IF(panel_move_distance <= 1, 1, 0),1)",
		"ai_move": "IF(turn <=5,0,1)",
		"ai_heal": "",
		"ai_skill": "",
		"ai_use": "",
		"skill_group_id": 14613,
		"gear_GearGear": 65006,
		"gear_rank": 5,
		"proficiency_UnitProficiency": 5,
		"level": 90,
		"hp": 108,
		"strength": 11,
		"vitality": 91,
		"intelligence": 98,
		"mind": 113,
		"agility": 102,
		"dexterity": 104,
		"lucky": 59,
		"parameter_table_BattleEnemyParameterTable": 0,
		"parameter_deviation_table_BattleEnemyParameterDeviationTable": 0,
		"acquire_skill_group_id": 0,
		"level_correction": 0,
		"group_id": 0,
		"ai_script_id_BattleAIScript": 0
	},
	{
		"ID": 51718,
		"stage_BattleStage": 810002055,
		"unit_UnitUnit": 2400513,
		"money": 0,
		"initial_coordinate_x": 12,
		"initial_coordinate_y": 16,
		"reinforcement_BattleReinforcement": 0,
		"initial_direction": 270.0,
		"ai_move_group": 0,
		"ai_target_move_x": -1,
		"ai_target_move_y": -1,
		"ai_skill_function": "",
		"ai_attack": "IF(panel_move_distance <= 1, 1, 0)",
		"ai_move": "0.0",
		"ai_heal": "",
		"ai_skill": "",
		"ai_use": "",
		"skill_group_id": 14155,
		"gear_GearGear": 46014,
		"gear_rank": 10,
		"proficiency_UnitProficiency": 6,
		"level": 90,
		"hp": 323,
		"strength": 104,
		"vitality": 83,
		"intelligence": 30,
		"mind": 74,
		"agility": 118,
		"dexterity": 122,
		"lucky": 62,
		"parameter_table_BattleEnemyParameterTable": 0,
		"parameter_deviation_table_BattleEnemyParameterDeviationTable": 0,
		"acquire_skill_group_id": 0,
		"level_correction": 0,
		"group_id": 0,
		"ai_script_id_BattleAIScript": 0
	},
	{
		"ID": 51719,
		"stage_BattleStage": 810002055,
		"unit_UnitUnit": 860010,
		"money": 0,
		"initial_coordinate_x": 13,
		"initial_coordinate_y": 14,
		"reinforcement_BattleReinforcement": 0,
		"initial_direction": 270.0,
		"ai_move_group": 0,
		"ai_target_move_x": -1,
		"ai_target_move_y": -1,
		"ai_skill_function": "",
		"ai_attack": "IF( turn <=5 ,IF(panel_move_distance <= 2, 1, 0),1)",
		"ai_move": "IF(turn <=5,0,1)",
		"ai_heal": "",
		"ai_skill": "",
		"ai_use": "",
		"skill_group_id": 14553,
		"gear_GearGear": 65006,
		"gear_rank": 5,
		"proficiency_UnitProficiency": 5,
		"level": 90,
		"hp": 109,
		"strength": 10,
		"vitality": 94,
		"intelligence": 100,
		"mind": 111,
		"agility": 103,
		"dexterity": 102,
		"lucky": 59,
		"parameter_table_BattleEnemyParameterTable": 0,
		"parameter_deviation_table_BattleEnemyParameterDeviationTable": 0,
		"acquire_skill_group_id": 0,
		"level_correction": 0,
		"group_id": 0,
		"ai_script_id_BattleAIScript": 0
	},
	{
		"ID": 51720,
		"stage_BattleStage": 810002055,
		"unit_UnitUnit": 2821004,
		"money": 0,
		"initial_coordinate_x": 13,
		"initial_coordinate_y": 12,
		"reinforcement_BattleReinforcement": 0,
		"initial_direction": 270.0,
		"ai_move_group": 0,
		"ai_target_move_x": -1,
		"ai_target_move_y": -1,
		"ai_skill_function": "",
		"ai_attack": "IF( turn <=2 ,IF(panel_move_distance <= 2, 1, 0),1)",
		"ai_move": "IF(turn <=2,0,1)",
		"ai_heal": "",
		"ai_skill": "",
		"ai_use": "",
		"skill_group_id": 14483,
		"gear_GearGear": 25004,
		"gear_rank": 5,
		"proficiency_UnitProficiency": 5,
		"level": 90,
		"hp": 143,
		"strength": 127,
		"vitality": 105,
		"intelligence": 9,
		"mind": 69,
		"agility": 99,
		"dexterity": 103,
		"lucky": 58,
		"parameter_table_BattleEnemyParameterTable": 0,
		"parameter_deviation_table_BattleEnemyParameterDeviationTable": 0,
		"acquire_skill_group_id": 0,
		"level_correction": 0,
		"group_id": 0,
		"ai_script_id_BattleAIScript": 0
	},
	{
		"ID": 51721,
		"stage_BattleStage": 810002055,
		"unit_UnitUnit": 2500113,
		"money": 0,
		"initial_coordinate_x": 12,
		"initial_coordinate_y": 7,
		"reinforcement_BattleReinforcement": 0,
		"initial_direction": 270.0,
		"ai_move_group": 0,
		"ai_target_move_x": -1,
		"ai_target_move_y": -1,
		"ai_skill_function": "",
		"ai_attack": "IF( turn <=2 ,IF(panel_move_distance <= 1, 1, 0),1)",
		"ai_move": "IF(turn <=2,0,1)",
		"ai_heal": "",
		"ai_skill": "",
		"ai_use": "",
		"skill_group_id": 14585,
		"gear_GearGear": 56001,
		"gear_rank": 5,
		"proficiency_UnitProficiency": 6,
		"level": 90,
		"hp": 310,
		"strength": 13,
		"vitality": 68,
		"intelligence": 114,
		"mind": 101,
		"agility": 111,
		"dexterity": 112,
		"lucky": 56,
		"parameter_table_BattleEnemyParameterTable": 0,
		"parameter_deviation_table_BattleEnemyParameterDeviationTable": 0,
		"acquire_skill_group_id": 0,
		"level_correction": 0,
		"group_id": 0,
		"ai_script_id_BattleAIScript": 0
	},
	{
		"ID": 51722,
		"stage_BattleStage": 810002055,
		"unit_UnitUnit": 860006,
		"money": 0,
		"initial_coordinate_x": 12,
		"initial_coordinate_y": 8,
		"reinforcement_BattleReinforcement": 0,
		"initial_direction": 270.0,
		"ai_move_group": 0,
		"ai_target_move_x": -1,
		"ai_target_move_y": -1,
		"ai_skill_function": "",
		"ai_attack": "IF( turn <=2 ,IF(panel_move_distance <= 4, 1, 0),1)",
		"ai_move": "IF(turn <=2,0,1)",
		"ai_heal": "",
		"ai_skill": "",
		"ai_use": "",
		"skill_group_id": 13693,
		"gear_GearGear": 65002,
		"gear_rank": 5,
		"proficiency_UnitProficiency": 5,
		"level": 90,
		"hp": 107,
		"strength": 13,
		"vitality": 82,
		"intelligence": 107,
		"mind": 125,
		"agility": 102,
		"dexterity": 104,
		"lucky": 61,
		"parameter_table_BattleEnemyParameterTable": 0,
		"parameter_deviation_table_BattleEnemyParameterDeviationTable": 0,
		"acquire_skill_group_id": 0,
		"level_correction": 0,
		"group_id": 0,
		"ai_script_id_BattleAIScript": 0
	},
	{
		"ID": 51723,
		"stage_BattleStage": 810002055,
		"unit_UnitUnit": 860006,
		"money": 0,
		"initial_coordinate_x": 13,
		"initial_coordinate_y": 7,
		"reinforcement_BattleReinforcement": 0,
		"initial_direction": 270.0,
		"ai_move_group": 0,
		"ai_target_move_x": -1,
		"ai_target_move_y": -1,
		"ai_skill_function": "",
		"ai_attack": "IF( turn <=2 ,IF(panel_move_distance <= 4, 1, 0),1)",
		"ai_move": "IF(turn <=2,0,1)",
		"ai_heal": "",
		"ai_skill": "",
		"ai_use": "",
		"skill_group_id": 13383,
		"gear_GearGear": 65003,
		"gear_rank": 5,
		"proficiency_UnitProficiency": 5,
		"level": 90,
		"hp": 104,
		"strength": 10,
		"vitality": 79,
		"intelligence": 109,
		"mind": 122,
		"agility": 101,
		"dexterity": 104,
		"lucky": 59,
		"parameter_table_BattleEnemyParameterTable": 0,
		"parameter_deviation_table_BattleEnemyParameterDeviationTable": 0,
		"acquire_skill_group_id": 0,
		"level_correction": 0,
		"group_id": 0,
		"ai_script_id_BattleAIScript": 0
	},
	{
		"ID": 51724,
		"stage_BattleStage": 810002055,
		"unit_UnitUnit": 831002,
		"money": 0,
		"initial_coordinate_x": 14,
		"initial_coordinate_y": 4,
		"reinforcement_BattleReinforcement": 0,
		"initial_direction": 270.0,
		"ai_move_group": 0,
		"ai_target_move_x": -1,
		"ai_target_move_y": -1,
		"ai_skill_function": "",
		"ai_attack": "IF( turn <=1 ,IF(panel_move_distance <= 6, 1, 0),1)",
		"ai_move": "IF(turn <=1,0,10)",
		"ai_heal": "",
		"ai_skill": "",
		"ai_use": "",
		"skill_group_id": 13613,
		"gear_GearGear": 35004,
		"gear_rank": 5,
		"proficiency_UnitProficiency": 5,
		"level": 90,
		"hp": 163,
		"strength": 106,
		"vitality": 118,
		"intelligence": 10,
		"mind": 94,
		"agility": 110,
		"dexterity": 103,
		"lucky": 57,
		"parameter_table_BattleEnemyParameterTable": 0,
		"parameter_deviation_table_BattleEnemyParameterDeviationTable": 0,
		"acquire_skill_group_id": 0,
		"level_correction": 0,
		"group_id": 0,
		"ai_script_id_BattleAIScript": 0
	},
	{
		"ID": 51725,
		"stage_BattleStage": 810002055,
		"unit_UnitUnit": 831002,
		"money": 0,
		"initial_coordinate_x": 15,
		"initial_coordinate_y": 3,
		"reinforcement_BattleReinforcement": 0,
		"initial_direction": 270.0,
		"ai_move_group": 0,
		"ai_target_move_x": -1,
		"ai_target_move_y": -1,
		"ai_skill_function": "",
		"ai_attack": "IF( turn <=1 ,IF(panel_move_distance <= 6, 1, 0),1)",
		"ai_move": "IF(turn <=1,0,10)",
		"ai_heal": "",
		"ai_skill": "",
		"ai_use": "",
		"skill_group_id": 13613,
		"gear_GearGear": 35004,
		"gear_rank": 5,
		"proficiency_UnitProficiency": 5,
		"level": 90,
		"hp": 161,
		"strength": 110,
		"vitality": 116,
		"intelligence": 12,
		"mind": 95,
		"agility": 110,
		"dexterity": 102,
		"lucky": 57,
		"parameter_table_BattleEnemyParameterTable": 0,
		"parameter_deviation_table_BattleEnemyParameterDeviationTable": 0,
		"acquire_skill_group_id": 0,
		"level_correction": 0,
		"group_id": 0,
		"ai_script_id_BattleAIScript": 0
	},
	{
		"ID": 51726,
		"stage_BattleStage": 810002055,
		"unit_UnitUnit": 2300113,
		"money": 0,
		"initial_coordinate_x": 13,
		"initial_coordinate_y": 2,
		"reinforcement_BattleReinforcement": 0,
		"initial_direction": 270.0,
		"ai_move_group": 0,
		"ai_target_move_x": -1,
		"ai_target_move_y": -1,
		"ai_skill_function": "",
		"ai_attack": "IF( turn <=1 ,IF(panel_move_distance <= 4, 1, 0),1)",
		"ai_move": "IF(turn <=1,0,10)",
		"ai_heal": "",
		"ai_skill": "",
		"ai_use": "",
		"skill_group_id": 14586,
		"gear_GearGear": 35004,
		"gear_rank": 5,
		"proficiency_UnitProficiency": 5,
		"level": 90,
		"hp": 309,
		"strength": 110,
		"vitality": 121,
		"intelligence": 12,
		"mind": 64,
		"agility": 113,
		"dexterity": 116,
		"lucky": 58,
		"parameter_table_BattleEnemyParameterTable": 0,
		"parameter_deviation_table_BattleEnemyParameterDeviationTable": 0,
		"acquire_skill_group_id": 0,
		"level_correction": 0,
		"group_id": 0,
		"ai_script_id_BattleAIScript": 0
	},
	{
		"ID": 51727,
		"stage_BattleStage": 810002055,
		"unit_UnitUnit": 2200313,
		"money": 0,
		"initial_coordinate_x": 7,
		"initial_coordinate_y": 9,
		"reinforcement_BattleReinforcement": 0,
		"initial_direction": 180.0,
		"ai_move_group": 0,
		"ai_target_move_x": -1,
		"ai_target_move_y": -1,
		"ai_skill_function": "",
		"ai_attack": "IF( turn <=1 ,IF(panel_move_distance <= 4, 1, 0),1)",
		"ai_move": "IF(turn <=1,0,10)",
		"ai_heal": "",
		"ai_skill": "",
		"ai_use": "",
		"skill_group_id": 14588,
		"gear_GearGear": 26001,
		"gear_rank": 5,
		"proficiency_UnitProficiency": 6,
		"level": 90,
		"hp": 332,
		"strength": 128,
		"vitality": 109,
		"intelligence": 13,
		"mind": 48,
		"agility": 109,
		"dexterity": 110,
		"lucky": 57,
		"parameter_table_BattleEnemyParameterTable": 0,
		"parameter_deviation_table_BattleEnemyParameterDeviationTable": 0,
		"acquire_skill_group_id": 0,
		"level_correction": 0,
		"group_id": 0,
		"ai_script_id_BattleAIScript": 0
	},
	{
		"ID": 51728,
		"stage_BattleStage": 810002055,
		"unit_UnitUnit": 2811004,
		"money": 0,
		"initial_coordinate_x": 5,
		"initial_coordinate_y": 10,
		"reinforcement_BattleReinforcement": 0,
		"initial_direction": 180.0,
		"ai_move_group": 0,
		"ai_target_move_x": -1,
		"ai_target_move_y": -1,
		"ai_skill_function": "",
		"ai_attack": "1.0",
		"ai_move": "10.0",
		"ai_heal": "",
		"ai_skill": "",
		"ai_use": "",
		"skill_group_id": 13663,
		"gear_GearGear": 15006,
		"gear_rank": 5,
		"proficiency_UnitProficiency": 5,
		"level": 90,
		"hp": 125,
		"strength": 106,
		"vitality": 90,
		"intelligence": 10,
		"mind": 78,
		"agility": 119,
		"dexterity": 119,
		"lucky": 61,
		"parameter_table_BattleEnemyParameterTable": 0,
		"parameter_deviation_table_BattleEnemyParameterDeviationTable": 0,
		"acquire_skill_group_id": 0,
		"level_correction": 0,
		"group_id": 0,
		"ai_script_id_BattleAIScript": 0
	},
	{
		"ID": 51729,
		"stage_BattleStage": 810002055,
		"unit_UnitUnit": 2811004,
		"money": 0,
		"initial_coordinate_x": 5,
		"initial_coordinate_y": 8,
		"reinforcement_BattleReinforcement": 0,
		"initial_direction": 180.0,
		"ai_move_group": 0,
		"ai_target_move_x": -1,
		"ai_target_move_y": -1,
		"ai_skill_function": "",
		"ai_attack": "1.0",
		"ai_move": "10.0",
		"ai_heal": "",
		"ai_skill": "",
		"ai_use": "",
		"skill_group_id": 14473,
		"gear_GearGear": 15006,
		"gear_rank": 5,
		"proficiency_UnitProficiency": 5,
		"level": 90,
		"hp": 121,
		"strength": 107,
		"vitality": 89,
		"intelligence": 13,
		"mind": 78,
		"agility": 135,
		"dexterity": 120,
		"lucky": 57,
		"parameter_table_BattleEnemyParameterTable": 0,
		"parameter_deviation_table_BattleEnemyParameterDeviationTable": 0,
		"acquire_skill_group_id": 0,
		"level_correction": 0,
		"group_id": 0,
		"ai_script_id_BattleAIScript": 0
	},
	{
		"ID": 51730,
		"stage_BattleStage": 810002055,
		"unit_UnitUnit": 2811004,
		"money": 0,
		"initial_coordinate_x": 7,
		"initial_coordinate_y": 7,
		"reinforcement_BattleReinforcement": 0,
		"initial_direction": 180.0,
		"ai_move_group": 0,
		"ai_target_move_x": -1,
		"ai_target_move_y": -1,
		"ai_skill_function": "",
		"ai_attack": "1.0",
		"ai_move": "10.0",
		"ai_heal": "",
		"ai_skill": "",
		"ai_use": "",
		"skill_group_id": 13413,
		"gear_GearGear": 15006,
		"gear_rank": 5,
		"proficiency_UnitProficiency": 5,
		"level": 90,
		"hp": 124,
		"strength": 107,
		"vitality": 89,
		"intelligence": 11,
		"mind": 78,
		"agility": 118,
		"dexterity": 117,
		"lucky": 58,
		"parameter_table_BattleEnemyParameterTable": 0,
		"parameter_deviation_table_BattleEnemyParameterDeviationTable": 0,
		"acquire_skill_group_id": 0,
		"level_correction": 0,
		"group_id": 0,
		"ai_script_id_BattleAIScript": 0
	}
]