[
	{
		"ID": 45637,
		"stage_BattleStage": 810001024,
		"unit_UnitUnit": 810008,
		"money": 0,
		"initial_coordinate_x": 5,
		"initial_coordinate_y": 3,
		"reinforcement_BattleReinforcement": 0,
		"initial_direction": 0.0,
		"ai_move_group": 0,
		"ai_target_move_x": -1,
		"ai_target_move_y": -1,
		"ai_skill_function": "",
		"ai_attack": "IF( turn <=7 ,IF(panel_move_distance <= 2, 1, 0),1)",
		"ai_move": "IF(turn <7,0,1)",
		"ai_heal": "",
		"ai_skill": "",
		"ai_use": "",
		"skill_group_id": 9064,
		"gear_GearGear": 13003,
		"gear_rank": 3,
		"proficiency_UnitProficiency": 3,
		"level": 59,
		"hp": 132,
		"strength": 90,
		"vitality": 80,
		"intelligence": 4,
		"mind": 29,
		"agility": 53,
		"dexterity": 97,
		"lucky": 34,
		"parameter_table_BattleEnemyParameterTable": 0,
		"parameter_deviation_table_BattleEnemyParameterDeviationTable": 0,
		"acquire_skill_group_id": 0,
		"level_correction": 0,
		"group_id": 0,
		"ai_script_id_BattleAIScript": 0
	},
	{
		"ID": 45638,
		"stage_BattleStage": 810001024,
		"unit_UnitUnit": 810008,
		"money": 0,
		"initial_coordinate_x": 6,
		"initial_coordinate_y": 2,
		"reinforcement_BattleReinforcement": 0,
		"initial_direction": 0.0,
		"ai_move_group": 0,
		"ai_target_move_x": -1,
		"ai_target_move_y": -1,
		"ai_skill_function": "",
		"ai_attack": "IF( turn <=7 ,IF(panel_move_distance <= 2, 1, 0),1)",
		"ai_move": "IF(turn <7,0,1)",
		"ai_heal": "",
		"ai_skill": "",
		"ai_use": "",
		"skill_group_id": 9064,
		"gear_GearGear": 13004,
		"gear_rank": 3,
		"proficiency_UnitProficiency": 3,
		"level": 59,
		"hp": 132,
		"strength": 89,
		"vitality": 79,
		"intelligence": 4,
		"mind": 29,
		"agility": 53,
		"dexterity": 95,
		"lucky": 34,
		"parameter_table_BattleEnemyParameterTable": 0,
		"parameter_deviation_table_BattleEnemyParameterDeviationTable": 0,
		"acquire_skill_group_id": 0,
		"level_correction": 0,
		"group_id": 0,
		"ai_script_id_BattleAIScript": 0
	},
	{
		"ID": 45639,
		"stage_BattleStage": 810001024,
		"unit_UnitUnit": 830002,
		"money": 0,
		"initial_coordinate_x": 8,
		"initial_coordinate_y": 3,
		"reinforcement_BattleReinforcement": 0,
		"initial_direction": 0.0,
		"ai_move_group": 0,
		"ai_target_move_x": -1,
		"ai_target_move_y": -1,
		"ai_skill_function": "",
		"ai_attack": "IF( turn <=3 ,IF(panel_move_distance <= 4, 1, 0),1)",
		"ai_move": "IF(turn <=3,0,1)",
		"ai_heal": "",
		"ai_skill": "",
		"ai_use": "",
		"skill_group_id": 12794,
		"gear_GearGear": 33001,
		"gear_rank": 3,
		"proficiency_UnitProficiency": 3,
		"level": 59,
		"hp": 104,
		"strength": 82,
		"vitality": 54,
		"intelligence": 6,
		"mind": 31,
		"agility": 59,
		"dexterity": 78,
		"lucky": 44,
		"parameter_table_BattleEnemyParameterTable": 0,
		"parameter_deviation_table_BattleEnemyParameterDeviationTable": 0,
		"acquire_skill_group_id": 0,
		"level_correction": 0,
		"group_id": 0,
		"ai_script_id_BattleAIScript": 0
	},
	{
		"ID": 45640,
		"stage_BattleStage": 810001024,
		"unit_UnitUnit": 830002,
		"money": 0,
		"initial_coordinate_x": 7,
		"initial_coordinate_y": 4,
		"reinforcement_BattleReinforcement": 0,
		"initial_direction": 0.0,
		"ai_move_group": 0,
		"ai_target_move_x": -1,
		"ai_target_move_y": -1,
		"ai_skill_function": "",
		"ai_attack": "IF( turn <=3 ,IF(panel_move_distance <= 4, 1, 0),1)",
		"ai_move": "IF(turn <=3,0,1)",
		"ai_heal": "",
		"ai_skill": "",
		"ai_use": "",
		"skill_group_id": 12794,
		"gear_GearGear": 33001,
		"gear_rank": 3,
		"proficiency_UnitProficiency": 3,
		"level": 59,
		"hp": 104,
		"strength": 82,
		"vitality": 55,
		"intelligence": 7,
		"mind": 31,
		"agility": 61,
		"dexterity": 78,
		"lucky": 45,
		"parameter_table_BattleEnemyParameterTable": 0,
		"parameter_deviation_table_BattleEnemyParameterDeviationTable": 0,
		"acquire_skill_group_id": 0,
		"level_correction": 0,
		"group_id": 0,
		"ai_script_id_BattleAIScript": 0
	},
	{
		"ID": 45641,
		"stage_BattleStage": 810001024,
		"unit_UnitUnit": 830002,
		"money": 0,
		"initial_coordinate_x": 6,
		"initial_coordinate_y": 5,
		"reinforcement_BattleReinforcement": 0,
		"initial_direction": 0.0,
		"ai_move_group": 0,
		"ai_target_move_x": -1,
		"ai_target_move_y": -1,
		"ai_skill_function": "",
		"ai_attack": "IF( turn <=3 ,IF(panel_move_distance <= 4, 1, 0),1)",
		"ai_move": "IF(turn <=3,0,1)",
		"ai_heal": "",
		"ai_skill": "",
		"ai_use": "",
		"skill_group_id": 12794,
		"gear_GearGear": 33001,
		"gear_rank": 3,
		"proficiency_UnitProficiency": 3,
		"level": 59,
		"hp": 104,
		"strength": 80,
		"vitality": 55,
		"intelligence": 6,
		"mind": 31,
		"agility": 60,
		"dexterity": 79,
		"lucky": 40,
		"parameter_table_BattleEnemyParameterTable": 0,
		"parameter_deviation_table_BattleEnemyParameterDeviationTable": 0,
		"acquire_skill_group_id": 0,
		"level_correction": 0,
		"group_id": 0,
		"ai_script_id_BattleAIScript": 0
	},
	{
		"ID": 45642,
		"stage_BattleStage": 810001024,
		"unit_UnitUnit": 920013,
		"money": 0,
		"initial_coordinate_x": 8,
		"initial_coordinate_y": 6,
		"reinforcement_BattleReinforcement": 0,
		"initial_direction": 0.0,
		"ai_move_group": 0,
		"ai_target_move_x": -1,
		"ai_target_move_y": -1,
		"ai_skill_function": "",
		"ai_attack": "IF( turn <=3 ,IF(panel_move_distance <= 2, 1, 0),1)",
		"ai_move": "IF(turn <=3,0,1)",
		"ai_heal": "",
		"ai_skill": "",
		"ai_use": "",
		"skill_group_id": 564,
		"gear_GearGear": 23001,
		"gear_rank": 3,
		"proficiency_UnitProficiency": 3,
		"level": 59,
		"hp": 95,
		"strength": 89,
		"vitality": 51,
		"intelligence": 6,
		"mind": 29,
		"agility": 54,
		"dexterity": 88,
		"lucky": 44,
		"parameter_table_BattleEnemyParameterTable": 0,
		"parameter_deviation_table_BattleEnemyParameterDeviationTable": 0,
		"acquire_skill_group_id": 0,
		"level_correction": 0,
		"group_id": 0,
		"ai_script_id_BattleAIScript": 0
	},
	{
		"ID": 45643,
		"stage_BattleStage": 810001024,
		"unit_UnitUnit": 930013,
		"money": 0,
		"initial_coordinate_x": 9,
		"initial_coordinate_y": 8,
		"reinforcement_BattleReinforcement": 0,
		"initial_direction": 0.0,
		"ai_move_group": 0,
		"ai_target_move_x": -1,
		"ai_target_move_y": -1,
		"ai_skill_function": "",
		"ai_attack": "",
		"ai_move": "",
		"ai_heal": "",
		"ai_skill": "",
		"ai_use": "",
		"skill_group_id": 564,
		"gear_GearGear": 32003,
		"gear_rank": 3,
		"proficiency_UnitProficiency": 2,
		"level": 59,
		"hp": 94,
		"strength": 81,
		"vitality": 55,
		"intelligence": 7,
		"mind": 30,
		"agility": 63,
		"dexterity": 91,
		"lucky": 40,
		"parameter_table_BattleEnemyParameterTable": 0,
		"parameter_deviation_table_BattleEnemyParameterDeviationTable": 0,
		"acquire_skill_group_id": 0,
		"level_correction": 0,
		"group_id": 0,
		"ai_script_id_BattleAIScript": 0
	},
	{
		"ID": 45644,
		"stage_BattleStage": 810001024,
		"unit_UnitUnit": 910013,
		"money": 0,
		"initial_coordinate_x": 12,
		"initial_coordinate_y": 10,
		"reinforcement_BattleReinforcement": 0,
		"initial_direction": 270.0,
		"ai_move_group": 0,
		"ai_target_move_x": -1,
		"ai_target_move_y": -1,
		"ai_skill_function": "",
		"ai_attack": "",
		"ai_move": "",
		"ai_heal": "",
		"ai_skill": "",
		"ai_use": "",
		"skill_group_id": 564,
		"gear_GearGear": 13004,
		"gear_rank": 3,
		"proficiency_UnitProficiency": 3,
		"level": 59,
		"hp": 95,
		"strength": 84,
		"vitality": 54,
		"intelligence": 6,
		"mind": 26,
		"agility": 63,
		"dexterity": 91,
		"lucky": 40,
		"parameter_table_BattleEnemyParameterTable": 0,
		"parameter_deviation_table_BattleEnemyParameterDeviationTable": 0,
		"acquire_skill_group_id": 0,
		"level_correction": 0,
		"group_id": 0,
		"ai_script_id_BattleAIScript": 0
	},
	{
		"ID": 45645,
		"stage_BattleStage": 810001024,
		"unit_UnitUnit": 830001,
		"money": 0,
		"initial_coordinate_x": 2,
		"initial_coordinate_y": 9,
		"reinforcement_BattleReinforcement": 0,
		"initial_direction": 90.0,
		"ai_move_group": 0,
		"ai_target_move_x": -1,
		"ai_target_move_y": -1,
		"ai_skill_function": "",
		"ai_attack": "IF( turn <=3 ,IF(panel_move_distance <= 4, 1, 0),1)",
		"ai_move": "IF(turn <=3,0,1)",
		"ai_heal": "",
		"ai_skill": "",
		"ai_use": "",
		"skill_group_id": 12714,
		"gear_GearGear": 32003,
		"gear_rank": 3,
		"proficiency_UnitProficiency": 2,
		"level": 59,
		"hp": 89,
		"strength": 66,
		"vitality": 57,
		"intelligence": 17,
		"mind": 38,
		"agility": 66,
		"dexterity": 82,
		"lucky": 40,
		"parameter_table_BattleEnemyParameterTable": 0,
		"parameter_deviation_table_BattleEnemyParameterDeviationTable": 0,
		"acquire_skill_group_id": 0,
		"level_correction": 0,
		"group_id": 0,
		"ai_script_id_BattleAIScript": 0
	},
	{
		"ID": 45646,
		"stage_BattleStage": 810001024,
		"unit_UnitUnit": 830001,
		"money": 0,
		"initial_coordinate_x": 2,
		"initial_coordinate_y": 11,
		"reinforcement_BattleReinforcement": 0,
		"initial_direction": 90.0,
		"ai_move_group": 0,
		"ai_target_move_x": -1,
		"ai_target_move_y": -1,
		"ai_skill_function": "",
		"ai_attack": "IF( turn <=3 ,IF(panel_move_distance <= 4, 1, 0),1)",
		"ai_move": "IF(turn <=3,0,1)",
		"ai_heal": "",
		"ai_skill": "",
		"ai_use": "",
		"skill_group_id": 12714,
		"gear_GearGear": 32003,
		"gear_rank": 3,
		"proficiency_UnitProficiency": 2,
		"level": 59,
		"hp": 88,
		"strength": 67,
		"vitality": 57,
		"intelligence": 18,
		"mind": 40,
		"agility": 64,
		"dexterity": 81,
		"lucky": 45,
		"parameter_table_BattleEnemyParameterTable": 0,
		"parameter_deviation_table_BattleEnemyParameterDeviationTable": 0,
		"acquire_skill_group_id": 0,
		"level_correction": 0,
		"group_id": 0,
		"ai_script_id_BattleAIScript": 0
	},
	{
		"ID": 45647,
		"stage_BattleStage": 810001024,
		"unit_UnitUnit": 830001,
		"money": 0,
		"initial_coordinate_x": 4,
		"initial_coordinate_y": 11,
		"reinforcement_BattleReinforcement": 0,
		"initial_direction": 90.0,
		"ai_move_group": 0,
		"ai_target_move_x": -1,
		"ai_target_move_y": -1,
		"ai_skill_function": "",
		"ai_attack": "IF( turn <=3 ,IF(panel_move_distance <= 4, 1, 0),1)",
		"ai_move": "IF(turn <=3,0,1)",
		"ai_heal": "",
		"ai_skill": "",
		"ai_use": "",
		"skill_group_id": 12714,
		"gear_GearGear": 32003,
		"gear_rank": 3,
		"proficiency_UnitProficiency": 2,
		"level": 59,
		"hp": 89,
		"strength": 66,
		"vitality": 57,
		"intelligence": 17,
		"mind": 38,
		"agility": 64,
		"dexterity": 83,
		"lucky": 45,
		"parameter_table_BattleEnemyParameterTable": 0,
		"parameter_deviation_table_BattleEnemyParameterDeviationTable": 0,
		"acquire_skill_group_id": 0,
		"level_correction": 0,
		"group_id": 0,
		"ai_script_id_BattleAIScript": 0
	},
	{
		"ID": 45648,
		"stage_BattleStage": 810001024,
		"unit_UnitUnit": 940013,
		"money": 0,
		"initial_coordinate_x": 7,
		"initial_coordinate_y": 12,
		"reinforcement_BattleReinforcement": 0,
		"initial_direction": 90.0,
		"ai_move_group": 0,
		"ai_target_move_x": -1,
		"ai_target_move_y": -1,
		"ai_skill_function": "",
		"ai_attack": "",
		"ai_move": "",
		"ai_heal": "",
		"ai_skill": "",
		"ai_use": "",
		"skill_group_id": 904,
		"gear_GearGear": 42002,
		"gear_rank": 3,
		"proficiency_UnitProficiency": 2,
		"level": 59,
		"hp": 91,
		"strength": 81,
		"vitality": 52,
		"intelligence": 8,
		"mind": 30,
		"agility": 62,
		"dexterity": 92,
		"lucky": 40,
		"parameter_table_BattleEnemyParameterTable": 0,
		"parameter_deviation_table_BattleEnemyParameterDeviationTable": 0,
		"acquire_skill_group_id": 0,
		"level_correction": 0,
		"group_id": 0,
		"ai_script_id_BattleAIScript": 0
	},
	{
		"ID": 45649,
		"stage_BattleStage": 810001024,
		"unit_UnitUnit": 830001,
		"money": 0,
		"initial_coordinate_x": 2,
		"initial_coordinate_y": 13,
		"reinforcement_BattleReinforcement": 0,
		"initial_direction": 90.0,
		"ai_move_group": 0,
		"ai_target_move_x": -1,
		"ai_target_move_y": -1,
		"ai_skill_function": "",
		"ai_attack": "IF( turn <=3 ,IF(panel_move_distance <= 4, 1, 0),1)",
		"ai_move": "IF(turn <2,0,1)",
		"ai_heal": "",
		"ai_skill": "",
		"ai_use": "",
		"skill_group_id": 12714,
		"gear_GearGear": 32003,
		"gear_rank": 3,
		"proficiency_UnitProficiency": 2,
		"level": 59,
		"hp": 89,
		"strength": 66,
		"vitality": 57,
		"intelligence": 17,
		"mind": 40,
		"agility": 65,
		"dexterity": 82,
		"lucky": 40,
		"parameter_table_BattleEnemyParameterTable": 0,
		"parameter_deviation_table_BattleEnemyParameterDeviationTable": 0,
		"acquire_skill_group_id": 0,
		"level_correction": 0,
		"group_id": 0,
		"ai_script_id_BattleAIScript": 0
	},
	{
		"ID": 45650,
		"stage_BattleStage": 810001024,
		"unit_UnitUnit": 940013,
		"money": 0,
		"initial_coordinate_x": 2,
		"initial_coordinate_y": 15,
		"reinforcement_BattleReinforcement": 0,
		"initial_direction": 90.0,
		"ai_move_group": 0,
		"ai_target_move_x": -1,
		"ai_target_move_y": -1,
		"ai_skill_function": "",
		"ai_attack": "IF( turn <=2 ,IF(panel_move_distance <= 2, 1, 0),1)",
		"ai_move": "IF(turn <2,0,1)",
		"ai_heal": "",
		"ai_skill": "",
		"ai_use": "",
		"skill_group_id": 904,
		"gear_GearGear": 42002,
		"gear_rank": 3,
		"proficiency_UnitProficiency": 2,
		"level": 59,
		"hp": 92,
		"strength": 80,
		"vitality": 52,
		"intelligence": 6,
		"mind": 29,
		"agility": 62,
		"dexterity": 92,
		"lucky": 45,
		"parameter_table_BattleEnemyParameterTable": 0,
		"parameter_deviation_table_BattleEnemyParameterDeviationTable": 0,
		"acquire_skill_group_id": 0,
		"level_correction": 0,
		"group_id": 0,
		"ai_script_id_BattleAIScript": 0
	},
	{
		"ID": 45651,
		"stage_BattleStage": 810001024,
		"unit_UnitUnit": 840004,
		"money": 0,
		"initial_coordinate_x": 6,
		"initial_coordinate_y": 15,
		"reinforcement_BattleReinforcement": 0,
		"initial_direction": 90.0,
		"ai_move_group": 0,
		"ai_target_move_x": -1,
		"ai_target_move_y": -1,
		"ai_skill_function": "",
		"ai_attack": "",
		"ai_move": "",
		"ai_heal": "",
		"ai_skill": "",
		"ai_use": "",
		"skill_group_id": 904,
		"gear_GearGear": 42002,
		"gear_rank": 3,
		"proficiency_UnitProficiency": 2,
		"level": 59,
		"hp": 93,
		"strength": 81,
		"vitality": 54,
		"intelligence": 8,
		"mind": 31,
		"agility": 64,
		"dexterity": 92,
		"lucky": 45,
		"parameter_table_BattleEnemyParameterTable": 0,
		"parameter_deviation_table_BattleEnemyParameterDeviationTable": 0,
		"acquire_skill_group_id": 0,
		"level_correction": 0,
		"group_id": 0,
		"ai_script_id_BattleAIScript": 0
	}
]