[
	{
		"ID": 93661,
		"stage_BattleStage": 810008024,
		"unit_UnitUnit": 3850005,
		"money": 0,
		"initial_coordinate_x": 7,
		"initial_coordinate_y": 1,
		"reinforcement_BattleReinforcement": 0,
		"initial_direction": 0.0,
		"ai_move_group": 0,
		"ai_target_move_x": -1,
		"ai_target_move_y": -1,
		"ai_skill_function": "",
		"ai_attack": "",
		"ai_move": "IF(turn < 2,0,1)",
		"ai_heal": "",
		"ai_skill": "",
		"ai_use": "",
		"skill_group_id": 21267,
		"gear_GearGear": 54003,
		"gear_rank": 1,
		"proficiency_UnitProficiency": 4,
		"level": 73,
		"hp": 151,
		"strength": 11,
		"vitality": 63,
		"intelligence": 98,
		"mind": 81,
		"agility": 72,
		"dexterity": 104,
		"lucky": 44,
		"parameter_table_BattleEnemyParameterTable": 0,
		"parameter_deviation_table_BattleEnemyParameterDeviationTable": 0,
		"acquire_skill_group_id": 0,
		"level_correction": 0,
		"group_id": 0,
		"ai_script_id_BattleAIScript": 0
	},
	{
		"ID": 93662,
		"stage_BattleStage": 810008024,
		"unit_UnitUnit": 3850005,
		"money": 0,
		"initial_coordinate_x": 8,
		"initial_coordinate_y": 1,
		"reinforcement_BattleReinforcement": 0,
		"initial_direction": 0.0,
		"ai_move_group": 0,
		"ai_target_move_x": -1,
		"ai_target_move_y": -1,
		"ai_skill_function": "",
		"ai_attack": "",
		"ai_move": "IF(turn < 2,0,1)",
		"ai_heal": "",
		"ai_skill": "",
		"ai_use": "",
		"skill_group_id": 21267,
		"gear_GearGear": 54003,
		"gear_rank": 1,
		"proficiency_UnitProficiency": 4,
		"level": 73,
		"hp": 151,
		"strength": 11,
		"vitality": 63,
		"intelligence": 98,
		"mind": 81,
		"agility": 72,
		"dexterity": 104,
		"lucky": 44,
		"parameter_table_BattleEnemyParameterTable": 0,
		"parameter_deviation_table_BattleEnemyParameterDeviationTable": 0,
		"acquire_skill_group_id": 0,
		"level_correction": 0,
		"group_id": 0,
		"ai_script_id_BattleAIScript": 0
	},
	{
		"ID": 93663,
		"stage_BattleStage": 810008024,
		"unit_UnitUnit": 3850005,
		"money": 0,
		"initial_coordinate_x": 1,
		"initial_coordinate_y": 4,
		"reinforcement_BattleReinforcement": 0,
		"initial_direction": 0.0,
		"ai_move_group": 0,
		"ai_target_move_x": -1,
		"ai_target_move_y": -1,
		"ai_skill_function": "",
		"ai_attack": "",
		"ai_move": "IF(turn < 2,0,1)",
		"ai_heal": "",
		"ai_skill": "",
		"ai_use": "",
		"skill_group_id": 21267,
		"gear_GearGear": 54003,
		"gear_rank": 1,
		"proficiency_UnitProficiency": 4,
		"level": 73,
		"hp": 151,
		"strength": 11,
		"vitality": 63,
		"intelligence": 98,
		"mind": 81,
		"agility": 72,
		"dexterity": 104,
		"lucky": 44,
		"parameter_table_BattleEnemyParameterTable": 0,
		"parameter_deviation_table_BattleEnemyParameterDeviationTable": 0,
		"acquire_skill_group_id": 0,
		"level_correction": 0,
		"group_id": 0,
		"ai_script_id_BattleAIScript": 0
	},
	{
		"ID": 93664,
		"stage_BattleStage": 810008024,
		"unit_UnitUnit": 3850005,
		"money": 0,
		"initial_coordinate_x": 2,
		"initial_coordinate_y": 3,
		"reinforcement_BattleReinforcement": 0,
		"initial_direction": 0.0,
		"ai_move_group": 0,
		"ai_target_move_x": -1,
		"ai_target_move_y": -1,
		"ai_skill_function": "",
		"ai_attack": "",
		"ai_move": "IF(turn < 2,0,1)",
		"ai_heal": "",
		"ai_skill": "",
		"ai_use": "",
		"skill_group_id": 21267,
		"gear_GearGear": 54003,
		"gear_rank": 1,
		"proficiency_UnitProficiency": 4,
		"level": 73,
		"hp": 151,
		"strength": 11,
		"vitality": 63,
		"intelligence": 98,
		"mind": 81,
		"agility": 72,
		"dexterity": 104,
		"lucky": 44,
		"parameter_table_BattleEnemyParameterTable": 0,
		"parameter_deviation_table_BattleEnemyParameterDeviationTable": 0,
		"acquire_skill_group_id": 0,
		"level_correction": 0,
		"group_id": 0,
		"ai_script_id_BattleAIScript": 0
	},
	{
		"ID": 93665,
		"stage_BattleStage": 810008024,
		"unit_UnitUnit": 3850005,
		"money": 0,
		"initial_coordinate_x": 3,
		"initial_coordinate_y": 2,
		"reinforcement_BattleReinforcement": 0,
		"initial_direction": 0.0,
		"ai_move_group": 0,
		"ai_target_move_x": -1,
		"ai_target_move_y": -1,
		"ai_skill_function": "",
		"ai_attack": "",
		"ai_move": "IF(turn < 2,0,1)",
		"ai_heal": "",
		"ai_skill": "",
		"ai_use": "",
		"skill_group_id": 21267,
		"gear_GearGear": 54003,
		"gear_rank": 1,
		"proficiency_UnitProficiency": 4,
		"level": 73,
		"hp": 151,
		"strength": 11,
		"vitality": 63,
		"intelligence": 98,
		"mind": 81,
		"agility": 72,
		"dexterity": 104,
		"lucky": 44,
		"parameter_table_BattleEnemyParameterTable": 0,
		"parameter_deviation_table_BattleEnemyParameterDeviationTable": 0,
		"acquire_skill_group_id": 0,
		"level_correction": 0,
		"group_id": 0,
		"ai_script_id_BattleAIScript": 0
	},
	{
		"ID": 93666,
		"stage_BattleStage": 810008024,
		"unit_UnitUnit": 3850006,
		"money": 0,
		"initial_coordinate_x": 1,
		"initial_coordinate_y": 2,
		"reinforcement_BattleReinforcement": 0,
		"initial_direction": 0.0,
		"ai_move_group": 0,
		"ai_target_move_x": -1,
		"ai_target_move_y": -1,
		"ai_skill_function": "",
		"ai_attack": "",
		"ai_move": "IF(turn < 2,0,1)",
		"ai_heal": "",
		"ai_skill": "",
		"ai_use": "",
		"skill_group_id": 21268,
		"gear_GearGear": 65001,
		"gear_rank": 1,
		"proficiency_UnitProficiency": 5,
		"level": 73,
		"hp": 174,
		"strength": 11,
		"vitality": 63,
		"intelligence": 108,
		"mind": 100,
		"agility": 86,
		"dexterity": 114,
		"lucky": 45,
		"parameter_table_BattleEnemyParameterTable": 0,
		"parameter_deviation_table_BattleEnemyParameterDeviationTable": 0,
		"acquire_skill_group_id": 0,
		"level_correction": 0,
		"group_id": 0,
		"ai_script_id_BattleAIScript": 0
	},
	{
		"ID": 93667,
		"stage_BattleStage": 810008024,
		"unit_UnitUnit": 3850005,
		"money": 0,
		"initial_coordinate_x": 14,
		"initial_coordinate_y": 4,
		"reinforcement_BattleReinforcement": 0,
		"initial_direction": 0.0,
		"ai_move_group": 0,
		"ai_target_move_x": -1,
		"ai_target_move_y": -1,
		"ai_skill_function": "",
		"ai_attack": "",
		"ai_move": "IF(turn < 2,0,1)",
		"ai_heal": "",
		"ai_skill": "",
		"ai_use": "",
		"skill_group_id": 21267,
		"gear_GearGear": 54003,
		"gear_rank": 1,
		"proficiency_UnitProficiency": 4,
		"level": 73,
		"hp": 151,
		"strength": 11,
		"vitality": 63,
		"intelligence": 98,
		"mind": 81,
		"agility": 72,
		"dexterity": 104,
		"lucky": 44,
		"parameter_table_BattleEnemyParameterTable": 0,
		"parameter_deviation_table_BattleEnemyParameterDeviationTable": 0,
		"acquire_skill_group_id": 0,
		"level_correction": 0,
		"group_id": 0,
		"ai_script_id_BattleAIScript": 0
	},
	{
		"ID": 93668,
		"stage_BattleStage": 810008024,
		"unit_UnitUnit": 3850005,
		"money": 0,
		"initial_coordinate_x": 13,
		"initial_coordinate_y": 3,
		"reinforcement_BattleReinforcement": 0,
		"initial_direction": 0.0,
		"ai_move_group": 0,
		"ai_target_move_x": -1,
		"ai_target_move_y": -1,
		"ai_skill_function": "",
		"ai_attack": "",
		"ai_move": "IF(turn < 2,0,1)",
		"ai_heal": "",
		"ai_skill": "",
		"ai_use": "",
		"skill_group_id": 21267,
		"gear_GearGear": 54003,
		"gear_rank": 1,
		"proficiency_UnitProficiency": 4,
		"level": 73,
		"hp": 151,
		"strength": 11,
		"vitality": 63,
		"intelligence": 98,
		"mind": 81,
		"agility": 72,
		"dexterity": 104,
		"lucky": 44,
		"parameter_table_BattleEnemyParameterTable": 0,
		"parameter_deviation_table_BattleEnemyParameterDeviationTable": 0,
		"acquire_skill_group_id": 0,
		"level_correction": 0,
		"group_id": 0,
		"ai_script_id_BattleAIScript": 0
	},
	{
		"ID": 93669,
		"stage_BattleStage": 810008024,
		"unit_UnitUnit": 3850005,
		"money": 0,
		"initial_coordinate_x": 12,
		"initial_coordinate_y": 2,
		"reinforcement_BattleReinforcement": 0,
		"initial_direction": 0.0,
		"ai_move_group": 0,
		"ai_target_move_x": -1,
		"ai_target_move_y": -1,
		"ai_skill_function": "",
		"ai_attack": "",
		"ai_move": "IF(turn < 2,0,1)",
		"ai_heal": "",
		"ai_skill": "",
		"ai_use": "",
		"skill_group_id": 21267,
		"gear_GearGear": 54003,
		"gear_rank": 1,
		"proficiency_UnitProficiency": 4,
		"level": 73,
		"hp": 151,
		"strength": 11,
		"vitality": 63,
		"intelligence": 98,
		"mind": 81,
		"agility": 72,
		"dexterity": 104,
		"lucky": 44,
		"parameter_table_BattleEnemyParameterTable": 0,
		"parameter_deviation_table_BattleEnemyParameterDeviationTable": 0,
		"acquire_skill_group_id": 0,
		"level_correction": 0,
		"group_id": 0,
		"ai_script_id_BattleAIScript": 0
	},
	{
		"ID": 93670,
		"stage_BattleStage": 810008024,
		"unit_UnitUnit": 3850006,
		"money": 0,
		"initial_coordinate_x": 14,
		"initial_coordinate_y": 2,
		"reinforcement_BattleReinforcement": 0,
		"initial_direction": 0.0,
		"ai_move_group": 0,
		"ai_target_move_x": -1,
		"ai_target_move_y": -1,
		"ai_skill_function": "",
		"ai_attack": "",
		"ai_move": "IF(turn < 2,0,1)",
		"ai_heal": "",
		"ai_skill": "",
		"ai_use": "",
		"skill_group_id": 21268,
		"gear_GearGear": 65001,
		"gear_rank": 1,
		"proficiency_UnitProficiency": 5,
		"level": 73,
		"hp": 174,
		"strength": 11,
		"vitality": 63,
		"intelligence": 108,
		"mind": 100,
		"agility": 86,
		"dexterity": 114,
		"lucky": 45,
		"parameter_table_BattleEnemyParameterTable": 0,
		"parameter_deviation_table_BattleEnemyParameterDeviationTable": 0,
		"acquire_skill_group_id": 0,
		"level_correction": 0,
		"group_id": 0,
		"ai_script_id_BattleAIScript": 0
	},
	{
		"ID": 93671,
		"stage_BattleStage": 810008024,
		"unit_UnitUnit": 3850005,
		"money": 0,
		"initial_coordinate_x": 11,
		"initial_coordinate_y": 6,
		"reinforcement_BattleReinforcement": 0,
		"initial_direction": 0.0,
		"ai_move_group": 0,
		"ai_target_move_x": -1,
		"ai_target_move_y": -1,
		"ai_skill_function": "",
		"ai_attack": "",
		"ai_move": "",
		"ai_heal": "",
		"ai_skill": "",
		"ai_use": "",
		"skill_group_id": 21267,
		"gear_GearGear": 54003,
		"gear_rank": 1,
		"proficiency_UnitProficiency": 4,
		"level": 73,
		"hp": 151,
		"strength": 11,
		"vitality": 63,
		"intelligence": 98,
		"mind": 81,
		"agility": 72,
		"dexterity": 104,
		"lucky": 44,
		"parameter_table_BattleEnemyParameterTable": 0,
		"parameter_deviation_table_BattleEnemyParameterDeviationTable": 0,
		"acquire_skill_group_id": 0,
		"level_correction": 0,
		"group_id": 0,
		"ai_script_id_BattleAIScript": 0
	},
	{
		"ID": 93672,
		"stage_BattleStage": 810008024,
		"unit_UnitUnit": 3850005,
		"money": 0,
		"initial_coordinate_x": 10,
		"initial_coordinate_y": 5,
		"reinforcement_BattleReinforcement": 0,
		"initial_direction": 0.0,
		"ai_move_group": 0,
		"ai_target_move_x": -1,
		"ai_target_move_y": -1,
		"ai_skill_function": "",
		"ai_attack": "",
		"ai_move": "",
		"ai_heal": "",
		"ai_skill": "",
		"ai_use": "",
		"skill_group_id": 21267,
		"gear_GearGear": 54003,
		"gear_rank": 1,
		"proficiency_UnitProficiency": 4,
		"level": 73,
		"hp": 151,
		"strength": 11,
		"vitality": 63,
		"intelligence": 98,
		"mind": 81,
		"agility": 72,
		"dexterity": 104,
		"lucky": 44,
		"parameter_table_BattleEnemyParameterTable": 0,
		"parameter_deviation_table_BattleEnemyParameterDeviationTable": 0,
		"acquire_skill_group_id": 0,
		"level_correction": 0,
		"group_id": 0,
		"ai_script_id_BattleAIScript": 0
	},
	{
		"ID": 93673,
		"stage_BattleStage": 810008024,
		"unit_UnitUnit": 3850005,
		"money": 0,
		"initial_coordinate_x": 4,
		"initial_coordinate_y": 6,
		"reinforcement_BattleReinforcement": 0,
		"initial_direction": 0.0,
		"ai_move_group": 0,
		"ai_target_move_x": -1,
		"ai_target_move_y": -1,
		"ai_skill_function": "",
		"ai_attack": "",
		"ai_move": "",
		"ai_heal": "",
		"ai_skill": "",
		"ai_use": "",
		"skill_group_id": 21267,
		"gear_GearGear": 54003,
		"gear_rank": 1,
		"proficiency_UnitProficiency": 4,
		"level": 73,
		"hp": 151,
		"strength": 11,
		"vitality": 63,
		"intelligence": 98,
		"mind": 81,
		"agility": 72,
		"dexterity": 104,
		"lucky": 44,
		"parameter_table_BattleEnemyParameterTable": 0,
		"parameter_deviation_table_BattleEnemyParameterDeviationTable": 0,
		"acquire_skill_group_id": 0,
		"level_correction": 0,
		"group_id": 0,
		"ai_script_id_BattleAIScript": 0
	},
	{
		"ID": 93674,
		"stage_BattleStage": 810008024,
		"unit_UnitUnit": 3850005,
		"money": 0,
		"initial_coordinate_x": 5,
		"initial_coordinate_y": 5,
		"reinforcement_BattleReinforcement": 0,
		"initial_direction": 0.0,
		"ai_move_group": 0,
		"ai_target_move_x": -1,
		"ai_target_move_y": -1,
		"ai_skill_function": "",
		"ai_attack": "",
		"ai_move": "",
		"ai_heal": "",
		"ai_skill": "",
		"ai_use": "",
		"skill_group_id": 21267,
		"gear_GearGear": 54003,
		"gear_rank": 1,
		"proficiency_UnitProficiency": 4,
		"level": 73,
		"hp": 151,
		"strength": 11,
		"vitality": 63,
		"intelligence": 98,
		"mind": 81,
		"agility": 72,
		"dexterity": 104,
		"lucky": 44,
		"parameter_table_BattleEnemyParameterTable": 0,
		"parameter_deviation_table_BattleEnemyParameterDeviationTable": 0,
		"acquire_skill_group_id": 0,
		"level_correction": 0,
		"group_id": 0,
		"ai_script_id_BattleAIScript": 0
	},
	{
		"ID": 93675,
		"stage_BattleStage": 810008024,
		"unit_UnitUnit": 3850005,
		"money": 0,
		"initial_coordinate_x": 8,
		"initial_coordinate_y": 4,
		"reinforcement_BattleReinforcement": 0,
		"initial_direction": 0.0,
		"ai_move_group": 0,
		"ai_target_move_x": -1,
		"ai_target_move_y": -1,
		"ai_skill_function": "",
		"ai_attack": "",
		"ai_move": "",
		"ai_heal": "",
		"ai_skill": "",
		"ai_use": "",
		"skill_group_id": 21267,
		"gear_GearGear": 54003,
		"gear_rank": 1,
		"proficiency_UnitProficiency": 4,
		"level": 73,
		"hp": 151,
		"strength": 11,
		"vitality": 63,
		"intelligence": 98,
		"mind": 81,
		"agility": 72,
		"dexterity": 104,
		"lucky": 44,
		"parameter_table_BattleEnemyParameterTable": 0,
		"parameter_deviation_table_BattleEnemyParameterDeviationTable": 0,
		"acquire_skill_group_id": 0,
		"level_correction": 0,
		"group_id": 0,
		"ai_script_id_BattleAIScript": 0
	},
	{
		"ID": 93676,
		"stage_BattleStage": 810008024,
		"unit_UnitUnit": 3850005,
		"money": 0,
		"initial_coordinate_x": 7,
		"initial_coordinate_y": 4,
		"reinforcement_BattleReinforcement": 0,
		"initial_direction": 0.0,
		"ai_move_group": 0,
		"ai_target_move_x": -1,
		"ai_target_move_y": -1,
		"ai_skill_function": "",
		"ai_attack": "",
		"ai_move": "",
		"ai_heal": "",
		"ai_skill": "",
		"ai_use": "",
		"skill_group_id": 21267,
		"gear_GearGear": 54003,
		"gear_rank": 1,
		"proficiency_UnitProficiency": 4,
		"level": 73,
		"hp": 151,
		"strength": 11,
		"vitality": 63,
		"intelligence": 98,
		"mind": 81,
		"agility": 72,
		"dexterity": 104,
		"lucky": 44,
		"parameter_table_BattleEnemyParameterTable": 0,
		"parameter_deviation_table_BattleEnemyParameterDeviationTable": 0,
		"acquire_skill_group_id": 0,
		"level_correction": 0,
		"group_id": 0,
		"ai_script_id_BattleAIScript": 0
	},
	{
		"ID": 93677,
		"stage_BattleStage": 810008024,
		"unit_UnitUnit": 3850006,
		"money": 0,
		"initial_coordinate_x": 9,
		"initial_coordinate_y": 2,
		"reinforcement_BattleReinforcement": 0,
		"initial_direction": 0.0,
		"ai_move_group": 0,
		"ai_target_move_x": -1,
		"ai_target_move_y": -1,
		"ai_skill_function": "",
		"ai_attack": "",
		"ai_move": "IF(turn < 2,0,1)",
		"ai_heal": "",
		"ai_skill": "",
		"ai_use": "",
		"skill_group_id": 21268,
		"gear_GearGear": 65001,
		"gear_rank": 1,
		"proficiency_UnitProficiency": 5,
		"level": 73,
		"hp": 174,
		"strength": 11,
		"vitality": 63,
		"intelligence": 108,
		"mind": 100,
		"agility": 86,
		"dexterity": 114,
		"lucky": 45,
		"parameter_table_BattleEnemyParameterTable": 0,
		"parameter_deviation_table_BattleEnemyParameterDeviationTable": 0,
		"acquire_skill_group_id": 0,
		"level_correction": 0,
		"group_id": 0,
		"ai_script_id_BattleAIScript": 0
	},
	{
		"ID": 93678,
		"stage_BattleStage": 810008024,
		"unit_UnitUnit": 3850006,
		"money": 0,
		"initial_coordinate_x": 6,
		"initial_coordinate_y": 2,
		"reinforcement_BattleReinforcement": 0,
		"initial_direction": 0.0,
		"ai_move_group": 0,
		"ai_target_move_x": -1,
		"ai_target_move_y": -1,
		"ai_skill_function": "",
		"ai_attack": "",
		"ai_move": "IF(turn < 2,0,1)",
		"ai_heal": "",
		"ai_skill": "",
		"ai_use": "",
		"skill_group_id": 21268,
		"gear_GearGear": 65001,
		"gear_rank": 1,
		"proficiency_UnitProficiency": 5,
		"level": 73,
		"hp": 174,
		"strength": 11,
		"vitality": 63,
		"intelligence": 108,
		"mind": 100,
		"agility": 86,
		"dexterity": 114,
		"lucky": 45,
		"parameter_table_BattleEnemyParameterTable": 0,
		"parameter_deviation_table_BattleEnemyParameterDeviationTable": 0,
		"acquire_skill_group_id": 0,
		"level_correction": 0,
		"group_id": 0,
		"ai_script_id_BattleAIScript": 0
	},
	{
		"ID": 93679,
		"stage_BattleStage": 810008024,
		"unit_UnitUnit": 31003030,
		"money": 0,
		"initial_coordinate_x": 9,
		"initial_coordinate_y": 9,
		"reinforcement_BattleReinforcement": 0,
		"initial_direction": 0.0,
		"ai_move_group": 0,
		"ai_target_move_x": -1,
		"ai_target_move_y": -1,
		"ai_skill_function": "",
		"ai_attack": "",
		"ai_move": "",
		"ai_heal": "",
		"ai_skill": "",
		"ai_use": "",
		"skill_group_id": 0,
		"gear_GearGear": 80005,
		"gear_rank": 1,
		"proficiency_UnitProficiency": 1,
		"level": 1,
		"hp": 1,
		"strength": 1,
		"vitality": 1,
		"intelligence": 1,
		"mind": 1,
		"agility": 1,
		"dexterity": 1,
		"lucky": 1,
		"parameter_table_BattleEnemyParameterTable": 0,
		"parameter_deviation_table_BattleEnemyParameterDeviationTable": 0,
		"acquire_skill_group_id": 0,
		"level_correction": 0,
		"group_id": 0,
		"ai_script_id_BattleAIScript": 0
	},
	{
		"ID": 93680,
		"stage_BattleStage": 810008024,
		"unit_UnitUnit": 31003030,
		"money": 0,
		"initial_coordinate_x": 6,
		"initial_coordinate_y": 9,
		"reinforcement_BattleReinforcement": 0,
		"initial_direction": 0.0,
		"ai_move_group": 0,
		"ai_target_move_x": -1,
		"ai_target_move_y": -1,
		"ai_skill_function": "",
		"ai_attack": "",
		"ai_move": "",
		"ai_heal": "",
		"ai_skill": "",
		"ai_use": "",
		"skill_group_id": 0,
		"gear_GearGear": 80005,
		"gear_rank": 1,
		"proficiency_UnitProficiency": 1,
		"level": 1,
		"hp": 1,
		"strength": 1,
		"vitality": 1,
		"intelligence": 1,
		"mind": 1,
		"agility": 1,
		"dexterity": 1,
		"lucky": 1,
		"parameter_table_BattleEnemyParameterTable": 0,
		"parameter_deviation_table_BattleEnemyParameterDeviationTable": 0,
		"acquire_skill_group_id": 0,
		"level_correction": 0,
		"group_id": 0,
		"ai_script_id_BattleAIScript": 0
	}
]