[
	{
		"ID": 62947,
		"stage_BattleStage": 810003042,
		"unit_UnitUnit": 400723,
		"money": 0,
		"initial_coordinate_x": 11,
		"initial_coordinate_y": 14,
		"reinforcement_BattleReinforcement": 0,
		"initial_direction": 180.0,
		"ai_move_group": 0,
		"ai_target_move_x": -1,
		"ai_target_move_y": -1,
		"ai_skill_function": "",
		"ai_attack": "IF( turn <=6 ,IF(panel_move_distance <= 4, 1, 0),1)",
		"ai_move": "IF(turn <6,0,1)",
		"ai_heal": "",
		"ai_skill": "",
		"ai_use": "",
		"skill_group_id": 13930,
		"gear_GearGear": 45001,
		"gear_rank": 5,
		"proficiency_UnitProficiency": 5,
		"level": 82,
		"hp": 140,
		"strength": 129,
		"vitality": 91,
		"intelligence": 18,
		"mind": 96,
		"agility": 119,
		"dexterity": 123,
		"lucky": 67,
		"parameter_table_BattleEnemyParameterTable": 0,
		"parameter_deviation_table_BattleEnemyParameterDeviationTable": 0,
		"acquire_skill_group_id": 0,
		"level_correction": 0,
		"group_id": 0,
		"ai_script_id_BattleAIScript": 0
	},
	{
		"ID": 62948,
		"stage_BattleStage": 810003042,
		"unit_UnitUnit": 860001,
		"money": 0,
		"initial_coordinate_x": 9,
		"initial_coordinate_y": 13,
		"reinforcement_BattleReinforcement": 0,
		"initial_direction": 180.0,
		"ai_move_group": 0,
		"ai_target_move_x": -1,
		"ai_target_move_y": -1,
		"ai_skill_function": "",
		"ai_attack": "IF( turn <=6 ,IF(panel_move_distance <= 6, 1, 0),1)",
		"ai_move": "IF(turn <6,0,1)",
		"ai_heal": "",
		"ai_skill": "",
		"ai_use": "",
		"skill_group_id": 13381,
		"gear_GearGear": 65006,
		"gear_rank": 5,
		"proficiency_UnitProficiency": 5,
		"level": 82,
		"hp": 106,
		"strength": 16,
		"vitality": 84,
		"intelligence": 132,
		"mind": 101,
		"agility": 83,
		"dexterity": 89,
		"lucky": 54,
		"parameter_table_BattleEnemyParameterTable": 0,
		"parameter_deviation_table_BattleEnemyParameterDeviationTable": 0,
		"acquire_skill_group_id": 0,
		"level_correction": 0,
		"group_id": 0,
		"ai_script_id_BattleAIScript": 0
	},
	{
		"ID": 62949,
		"stage_BattleStage": 810003042,
		"unit_UnitUnit": 102523,
		"money": 0,
		"initial_coordinate_x": 7,
		"initial_coordinate_y": 13,
		"reinforcement_BattleReinforcement": 0,
		"initial_direction": 180.0,
		"ai_move_group": 0,
		"ai_target_move_x": -1,
		"ai_target_move_y": -1,
		"ai_skill_function": "",
		"ai_attack": "IF( turn <=6 ,IF(panel_move_distance <= 4, 1, 0),1)",
		"ai_move": "IF(turn <6,0,1)",
		"ai_heal": "",
		"ai_skill": "",
		"ai_use": "",
		"skill_group_id": 13931,
		"gear_GearGear": 15006,
		"gear_rank": 5,
		"proficiency_UnitProficiency": 5,
		"level": 82,
		"hp": 126,
		"strength": 106,
		"vitality": 117,
		"intelligence": 46,
		"mind": 112,
		"agility": 124,
		"dexterity": 113,
		"lucky": 54,
		"parameter_table_BattleEnemyParameterTable": 0,
		"parameter_deviation_table_BattleEnemyParameterDeviationTable": 0,
		"acquire_skill_group_id": 0,
		"level_correction": 0,
		"group_id": 0,
		"ai_script_id_BattleAIScript": 0
	},
	{
		"ID": 62950,
		"stage_BattleStage": 810003042,
		"unit_UnitUnit": 830001,
		"money": 0,
		"initial_coordinate_x": 5,
		"initial_coordinate_y": 13,
		"reinforcement_BattleReinforcement": 0,
		"initial_direction": 180.0,
		"ai_move_group": 0,
		"ai_target_move_x": -1,
		"ai_target_move_y": -1,
		"ai_skill_function": "",
		"ai_attack": "IF( turn <=6 ,IF(panel_move_distance <= 6, 1, 0),1)",
		"ai_move": "IF(turn <6,0,1)",
		"ai_heal": "",
		"ai_skill": "",
		"ai_use": "",
		"skill_group_id": 13351,
		"gear_GearGear": 35001,
		"gear_rank": 5,
		"proficiency_UnitProficiency": 5,
		"level": 82,
		"hp": 145,
		"strength": 162,
		"vitality": 120,
		"intelligence": 5,
		"mind": 58,
		"agility": 86,
		"dexterity": 91,
		"lucky": 53,
		"parameter_table_BattleEnemyParameterTable": 0,
		"parameter_deviation_table_BattleEnemyParameterDeviationTable": 0,
		"acquire_skill_group_id": 0,
		"level_correction": 0,
		"group_id": 0,
		"ai_script_id_BattleAIScript": 0
	},
	{
		"ID": 62951,
		"stage_BattleStage": 810003042,
		"unit_UnitUnit": 502413,
		"money": 0,
		"initial_coordinate_x": 3,
		"initial_coordinate_y": 12,
		"reinforcement_BattleReinforcement": 0,
		"initial_direction": 180.0,
		"ai_move_group": 0,
		"ai_target_move_x": -1,
		"ai_target_move_y": -1,
		"ai_skill_function": "",
		"ai_attack": "IF( turn <=6 ,IF(panel_move_distance <= 4, 1, 0),1)",
		"ai_move": "IF(turn <6,0,1)",
		"ai_heal": "",
		"ai_skill": "",
		"ai_use": "",
		"skill_group_id": 13906,
		"gear_GearGear": 55003,
		"gear_rank": 5,
		"proficiency_UnitProficiency": 5,
		"level": 82,
		"hp": 152,
		"strength": 18,
		"vitality": 68,
		"intelligence": 132,
		"mind": 126,
		"agility": 118,
		"dexterity": 118,
		"lucky": 63,
		"parameter_table_BattleEnemyParameterTable": 0,
		"parameter_deviation_table_BattleEnemyParameterDeviationTable": 0,
		"acquire_skill_group_id": 0,
		"level_correction": 0,
		"group_id": 0,
		"ai_script_id_BattleAIScript": 0
	},
	{
		"ID": 62952,
		"stage_BattleStage": 810003042,
		"unit_UnitUnit": 860001,
		"money": 0,
		"initial_coordinate_x": 6,
		"initial_coordinate_y": 11,
		"reinforcement_BattleReinforcement": 0,
		"initial_direction": 180.0,
		"ai_move_group": 0,
		"ai_target_move_x": -1,
		"ai_target_move_y": -1,
		"ai_skill_function": "",
		"ai_attack": "IF( turn <=6 ,IF(panel_move_distance <= 6, 1, 0),1)",
		"ai_move": "IF(turn <6,0,1)",
		"ai_heal": "",
		"ai_skill": "",
		"ai_use": "",
		"skill_group_id": 13381,
		"gear_GearGear": 65006,
		"gear_rank": 5,
		"proficiency_UnitProficiency": 5,
		"level": 82,
		"hp": 105,
		"strength": 15,
		"vitality": 86,
		"intelligence": 136,
		"mind": 98,
		"agility": 84,
		"dexterity": 90,
		"lucky": 51,
		"parameter_table_BattleEnemyParameterTable": 0,
		"parameter_deviation_table_BattleEnemyParameterDeviationTable": 0,
		"acquire_skill_group_id": 0,
		"level_correction": 0,
		"group_id": 0,
		"ai_script_id_BattleAIScript": 0
	},
	{
		"ID": 62953,
		"stage_BattleStage": 810003042,
		"unit_UnitUnit": 302013,
		"money": 0,
		"initial_coordinate_x": 12,
		"initial_coordinate_y": 12,
		"reinforcement_BattleReinforcement": 0,
		"initial_direction": 180.0,
		"ai_move_group": 0,
		"ai_target_move_x": -1,
		"ai_target_move_y": -1,
		"ai_skill_function": "",
		"ai_attack": "IF( turn <=2 ,IF(panel_move_distance <= 3, 1, 0),1)",
		"ai_move": "IF(turn <2,0,1)",
		"ai_heal": "",
		"ai_skill": "",
		"ai_use": "",
		"skill_group_id": 13907,
		"gear_GearGear": 35003,
		"gear_rank": 5,
		"proficiency_UnitProficiency": 5,
		"level": 82,
		"hp": 155,
		"strength": 105,
		"vitality": 112,
		"intelligence": 31,
		"mind": 82,
		"agility": 100,
		"dexterity": 105,
		"lucky": 63,
		"parameter_table_BattleEnemyParameterTable": 0,
		"parameter_deviation_table_BattleEnemyParameterDeviationTable": 0,
		"acquire_skill_group_id": 0,
		"level_correction": 0,
		"group_id": 0,
		"ai_script_id_BattleAIScript": 0
	},
	{
		"ID": 62954,
		"stage_BattleStage": 810003042,
		"unit_UnitUnit": 910019,
		"money": 0,
		"initial_coordinate_x": 13,
		"initial_coordinate_y": 10,
		"reinforcement_BattleReinforcement": 0,
		"initial_direction": 180.0,
		"ai_move_group": 0,
		"ai_target_move_x": -1,
		"ai_target_move_y": -1,
		"ai_skill_function": "",
		"ai_attack": "IF( turn <=3 ,IF(panel_move_distance <= 2, 1, 0),1)",
		"ai_move": "IF(turn <3,0,1)",
		"ai_heal": "",
		"ai_skill": "",
		"ai_use": "",
		"skill_group_id": 13761,
		"gear_GearGear": 15005,
		"gear_rank": 5,
		"proficiency_UnitProficiency": 5,
		"level": 82,
		"hp": 148,
		"strength": 112,
		"vitality": 113,
		"intelligence": 24,
		"mind": 32,
		"agility": 93,
		"dexterity": 105,
		"lucky": 59,
		"parameter_table_BattleEnemyParameterTable": 0,
		"parameter_deviation_table_BattleEnemyParameterDeviationTable": 0,
		"acquire_skill_group_id": 0,
		"level_correction": 0,
		"group_id": 0,
		"ai_script_id_BattleAIScript": 0
	},
	{
		"ID": 62955,
		"stage_BattleStage": 810003042,
		"unit_UnitUnit": 910019,
		"money": 0,
		"initial_coordinate_x": 12,
		"initial_coordinate_y": 9,
		"reinforcement_BattleReinforcement": 0,
		"initial_direction": 180.0,
		"ai_move_group": 0,
		"ai_target_move_x": -1,
		"ai_target_move_y": -1,
		"ai_skill_function": "",
		"ai_attack": "IF( turn <=3 ,IF(panel_move_distance <= 2, 1, 0),1)",
		"ai_move": "IF(turn <3,0,1)",
		"ai_heal": "",
		"ai_skill": "",
		"ai_use": "",
		"skill_group_id": 13761,
		"gear_GearGear": 15006,
		"gear_rank": 5,
		"proficiency_UnitProficiency": 5,
		"level": 82,
		"hp": 145,
		"strength": 109,
		"vitality": 113,
		"intelligence": 24,
		"mind": 32,
		"agility": 91,
		"dexterity": 103,
		"lucky": 39,
		"parameter_table_BattleEnemyParameterTable": 0,
		"parameter_deviation_table_BattleEnemyParameterDeviationTable": 0,
		"acquire_skill_group_id": 0,
		"level_correction": 0,
		"group_id": 0,
		"ai_script_id_BattleAIScript": 0
	},
	{
		"ID": 62956,
		"stage_BattleStage": 810003042,
		"unit_UnitUnit": 910019,
		"money": 0,
		"initial_coordinate_x": 11,
		"initial_coordinate_y": 10,
		"reinforcement_BattleReinforcement": 0,
		"initial_direction": 180.0,
		"ai_move_group": 0,
		"ai_target_move_x": -1,
		"ai_target_move_y": -1,
		"ai_skill_function": "",
		"ai_attack": "IF( turn <=3 ,IF(panel_move_distance <= 2, 1, 0),1)",
		"ai_move": "IF(turn <3,0,1)",
		"ai_heal": "",
		"ai_skill": "",
		"ai_use": "",
		"skill_group_id": 13761,
		"gear_GearGear": 15005,
		"gear_rank": 5,
		"proficiency_UnitProficiency": 5,
		"level": 82,
		"hp": 139,
		"strength": 115,
		"vitality": 117,
		"intelligence": 23,
		"mind": 29,
		"agility": 92,
		"dexterity": 104,
		"lucky": 40,
		"parameter_table_BattleEnemyParameterTable": 0,
		"parameter_deviation_table_BattleEnemyParameterDeviationTable": 0,
		"acquire_skill_group_id": 0,
		"level_correction": 0,
		"group_id": 0,
		"ai_script_id_BattleAIScript": 0
	},
	{
		"ID": 62957,
		"stage_BattleStage": 810003042,
		"unit_UnitUnit": 840004,
		"money": 0,
		"initial_coordinate_x": 3,
		"initial_coordinate_y": 10,
		"reinforcement_BattleReinforcement": 0,
		"initial_direction": 180.0,
		"ai_move_group": 0,
		"ai_target_move_x": -1,
		"ai_target_move_y": -1,
		"ai_skill_function": "",
		"ai_attack": "IF( turn <=4 ,IF(panel_move_distance <= 3, 1, 0),1)",
		"ai_move": "IF(turn <4,0,1)",
		"ai_heal": "",
		"ai_skill": "",
		"ai_use": "",
		"skill_group_id": 13681,
		"gear_GearGear": 45002,
		"gear_rank": 5,
		"proficiency_UnitProficiency": 5,
		"level": 82,
		"hp": 125,
		"strength": 101,
		"vitality": 95,
		"intelligence": 9,
		"mind": 47,
		"agility": 78,
		"dexterity": 100,
		"lucky": 38,
		"parameter_table_BattleEnemyParameterTable": 0,
		"parameter_deviation_table_BattleEnemyParameterDeviationTable": 0,
		"acquire_skill_group_id": 0,
		"level_correction": 0,
		"group_id": 0,
		"ai_script_id_BattleAIScript": 0
	},
	{
		"ID": 62958,
		"stage_BattleStage": 810003042,
		"unit_UnitUnit": 840004,
		"money": 0,
		"initial_coordinate_x": 2,
		"initial_coordinate_y": 9,
		"reinforcement_BattleReinforcement": 0,
		"initial_direction": 180.0,
		"ai_move_group": 0,
		"ai_target_move_x": -1,
		"ai_target_move_y": -1,
		"ai_skill_function": "",
		"ai_attack": "IF( turn <=4 ,IF(panel_move_distance <= 3, 1, 0),1)",
		"ai_move": "IF(turn <4,0,1)",
		"ai_heal": "",
		"ai_skill": "",
		"ai_use": "",
		"skill_group_id": 13681,
		"gear_GearGear": 45002,
		"gear_rank": 5,
		"proficiency_UnitProficiency": 5,
		"level": 82,
		"hp": 123,
		"strength": 100,
		"vitality": 93,
		"intelligence": 9,
		"mind": 47,
		"agility": 86,
		"dexterity": 98,
		"lucky": 44,
		"parameter_table_BattleEnemyParameterTable": 0,
		"parameter_deviation_table_BattleEnemyParameterDeviationTable": 0,
		"acquire_skill_group_id": 0,
		"level_correction": 0,
		"group_id": 0,
		"ai_script_id_BattleAIScript": 0
	},
	{
		"ID": 62959,
		"stage_BattleStage": 810003042,
		"unit_UnitUnit": 840004,
		"money": 0,
		"initial_coordinate_x": 3,
		"initial_coordinate_y": 8,
		"reinforcement_BattleReinforcement": 0,
		"initial_direction": 180.0,
		"ai_move_group": 0,
		"ai_target_move_x": -1,
		"ai_target_move_y": -1,
		"ai_skill_function": "",
		"ai_attack": "IF( turn <=4 ,IF(panel_move_distance <= 3, 1, 0),1)",
		"ai_move": "IF(turn <4,0,1)",
		"ai_heal": "",
		"ai_skill": "",
		"ai_use": "",
		"skill_group_id": 13681,
		"gear_GearGear": 45002,
		"gear_rank": 5,
		"proficiency_UnitProficiency": 5,
		"level": 82,
		"hp": 128,
		"strength": 101,
		"vitality": 95,
		"intelligence": 9,
		"mind": 48,
		"agility": 84,
		"dexterity": 98,
		"lucky": 44,
		"parameter_table_BattleEnemyParameterTable": 0,
		"parameter_deviation_table_BattleEnemyParameterDeviationTable": 0,
		"acquire_skill_group_id": 0,
		"level_correction": 0,
		"group_id": 0,
		"ai_script_id_BattleAIScript": 0
	},
	{
		"ID": 62960,
		"stage_BattleStage": 810003042,
		"unit_UnitUnit": 830001,
		"money": 0,
		"initial_coordinate_x": 5,
		"initial_coordinate_y": 6,
		"reinforcement_BattleReinforcement": 0,
		"initial_direction": 180.0,
		"ai_move_group": 0,
		"ai_target_move_x": -1,
		"ai_target_move_y": -1,
		"ai_skill_function": "",
		"ai_attack": "IF( turn <=2 ,IF(panel_move_distance <= 4, 1, 0),1)",
		"ai_move": "IF(turn <2,0,1)",
		"ai_heal": "",
		"ai_skill": "",
		"ai_use": "",
		"skill_group_id": 13321,
		"gear_GearGear": 35001,
		"gear_rank": 5,
		"proficiency_UnitProficiency": 5,
		"level": 82,
		"hp": 132,
		"strength": 104,
		"vitality": 107,
		"intelligence": 11,
		"mind": 59,
		"agility": 88,
		"dexterity": 95,
		"lucky": 45,
		"parameter_table_BattleEnemyParameterTable": 0,
		"parameter_deviation_table_BattleEnemyParameterDeviationTable": 0,
		"acquire_skill_group_id": 0,
		"level_correction": 0,
		"group_id": 0,
		"ai_script_id_BattleAIScript": 0
	},
	{
		"ID": 62961,
		"stage_BattleStage": 810003042,
		"unit_UnitUnit": 830001,
		"money": 0,
		"initial_coordinate_x": 12,
		"initial_coordinate_y": 6,
		"reinforcement_BattleReinforcement": 0,
		"initial_direction": 180.0,
		"ai_move_group": 0,
		"ai_target_move_x": -1,
		"ai_target_move_y": -1,
		"ai_skill_function": "",
		"ai_attack": "IF( turn <=2 ,IF(panel_move_distance <= 4, 1, 0),1)",
		"ai_move": "IF(turn <2,0,1)",
		"ai_heal": "",
		"ai_skill": "",
		"ai_use": "",
		"skill_group_id": 13321,
		"gear_GearGear": 35004,
		"gear_rank": 5,
		"proficiency_UnitProficiency": 5,
		"level": 82,
		"hp": 136,
		"strength": 102,
		"vitality": 106,
		"intelligence": 11,
		"mind": 65,
		"agility": 91,
		"dexterity": 94,
		"lucky": 47,
		"parameter_table_BattleEnemyParameterTable": 0,
		"parameter_deviation_table_BattleEnemyParameterDeviationTable": 0,
		"acquire_skill_group_id": 0,
		"level_correction": 0,
		"group_id": 0,
		"ai_script_id_BattleAIScript": 0
	},
	{
		"ID": 62962,
		"stage_BattleStage": 810003042,
		"unit_UnitUnit": 830001,
		"money": 0,
		"initial_coordinate_x": 11,
		"initial_coordinate_y": 5,
		"reinforcement_BattleReinforcement": 0,
		"initial_direction": 180.0,
		"ai_move_group": 0,
		"ai_target_move_x": -1,
		"ai_target_move_y": -1,
		"ai_skill_function": "",
		"ai_attack": "IF( turn <=2 ,IF(panel_move_distance <= 4, 1, 0),1)",
		"ai_move": "IF(turn <2,0,1)",
		"ai_heal": "",
		"ai_skill": "",
		"ai_use": "",
		"skill_group_id": 13321,
		"gear_GearGear": 35004,
		"gear_rank": 5,
		"proficiency_UnitProficiency": 5,
		"level": 82,
		"hp": 138,
		"strength": 103,
		"vitality": 113,
		"intelligence": 11,
		"mind": 58,
		"agility": 90,
		"dexterity": 97,
		"lucky": 47,
		"parameter_table_BattleEnemyParameterTable": 0,
		"parameter_deviation_table_BattleEnemyParameterDeviationTable": 0,
		"acquire_skill_group_id": 0,
		"level_correction": 0,
		"group_id": 0,
		"ai_script_id_BattleAIScript": 0
	},
	{
		"ID": 62963,
		"stage_BattleStage": 810003042,
		"unit_UnitUnit": 810004,
		"money": 0,
		"initial_coordinate_x": 13,
		"initial_coordinate_y": 3,
		"reinforcement_BattleReinforcement": 0,
		"initial_direction": 270.0,
		"ai_move_group": 0,
		"ai_target_move_x": -1,
		"ai_target_move_y": -1,
		"ai_skill_function": "",
		"ai_attack": "",
		"ai_move": "",
		"ai_heal": "",
		"ai_skill": "",
		"ai_use": "",
		"skill_group_id": 13261,
		"gear_GearGear": 15007,
		"gear_rank": 5,
		"proficiency_UnitProficiency": 5,
		"level": 82,
		"hp": 121,
		"strength": 137,
		"vitality": 99,
		"intelligence": 10,
		"mind": 61,
		"agility": 97,
		"dexterity": 103,
		"lucky": 50,
		"parameter_table_BattleEnemyParameterTable": 0,
		"parameter_deviation_table_BattleEnemyParameterDeviationTable": 0,
		"acquire_skill_group_id": 0,
		"level_correction": 0,
		"group_id": 0,
		"ai_script_id_BattleAIScript": 0
	},
	{
		"ID": 62964,
		"stage_BattleStage": 810003042,
		"unit_UnitUnit": 810004,
		"money": 0,
		"initial_coordinate_x": 12,
		"initial_coordinate_y": 2,
		"reinforcement_BattleReinforcement": 0,
		"initial_direction": 270.0,
		"ai_move_group": 0,
		"ai_target_move_x": -1,
		"ai_target_move_y": -1,
		"ai_skill_function": "",
		"ai_attack": "",
		"ai_move": "",
		"ai_heal": "",
		"ai_skill": "",
		"ai_use": "",
		"skill_group_id": 13261,
		"gear_GearGear": 15007,
		"gear_rank": 5,
		"proficiency_UnitProficiency": 5,
		"level": 82,
		"hp": 118,
		"strength": 134,
		"vitality": 98,
		"intelligence": 11,
		"mind": 58,
		"agility": 96,
		"dexterity": 102,
		"lucky": 51,
		"parameter_table_BattleEnemyParameterTable": 0,
		"parameter_deviation_table_BattleEnemyParameterDeviationTable": 0,
		"acquire_skill_group_id": 0,
		"level_correction": 0,
		"group_id": 0,
		"ai_script_id_BattleAIScript": 0
	},
	{
		"ID": 62965,
		"stage_BattleStage": 810003042,
		"unit_UnitUnit": 830004,
		"money": 0,
		"initial_coordinate_x": 2,
		"initial_coordinate_y": 2,
		"reinforcement_BattleReinforcement": 0,
		"initial_direction": 90.0,
		"ai_move_group": 0,
		"ai_target_move_x": -1,
		"ai_target_move_y": -1,
		"ai_skill_function": "",
		"ai_attack": "",
		"ai_move": "",
		"ai_heal": "",
		"ai_skill": "",
		"ai_use": "",
		"skill_group_id": 13401,
		"gear_GearGear": 35003,
		"gear_rank": 5,
		"proficiency_UnitProficiency": 5,
		"level": 82,
		"hp": 134,
		"strength": 147,
		"vitality": 117,
		"intelligence": 9,
		"mind": 68,
		"agility": 89,
		"dexterity": 98,
		"lucky": 48,
		"parameter_table_BattleEnemyParameterTable": 0,
		"parameter_deviation_table_BattleEnemyParameterDeviationTable": 0,
		"acquire_skill_group_id": 0,
		"level_correction": 0,
		"group_id": 0,
		"ai_script_id_BattleAIScript": 0
	},
	{
		"ID": 62966,
		"stage_BattleStage": 810003042,
		"unit_UnitUnit": 830004,
		"money": 0,
		"initial_coordinate_x": 2,
		"initial_coordinate_y": 1,
		"reinforcement_BattleReinforcement": 0,
		"initial_direction": 90.0,
		"ai_move_group": 0,
		"ai_target_move_x": -1,
		"ai_target_move_y": -1,
		"ai_skill_function": "",
		"ai_attack": "",
		"ai_move": "",
		"ai_heal": "",
		"ai_skill": "",
		"ai_use": "",
		"skill_group_id": 13351,
		"gear_GearGear": 35003,
		"gear_rank": 5,
		"proficiency_UnitProficiency": 5,
		"level": 82,
		"hp": 131,
		"strength": 142,
		"vitality": 114,
		"intelligence": 9,
		"mind": 65,
		"agility": 86,
		"dexterity": 94,
		"lucky": 51,
		"parameter_table_BattleEnemyParameterTable": 0,
		"parameter_deviation_table_BattleEnemyParameterDeviationTable": 0,
		"acquire_skill_group_id": 0,
		"level_correction": 0,
		"group_id": 0,
		"ai_script_id_BattleAIScript": 0
	}
]