[
	{
		"ID": 63772,
		"stage_BattleStage": 810003079,
		"unit_UnitUnit": 860001,
		"money": 0,
		"initial_coordinate_x": 4,
		"initial_coordinate_y": 2,
		"reinforcement_BattleReinforcement": 0,
		"initial_direction": 90.0,
		"ai_move_group": 0,
		"ai_target_move_x": -1,
		"ai_target_move_y": -1,
		"ai_skill_function": "",
		"ai_attack": "",
		"ai_move": "",
		"ai_heal": "",
		"ai_skill": "",
		"ai_use": "",
		"skill_group_id": 13171,
		"gear_GearGear": 66004,
		"gear_rank": 7,
		"proficiency_UnitProficiency": 6,
		"level": 90,
		"hp": 99,
		"strength": 16,
		"vitality": 83,
		"intelligence": 179,
		"mind": 117,
		"agility": 109,
		"dexterity": 113,
		"lucky": 59,
		"parameter_table_BattleEnemyParameterTable": 0,
		"parameter_deviation_table_BattleEnemyParameterDeviationTable": 0,
		"acquire_skill_group_id": 0,
		"level_correction": 0,
		"group_id": 0,
		"ai_script_id_BattleAIScript": 0
	},
	{
		"ID": 63773,
		"stage_BattleStage": 810003079,
		"unit_UnitUnit": 860001,
		"money": 0,
		"initial_coordinate_x": 4,
		"initial_coordinate_y": 3,
		"reinforcement_BattleReinforcement": 0,
		"initial_direction": 90.0,
		"ai_move_group": 0,
		"ai_target_move_x": -1,
		"ai_target_move_y": -1,
		"ai_skill_function": "",
		"ai_attack": "",
		"ai_move": "",
		"ai_heal": "",
		"ai_skill": "",
		"ai_use": "",
		"skill_group_id": 13171,
		"gear_GearGear": 66004,
		"gear_rank": 7,
		"proficiency_UnitProficiency": 6,
		"level": 90,
		"hp": 99,
		"strength": 17,
		"vitality": 83,
		"intelligence": 156,
		"mind": 117,
		"agility": 108,
		"dexterity": 115,
		"lucky": 61,
		"parameter_table_BattleEnemyParameterTable": 0,
		"parameter_deviation_table_BattleEnemyParameterDeviationTable": 0,
		"acquire_skill_group_id": 0,
		"level_correction": 0,
		"group_id": 0,
		"ai_script_id_BattleAIScript": 0
	},
	{
		"ID": 63774,
		"stage_BattleStage": 810003079,
		"unit_UnitUnit": 860001,
		"money": 0,
		"initial_coordinate_x": 20,
		"initial_coordinate_y": 2,
		"reinforcement_BattleReinforcement": 0,
		"initial_direction": 270.0,
		"ai_move_group": 0,
		"ai_target_move_x": -1,
		"ai_target_move_y": -1,
		"ai_skill_function": "",
		"ai_attack": "",
		"ai_move": "",
		"ai_heal": "",
		"ai_skill": "",
		"ai_use": "",
		"skill_group_id": 13171,
		"gear_GearGear": 66004,
		"gear_rank": 7,
		"proficiency_UnitProficiency": 6,
		"level": 90,
		"hp": 103,
		"strength": 21,
		"vitality": 81,
		"intelligence": 158,
		"mind": 117,
		"agility": 108,
		"dexterity": 116,
		"lucky": 58,
		"parameter_table_BattleEnemyParameterTable": 0,
		"parameter_deviation_table_BattleEnemyParameterDeviationTable": 0,
		"acquire_skill_group_id": 0,
		"level_correction": 0,
		"group_id": 0,
		"ai_script_id_BattleAIScript": 0
	},
	{
		"ID": 63775,
		"stage_BattleStage": 810003079,
		"unit_UnitUnit": 860001,
		"money": 0,
		"initial_coordinate_x": 20,
		"initial_coordinate_y": 1,
		"reinforcement_BattleReinforcement": 0,
		"initial_direction": 270.0,
		"ai_move_group": 0,
		"ai_target_move_x": -1,
		"ai_target_move_y": -1,
		"ai_skill_function": "",
		"ai_attack": "",
		"ai_move": "",
		"ai_heal": "",
		"ai_skill": "",
		"ai_use": "",
		"skill_group_id": 13171,
		"gear_GearGear": 66004,
		"gear_rank": 7,
		"proficiency_UnitProficiency": 6,
		"level": 90,
		"hp": 99,
		"strength": 18,
		"vitality": 81,
		"intelligence": 158,
		"mind": 120,
		"agility": 111,
		"dexterity": 113,
		"lucky": 60,
		"parameter_table_BattleEnemyParameterTable": 0,
		"parameter_deviation_table_BattleEnemyParameterDeviationTable": 0,
		"acquire_skill_group_id": 0,
		"level_correction": 0,
		"group_id": 0,
		"ai_script_id_BattleAIScript": 0
	},
	{
		"ID": 63776,
		"stage_BattleStage": 810003079,
		"unit_UnitUnit": 900016,
		"money": 0,
		"initial_coordinate_x": 11,
		"initial_coordinate_y": 9,
		"reinforcement_BattleReinforcement": 0,
		"initial_direction": 180.0,
		"ai_move_group": 0,
		"ai_target_move_x": -1,
		"ai_target_move_y": -1,
		"ai_skill_function": "",
		"ai_attack": "",
		"ai_move": "",
		"ai_heal": "",
		"ai_skill": "",
		"ai_use": "",
		"skill_group_id": 15078,
		"gear_GearGear": 80004,
		"gear_rank": 7,
		"proficiency_UnitProficiency": 1,
		"level": 90,
		"hp": 155,
		"strength": 17,
		"vitality": 101,
		"intelligence": 113,
		"mind": 114,
		"agility": 100,
		"dexterity": 143,
		"lucky": 54,
		"parameter_table_BattleEnemyParameterTable": 0,
		"parameter_deviation_table_BattleEnemyParameterDeviationTable": 0,
		"acquire_skill_group_id": 0,
		"level_correction": 0,
		"group_id": 0,
		"ai_script_id_BattleAIScript": 0
	},
	{
		"ID": 63777,
		"stage_BattleStage": 810003079,
		"unit_UnitUnit": 900016,
		"money": 0,
		"initial_coordinate_x": 13,
		"initial_coordinate_y": 9,
		"reinforcement_BattleReinforcement": 0,
		"initial_direction": 180.0,
		"ai_move_group": 0,
		"ai_target_move_x": -1,
		"ai_target_move_y": -1,
		"ai_skill_function": "",
		"ai_attack": "",
		"ai_move": "",
		"ai_heal": "",
		"ai_skill": "",
		"ai_use": "",
		"skill_group_id": 15078,
		"gear_GearGear": 80004,
		"gear_rank": 7,
		"proficiency_UnitProficiency": 1,
		"level": 90,
		"hp": 154,
		"strength": 17,
		"vitality": 103,
		"intelligence": 113,
		"mind": 114,
		"agility": 99,
		"dexterity": 141,
		"lucky": 55,
		"parameter_table_BattleEnemyParameterTable": 0,
		"parameter_deviation_table_BattleEnemyParameterDeviationTable": 0,
		"acquire_skill_group_id": 0,
		"level_correction": 0,
		"group_id": 0,
		"ai_script_id_BattleAIScript": 0
	},
	{
		"ID": 63778,
		"stage_BattleStage": 810003079,
		"unit_UnitUnit": 860001,
		"money": 0,
		"initial_coordinate_x": 8,
		"initial_coordinate_y": 6,
		"reinforcement_BattleReinforcement": 0,
		"initial_direction": 180.0,
		"ai_move_group": 0,
		"ai_target_move_x": -1,
		"ai_target_move_y": -1,
		"ai_skill_function": "",
		"ai_attack": "",
		"ai_move": "",
		"ai_heal": "",
		"ai_skill": "",
		"ai_use": "",
		"skill_group_id": 13176,
		"gear_GearGear": 66004,
		"gear_rank": 7,
		"proficiency_UnitProficiency": 6,
		"level": 90,
		"hp": 103,
		"strength": 19,
		"vitality": 81,
		"intelligence": 167,
		"mind": 117,
		"agility": 109,
		"dexterity": 114,
		"lucky": 60,
		"parameter_table_BattleEnemyParameterTable": 0,
		"parameter_deviation_table_BattleEnemyParameterDeviationTable": 0,
		"acquire_skill_group_id": 0,
		"level_correction": 0,
		"group_id": 0,
		"ai_script_id_BattleAIScript": 0
	},
	{
		"ID": 63779,
		"stage_BattleStage": 810003079,
		"unit_UnitUnit": 860001,
		"money": 0,
		"initial_coordinate_x": 9,
		"initial_coordinate_y": 7,
		"reinforcement_BattleReinforcement": 0,
		"initial_direction": 180.0,
		"ai_move_group": 0,
		"ai_target_move_x": -1,
		"ai_target_move_y": -1,
		"ai_skill_function": "",
		"ai_attack": "",
		"ai_move": "",
		"ai_heal": "",
		"ai_skill": "",
		"ai_use": "",
		"skill_group_id": 13176,
		"gear_GearGear": 66004,
		"gear_rank": 7,
		"proficiency_UnitProficiency": 6,
		"level": 90,
		"hp": 101,
		"strength": 18,
		"vitality": 79,
		"intelligence": 160,
		"mind": 118,
		"agility": 110,
		"dexterity": 113,
		"lucky": 58,
		"parameter_table_BattleEnemyParameterTable": 0,
		"parameter_deviation_table_BattleEnemyParameterDeviationTable": 0,
		"acquire_skill_group_id": 0,
		"level_correction": 0,
		"group_id": 0,
		"ai_script_id_BattleAIScript": 0
	},
	{
		"ID": 63780,
		"stage_BattleStage": 810003079,
		"unit_UnitUnit": 860001,
		"money": 0,
		"initial_coordinate_x": 10,
		"initial_coordinate_y": 8,
		"reinforcement_BattleReinforcement": 0,
		"initial_direction": 180.0,
		"ai_move_group": 0,
		"ai_target_move_x": -1,
		"ai_target_move_y": -1,
		"ai_skill_function": "",
		"ai_attack": "",
		"ai_move": "",
		"ai_heal": "",
		"ai_skill": "",
		"ai_use": "",
		"skill_group_id": 13176,
		"gear_GearGear": 66004,
		"gear_rank": 7,
		"proficiency_UnitProficiency": 6,
		"level": 90,
		"hp": 102,
		"strength": 18,
		"vitality": 78,
		"intelligence": 180,
		"mind": 123,
		"agility": 109,
		"dexterity": 116,
		"lucky": 59,
		"parameter_table_BattleEnemyParameterTable": 0,
		"parameter_deviation_table_BattleEnemyParameterDeviationTable": 0,
		"acquire_skill_group_id": 0,
		"level_correction": 0,
		"group_id": 0,
		"ai_script_id_BattleAIScript": 0
	},
	{
		"ID": 63781,
		"stage_BattleStage": 810003079,
		"unit_UnitUnit": 860001,
		"money": 0,
		"initial_coordinate_x": 16,
		"initial_coordinate_y": 6,
		"reinforcement_BattleReinforcement": 0,
		"initial_direction": 180.0,
		"ai_move_group": 0,
		"ai_target_move_x": -1,
		"ai_target_move_y": -1,
		"ai_skill_function": "",
		"ai_attack": "",
		"ai_move": "",
		"ai_heal": "",
		"ai_skill": "",
		"ai_use": "",
		"skill_group_id": 13176,
		"gear_GearGear": 66004,
		"gear_rank": 7,
		"proficiency_UnitProficiency": 6,
		"level": 90,
		"hp": 100,
		"strength": 18,
		"vitality": 79,
		"intelligence": 163,
		"mind": 123,
		"agility": 110,
		"dexterity": 117,
		"lucky": 58,
		"parameter_table_BattleEnemyParameterTable": 0,
		"parameter_deviation_table_BattleEnemyParameterDeviationTable": 0,
		"acquire_skill_group_id": 0,
		"level_correction": 0,
		"group_id": 0,
		"ai_script_id_BattleAIScript": 0
	},
	{
		"ID": 63782,
		"stage_BattleStage": 810003079,
		"unit_UnitUnit": 860001,
		"money": 0,
		"initial_coordinate_x": 15,
		"initial_coordinate_y": 7,
		"reinforcement_BattleReinforcement": 0,
		"initial_direction": 180.0,
		"ai_move_group": 0,
		"ai_target_move_x": -1,
		"ai_target_move_y": -1,
		"ai_skill_function": "",
		"ai_attack": "",
		"ai_move": "",
		"ai_heal": "",
		"ai_skill": "",
		"ai_use": "",
		"skill_group_id": 13172,
		"gear_GearGear": 66004,
		"gear_rank": 7,
		"proficiency_UnitProficiency": 6,
		"level": 90,
		"hp": 100,
		"strength": 16,
		"vitality": 79,
		"intelligence": 171,
		"mind": 120,
		"agility": 112,
		"dexterity": 119,
		"lucky": 58,
		"parameter_table_BattleEnemyParameterTable": 0,
		"parameter_deviation_table_BattleEnemyParameterDeviationTable": 0,
		"acquire_skill_group_id": 0,
		"level_correction": 0,
		"group_id": 0,
		"ai_script_id_BattleAIScript": 0
	},
	{
		"ID": 63783,
		"stage_BattleStage": 810003079,
		"unit_UnitUnit": 860001,
		"money": 0,
		"initial_coordinate_x": 14,
		"initial_coordinate_y": 8,
		"reinforcement_BattleReinforcement": 0,
		"initial_direction": 180.0,
		"ai_move_group": 0,
		"ai_target_move_x": -1,
		"ai_target_move_y": -1,
		"ai_skill_function": "",
		"ai_attack": "",
		"ai_move": "",
		"ai_heal": "",
		"ai_skill": "",
		"ai_use": "",
		"skill_group_id": 13172,
		"gear_GearGear": 66004,
		"gear_rank": 7,
		"proficiency_UnitProficiency": 6,
		"level": 90,
		"hp": 100,
		"strength": 17,
		"vitality": 81,
		"intelligence": 180,
		"mind": 117,
		"agility": 112,
		"dexterity": 114,
		"lucky": 60,
		"parameter_table_BattleEnemyParameterTable": 0,
		"parameter_deviation_table_BattleEnemyParameterDeviationTable": 0,
		"acquire_skill_group_id": 0,
		"level_correction": 0,
		"group_id": 0,
		"ai_script_id_BattleAIScript": 0
	},
	{
		"ID": 63784,
		"stage_BattleStage": 810003079,
		"unit_UnitUnit": 860001,
		"money": 0,
		"initial_coordinate_x": 1,
		"initial_coordinate_y": 6,
		"reinforcement_BattleReinforcement": 0,
		"initial_direction": 180.0,
		"ai_move_group": 0,
		"ai_target_move_x": -1,
		"ai_target_move_y": -1,
		"ai_skill_function": "",
		"ai_attack": "",
		"ai_move": "",
		"ai_heal": "",
		"ai_skill": "",
		"ai_use": "",
		"skill_group_id": 13172,
		"gear_GearGear": 66004,
		"gear_rank": 7,
		"proficiency_UnitProficiency": 6,
		"level": 90,
		"hp": 102,
		"strength": 17,
		"vitality": 80,
		"intelligence": 172,
		"mind": 123,
		"agility": 108,
		"dexterity": 116,
		"lucky": 60,
		"parameter_table_BattleEnemyParameterTable": 0,
		"parameter_deviation_table_BattleEnemyParameterDeviationTable": 0,
		"acquire_skill_group_id": 0,
		"level_correction": 0,
		"group_id": 0,
		"ai_script_id_BattleAIScript": 0
	},
	{
		"ID": 63785,
		"stage_BattleStage": 810003079,
		"unit_UnitUnit": 860001,
		"money": 0,
		"initial_coordinate_x": 2,
		"initial_coordinate_y": 7,
		"reinforcement_BattleReinforcement": 0,
		"initial_direction": 180.0,
		"ai_move_group": 0,
		"ai_target_move_x": -1,
		"ai_target_move_y": -1,
		"ai_skill_function": "",
		"ai_attack": "",
		"ai_move": "",
		"ai_heal": "",
		"ai_skill": "",
		"ai_use": "",
		"skill_group_id": 13172,
		"gear_GearGear": 66004,
		"gear_rank": 7,
		"proficiency_UnitProficiency": 6,
		"level": 90,
		"hp": 101,
		"strength": 16,
		"vitality": 80,
		"intelligence": 175,
		"mind": 118,
		"agility": 109,
		"dexterity": 114,
		"lucky": 61,
		"parameter_table_BattleEnemyParameterTable": 0,
		"parameter_deviation_table_BattleEnemyParameterDeviationTable": 0,
		"acquire_skill_group_id": 0,
		"level_correction": 0,
		"group_id": 0,
		"ai_script_id_BattleAIScript": 0
	},
	{
		"ID": 63786,
		"stage_BattleStage": 810003079,
		"unit_UnitUnit": 802201,
		"money": 0,
		"initial_coordinate_x": 11,
		"initial_coordinate_y": 13,
		"reinforcement_BattleReinforcement": 0,
		"initial_direction": 180.0,
		"ai_move_group": 0,
		"ai_target_move_x": -1,
		"ai_target_move_y": -1,
		"ai_skill_function": "",
		"ai_attack": "IF(panel_move_distance <= 5, 1, 0)",
		"ai_move": "IF(turn <2,0,1)",
		"ai_heal": "",
		"ai_skill": "",
		"ai_use": "",
		"skill_group_id": 17023,
		"gear_GearGear": 80011,
		"gear_rank": 7,
		"proficiency_UnitProficiency": 1,
		"level": 90,
		"hp": 502,
		"strength": 16,
		"vitality": 101,
		"intelligence": 83,
		"mind": 132,
		"agility": 72,
		"dexterity": 110,
		"lucky": 12,
		"parameter_table_BattleEnemyParameterTable": 0,
		"parameter_deviation_table_BattleEnemyParameterDeviationTable": 0,
		"acquire_skill_group_id": 0,
		"level_correction": 0,
		"group_id": 0,
		"ai_script_id_BattleAIScript": 0
	},
	{
		"ID": 63787,
		"stage_BattleStage": 810003079,
		"unit_UnitUnit": 802201,
		"money": 0,
		"initial_coordinate_x": 12,
		"initial_coordinate_y": 13,
		"reinforcement_BattleReinforcement": 0,
		"initial_direction": 180.0,
		"ai_move_group": 0,
		"ai_target_move_x": -1,
		"ai_target_move_y": -1,
		"ai_skill_function": "",
		"ai_attack": "IF(panel_move_distance <= 5, 1, 0)",
		"ai_move": "IF(turn <2,0,1)",
		"ai_heal": "",
		"ai_skill": "",
		"ai_use": "",
		"skill_group_id": 17023,
		"gear_GearGear": 80011,
		"gear_rank": 7,
		"proficiency_UnitProficiency": 1,
		"level": 90,
		"hp": 500,
		"strength": 15,
		"vitality": 100,
		"intelligence": 85,
		"mind": 133,
		"agility": 73,
		"dexterity": 112,
		"lucky": 13,
		"parameter_table_BattleEnemyParameterTable": 0,
		"parameter_deviation_table_BattleEnemyParameterDeviationTable": 0,
		"acquire_skill_group_id": 0,
		"level_correction": 0,
		"group_id": 0,
		"ai_script_id_BattleAIScript": 0
	},
	{
		"ID": 63788,
		"stage_BattleStage": 810003079,
		"unit_UnitUnit": 840008,
		"money": 0,
		"initial_coordinate_x": 15,
		"initial_coordinate_y": 11,
		"reinforcement_BattleReinforcement": 0,
		"initial_direction": 180.0,
		"ai_move_group": 0,
		"ai_target_move_x": -1,
		"ai_target_move_y": -1,
		"ai_skill_function": "",
		"ai_attack": "IF(panel_move_distance <= 5, 1, 0)",
		"ai_move": "IF(turn <2,0,1)",
		"ai_heal": "",
		"ai_skill": "",
		"ai_use": "",
		"skill_group_id": 13432,
		"gear_GearGear": 44003,
		"gear_rank": 7,
		"proficiency_UnitProficiency": 4,
		"level": 90,
		"hp": 151,
		"strength": 160,
		"vitality": 103,
		"intelligence": 10,
		"mind": 93,
		"agility": 137,
		"dexterity": 142,
		"lucky": 56,
		"parameter_table_BattleEnemyParameterTable": 0,
		"parameter_deviation_table_BattleEnemyParameterDeviationTable": 0,
		"acquire_skill_group_id": 0,
		"level_correction": 0,
		"group_id": 0,
		"ai_script_id_BattleAIScript": 0
	},
	{
		"ID": 63789,
		"stage_BattleStage": 810003079,
		"unit_UnitUnit": 840008,
		"money": 0,
		"initial_coordinate_x": 16,
		"initial_coordinate_y": 10,
		"reinforcement_BattleReinforcement": 0,
		"initial_direction": 180.0,
		"ai_move_group": 0,
		"ai_target_move_x": -1,
		"ai_target_move_y": -1,
		"ai_skill_function": "",
		"ai_attack": "IF(panel_move_distance <= 5, 1, 0)",
		"ai_move": "IF(turn <2,0,1)",
		"ai_heal": "",
		"ai_skill": "",
		"ai_use": "",
		"skill_group_id": 13432,
		"gear_GearGear": 44003,
		"gear_rank": 7,
		"proficiency_UnitProficiency": 4,
		"level": 90,
		"hp": 152,
		"strength": 178,
		"vitality": 102,
		"intelligence": 11,
		"mind": 91,
		"agility": 137,
		"dexterity": 142,
		"lucky": 56,
		"parameter_table_BattleEnemyParameterTable": 0,
		"parameter_deviation_table_BattleEnemyParameterDeviationTable": 0,
		"acquire_skill_group_id": 0,
		"level_correction": 0,
		"group_id": 0,
		"ai_script_id_BattleAIScript": 0
	},
	{
		"ID": 63790,
		"stage_BattleStage": 810003079,
		"unit_UnitUnit": 200473,
		"money": 0,
		"initial_coordinate_x": 12,
		"initial_coordinate_y": 8,
		"reinforcement_BattleReinforcement": 0,
		"initial_direction": 180.0,
		"ai_move_group": 0,
		"ai_target_move_x": -1,
		"ai_target_move_y": -1,
		"ai_skill_function": "",
		"ai_attack": "IF(panel_move_distance <= 5, 1, 0)",
		"ai_move": "IF(turn <2,0,1)",
		"ai_heal": "",
		"ai_skill": "",
		"ai_use": "",
		"skill_group_id": 13555,
		"gear_GearGear": 26007,
		"gear_rank": 7,
		"proficiency_UnitProficiency": 6,
		"level": 90,
		"hp": 459,
		"strength": 143,
		"vitality": 117,
		"intelligence": 19,
		"mind": 77,
		"agility": 125,
		"dexterity": 128,
		"lucky": 52,
		"parameter_table_BattleEnemyParameterTable": 0,
		"parameter_deviation_table_BattleEnemyParameterDeviationTable": 0,
		"acquire_skill_group_id": 0,
		"level_correction": 0,
		"group_id": 0,
		"ai_script_id_BattleAIScript": 0
	},
	{
		"ID": 63791,
		"stage_BattleStage": 810003079,
		"unit_UnitUnit": 400153,
		"money": 0,
		"initial_coordinate_x": 17,
		"initial_coordinate_y": 9,
		"reinforcement_BattleReinforcement": 0,
		"initial_direction": 180.0,
		"ai_move_group": 0,
		"ai_target_move_x": -1,
		"ai_target_move_y": -1,
		"ai_skill_function": "",
		"ai_attack": "",
		"ai_move": "IF(turn <2,0,1)",
		"ai_heal": "",
		"ai_skill": "",
		"ai_use": "",
		"skill_group_id": 13557,
		"gear_GearGear": 46012,
		"gear_rank": 7,
		"proficiency_UnitProficiency": 6,
		"level": 90,
		"hp": 450,
		"strength": 133,
		"vitality": 120,
		"intelligence": 27,
		"mind": 75,
		"agility": 114,
		"dexterity": 130,
		"lucky": 64,
		"parameter_table_BattleEnemyParameterTable": 0,
		"parameter_deviation_table_BattleEnemyParameterDeviationTable": 0,
		"acquire_skill_group_id": 0,
		"level_correction": 0,
		"group_id": 0,
		"ai_script_id_BattleAIScript": 0
	},
	{
		"ID": 63792,
		"stage_BattleStage": 810003079,
		"unit_UnitUnit": 100163,
		"money": 0,
		"initial_coordinate_x": 16,
		"initial_coordinate_y": 12,
		"reinforcement_BattleReinforcement": 0,
		"initial_direction": 180.0,
		"ai_move_group": 0,
		"ai_target_move_x": -1,
		"ai_target_move_y": -1,
		"ai_skill_function": "",
		"ai_attack": "IF(panel_move_distance <= 4, 1, 0)",
		"ai_move": "IF(turn <2,0,1)",
		"ai_heal": "",
		"ai_skill": "",
		"ai_use": "",
		"skill_group_id": 13554,
		"gear_GearGear": 16035,
		"gear_rank": 7,
		"proficiency_UnitProficiency": 6,
		"level": 90,
		"hp": 437,
		"strength": 115,
		"vitality": 95,
		"intelligence": 54,
		"mind": 87,
		"agility": 120,
		"dexterity": 126,
		"lucky": 83,
		"parameter_table_BattleEnemyParameterTable": 0,
		"parameter_deviation_table_BattleEnemyParameterDeviationTable": 0,
		"acquire_skill_group_id": 0,
		"level_correction": 0,
		"group_id": 0,
		"ai_script_id_BattleAIScript": 0
	},
	{
		"ID": 63793,
		"stage_BattleStage": 810003079,
		"unit_UnitUnit": 101473,
		"money": 0,
		"initial_coordinate_x": 17,
		"initial_coordinate_y": 12,
		"reinforcement_BattleReinforcement": 0,
		"initial_direction": 180.0,
		"ai_move_group": 0,
		"ai_target_move_x": -1,
		"ai_target_move_y": -1,
		"ai_skill_function": "",
		"ai_attack": "IF(panel_move_distance <= 4, 1, 0)",
		"ai_move": "IF(turn <2,0,1)",
		"ai_heal": "",
		"ai_skill": "",
		"ai_use": "",
		"skill_group_id": 17035,
		"gear_GearGear": 16035,
		"gear_rank": 7,
		"proficiency_UnitProficiency": 6,
		"level": 90,
		"hp": 457,
		"strength": 125,
		"vitality": 96,
		"intelligence": 26,
		"mind": 87,
		"agility": 140,
		"dexterity": 142,
		"lucky": 56,
		"parameter_table_BattleEnemyParameterTable": 0,
		"parameter_deviation_table_BattleEnemyParameterDeviationTable": 0,
		"acquire_skill_group_id": 0,
		"level_correction": 0,
		"group_id": 0,
		"ai_script_id_BattleAIScript": 0
	}
]