[
	{
		"ID": 54718,
		"stage_BattleStage": 810001055,
		"unit_UnitUnit": 401713,
		"money": 0,
		"initial_coordinate_x": 2,
		"initial_coordinate_y": 12,
		"reinforcement_BattleReinforcement": 0,
		"initial_direction": 90.0,
		"ai_move_group": 0,
		"ai_target_move_x": -1,
		"ai_target_move_y": -1,
		"ai_skill_function": "",
		"ai_attack": "IF( turn <=5 ,IF(panel_move_distance <= 1, 1, 0),1)",
		"ai_move": "IF(turn <=5,0,1)",
		"ai_heal": "",
		"ai_skill": "",
		"ai_use": "",
		"skill_group_id": 16362,
		"gear_GearGear": 45015,
		"gear_rank": 5,
		"proficiency_UnitProficiency": 5,
		"level": 90,
		"hp": 346,
		"strength": 103,
		"vitality": 60,
		"intelligence": 25,
		"mind": 68,
		"agility": 123,
		"dexterity": 118,
		"lucky": 51,
		"parameter_table_BattleEnemyParameterTable": 0,
		"parameter_deviation_table_BattleEnemyParameterDeviationTable": 0,
		"acquire_skill_group_id": 0,
		"level_correction": 0,
		"group_id": 0,
		"ai_script_id_BattleAIScript": 0
	},
	{
		"ID": 54719,
		"stage_BattleStage": 810001055,
		"unit_UnitUnit": 602013,
		"money": 0,
		"initial_coordinate_x": 1,
		"initial_coordinate_y": 12,
		"reinforcement_BattleReinforcement": 0,
		"initial_direction": 90.0,
		"ai_move_group": 0,
		"ai_target_move_x": -1,
		"ai_target_move_y": -1,
		"ai_skill_function": "",
		"ai_attack": "IF( turn <=5 ,IF(panel_move_distance <= 2, 1, 0),1)",
		"ai_move": "IF(turn <=5,0,1)",
		"ai_heal": "",
		"ai_skill": "",
		"ai_use": "",
		"skill_group_id": 16363,
		"gear_GearGear": 65014,
		"gear_rank": 5,
		"proficiency_UnitProficiency": 5,
		"level": 90,
		"hp": 329,
		"strength": 25,
		"vitality": 54,
		"intelligence": 99,
		"mind": 89,
		"agility": 115,
		"dexterity": 117,
		"lucky": 53,
		"parameter_table_BattleEnemyParameterTable": 0,
		"parameter_deviation_table_BattleEnemyParameterDeviationTable": 0,
		"acquire_skill_group_id": 0,
		"level_correction": 0,
		"group_id": 0,
		"ai_script_id_BattleAIScript": 0
	},
	{
		"ID": 54720,
		"stage_BattleStage": 810001055,
		"unit_UnitUnit": 830008,
		"money": 0,
		"initial_coordinate_x": 3,
		"initial_coordinate_y": 13,
		"reinforcement_BattleReinforcement": 0,
		"initial_direction": 90.0,
		"ai_move_group": 0,
		"ai_target_move_x": -1,
		"ai_target_move_y": -1,
		"ai_skill_function": "",
		"ai_attack": "IF( turn <=5 ,IF(panel_move_distance <= 2, 1, 0),1)",
		"ai_move": "IF(turn <=5,0,10)",
		"ai_heal": "",
		"ai_skill": "",
		"ai_use": "",
		"skill_group_id": 14503,
		"gear_GearGear": 35002,
		"gear_rank": 5,
		"proficiency_UnitProficiency": 5,
		"level": 90,
		"hp": 151,
		"strength": 109,
		"vitality": 114,
		"intelligence": 11,
		"mind": 84,
		"agility": 85,
		"dexterity": 95,
		"lucky": 49,
		"parameter_table_BattleEnemyParameterTable": 0,
		"parameter_deviation_table_BattleEnemyParameterDeviationTable": 0,
		"acquire_skill_group_id": 0,
		"level_correction": 0,
		"group_id": 0,
		"ai_script_id_BattleAIScript": 0
	},
	{
		"ID": 54721,
		"stage_BattleStage": 810001055,
		"unit_UnitUnit": 830008,
		"money": 0,
		"initial_coordinate_x": 3,
		"initial_coordinate_y": 11,
		"reinforcement_BattleReinforcement": 0,
		"initial_direction": 90.0,
		"ai_move_group": 0,
		"ai_target_move_x": -1,
		"ai_target_move_y": -1,
		"ai_skill_function": "",
		"ai_attack": "IF( turn <=5 ,IF(panel_move_distance <= 2, 1, 0),1)",
		"ai_move": "IF(turn <=5,0,10)",
		"ai_heal": "",
		"ai_skill": "",
		"ai_use": "",
		"skill_group_id": 14513,
		"gear_GearGear": 35002,
		"gear_rank": 5,
		"proficiency_UnitProficiency": 5,
		"level": 90,
		"hp": 149,
		"strength": 106,
		"vitality": 113,
		"intelligence": 9,
		"mind": 84,
		"agility": 85,
		"dexterity": 95,
		"lucky": 46,
		"parameter_table_BattleEnemyParameterTable": 0,
		"parameter_deviation_table_BattleEnemyParameterDeviationTable": 0,
		"acquire_skill_group_id": 0,
		"level_correction": 0,
		"group_id": 0,
		"ai_script_id_BattleAIScript": 0
	},
	{
		"ID": 54722,
		"stage_BattleStage": 810001055,
		"unit_UnitUnit": 830008,
		"money": 0,
		"initial_coordinate_x": 6,
		"initial_coordinate_y": 11,
		"reinforcement_BattleReinforcement": 0,
		"initial_direction": 180.0,
		"ai_move_group": 0,
		"ai_target_move_x": -1,
		"ai_target_move_y": -1,
		"ai_skill_function": "",
		"ai_attack": "IF( turn <=4 ,IF(panel_move_distance <= 1, 1, 0),1)",
		"ai_move": "IF(turn <=4,0,10)",
		"ai_heal": "",
		"ai_skill": "",
		"ai_use": "",
		"skill_group_id": 14503,
		"gear_GearGear": 35003,
		"gear_rank": 5,
		"proficiency_UnitProficiency": 5,
		"level": 90,
		"hp": 148,
		"strength": 110,
		"vitality": 117,
		"intelligence": 12,
		"mind": 83,
		"agility": 86,
		"dexterity": 93,
		"lucky": 50,
		"parameter_table_BattleEnemyParameterTable": 0,
		"parameter_deviation_table_BattleEnemyParameterDeviationTable": 0,
		"acquire_skill_group_id": 0,
		"level_correction": 0,
		"group_id": 0,
		"ai_script_id_BattleAIScript": 0
	},
	{
		"ID": 54723,
		"stage_BattleStage": 810001055,
		"unit_UnitUnit": 840004,
		"money": 0,
		"initial_coordinate_x": 6,
		"initial_coordinate_y": 14,
		"reinforcement_BattleReinforcement": 0,
		"initial_direction": 180.0,
		"ai_move_group": 0,
		"ai_target_move_x": -1,
		"ai_target_move_y": -1,
		"ai_skill_function": "",
		"ai_attack": "IF( turn <=4 ,IF(panel_move_distance <= 2, 1, 0),1)",
		"ai_move": "IF(turn <=4,0,1)",
		"ai_heal": "",
		"ai_skill": "",
		"ai_use": "",
		"skill_group_id": 15043,
		"gear_GearGear": 45001,
		"gear_rank": 5,
		"proficiency_UnitProficiency": 5,
		"level": 90,
		"hp": 103,
		"strength": 79,
		"vitality": 72,
		"intelligence": 9,
		"mind": 67,
		"agility": 96,
		"dexterity": 101,
		"lucky": 51,
		"parameter_table_BattleEnemyParameterTable": 0,
		"parameter_deviation_table_BattleEnemyParameterDeviationTable": 0,
		"acquire_skill_group_id": 0,
		"level_correction": 0,
		"group_id": 0,
		"ai_script_id_BattleAIScript": 0
	},
	{
		"ID": 54724,
		"stage_BattleStage": 810001055,
		"unit_UnitUnit": 840004,
		"money": 0,
		"initial_coordinate_x": 7,
		"initial_coordinate_y": 14,
		"reinforcement_BattleReinforcement": 0,
		"initial_direction": 180.0,
		"ai_move_group": 0,
		"ai_target_move_x": -1,
		"ai_target_move_y": -1,
		"ai_skill_function": "",
		"ai_attack": "IF( turn <=4 ,IF(panel_move_distance <= 2, 1, 0),1)",
		"ai_move": "IF(turn <=4,0,1)",
		"ai_heal": "",
		"ai_skill": "",
		"ai_use": "",
		"skill_group_id": 15043,
		"gear_GearGear": 45001,
		"gear_rank": 5,
		"proficiency_UnitProficiency": 5,
		"level": 90,
		"hp": 100,
		"strength": 77,
		"vitality": 76,
		"intelligence": 10,
		"mind": 71,
		"agility": 98,
		"dexterity": 103,
		"lucky": 51,
		"parameter_table_BattleEnemyParameterTable": 0,
		"parameter_deviation_table_BattleEnemyParameterDeviationTable": 0,
		"acquire_skill_group_id": 0,
		"level_correction": 0,
		"group_id": 0,
		"ai_script_id_BattleAIScript": 0
	},
	{
		"ID": 54725,
		"stage_BattleStage": 810001055,
		"unit_UnitUnit": 301833,
		"money": 0,
		"initial_coordinate_x": 9,
		"initial_coordinate_y": 11,
		"reinforcement_BattleReinforcement": 0,
		"initial_direction": 180.0,
		"ai_move_group": 0,
		"ai_target_move_x": -1,
		"ai_target_move_y": -1,
		"ai_skill_function": "",
		"ai_attack": "IF( turn <=4 ,IF(panel_move_distance <= 7, 1, 0),1)",
		"ai_move": "IF(turn <=4,0,10)",
		"ai_heal": "",
		"ai_skill": "",
		"ai_use": "",
		"skill_group_id": 16364,
		"gear_GearGear": 36001,
		"gear_rank": 5,
		"proficiency_UnitProficiency": 6,
		"level": 90,
		"hp": 281,
		"strength": 90,
		"vitality": 81,
		"intelligence": 17,
		"mind": 73,
		"agility": 113,
		"dexterity": 109,
		"lucky": 64,
		"parameter_table_BattleEnemyParameterTable": 0,
		"parameter_deviation_table_BattleEnemyParameterDeviationTable": 0,
		"acquire_skill_group_id": 0,
		"level_correction": 0,
		"group_id": 0,
		"ai_script_id_BattleAIScript": 0
	},
	{
		"ID": 54726,
		"stage_BattleStage": 810001055,
		"unit_UnitUnit": 840004,
		"money": 0,
		"initial_coordinate_x": 9,
		"initial_coordinate_y": 14,
		"reinforcement_BattleReinforcement": 0,
		"initial_direction": 180.0,
		"ai_move_group": 0,
		"ai_target_move_x": -1,
		"ai_target_move_y": -1,
		"ai_skill_function": "",
		"ai_attack": "IF( turn <=4 ,IF(panel_move_distance <= 2, 1, 0),1)",
		"ai_move": "IF(turn <=4,0,1)",
		"ai_heal": "",
		"ai_skill": "",
		"ai_use": "",
		"skill_group_id": 13433,
		"gear_GearGear": 45002,
		"gear_rank": 5,
		"proficiency_UnitProficiency": 5,
		"level": 90,
		"hp": 99,
		"strength": 78,
		"vitality": 74,
		"intelligence": 12,
		"mind": 70,
		"agility": 96,
		"dexterity": 103,
		"lucky": 51,
		"parameter_table_BattleEnemyParameterTable": 0,
		"parameter_deviation_table_BattleEnemyParameterDeviationTable": 0,
		"acquire_skill_group_id": 0,
		"level_correction": 0,
		"group_id": 0,
		"ai_script_id_BattleAIScript": 0
	},
	{
		"ID": 54727,
		"stage_BattleStage": 810001055,
		"unit_UnitUnit": 840004,
		"money": 0,
		"initial_coordinate_x": 10,
		"initial_coordinate_y": 14,
		"reinforcement_BattleReinforcement": 0,
		"initial_direction": 180.0,
		"ai_move_group": 0,
		"ai_target_move_x": -1,
		"ai_target_move_y": -1,
		"ai_skill_function": "",
		"ai_attack": "IF( turn <=4 ,IF(panel_move_distance <= 2, 1, 0),1)",
		"ai_move": "IF(turn <=4,0,1)",
		"ai_heal": "",
		"ai_skill": "",
		"ai_use": "",
		"skill_group_id": 13433,
		"gear_GearGear": 45002,
		"gear_rank": 5,
		"proficiency_UnitProficiency": 5,
		"level": 90,
		"hp": 99,
		"strength": 79,
		"vitality": 74,
		"intelligence": 9,
		"mind": 71,
		"agility": 95,
		"dexterity": 99,
		"lucky": 50,
		"parameter_table_BattleEnemyParameterTable": 0,
		"parameter_deviation_table_BattleEnemyParameterDeviationTable": 0,
		"acquire_skill_group_id": 0,
		"level_correction": 0,
		"group_id": 0,
		"ai_script_id_BattleAIScript": 0
	},
	{
		"ID": 54728,
		"stage_BattleStage": 810001055,
		"unit_UnitUnit": 300133,
		"money": 0,
		"initial_coordinate_x": 15,
		"initial_coordinate_y": 11,
		"reinforcement_BattleReinforcement": 0,
		"initial_direction": 180.0,
		"ai_move_group": 0,
		"ai_target_move_x": -1,
		"ai_target_move_y": -1,
		"ai_skill_function": "",
		"ai_attack": "IF( turn <=4 ,IF(panel_move_distance <= 7, 1, 0),1)",
		"ai_move": "IF(turn <=4,0,1)",
		"ai_heal": "",
		"ai_skill": "",
		"ai_use": "",
		"skill_group_id": 16365,
		"gear_GearGear": 36001,
		"gear_rank": 5,
		"proficiency_UnitProficiency": 6,
		"level": 90,
		"hp": 280,
		"strength": 101,
		"vitality": 88,
		"intelligence": 33,
		"mind": 39,
		"agility": 94,
		"dexterity": 100,
		"lucky": 64,
		"parameter_table_BattleEnemyParameterTable": 0,
		"parameter_deviation_table_BattleEnemyParameterDeviationTable": 0,
		"acquire_skill_group_id": 0,
		"level_correction": 0,
		"group_id": 0,
		"ai_script_id_BattleAIScript": 0
	},
	{
		"ID": 54729,
		"stage_BattleStage": 810001055,
		"unit_UnitUnit": 830003,
		"money": 0,
		"initial_coordinate_x": 12,
		"initial_coordinate_y": 9,
		"reinforcement_BattleReinforcement": 0,
		"initial_direction": 180.0,
		"ai_move_group": 0,
		"ai_target_move_x": -1,
		"ai_target_move_y": -1,
		"ai_skill_function": "",
		"ai_attack": "IF( turn <=4 ,IF(panel_move_distance <= 1, 1, 0),1)",
		"ai_move": "IF(turn <=4,0,1)",
		"ai_heal": "",
		"ai_skill": "",
		"ai_use": "",
		"skill_group_id": 14523,
		"gear_GearGear": 35001,
		"gear_rank": 5,
		"proficiency_UnitProficiency": 5,
		"level": 90,
		"hp": 141,
		"strength": 93,
		"vitality": 122,
		"intelligence": 12,
		"mind": 69,
		"agility": 87,
		"dexterity": 93,
		"lucky": 50,
		"parameter_table_BattleEnemyParameterTable": 0,
		"parameter_deviation_table_BattleEnemyParameterDeviationTable": 0,
		"acquire_skill_group_id": 0,
		"level_correction": 0,
		"group_id": 0,
		"ai_script_id_BattleAIScript": 0
	},
	{
		"ID": 54730,
		"stage_BattleStage": 810001055,
		"unit_UnitUnit": 830003,
		"money": 0,
		"initial_coordinate_x": 13,
		"initial_coordinate_y": 8,
		"reinforcement_BattleReinforcement": 0,
		"initial_direction": 180.0,
		"ai_move_group": 0,
		"ai_target_move_x": -1,
		"ai_target_move_y": -1,
		"ai_skill_function": "",
		"ai_attack": "IF( turn <=4 ,IF(panel_move_distance <= 1, 1, 0),1)",
		"ai_move": "IF(turn <=4,0,1)",
		"ai_heal": "",
		"ai_skill": "",
		"ai_use": "",
		"skill_group_id": 14523,
		"gear_GearGear": 35001,
		"gear_rank": 5,
		"proficiency_UnitProficiency": 5,
		"level": 90,
		"hp": 144,
		"strength": 97,
		"vitality": 118,
		"intelligence": 8,
		"mind": 69,
		"agility": 88,
		"dexterity": 89,
		"lucky": 52,
		"parameter_table_BattleEnemyParameterTable": 0,
		"parameter_deviation_table_BattleEnemyParameterDeviationTable": 0,
		"acquire_skill_group_id": 0,
		"level_correction": 0,
		"group_id": 0,
		"ai_script_id_BattleAIScript": 0
	},
	{
		"ID": 54731,
		"stage_BattleStage": 810001055,
		"unit_UnitUnit": 810004,
		"money": 0,
		"initial_coordinate_x": 15,
		"initial_coordinate_y": 4,
		"reinforcement_BattleReinforcement": 0,
		"initial_direction": 270.0,
		"ai_move_group": 0,
		"ai_target_move_x": -1,
		"ai_target_move_y": -1,
		"ai_skill_function": "",
		"ai_attack": "IF( turn <=3 ,IF(panel_move_distance <= 4, 1, 0),1)",
		"ai_move": "IF(turn <=3,0,1)",
		"ai_heal": "",
		"ai_skill": "",
		"ai_use": "",
		"skill_group_id": 13413,
		"gear_GearGear": 15004,
		"gear_rank": 5,
		"proficiency_UnitProficiency": 5,
		"level": 90,
		"hp": 107,
		"strength": 88,
		"vitality": 77,
		"intelligence": 9,
		"mind": 68,
		"agility": 101,
		"dexterity": 107,
		"lucky": 53,
		"parameter_table_BattleEnemyParameterTable": 0,
		"parameter_deviation_table_BattleEnemyParameterDeviationTable": 0,
		"acquire_skill_group_id": 0,
		"level_correction": 0,
		"group_id": 0,
		"ai_script_id_BattleAIScript": 0
	},
	{
		"ID": 54732,
		"stage_BattleStage": 810001055,
		"unit_UnitUnit": 810004,
		"money": 0,
		"initial_coordinate_x": 14,
		"initial_coordinate_y": 3,
		"reinforcement_BattleReinforcement": 0,
		"initial_direction": 270.0,
		"ai_move_group": 0,
		"ai_target_move_x": -1,
		"ai_target_move_y": -1,
		"ai_skill_function": "",
		"ai_attack": "IF( turn <=3 ,IF(panel_move_distance <= 4, 1, 0),1)",
		"ai_move": "IF(turn <=3,0,1)",
		"ai_heal": "",
		"ai_skill": "",
		"ai_use": "",
		"skill_group_id": 13413,
		"gear_GearGear": 14007,
		"gear_rank": 5,
		"proficiency_UnitProficiency": 4,
		"level": 90,
		"hp": 108,
		"strength": 87,
		"vitality": 76,
		"intelligence": 12,
		"mind": 69,
		"agility": 100,
		"dexterity": 107,
		"lucky": 54,
		"parameter_table_BattleEnemyParameterTable": 0,
		"parameter_deviation_table_BattleEnemyParameterDeviationTable": 0,
		"acquire_skill_group_id": 0,
		"level_correction": 0,
		"group_id": 0,
		"ai_script_id_BattleAIScript": 0
	},
	{
		"ID": 54733,
		"stage_BattleStage": 810001055,
		"unit_UnitUnit": 810004,
		"money": 0,
		"initial_coordinate_x": 13,
		"initial_coordinate_y": 2,
		"reinforcement_BattleReinforcement": 0,
		"initial_direction": 270.0,
		"ai_move_group": 0,
		"ai_target_move_x": -1,
		"ai_target_move_y": -1,
		"ai_skill_function": "",
		"ai_attack": "IF( turn <=3 ,IF(panel_move_distance <= 4, 1, 0),1)",
		"ai_move": "IF(turn <=3,0,1)",
		"ai_heal": "",
		"ai_skill": "",
		"ai_use": "",
		"skill_group_id": 13413,
		"gear_GearGear": 15004,
		"gear_rank": 5,
		"proficiency_UnitProficiency": 5,
		"level": 90,
		"hp": 111,
		"strength": 88,
		"vitality": 77,
		"intelligence": 11,
		"mind": 67,
		"agility": 104,
		"dexterity": 106,
		"lucky": 50,
		"parameter_table_BattleEnemyParameterTable": 0,
		"parameter_deviation_table_BattleEnemyParameterDeviationTable": 0,
		"acquire_skill_group_id": 0,
		"level_correction": 0,
		"group_id": 0,
		"ai_script_id_BattleAIScript": 0
	},
	{
		"ID": 54734,
		"stage_BattleStage": 810001055,
		"unit_UnitUnit": 810008,
		"money": 0,
		"initial_coordinate_x": 9,
		"initial_coordinate_y": 6,
		"reinforcement_BattleReinforcement": 0,
		"initial_direction": 270.0,
		"ai_move_group": 0,
		"ai_target_move_x": -1,
		"ai_target_move_y": -1,
		"ai_skill_function": "",
		"ai_attack": "IF( turn <=2 ,IF(panel_move_distance <= 1, 1, 0),1)",
		"ai_move": "IF(turn <=2,0,1)",
		"ai_heal": "",
		"ai_skill": "",
		"ai_use": "",
		"skill_group_id": 13813,
		"gear_GearGear": 15007,
		"gear_rank": 5,
		"proficiency_UnitProficiency": 5,
		"level": 90,
		"hp": 140,
		"strength": 104,
		"vitality": 92,
		"intelligence": 11,
		"mind": 76,
		"agility": 93,
		"dexterity": 105,
		"lucky": 47,
		"parameter_table_BattleEnemyParameterTable": 0,
		"parameter_deviation_table_BattleEnemyParameterDeviationTable": 0,
		"acquire_skill_group_id": 0,
		"level_correction": 0,
		"group_id": 0,
		"ai_script_id_BattleAIScript": 0
	},
	{
		"ID": 54735,
		"stage_BattleStage": 810001055,
		"unit_UnitUnit": 860006,
		"money": 0,
		"initial_coordinate_x": 9,
		"initial_coordinate_y": 8,
		"reinforcement_BattleReinforcement": 0,
		"initial_direction": 270.0,
		"ai_move_group": 0,
		"ai_target_move_x": -1,
		"ai_target_move_y": -1,
		"ai_skill_function": "",
		"ai_attack": "IF( turn <=2 ,IF(panel_move_distance <= 2, 1, 0),1)",
		"ai_move": "IF(turn <=2,0,1)",
		"ai_heal": "",
		"ai_skill": "",
		"ai_use": "",
		"skill_group_id": 13383,
		"gear_GearGear": 65006,
		"gear_rank": 5,
		"proficiency_UnitProficiency": 5,
		"level": 90,
		"hp": 97,
		"strength": 10,
		"vitality": 68,
		"intelligence": 93,
		"mind": 106,
		"agility": 89,
		"dexterity": 88,
		"lucky": 50,
		"parameter_table_BattleEnemyParameterTable": 0,
		"parameter_deviation_table_BattleEnemyParameterDeviationTable": 0,
		"acquire_skill_group_id": 0,
		"level_correction": 0,
		"group_id": 0,
		"ai_script_id_BattleAIScript": 0
	},
	{
		"ID": 54736,
		"stage_BattleStage": 810001055,
		"unit_UnitUnit": 860006,
		"money": 0,
		"initial_coordinate_x": 11,
		"initial_coordinate_y": 6,
		"reinforcement_BattleReinforcement": 0,
		"initial_direction": 270.0,
		"ai_move_group": 0,
		"ai_target_move_x": -1,
		"ai_target_move_y": -1,
		"ai_skill_function": "",
		"ai_attack": "IF( turn <=2 ,IF(panel_move_distance <= 2, 1, 0),1)",
		"ai_move": "IF(turn <=2,0,1)",
		"ai_heal": "",
		"ai_skill": "",
		"ai_use": "",
		"skill_group_id": 13383,
		"gear_GearGear": 65006,
		"gear_rank": 5,
		"proficiency_UnitProficiency": 5,
		"level": 90,
		"hp": 97,
		"strength": 10,
		"vitality": 70,
		"intelligence": 96,
		"mind": 109,
		"agility": 87,
		"dexterity": 88,
		"lucky": 52,
		"parameter_table_BattleEnemyParameterTable": 0,
		"parameter_deviation_table_BattleEnemyParameterDeviationTable": 0,
		"acquire_skill_group_id": 0,
		"level_correction": 0,
		"group_id": 0,
		"ai_script_id_BattleAIScript": 0
	},
	{
		"ID": 54737,
		"stage_BattleStage": 810001055,
		"unit_UnitUnit": 100353,
		"money": 0,
		"initial_coordinate_x": 1,
		"initial_coordinate_y": 5,
		"reinforcement_BattleReinforcement": 0,
		"initial_direction": 90.0,
		"ai_move_group": 0,
		"ai_target_move_x": -1,
		"ai_target_move_y": -1,
		"ai_skill_function": "",
		"ai_attack": "",
		"ai_move": "10.0",
		"ai_heal": "",
		"ai_skill": "",
		"ai_use": "",
		"skill_group_id": 16366,
		"gear_GearGear": 16001,
		"gear_rank": 5,
		"proficiency_UnitProficiency": 6,
		"level": 90,
		"hp": 273,
		"strength": 95,
		"vitality": 63,
		"intelligence": 24,
		"mind": 56,
		"agility": 126,
		"dexterity": 113,
		"lucky": 63,
		"parameter_table_BattleEnemyParameterTable": 0,
		"parameter_deviation_table_BattleEnemyParameterDeviationTable": 0,
		"acquire_skill_group_id": 0,
		"level_correction": 0,
		"group_id": 0,
		"ai_script_id_BattleAIScript": 0
	},
	{
		"ID": 54738,
		"stage_BattleStage": 810001055,
		"unit_UnitUnit": 810004,
		"money": 0,
		"initial_coordinate_x": 1,
		"initial_coordinate_y": 6,
		"reinforcement_BattleReinforcement": 0,
		"initial_direction": 90.0,
		"ai_move_group": 0,
		"ai_target_move_x": -1,
		"ai_target_move_y": -1,
		"ai_skill_function": "",
		"ai_attack": "",
		"ai_move": "10.0",
		"ai_heal": "",
		"ai_skill": "",
		"ai_use": "",
		"skill_group_id": 14643,
		"gear_GearGear": 15007,
		"gear_rank": 5,
		"proficiency_UnitProficiency": 5,
		"level": 90,
		"hp": 109,
		"strength": 89,
		"vitality": 76,
		"intelligence": 10,
		"mind": 68,
		"agility": 100,
		"dexterity": 106,
		"lucky": 53,
		"parameter_table_BattleEnemyParameterTable": 0,
		"parameter_deviation_table_BattleEnemyParameterDeviationTable": 0,
		"acquire_skill_group_id": 0,
		"level_correction": 0,
		"group_id": 0,
		"ai_script_id_BattleAIScript": 0
	},
	{
		"ID": 54739,
		"stage_BattleStage": 810001055,
		"unit_UnitUnit": 810004,
		"money": 0,
		"initial_coordinate_x": 1,
		"initial_coordinate_y": 4,
		"reinforcement_BattleReinforcement": 0,
		"initial_direction": 90.0,
		"ai_move_group": 0,
		"ai_target_move_x": -1,
		"ai_target_move_y": -1,
		"ai_skill_function": "",
		"ai_attack": "",
		"ai_move": "10.0",
		"ai_heal": "",
		"ai_skill": "",
		"ai_use": "",
		"skill_group_id": 14643,
		"gear_GearGear": 15007,
		"gear_rank": 5,
		"proficiency_UnitProficiency": 5,
		"level": 90,
		"hp": 107,
		"strength": 89,
		"vitality": 79,
		"intelligence": 9,
		"mind": 65,
		"agility": 104,
		"dexterity": 106,
		"lucky": 50,
		"parameter_table_BattleEnemyParameterTable": 0,
		"parameter_deviation_table_BattleEnemyParameterDeviationTable": 0,
		"acquire_skill_group_id": 0,
		"level_correction": 0,
		"group_id": 0,
		"ai_script_id_BattleAIScript": 0
	}
]