[
	{
		"ID": 77336,
		"stage_BattleStage": 810005106,
		"unit_UnitUnit": 860010,
		"money": 0,
		"initial_coordinate_x": 3,
		"initial_coordinate_y": 20,
		"reinforcement_BattleReinforcement": 0,
		"initial_direction": 180.0,
		"ai_move_group": 0,
		"ai_target_move_x": -1,
		"ai_target_move_y": -1,
		"ai_skill_function": "",
		"ai_attack": "IF(panel_move_distance <= 7, 1, 0)",
		"ai_move": "IF( turn <= 10,0,1)",
		"ai_heal": "",
		"ai_skill": "",
		"ai_use": "",
		"skill_group_id": 18946,
		"gear_GearGear": 65003,
		"gear_rank": 10,
		"proficiency_UnitProficiency": 5,
		"level": 90,
		"hp": 611,
		"strength": 12,
		"vitality": 113,
		"intelligence": 119,
		"mind": 135,
		"agility": 123,
		"dexterity": 126,
		"lucky": 70,
		"parameter_table_BattleEnemyParameterTable": 0,
		"parameter_deviation_table_BattleEnemyParameterDeviationTable": 0,
		"acquire_skill_group_id": 0,
		"level_correction": 0,
		"group_id": 0,
		"ai_script_id_BattleAIScript": 0
	},
	{
		"ID": 77337,
		"stage_BattleStage": 810005106,
		"unit_UnitUnit": 860010,
		"money": 0,
		"initial_coordinate_x": 20,
		"initial_coordinate_y": 20,
		"reinforcement_BattleReinforcement": 0,
		"initial_direction": 180.0,
		"ai_move_group": 0,
		"ai_target_move_x": -1,
		"ai_target_move_y": -1,
		"ai_skill_function": "",
		"ai_attack": "IF(panel_move_distance <= 7, 1, 0)",
		"ai_move": "IF( turn <= 10,0,1)",
		"ai_heal": "",
		"ai_skill": "",
		"ai_use": "",
		"skill_group_id": 18947,
		"gear_GearGear": 65003,
		"gear_rank": 10,
		"proficiency_UnitProficiency": 5,
		"level": 90,
		"hp": 613,
		"strength": 15,
		"vitality": 113,
		"intelligence": 119,
		"mind": 140,
		"agility": 120,
		"dexterity": 123,
		"lucky": 74,
		"parameter_table_BattleEnemyParameterTable": 0,
		"parameter_deviation_table_BattleEnemyParameterDeviationTable": 0,
		"acquire_skill_group_id": 0,
		"level_correction": 0,
		"group_id": 0,
		"ai_script_id_BattleAIScript": 0
	},
	{
		"ID": 77338,
		"stage_BattleStage": 810005106,
		"unit_UnitUnit": 960015,
		"money": 0,
		"initial_coordinate_x": 10,
		"initial_coordinate_y": 20,
		"reinforcement_BattleReinforcement": 0,
		"initial_direction": 180.0,
		"ai_move_group": 0,
		"ai_target_move_x": -1,
		"ai_target_move_y": -1,
		"ai_skill_function": "",
		"ai_attack": "IF(panel_move_distance <= 7, 1, 0)",
		"ai_move": "IF( turn <= 10,0,1)",
		"ai_heal": "",
		"ai_skill": "",
		"ai_use": "",
		"skill_group_id": 18948,
		"gear_GearGear": 65003,
		"gear_rank": 10,
		"proficiency_UnitProficiency": 5,
		"level": 90,
		"hp": 321,
		"strength": 16,
		"vitality": 105,
		"intelligence": 145,
		"mind": 156,
		"agility": 128,
		"dexterity": 132,
		"lucky": 71,
		"parameter_table_BattleEnemyParameterTable": 0,
		"parameter_deviation_table_BattleEnemyParameterDeviationTable": 0,
		"acquire_skill_group_id": 0,
		"level_correction": 0,
		"group_id": 0,
		"ai_script_id_BattleAIScript": 0
	},
	{
		"ID": 77339,
		"stage_BattleStage": 810005106,
		"unit_UnitUnit": 960015,
		"money": 0,
		"initial_coordinate_x": 13,
		"initial_coordinate_y": 20,
		"reinforcement_BattleReinforcement": 0,
		"initial_direction": 180.0,
		"ai_move_group": 0,
		"ai_target_move_x": -1,
		"ai_target_move_y": -1,
		"ai_skill_function": "",
		"ai_attack": "IF(panel_move_distance <= 7, 1, 0)",
		"ai_move": "IF( turn <= 10,0,1)",
		"ai_heal": "",
		"ai_skill": "",
		"ai_use": "",
		"skill_group_id": 18948,
		"gear_GearGear": 65003,
		"gear_rank": 10,
		"proficiency_UnitProficiency": 5,
		"level": 90,
		"hp": 317,
		"strength": 14,
		"vitality": 106,
		"intelligence": 141,
		"mind": 157,
		"agility": 130,
		"dexterity": 132,
		"lucky": 70,
		"parameter_table_BattleEnemyParameterTable": 0,
		"parameter_deviation_table_BattleEnemyParameterDeviationTable": 0,
		"acquire_skill_group_id": 0,
		"level_correction": 0,
		"group_id": 0,
		"ai_script_id_BattleAIScript": 0
	},
	{
		"ID": 77340,
		"stage_BattleStage": 810005106,
		"unit_UnitUnit": 960015,
		"money": 0,
		"initial_coordinate_x": 2,
		"initial_coordinate_y": 19,
		"reinforcement_BattleReinforcement": 0,
		"initial_direction": 180.0,
		"ai_move_group": 0,
		"ai_target_move_x": -1,
		"ai_target_move_y": -1,
		"ai_skill_function": "",
		"ai_attack": "IF(panel_move_distance <= 7, 1, 0)",
		"ai_move": "IF( turn <= 9,0,1)",
		"ai_heal": "",
		"ai_skill": "",
		"ai_use": "",
		"skill_group_id": 18948,
		"gear_GearGear": 65003,
		"gear_rank": 10,
		"proficiency_UnitProficiency": 5,
		"level": 90,
		"hp": 312,
		"strength": 13,
		"vitality": 102,
		"intelligence": 145,
		"mind": 156,
		"agility": 129,
		"dexterity": 132,
		"lucky": 73,
		"parameter_table_BattleEnemyParameterTable": 0,
		"parameter_deviation_table_BattleEnemyParameterDeviationTable": 0,
		"acquire_skill_group_id": 0,
		"level_correction": 0,
		"group_id": 0,
		"ai_script_id_BattleAIScript": 0
	},
	{
		"ID": 77341,
		"stage_BattleStage": 810005106,
		"unit_UnitUnit": 960015,
		"money": 0,
		"initial_coordinate_x": 21,
		"initial_coordinate_y": 19,
		"reinforcement_BattleReinforcement": 0,
		"initial_direction": 180.0,
		"ai_move_group": 0,
		"ai_target_move_x": -1,
		"ai_target_move_y": -1,
		"ai_skill_function": "",
		"ai_attack": "IF(panel_move_distance <= 7, 1, 0)",
		"ai_move": "IF( turn <= 9,0,1)",
		"ai_heal": "",
		"ai_skill": "",
		"ai_use": "",
		"skill_group_id": 18948,
		"gear_GearGear": 65003,
		"gear_rank": 10,
		"proficiency_UnitProficiency": 5,
		"level": 90,
		"hp": 317,
		"strength": 16,
		"vitality": 101,
		"intelligence": 143,
		"mind": 157,
		"agility": 130,
		"dexterity": 132,
		"lucky": 71,
		"parameter_table_BattleEnemyParameterTable": 0,
		"parameter_deviation_table_BattleEnemyParameterDeviationTable": 0,
		"acquire_skill_group_id": 0,
		"level_correction": 0,
		"group_id": 0,
		"ai_script_id_BattleAIScript": 0
	},
	{
		"ID": 77342,
		"stage_BattleStage": 810005106,
		"unit_UnitUnit": 960015,
		"money": 0,
		"initial_coordinate_x": 16,
		"initial_coordinate_y": 13,
		"reinforcement_BattleReinforcement": 0,
		"initial_direction": 180.0,
		"ai_move_group": 0,
		"ai_target_move_x": -1,
		"ai_target_move_y": -1,
		"ai_skill_function": "",
		"ai_attack": "IF(panel_move_distance <= 7, 1, 0)",
		"ai_move": "IF( turn <= 5,0,1)",
		"ai_heal": "",
		"ai_skill": "",
		"ai_use": "",
		"skill_group_id": 18948,
		"gear_GearGear": 65003,
		"gear_rank": 10,
		"proficiency_UnitProficiency": 5,
		"level": 90,
		"hp": 317,
		"strength": 14,
		"vitality": 102,
		"intelligence": 145,
		"mind": 159,
		"agility": 128,
		"dexterity": 132,
		"lucky": 71,
		"parameter_table_BattleEnemyParameterTable": 0,
		"parameter_deviation_table_BattleEnemyParameterDeviationTable": 0,
		"acquire_skill_group_id": 0,
		"level_correction": 0,
		"group_id": 0,
		"ai_script_id_BattleAIScript": 0
	},
	{
		"ID": 77343,
		"stage_BattleStage": 810005106,
		"unit_UnitUnit": 960015,
		"money": 0,
		"initial_coordinate_x": 7,
		"initial_coordinate_y": 13,
		"reinforcement_BattleReinforcement": 0,
		"initial_direction": 180.0,
		"ai_move_group": 0,
		"ai_target_move_x": -1,
		"ai_target_move_y": -1,
		"ai_skill_function": "",
		"ai_attack": "IF(panel_move_distance <= 7, 1, 0)",
		"ai_move": "IF( turn <= 5,0,1)",
		"ai_heal": "",
		"ai_skill": "",
		"ai_use": "",
		"skill_group_id": 18948,
		"gear_GearGear": 65003,
		"gear_rank": 10,
		"proficiency_UnitProficiency": 5,
		"level": 90,
		"hp": 322,
		"strength": 13,
		"vitality": 104,
		"intelligence": 143,
		"mind": 159,
		"agility": 129,
		"dexterity": 131,
		"lucky": 74,
		"parameter_table_BattleEnemyParameterTable": 0,
		"parameter_deviation_table_BattleEnemyParameterDeviationTable": 0,
		"acquire_skill_group_id": 0,
		"level_correction": 0,
		"group_id": 0,
		"ai_script_id_BattleAIScript": 0
	},
	{
		"ID": 77344,
		"stage_BattleStage": 810005106,
		"unit_UnitUnit": 860006,
		"money": 0,
		"initial_coordinate_x": 7,
		"initial_coordinate_y": 7,
		"reinforcement_BattleReinforcement": 0,
		"initial_direction": 180.0,
		"ai_move_group": 0,
		"ai_target_move_x": -1,
		"ai_target_move_y": -1,
		"ai_skill_function": "",
		"ai_attack": "",
		"ai_move": "IF( turn <= 1,0,1)",
		"ai_heal": "",
		"ai_skill": "",
		"ai_use": "",
		"skill_group_id": 18949,
		"gear_GearGear": 65003,
		"gear_rank": 10,
		"proficiency_UnitProficiency": 5,
		"level": 90,
		"hp": 304,
		"strength": 15,
		"vitality": 98,
		"intelligence": 132,
		"mind": 153,
		"agility": 124,
		"dexterity": 125,
		"lucky": 70,
		"parameter_table_BattleEnemyParameterTable": 0,
		"parameter_deviation_table_BattleEnemyParameterDeviationTable": 0,
		"acquire_skill_group_id": 0,
		"level_correction": 0,
		"group_id": 0,
		"ai_script_id_BattleAIScript": 0
	},
	{
		"ID": 77345,
		"stage_BattleStage": 810005106,
		"unit_UnitUnit": 860006,
		"money": 0,
		"initial_coordinate_x": 3,
		"initial_coordinate_y": 12,
		"reinforcement_BattleReinforcement": 0,
		"initial_direction": 180.0,
		"ai_move_group": 0,
		"ai_target_move_x": -1,
		"ai_target_move_y": -1,
		"ai_skill_function": "",
		"ai_attack": "",
		"ai_move": "IF( turn <= 2,0,1)",
		"ai_heal": "",
		"ai_skill": "",
		"ai_use": "",
		"skill_group_id": 18949,
		"gear_GearGear": 65003,
		"gear_rank": 10,
		"proficiency_UnitProficiency": 5,
		"level": 90,
		"hp": 314,
		"strength": 11,
		"vitality": 98,
		"intelligence": 131,
		"mind": 149,
		"agility": 124,
		"dexterity": 124,
		"lucky": 72,
		"parameter_table_BattleEnemyParameterTable": 0,
		"parameter_deviation_table_BattleEnemyParameterDeviationTable": 0,
		"acquire_skill_group_id": 0,
		"level_correction": 0,
		"group_id": 0,
		"ai_script_id_BattleAIScript": 0
	},
	{
		"ID": 77346,
		"stage_BattleStage": 810005106,
		"unit_UnitUnit": 860006,
		"money": 0,
		"initial_coordinate_x": 7,
		"initial_coordinate_y": 17,
		"reinforcement_BattleReinforcement": 0,
		"initial_direction": 180.0,
		"ai_move_group": 0,
		"ai_target_move_x": -1,
		"ai_target_move_y": -1,
		"ai_skill_function": "",
		"ai_attack": "",
		"ai_move": "IF( turn <= 8,0,1)",
		"ai_heal": "",
		"ai_skill": "",
		"ai_use": "",
		"skill_group_id": 18949,
		"gear_GearGear": 65003,
		"gear_rank": 10,
		"proficiency_UnitProficiency": 5,
		"level": 90,
		"hp": 307,
		"strength": 16,
		"vitality": 99,
		"intelligence": 130,
		"mind": 152,
		"agility": 125,
		"dexterity": 123,
		"lucky": 74,
		"parameter_table_BattleEnemyParameterTable": 0,
		"parameter_deviation_table_BattleEnemyParameterDeviationTable": 0,
		"acquire_skill_group_id": 0,
		"level_correction": 0,
		"group_id": 0,
		"ai_script_id_BattleAIScript": 0
	},
	{
		"ID": 77347,
		"stage_BattleStage": 810005106,
		"unit_UnitUnit": 860006,
		"money": 0,
		"initial_coordinate_x": 4,
		"initial_coordinate_y": 19,
		"reinforcement_BattleReinforcement": 0,
		"initial_direction": 180.0,
		"ai_move_group": 0,
		"ai_target_move_x": -1,
		"ai_target_move_y": -1,
		"ai_skill_function": "",
		"ai_attack": "",
		"ai_move": "IF( turn <= 9,0,1)",
		"ai_heal": "",
		"ai_skill": "",
		"ai_use": "",
		"skill_group_id": 18949,
		"gear_GearGear": 65003,
		"gear_rank": 10,
		"proficiency_UnitProficiency": 5,
		"level": 90,
		"hp": 308,
		"strength": 13,
		"vitality": 97,
		"intelligence": 130,
		"mind": 149,
		"agility": 126,
		"dexterity": 123,
		"lucky": 72,
		"parameter_table_BattleEnemyParameterTable": 0,
		"parameter_deviation_table_BattleEnemyParameterDeviationTable": 0,
		"acquire_skill_group_id": 0,
		"level_correction": 0,
		"group_id": 0,
		"ai_script_id_BattleAIScript": 0
	},
	{
		"ID": 77348,
		"stage_BattleStage": 810005106,
		"unit_UnitUnit": 860006,
		"money": 0,
		"initial_coordinate_x": 16,
		"initial_coordinate_y": 7,
		"reinforcement_BattleReinforcement": 0,
		"initial_direction": 180.0,
		"ai_move_group": 0,
		"ai_target_move_x": -1,
		"ai_target_move_y": -1,
		"ai_skill_function": "",
		"ai_attack": "",
		"ai_move": "IF( turn <= 1,0,1)",
		"ai_heal": "",
		"ai_skill": "",
		"ai_use": "",
		"skill_group_id": 18949,
		"gear_GearGear": 65003,
		"gear_rank": 10,
		"proficiency_UnitProficiency": 5,
		"level": 90,
		"hp": 304,
		"strength": 11,
		"vitality": 95,
		"intelligence": 133,
		"mind": 149,
		"agility": 125,
		"dexterity": 123,
		"lucky": 73,
		"parameter_table_BattleEnemyParameterTable": 0,
		"parameter_deviation_table_BattleEnemyParameterDeviationTable": 0,
		"acquire_skill_group_id": 0,
		"level_correction": 0,
		"group_id": 0,
		"ai_script_id_BattleAIScript": 0
	},
	{
		"ID": 77349,
		"stage_BattleStage": 810005106,
		"unit_UnitUnit": 860006,
		"money": 0,
		"initial_coordinate_x": 20,
		"initial_coordinate_y": 12,
		"reinforcement_BattleReinforcement": 0,
		"initial_direction": 180.0,
		"ai_move_group": 0,
		"ai_target_move_x": -1,
		"ai_target_move_y": -1,
		"ai_skill_function": "",
		"ai_attack": "",
		"ai_move": "IF( turn <= 2,0,1)",
		"ai_heal": "",
		"ai_skill": "",
		"ai_use": "",
		"skill_group_id": 18949,
		"gear_GearGear": 65003,
		"gear_rank": 10,
		"proficiency_UnitProficiency": 5,
		"level": 90,
		"hp": 305,
		"strength": 11,
		"vitality": 100,
		"intelligence": 134,
		"mind": 149,
		"agility": 124,
		"dexterity": 124,
		"lucky": 71,
		"parameter_table_BattleEnemyParameterTable": 0,
		"parameter_deviation_table_BattleEnemyParameterDeviationTable": 0,
		"acquire_skill_group_id": 0,
		"level_correction": 0,
		"group_id": 0,
		"ai_script_id_BattleAIScript": 0
	},
	{
		"ID": 77350,
		"stage_BattleStage": 810005106,
		"unit_UnitUnit": 860006,
		"money": 0,
		"initial_coordinate_x": 16,
		"initial_coordinate_y": 17,
		"reinforcement_BattleReinforcement": 0,
		"initial_direction": 180.0,
		"ai_move_group": 0,
		"ai_target_move_x": -1,
		"ai_target_move_y": -1,
		"ai_skill_function": "",
		"ai_attack": "",
		"ai_move": "IF( turn <= 8,0,1)",
		"ai_heal": "",
		"ai_skill": "",
		"ai_use": "",
		"skill_group_id": 18949,
		"gear_GearGear": 65003,
		"gear_rank": 10,
		"proficiency_UnitProficiency": 5,
		"level": 90,
		"hp": 307,
		"strength": 14,
		"vitality": 98,
		"intelligence": 131,
		"mind": 151,
		"agility": 125,
		"dexterity": 126,
		"lucky": 73,
		"parameter_table_BattleEnemyParameterTable": 0,
		"parameter_deviation_table_BattleEnemyParameterDeviationTable": 0,
		"acquire_skill_group_id": 0,
		"level_correction": 0,
		"group_id": 0,
		"ai_script_id_BattleAIScript": 0
	},
	{
		"ID": 77351,
		"stage_BattleStage": 810005106,
		"unit_UnitUnit": 860006,
		"money": 0,
		"initial_coordinate_x": 19,
		"initial_coordinate_y": 19,
		"reinforcement_BattleReinforcement": 0,
		"initial_direction": 180.0,
		"ai_move_group": 0,
		"ai_target_move_x": -1,
		"ai_target_move_y": -1,
		"ai_skill_function": "",
		"ai_attack": "",
		"ai_move": "IF( turn <= 9,0,1)",
		"ai_heal": "",
		"ai_skill": "",
		"ai_use": "",
		"skill_group_id": 18949,
		"gear_GearGear": 65003,
		"gear_rank": 10,
		"proficiency_UnitProficiency": 5,
		"level": 90,
		"hp": 306,
		"strength": 16,
		"vitality": 98,
		"intelligence": 132,
		"mind": 149,
		"agility": 125,
		"dexterity": 126,
		"lucky": 73,
		"parameter_table_BattleEnemyParameterTable": 0,
		"parameter_deviation_table_BattleEnemyParameterDeviationTable": 0,
		"acquire_skill_group_id": 0,
		"level_correction": 0,
		"group_id": 0,
		"ai_script_id_BattleAIScript": 0
	},
	{
		"ID": 77352,
		"stage_BattleStage": 810005106,
		"unit_UnitUnit": 860006,
		"money": 0,
		"initial_coordinate_x": 10,
		"initial_coordinate_y": 11,
		"reinforcement_BattleReinforcement": 0,
		"initial_direction": 180.0,
		"ai_move_group": 0,
		"ai_target_move_x": -1,
		"ai_target_move_y": -1,
		"ai_skill_function": "",
		"ai_attack": "",
		"ai_move": "IF( turn <= 3,0,1)",
		"ai_heal": "",
		"ai_skill": "",
		"ai_use": "",
		"skill_group_id": 18949,
		"gear_GearGear": 65003,
		"gear_rank": 10,
		"proficiency_UnitProficiency": 5,
		"level": 90,
		"hp": 304,
		"strength": 13,
		"vitality": 95,
		"intelligence": 129,
		"mind": 150,
		"agility": 123,
		"dexterity": 124,
		"lucky": 74,
		"parameter_table_BattleEnemyParameterTable": 0,
		"parameter_deviation_table_BattleEnemyParameterDeviationTable": 0,
		"acquire_skill_group_id": 0,
		"level_correction": 0,
		"group_id": 0,
		"ai_script_id_BattleAIScript": 0
	},
	{
		"ID": 77353,
		"stage_BattleStage": 810005106,
		"unit_UnitUnit": 860006,
		"money": 0,
		"initial_coordinate_x": 10,
		"initial_coordinate_y": 13,
		"reinforcement_BattleReinforcement": 0,
		"initial_direction": 180.0,
		"ai_move_group": 0,
		"ai_target_move_x": -1,
		"ai_target_move_y": -1,
		"ai_skill_function": "",
		"ai_attack": "",
		"ai_move": "IF( turn <= 3,0,1)",
		"ai_heal": "",
		"ai_skill": "",
		"ai_use": "",
		"skill_group_id": 18949,
		"gear_GearGear": 65003,
		"gear_rank": 10,
		"proficiency_UnitProficiency": 5,
		"level": 90,
		"hp": 314,
		"strength": 13,
		"vitality": 100,
		"intelligence": 133,
		"mind": 153,
		"agility": 126,
		"dexterity": 125,
		"lucky": 72,
		"parameter_table_BattleEnemyParameterTable": 0,
		"parameter_deviation_table_BattleEnemyParameterDeviationTable": 0,
		"acquire_skill_group_id": 0,
		"level_correction": 0,
		"group_id": 0,
		"ai_script_id_BattleAIScript": 0
	},
	{
		"ID": 77354,
		"stage_BattleStage": 810005106,
		"unit_UnitUnit": 860006,
		"money": 0,
		"initial_coordinate_x": 13,
		"initial_coordinate_y": 13,
		"reinforcement_BattleReinforcement": 0,
		"initial_direction": 180.0,
		"ai_move_group": 0,
		"ai_target_move_x": -1,
		"ai_target_move_y": -1,
		"ai_skill_function": "",
		"ai_attack": "",
		"ai_move": "IF( turn <= 3,0,1)",
		"ai_heal": "",
		"ai_skill": "",
		"ai_use": "",
		"skill_group_id": 18949,
		"gear_GearGear": 65003,
		"gear_rank": 10,
		"proficiency_UnitProficiency": 5,
		"level": 90,
		"hp": 307,
		"strength": 15,
		"vitality": 98,
		"intelligence": 130,
		"mind": 151,
		"agility": 125,
		"dexterity": 124,
		"lucky": 74,
		"parameter_table_BattleEnemyParameterTable": 0,
		"parameter_deviation_table_BattleEnemyParameterDeviationTable": 0,
		"acquire_skill_group_id": 0,
		"level_correction": 0,
		"group_id": 0,
		"ai_script_id_BattleAIScript": 0
	},
	{
		"ID": 77355,
		"stage_BattleStage": 810005106,
		"unit_UnitUnit": 860006,
		"money": 0,
		"initial_coordinate_x": 13,
		"initial_coordinate_y": 11,
		"reinforcement_BattleReinforcement": 0,
		"initial_direction": 180.0,
		"ai_move_group": 0,
		"ai_target_move_x": -1,
		"ai_target_move_y": -1,
		"ai_skill_function": "",
		"ai_attack": "",
		"ai_move": "IF( turn <= 3,0,1)",
		"ai_heal": "",
		"ai_skill": "",
		"ai_use": "",
		"skill_group_id": 18949,
		"gear_GearGear": 65003,
		"gear_rank": 10,
		"proficiency_UnitProficiency": 5,
		"level": 90,
		"hp": 313,
		"strength": 13,
		"vitality": 96,
		"intelligence": 129,
		"mind": 153,
		"agility": 123,
		"dexterity": 124,
		"lucky": 71,
		"parameter_table_BattleEnemyParameterTable": 0,
		"parameter_deviation_table_BattleEnemyParameterDeviationTable": 0,
		"acquire_skill_group_id": 0,
		"level_correction": 0,
		"group_id": 0,
		"ai_script_id_BattleAIScript": 0
	},
	{
		"ID": 77356,
		"stage_BattleStage": 810005106,
		"unit_UnitUnit": 860001,
		"money": 0,
		"initial_coordinate_x": 3,
		"initial_coordinate_y": 14,
		"reinforcement_BattleReinforcement": 0,
		"initial_direction": 180.0,
		"ai_move_group": 0,
		"ai_target_move_x": -1,
		"ai_target_move_y": -1,
		"ai_skill_function": "",
		"ai_attack": "",
		"ai_move": "IF( turn <= 4,0,1)",
		"ai_heal": "",
		"ai_skill": "",
		"ai_use": "",
		"skill_group_id": 18950,
		"gear_GearGear": 65003,
		"gear_rank": 10,
		"proficiency_UnitProficiency": 5,
		"level": 90,
		"hp": 297,
		"strength": 19,
		"vitality": 98,
		"intelligence": 128,
		"mind": 147,
		"agility": 132,
		"dexterity": 138,
		"lucky": 70,
		"parameter_table_BattleEnemyParameterTable": 0,
		"parameter_deviation_table_BattleEnemyParameterDeviationTable": 0,
		"acquire_skill_group_id": 0,
		"level_correction": 0,
		"group_id": 0,
		"ai_script_id_BattleAIScript": 0
	},
	{
		"ID": 77357,
		"stage_BattleStage": 810005106,
		"unit_UnitUnit": 860001,
		"money": 0,
		"initial_coordinate_x": 20,
		"initial_coordinate_y": 14,
		"reinforcement_BattleReinforcement": 0,
		"initial_direction": 180.0,
		"ai_move_group": 0,
		"ai_target_move_x": -1,
		"ai_target_move_y": -1,
		"ai_skill_function": "",
		"ai_attack": "",
		"ai_move": "IF( turn <= 4,0,1)",
		"ai_heal": "",
		"ai_skill": "",
		"ai_use": "",
		"skill_group_id": 18950,
		"gear_GearGear": 65003,
		"gear_rank": 10,
		"proficiency_UnitProficiency": 5,
		"level": 90,
		"hp": 307,
		"strength": 20,
		"vitality": 99,
		"intelligence": 125,
		"mind": 144,
		"agility": 130,
		"dexterity": 138,
		"lucky": 74,
		"parameter_table_BattleEnemyParameterTable": 0,
		"parameter_deviation_table_BattleEnemyParameterDeviationTable": 0,
		"acquire_skill_group_id": 0,
		"level_correction": 0,
		"group_id": 0,
		"ai_script_id_BattleAIScript": 0
	},
	{
		"ID": 77358,
		"stage_BattleStage": 810005106,
		"unit_UnitUnit": 860001,
		"money": 0,
		"initial_coordinate_x": 12,
		"initial_coordinate_y": 16,
		"reinforcement_BattleReinforcement": 0,
		"initial_direction": 180.0,
		"ai_move_group": 0,
		"ai_target_move_x": -1,
		"ai_target_move_y": -1,
		"ai_skill_function": "",
		"ai_attack": "",
		"ai_move": "IF( turn <= 4,0,1)",
		"ai_heal": "",
		"ai_skill": "",
		"ai_use": "",
		"skill_group_id": 18950,
		"gear_GearGear": 65003,
		"gear_rank": 10,
		"proficiency_UnitProficiency": 5,
		"level": 90,
		"hp": 297,
		"strength": 22,
		"vitality": 96,
		"intelligence": 125,
		"mind": 145,
		"agility": 130,
		"dexterity": 136,
		"lucky": 73,
		"parameter_table_BattleEnemyParameterTable": 0,
		"parameter_deviation_table_BattleEnemyParameterDeviationTable": 0,
		"acquire_skill_group_id": 0,
		"level_correction": 0,
		"group_id": 0,
		"ai_script_id_BattleAIScript": 0
	},
	{
		"ID": 77359,
		"stage_BattleStage": 810005106,
		"unit_UnitUnit": 900013,
		"money": 0,
		"initial_coordinate_x": 8,
		"initial_coordinate_y": 12,
		"reinforcement_BattleReinforcement": 0,
		"initial_direction": 180.0,
		"ai_move_group": 0,
		"ai_target_move_x": -1,
		"ai_target_move_y": -1,
		"ai_skill_function": "",
		"ai_attack": "",
		"ai_move": "IF( turn <= 6,0,1)",
		"ai_heal": "",
		"ai_skill": "",
		"ai_use": "",
		"skill_group_id": 18951,
		"gear_GearGear": 80005,
		"gear_rank": 10,
		"proficiency_UnitProficiency": 1,
		"level": 90,
		"hp": 392,
		"strength": 169,
		"vitality": 167,
		"intelligence": 14,
		"mind": 66,
		"agility": 105,
		"dexterity": 112,
		"lucky": 68,
		"parameter_table_BattleEnemyParameterTable": 0,
		"parameter_deviation_table_BattleEnemyParameterDeviationTable": 0,
		"acquire_skill_group_id": 0,
		"level_correction": 0,
		"group_id": 0,
		"ai_script_id_BattleAIScript": 0
	},
	{
		"ID": 77360,
		"stage_BattleStage": 810005106,
		"unit_UnitUnit": 900013,
		"money": 0,
		"initial_coordinate_x": 15,
		"initial_coordinate_y": 12,
		"reinforcement_BattleReinforcement": 0,
		"initial_direction": 180.0,
		"ai_move_group": 0,
		"ai_target_move_x": -1,
		"ai_target_move_y": -1,
		"ai_skill_function": "",
		"ai_attack": "",
		"ai_move": "IF( turn <= 6,0,1)",
		"ai_heal": "",
		"ai_skill": "",
		"ai_use": "",
		"skill_group_id": 18951,
		"gear_GearGear": 80005,
		"gear_rank": 10,
		"proficiency_UnitProficiency": 1,
		"level": 90,
		"hp": 398,
		"strength": 169,
		"vitality": 167,
		"intelligence": 13,
		"mind": 68,
		"agility": 105,
		"dexterity": 113,
		"lucky": 65,
		"parameter_table_BattleEnemyParameterTable": 0,
		"parameter_deviation_table_BattleEnemyParameterDeviationTable": 0,
		"acquire_skill_group_id": 0,
		"level_correction": 0,
		"group_id": 0,
		"ai_script_id_BattleAIScript": 0
	},
	{
		"ID": 77361,
		"stage_BattleStage": 810005106,
		"unit_UnitUnit": 900013,
		"money": 0,
		"initial_coordinate_x": 12,
		"initial_coordinate_y": 19,
		"reinforcement_BattleReinforcement": 0,
		"initial_direction": 180.0,
		"ai_move_group": 0,
		"ai_target_move_x": -1,
		"ai_target_move_y": -1,
		"ai_skill_function": "",
		"ai_attack": "",
		"ai_move": "IF( turn <= 6,0,1)",
		"ai_heal": "",
		"ai_skill": "",
		"ai_use": "",
		"skill_group_id": 18951,
		"gear_GearGear": 80005,
		"gear_rank": 10,
		"proficiency_UnitProficiency": 1,
		"level": 90,
		"hp": 398,
		"strength": 171,
		"vitality": 171,
		"intelligence": 11,
		"mind": 70,
		"agility": 107,
		"dexterity": 112,
		"lucky": 66,
		"parameter_table_BattleEnemyParameterTable": 0,
		"parameter_deviation_table_BattleEnemyParameterDeviationTable": 0,
		"acquire_skill_group_id": 0,
		"level_correction": 0,
		"group_id": 0,
		"ai_script_id_BattleAIScript": 0
	},
	{
		"ID": 77362,
		"stage_BattleStage": 810005106,
		"unit_UnitUnit": 900013,
		"money": 0,
		"initial_coordinate_x": 11,
		"initial_coordinate_y": 19,
		"reinforcement_BattleReinforcement": 0,
		"initial_direction": 180.0,
		"ai_move_group": 0,
		"ai_target_move_x": -1,
		"ai_target_move_y": -1,
		"ai_skill_function": "",
		"ai_attack": "",
		"ai_move": "IF( turn <= 6,0,1)",
		"ai_heal": "",
		"ai_skill": "",
		"ai_use": "",
		"skill_group_id": 18951,
		"gear_GearGear": 80005,
		"gear_rank": 10,
		"proficiency_UnitProficiency": 1,
		"level": 90,
		"hp": 388,
		"strength": 167,
		"vitality": 169,
		"intelligence": 13,
		"mind": 70,
		"agility": 105,
		"dexterity": 113,
		"lucky": 65,
		"parameter_table_BattleEnemyParameterTable": 0,
		"parameter_deviation_table_BattleEnemyParameterDeviationTable": 0,
		"acquire_skill_group_id": 0,
		"level_correction": 0,
		"group_id": 0,
		"ai_script_id_BattleAIScript": 0
	},
	{
		"ID": 77363,
		"stage_BattleStage": 810005106,
		"unit_UnitUnit": 31021010,
		"money": 0,
		"initial_coordinate_x": 11,
		"initial_coordinate_y": 21,
		"reinforcement_BattleReinforcement": 0,
		"initial_direction": 180.0,
		"ai_move_group": 0,
		"ai_target_move_x": -1,
		"ai_target_move_y": -1,
		"ai_skill_function": "",
		"ai_attack": "",
		"ai_move": "",
		"ai_heal": "",
		"ai_skill": "",
		"ai_use": "",
		"skill_group_id": 0,
		"gear_GearGear": 80005,
		"gear_rank": 10,
		"proficiency_UnitProficiency": 1,
		"level": 1,
		"hp": 1,
		"strength": 1,
		"vitality": 1,
		"intelligence": 1,
		"mind": 1,
		"agility": 1,
		"dexterity": 1,
		"lucky": 1,
		"parameter_table_BattleEnemyParameterTable": 0,
		"parameter_deviation_table_BattleEnemyParameterDeviationTable": 0,
		"acquire_skill_group_id": 0,
		"level_correction": 0,
		"group_id": 0,
		"ai_script_id_BattleAIScript": 0
	},
	{
		"ID": 77364,
		"stage_BattleStage": 810005106,
		"unit_UnitUnit": 31021010,
		"money": 0,
		"initial_coordinate_x": 12,
		"initial_coordinate_y": 21,
		"reinforcement_BattleReinforcement": 0,
		"initial_direction": 180.0,
		"ai_move_group": 0,
		"ai_target_move_x": -1,
		"ai_target_move_y": -1,
		"ai_skill_function": "",
		"ai_attack": "",
		"ai_move": "",
		"ai_heal": "",
		"ai_skill": "",
		"ai_use": "",
		"skill_group_id": 0,
		"gear_GearGear": 80005,
		"gear_rank": 10,
		"proficiency_UnitProficiency": 1,
		"level": 1,
		"hp": 1,
		"strength": 1,
		"vitality": 1,
		"intelligence": 1,
		"mind": 1,
		"agility": 1,
		"dexterity": 1,
		"lucky": 1,
		"parameter_table_BattleEnemyParameterTable": 0,
		"parameter_deviation_table_BattleEnemyParameterDeviationTable": 0,
		"acquire_skill_group_id": 0,
		"level_correction": 0,
		"group_id": 0,
		"ai_script_id_BattleAIScript": 0
	},
	{
		"ID": 77365,
		"stage_BattleStage": 810005106,
		"unit_UnitUnit": 31021010,
		"money": 0,
		"initial_coordinate_x": 3,
		"initial_coordinate_y": 21,
		"reinforcement_BattleReinforcement": 0,
		"initial_direction": 180.0,
		"ai_move_group": 0,
		"ai_target_move_x": -1,
		"ai_target_move_y": -1,
		"ai_skill_function": "",
		"ai_attack": "",
		"ai_move": "",
		"ai_heal": "",
		"ai_skill": "",
		"ai_use": "",
		"skill_group_id": 0,
		"gear_GearGear": 80005,
		"gear_rank": 10,
		"proficiency_UnitProficiency": 1,
		"level": 1,
		"hp": 1,
		"strength": 1,
		"vitality": 1,
		"intelligence": 1,
		"mind": 1,
		"agility": 1,
		"dexterity": 1,
		"lucky": 1,
		"parameter_table_BattleEnemyParameterTable": 0,
		"parameter_deviation_table_BattleEnemyParameterDeviationTable": 0,
		"acquire_skill_group_id": 0,
		"level_correction": 0,
		"group_id": 0,
		"ai_script_id_BattleAIScript": 0
	},
	{
		"ID": 77366,
		"stage_BattleStage": 810005106,
		"unit_UnitUnit": 31021010,
		"money": 0,
		"initial_coordinate_x": 20,
		"initial_coordinate_y": 21,
		"reinforcement_BattleReinforcement": 0,
		"initial_direction": 180.0,
		"ai_move_group": 0,
		"ai_target_move_x": -1,
		"ai_target_move_y": -1,
		"ai_skill_function": "",
		"ai_attack": "",
		"ai_move": "",
		"ai_heal": "",
		"ai_skill": "",
		"ai_use": "",
		"skill_group_id": 0,
		"gear_GearGear": 80005,
		"gear_rank": 10,
		"proficiency_UnitProficiency": 1,
		"level": 1,
		"hp": 1,
		"strength": 1,
		"vitality": 1,
		"intelligence": 1,
		"mind": 1,
		"agility": 1,
		"dexterity": 1,
		"lucky": 1,
		"parameter_table_BattleEnemyParameterTable": 0,
		"parameter_deviation_table_BattleEnemyParameterDeviationTable": 0,
		"acquire_skill_group_id": 0,
		"level_correction": 0,
		"group_id": 0,
		"ai_script_id_BattleAIScript": 0
	},
	{
		"ID": 77367,
		"stage_BattleStage": 810005106,
		"unit_UnitUnit": 30005010,
		"money": 0,
		"initial_coordinate_x": 7,
		"initial_coordinate_y": 9,
		"reinforcement_BattleReinforcement": 0,
		"initial_direction": 180.0,
		"ai_move_group": 0,
		"ai_target_move_x": -1,
		"ai_target_move_y": -1,
		"ai_skill_function": "",
		"ai_attack": "",
		"ai_move": "",
		"ai_heal": "",
		"ai_skill": "",
		"ai_use": "",
		"skill_group_id": 0,
		"gear_GearGear": 80005,
		"gear_rank": 10,
		"proficiency_UnitProficiency": 1,
		"level": 1,
		"hp": 1,
		"strength": 1,
		"vitality": 1,
		"intelligence": 1,
		"mind": 1,
		"agility": 1,
		"dexterity": 1,
		"lucky": 1,
		"parameter_table_BattleEnemyParameterTable": 0,
		"parameter_deviation_table_BattleEnemyParameterDeviationTable": 0,
		"acquire_skill_group_id": 0,
		"level_correction": 0,
		"group_id": 0,
		"ai_script_id_BattleAIScript": 0
	},
	{
		"ID": 77368,
		"stage_BattleStage": 810005106,
		"unit_UnitUnit": 30005010,
		"money": 0,
		"initial_coordinate_x": 8,
		"initial_coordinate_y": 10,
		"reinforcement_BattleReinforcement": 0,
		"initial_direction": 180.0,
		"ai_move_group": 0,
		"ai_target_move_x": -1,
		"ai_target_move_y": -1,
		"ai_skill_function": "",
		"ai_attack": "",
		"ai_move": "",
		"ai_heal": "",
		"ai_skill": "",
		"ai_use": "",
		"skill_group_id": 0,
		"gear_GearGear": 80005,
		"gear_rank": 10,
		"proficiency_UnitProficiency": 1,
		"level": 1,
		"hp": 1,
		"strength": 1,
		"vitality": 1,
		"intelligence": 1,
		"mind": 1,
		"agility": 1,
		"dexterity": 1,
		"lucky": 1,
		"parameter_table_BattleEnemyParameterTable": 0,
		"parameter_deviation_table_BattleEnemyParameterDeviationTable": 0,
		"acquire_skill_group_id": 0,
		"level_correction": 0,
		"group_id": 0,
		"ai_script_id_BattleAIScript": 0
	},
	{
		"ID": 77369,
		"stage_BattleStage": 810005106,
		"unit_UnitUnit": 30005010,
		"money": 0,
		"initial_coordinate_x": 16,
		"initial_coordinate_y": 9,
		"reinforcement_BattleReinforcement": 0,
		"initial_direction": 180.0,
		"ai_move_group": 0,
		"ai_target_move_x": -1,
		"ai_target_move_y": -1,
		"ai_skill_function": "",
		"ai_attack": "",
		"ai_move": "",
		"ai_heal": "",
		"ai_skill": "",
		"ai_use": "",
		"skill_group_id": 0,
		"gear_GearGear": 80005,
		"gear_rank": 10,
		"proficiency_UnitProficiency": 1,
		"level": 1,
		"hp": 1,
		"strength": 1,
		"vitality": 1,
		"intelligence": 1,
		"mind": 1,
		"agility": 1,
		"dexterity": 1,
		"lucky": 1,
		"parameter_table_BattleEnemyParameterTable": 0,
		"parameter_deviation_table_BattleEnemyParameterDeviationTable": 0,
		"acquire_skill_group_id": 0,
		"level_correction": 0,
		"group_id": 0,
		"ai_script_id_BattleAIScript": 0
	},
	{
		"ID": 77370,
		"stage_BattleStage": 810005106,
		"unit_UnitUnit": 30005010,
		"money": 0,
		"initial_coordinate_x": 15,
		"initial_coordinate_y": 10,
		"reinforcement_BattleReinforcement": 0,
		"initial_direction": 180.0,
		"ai_move_group": 0,
		"ai_target_move_x": -1,
		"ai_target_move_y": -1,
		"ai_skill_function": "",
		"ai_attack": "",
		"ai_move": "",
		"ai_heal": "",
		"ai_skill": "",
		"ai_use": "",
		"skill_group_id": 0,
		"gear_GearGear": 80005,
		"gear_rank": 10,
		"proficiency_UnitProficiency": 1,
		"level": 1,
		"hp": 1,
		"strength": 1,
		"vitality": 1,
		"intelligence": 1,
		"mind": 1,
		"agility": 1,
		"dexterity": 1,
		"lucky": 1,
		"parameter_table_BattleEnemyParameterTable": 0,
		"parameter_deviation_table_BattleEnemyParameterDeviationTable": 0,
		"acquire_skill_group_id": 0,
		"level_correction": 0,
		"group_id": 0,
		"ai_script_id_BattleAIScript": 0
	},
	{
		"ID": 77371,
		"stage_BattleStage": 810005106,
		"unit_UnitUnit": 30005010,
		"money": 0,
		"initial_coordinate_x": 9,
		"initial_coordinate_y": 17,
		"reinforcement_BattleReinforcement": 0,
		"initial_direction": 180.0,
		"ai_move_group": 0,
		"ai_target_move_x": -1,
		"ai_target_move_y": -1,
		"ai_skill_function": "",
		"ai_attack": "",
		"ai_move": "",
		"ai_heal": "",
		"ai_skill": "",
		"ai_use": "",
		"skill_group_id": 0,
		"gear_GearGear": 80005,
		"gear_rank": 10,
		"proficiency_UnitProficiency": 1,
		"level": 1,
		"hp": 1,
		"strength": 1,
		"vitality": 1,
		"intelligence": 1,
		"mind": 1,
		"agility": 1,
		"dexterity": 1,
		"lucky": 1,
		"parameter_table_BattleEnemyParameterTable": 0,
		"parameter_deviation_table_BattleEnemyParameterDeviationTable": 0,
		"acquire_skill_group_id": 0,
		"level_correction": 0,
		"group_id": 0,
		"ai_script_id_BattleAIScript": 0
	},
	{
		"ID": 77372,
		"stage_BattleStage": 810005106,
		"unit_UnitUnit": 30005010,
		"money": 0,
		"initial_coordinate_x": 14,
		"initial_coordinate_y": 17,
		"reinforcement_BattleReinforcement": 0,
		"initial_direction": 180.0,
		"ai_move_group": 0,
		"ai_target_move_x": -1,
		"ai_target_move_y": -1,
		"ai_skill_function": "",
		"ai_attack": "",
		"ai_move": "",
		"ai_heal": "",
		"ai_skill": "",
		"ai_use": "",
		"skill_group_id": 0,
		"gear_GearGear": 80005,
		"gear_rank": 10,
		"proficiency_UnitProficiency": 1,
		"level": 1,
		"hp": 1,
		"strength": 1,
		"vitality": 1,
		"intelligence": 1,
		"mind": 1,
		"agility": 1,
		"dexterity": 1,
		"lucky": 1,
		"parameter_table_BattleEnemyParameterTable": 0,
		"parameter_deviation_table_BattleEnemyParameterDeviationTable": 0,
		"acquire_skill_group_id": 0,
		"level_correction": 0,
		"group_id": 0,
		"ai_script_id_BattleAIScript": 0
	}
]