[
	{
		"ID": 54828,
		"stage_BattleStage": 810001060,
		"unit_UnitUnit": 960021,
		"money": 0,
		"initial_coordinate_x": 11,
		"initial_coordinate_y": 1,
		"reinforcement_BattleReinforcement": 0,
		"initial_direction": 270.0,
		"ai_move_group": 0,
		"ai_target_move_x": -1,
		"ai_target_move_y": -1,
		"ai_skill_function": "",
		"ai_attack": "IF( turn <=7, IF(panel_move_distance <= 4, 1, 0),1)",
		"ai_move": "IF(turn <=7,0,1)",
		"ai_heal": "",
		"ai_skill": "",
		"ai_use": "",
		"skill_group_id": 16393,
		"gear_GearGear": 66004,
		"gear_rank": 10,
		"proficiency_UnitProficiency": 6,
		"level": 100,
		"hp": 5000,
		"strength": 25,
		"vitality": 96,
		"intelligence": 112,
		"mind": 92,
		"agility": 113,
		"dexterity": 116,
		"lucky": 70,
		"parameter_table_BattleEnemyParameterTable": 0,
		"parameter_deviation_table_BattleEnemyParameterDeviationTable": 0,
		"acquire_skill_group_id": 0,
		"level_correction": 0,
		"group_id": 0,
		"ai_script_id_BattleAIScript": 0
	},
	{
		"ID": 54829,
		"stage_BattleStage": 810001060,
		"unit_UnitUnit": 960021,
		"money": 0,
		"initial_coordinate_x": 3,
		"initial_coordinate_y": 20,
		"reinforcement_BattleReinforcement": 0,
		"initial_direction": 180.0,
		"ai_move_group": 0,
		"ai_target_move_x": -1,
		"ai_target_move_y": -1,
		"ai_skill_function": "",
		"ai_attack": "IF( turn <=2, IF(panel_move_distance <= 4, 1, 0),1)",
		"ai_move": "IF(turn <=2,0,1)",
		"ai_heal": "",
		"ai_skill": "",
		"ai_use": "",
		"skill_group_id": 16391,
		"gear_GearGear": 66004,
		"gear_rank": 10,
		"proficiency_UnitProficiency": 6,
		"level": 90,
		"hp": 803,
		"strength": 23,
		"vitality": 99,
		"intelligence": 102,
		"mind": 92,
		"agility": 112,
		"dexterity": 117,
		"lucky": 71,
		"parameter_table_BattleEnemyParameterTable": 0,
		"parameter_deviation_table_BattleEnemyParameterDeviationTable": 0,
		"acquire_skill_group_id": 0,
		"level_correction": 0,
		"group_id": 0,
		"ai_script_id_BattleAIScript": 0
	},
	{
		"ID": 54830,
		"stage_BattleStage": 810001060,
		"unit_UnitUnit": 960021,
		"money": 0,
		"initial_coordinate_x": 20,
		"initial_coordinate_y": 20,
		"reinforcement_BattleReinforcement": 0,
		"initial_direction": 180.0,
		"ai_move_group": 0,
		"ai_target_move_x": -1,
		"ai_target_move_y": -1,
		"ai_skill_function": "",
		"ai_attack": "IF( turn <=2, IF(panel_move_distance <= 4, 1, 0),1)",
		"ai_move": "IF(turn <=2,0,1)",
		"ai_heal": "",
		"ai_skill": "",
		"ai_use": "",
		"skill_group_id": 16392,
		"gear_GearGear": 66004,
		"gear_rank": 10,
		"proficiency_UnitProficiency": 6,
		"level": 90,
		"hp": 801,
		"strength": 26,
		"vitality": 97,
		"intelligence": 103,
		"mind": 92,
		"agility": 113,
		"dexterity": 118,
		"lucky": 71,
		"parameter_table_BattleEnemyParameterTable": 0,
		"parameter_deviation_table_BattleEnemyParameterDeviationTable": 0,
		"acquire_skill_group_id": 0,
		"level_correction": 0,
		"group_id": 0,
		"ai_script_id_BattleAIScript": 0
	},
	{
		"ID": 54831,
		"stage_BattleStage": 810001060,
		"unit_UnitUnit": 401313,
		"money": 0,
		"initial_coordinate_x": 7,
		"initial_coordinate_y": 16,
		"reinforcement_BattleReinforcement": 0,
		"initial_direction": 180.0,
		"ai_move_group": 0,
		"ai_target_move_x": -1,
		"ai_target_move_y": -1,
		"ai_skill_function": "",
		"ai_attack": "IF( turn <=3, IF(panel_move_distance <= 4, 1, 0),1)",
		"ai_move": "IF(turn <=3,0,1)",
		"ai_heal": "",
		"ai_skill": "",
		"ai_use": "",
		"skill_group_id": 16387,
		"gear_GearGear": 46012,
		"gear_rank": 10,
		"proficiency_UnitProficiency": 6,
		"level": 90,
		"hp": 332,
		"strength": 90,
		"vitality": 61,
		"intelligence": 33,
		"mind": 55,
		"agility": 107,
		"dexterity": 112,
		"lucky": 70,
		"parameter_table_BattleEnemyParameterTable": 0,
		"parameter_deviation_table_BattleEnemyParameterDeviationTable": 0,
		"acquire_skill_group_id": 0,
		"level_correction": 0,
		"group_id": 0,
		"ai_script_id_BattleAIScript": 0
	},
	{
		"ID": 54832,
		"stage_BattleStage": 810001060,
		"unit_UnitUnit": 500613,
		"money": 0,
		"initial_coordinate_x": 16,
		"initial_coordinate_y": 16,
		"reinforcement_BattleReinforcement": 0,
		"initial_direction": 180.0,
		"ai_move_group": 0,
		"ai_target_move_x": -1,
		"ai_target_move_y": -1,
		"ai_skill_function": "",
		"ai_attack": "IF( turn <=3, IF(panel_move_distance <= 4, 1, 0),1)",
		"ai_move": "IF(turn <=3,0,1)",
		"ai_heal": "",
		"ai_skill": "",
		"ai_use": "",
		"skill_group_id": 16388,
		"gear_GearGear": 55001,
		"gear_rank": 10,
		"proficiency_UnitProficiency": 5,
		"level": 90,
		"hp": 329,
		"strength": 33,
		"vitality": 77,
		"intelligence": 90,
		"mind": 81,
		"agility": 103,
		"dexterity": 101,
		"lucky": 55,
		"parameter_table_BattleEnemyParameterTable": 0,
		"parameter_deviation_table_BattleEnemyParameterDeviationTable": 0,
		"acquire_skill_group_id": 0,
		"level_correction": 0,
		"group_id": 0,
		"ai_script_id_BattleAIScript": 0
	},
	{
		"ID": 54833,
		"stage_BattleStage": 810001060,
		"unit_UnitUnit": 820007,
		"money": 0,
		"initial_coordinate_x": 2,
		"initial_coordinate_y": 18,
		"reinforcement_BattleReinforcement": 0,
		"initial_direction": 180.0,
		"ai_move_group": 0,
		"ai_target_move_x": -1,
		"ai_target_move_y": -1,
		"ai_skill_function": "",
		"ai_attack": "IF( turn <=2, IF(panel_move_distance <= 4, 1, 0),1)",
		"ai_move": "IF(turn <=2,0,1)",
		"ai_heal": "",
		"ai_skill": "",
		"ai_use": "",
		"skill_group_id": 14633,
		"gear_GearGear": 25007,
		"gear_rank": 10,
		"proficiency_UnitProficiency": 5,
		"level": 90,
		"hp": 146,
		"strength": 126,
		"vitality": 96,
		"intelligence": 9,
		"mind": 44,
		"agility": 94,
		"dexterity": 94,
		"lucky": 58,
		"parameter_table_BattleEnemyParameterTable": 0,
		"parameter_deviation_table_BattleEnemyParameterDeviationTable": 0,
		"acquire_skill_group_id": 0,
		"level_correction": 0,
		"group_id": 0,
		"ai_script_id_BattleAIScript": 0
	},
	{
		"ID": 54834,
		"stage_BattleStage": 810001060,
		"unit_UnitUnit": 830001,
		"money": 0,
		"initial_coordinate_x": 4,
		"initial_coordinate_y": 18,
		"reinforcement_BattleReinforcement": 0,
		"initial_direction": 180.0,
		"ai_move_group": 0,
		"ai_target_move_x": -1,
		"ai_target_move_y": -1,
		"ai_skill_function": "",
		"ai_attack": "IF( turn <=2, IF(panel_move_distance <= 4, 1, 0),1)",
		"ai_move": "IF(turn <=2,0,1)",
		"ai_heal": "",
		"ai_skill": "",
		"ai_use": "",
		"skill_group_id": 14622,
		"gear_GearGear": 35003,
		"gear_rank": 10,
		"proficiency_UnitProficiency": 5,
		"level": 90,
		"hp": 109,
		"strength": 108,
		"vitality": 100,
		"intelligence": 9,
		"mind": 81,
		"agility": 106,
		"dexterity": 108,
		"lucky": 54,
		"parameter_table_BattleEnemyParameterTable": 0,
		"parameter_deviation_table_BattleEnemyParameterDeviationTable": 0,
		"acquire_skill_group_id": 0,
		"level_correction": 0,
		"group_id": 0,
		"ai_script_id_BattleAIScript": 0
	},
	{
		"ID": 54835,
		"stage_BattleStage": 810001060,
		"unit_UnitUnit": 960021,
		"money": 0,
		"initial_coordinate_x": 11,
		"initial_coordinate_y": 18,
		"reinforcement_BattleReinforcement": 0,
		"initial_direction": 180.0,
		"ai_move_group": 0,
		"ai_target_move_x": -1,
		"ai_target_move_y": -1,
		"ai_skill_function": "",
		"ai_attack": "IF( turn <=7, IF(panel_move_distance <= 4, 1, 0),1)",
		"ai_move": "IF(turn <=7,0,1)",
		"ai_heal": "",
		"ai_skill": "",
		"ai_use": "",
		"skill_group_id": 16391,
		"gear_GearGear": 66004,
		"gear_rank": 10,
		"proficiency_UnitProficiency": 6,
		"level": 90,
		"hp": 802,
		"strength": 26,
		"vitality": 98,
		"intelligence": 102,
		"mind": 92,
		"agility": 113,
		"dexterity": 117,
		"lucky": 70,
		"parameter_table_BattleEnemyParameterTable": 0,
		"parameter_deviation_table_BattleEnemyParameterDeviationTable": 0,
		"acquire_skill_group_id": 0,
		"level_correction": 0,
		"group_id": 0,
		"ai_script_id_BattleAIScript": 0
	},
	{
		"ID": 54836,
		"stage_BattleStage": 810001060,
		"unit_UnitUnit": 920019,
		"money": 0,
		"initial_coordinate_x": 12,
		"initial_coordinate_y": 18,
		"reinforcement_BattleReinforcement": 0,
		"initial_direction": 180.0,
		"ai_move_group": 0,
		"ai_target_move_x": -1,
		"ai_target_move_y": -1,
		"ai_skill_function": "",
		"ai_attack": "IF( turn <=7, IF(panel_move_distance <= 4, 1, 0),1)",
		"ai_move": "IF(turn <=7,0,1)",
		"ai_heal": "",
		"ai_skill": "",
		"ai_use": "",
		"skill_group_id": 14204,
		"gear_GearGear": 25004,
		"gear_rank": 10,
		"proficiency_UnitProficiency": 5,
		"level": 90,
		"hp": 153,
		"strength": 133,
		"vitality": 94,
		"intelligence": 10,
		"mind": 61,
		"agility": 85,
		"dexterity": 92,
		"lucky": 53,
		"parameter_table_BattleEnemyParameterTable": 0,
		"parameter_deviation_table_BattleEnemyParameterDeviationTable": 0,
		"acquire_skill_group_id": 0,
		"level_correction": 0,
		"group_id": 0,
		"ai_script_id_BattleAIScript": 0
	},
	{
		"ID": 54837,
		"stage_BattleStage": 810001060,
		"unit_UnitUnit": 820007,
		"money": 0,
		"initial_coordinate_x": 19,
		"initial_coordinate_y": 18,
		"reinforcement_BattleReinforcement": 0,
		"initial_direction": 180.0,
		"ai_move_group": 0,
		"ai_target_move_x": -1,
		"ai_target_move_y": -1,
		"ai_skill_function": "",
		"ai_attack": "IF( turn <=2, IF(panel_move_distance <= 4, 1, 0),1)",
		"ai_move": "IF(turn <=2,0,1)",
		"ai_heal": "",
		"ai_skill": "",
		"ai_use": "",
		"skill_group_id": 14633,
		"gear_GearGear": 26001,
		"gear_rank": 10,
		"proficiency_UnitProficiency": 6,
		"level": 90,
		"hp": 146,
		"strength": 124,
		"vitality": 93,
		"intelligence": 12,
		"mind": 46,
		"agility": 95,
		"dexterity": 94,
		"lucky": 57,
		"parameter_table_BattleEnemyParameterTable": 0,
		"parameter_deviation_table_BattleEnemyParameterDeviationTable": 0,
		"acquire_skill_group_id": 0,
		"level_correction": 0,
		"group_id": 0,
		"ai_script_id_BattleAIScript": 0
	},
	{
		"ID": 54838,
		"stage_BattleStage": 810001060,
		"unit_UnitUnit": 830001,
		"money": 0,
		"initial_coordinate_x": 21,
		"initial_coordinate_y": 18,
		"reinforcement_BattleReinforcement": 0,
		"initial_direction": 180.0,
		"ai_move_group": 0,
		"ai_target_move_x": -1,
		"ai_target_move_y": -1,
		"ai_skill_function": "",
		"ai_attack": "IF( turn <=2, IF(panel_move_distance <= 4, 1, 0),1)",
		"ai_move": "IF(turn <=2,0,1)",
		"ai_heal": "",
		"ai_skill": "",
		"ai_use": "",
		"skill_group_id": 14622,
		"gear_GearGear": 35003,
		"gear_rank": 10,
		"proficiency_UnitProficiency": 5,
		"level": 90,
		"hp": 109,
		"strength": 105,
		"vitality": 101,
		"intelligence": 12,
		"mind": 82,
		"agility": 105,
		"dexterity": 106,
		"lucky": 55,
		"parameter_table_BattleEnemyParameterTable": 0,
		"parameter_deviation_table_BattleEnemyParameterDeviationTable": 0,
		"acquire_skill_group_id": 0,
		"level_correction": 0,
		"group_id": 0,
		"ai_script_id_BattleAIScript": 0
	},
	{
		"ID": 54839,
		"stage_BattleStage": 810001060,
		"unit_UnitUnit": 920019,
		"money": 0,
		"initial_coordinate_x": 6,
		"initial_coordinate_y": 14,
		"reinforcement_BattleReinforcement": 0,
		"initial_direction": 180.0,
		"ai_move_group": 0,
		"ai_target_move_x": -1,
		"ai_target_move_y": -1,
		"ai_skill_function": "",
		"ai_attack": "IF( turn <=3, IF(panel_move_distance <= 4, 1, 0),1)",
		"ai_move": "IF(turn <=3,0,1)",
		"ai_heal": "",
		"ai_skill": "",
		"ai_use": "",
		"skill_group_id": 14204,
		"gear_GearGear": 25004,
		"gear_rank": 10,
		"proficiency_UnitProficiency": 5,
		"level": 90,
		"hp": 155,
		"strength": 130,
		"vitality": 94,
		"intelligence": 12,
		"mind": 58,
		"agility": 82,
		"dexterity": 91,
		"lucky": 53,
		"parameter_table_BattleEnemyParameterTable": 0,
		"parameter_deviation_table_BattleEnemyParameterDeviationTable": 0,
		"acquire_skill_group_id": 0,
		"level_correction": 0,
		"group_id": 0,
		"ai_script_id_BattleAIScript": 0
	},
	{
		"ID": 54840,
		"stage_BattleStage": 810001060,
		"unit_UnitUnit": 920019,
		"money": 0,
		"initial_coordinate_x": 8,
		"initial_coordinate_y": 14,
		"reinforcement_BattleReinforcement": 0,
		"initial_direction": 180.0,
		"ai_move_group": 0,
		"ai_target_move_x": -1,
		"ai_target_move_y": -1,
		"ai_skill_function": "",
		"ai_attack": "IF( turn <=3, IF(panel_move_distance <= 4, 1, 0),1)",
		"ai_move": "IF(turn <=3,0,1)",
		"ai_heal": "",
		"ai_skill": "",
		"ai_use": "",
		"skill_group_id": 14204,
		"gear_GearGear": 25004,
		"gear_rank": 10,
		"proficiency_UnitProficiency": 5,
		"level": 90,
		"hp": 154,
		"strength": 132,
		"vitality": 96,
		"intelligence": 9,
		"mind": 58,
		"agility": 83,
		"dexterity": 92,
		"lucky": 52,
		"parameter_table_BattleEnemyParameterTable": 0,
		"parameter_deviation_table_BattleEnemyParameterDeviationTable": 0,
		"acquire_skill_group_id": 0,
		"level_correction": 0,
		"group_id": 0,
		"ai_script_id_BattleAIScript": 0
	},
	{
		"ID": 54841,
		"stage_BattleStage": 810001060,
		"unit_UnitUnit": 920019,
		"money": 0,
		"initial_coordinate_x": 15,
		"initial_coordinate_y": 14,
		"reinforcement_BattleReinforcement": 0,
		"initial_direction": 180.0,
		"ai_move_group": 0,
		"ai_target_move_x": -1,
		"ai_target_move_y": -1,
		"ai_skill_function": "",
		"ai_attack": "IF( turn <=3, IF(panel_move_distance <= 4, 1, 0),1)",
		"ai_move": "IF(turn <=3,0,1)",
		"ai_heal": "",
		"ai_skill": "",
		"ai_use": "",
		"skill_group_id": 14204,
		"gear_GearGear": 25004,
		"gear_rank": 10,
		"proficiency_UnitProficiency": 5,
		"level": 90,
		"hp": 154,
		"strength": 130,
		"vitality": 94,
		"intelligence": 10,
		"mind": 58,
		"agility": 81,
		"dexterity": 90,
		"lucky": 51,
		"parameter_table_BattleEnemyParameterTable": 0,
		"parameter_deviation_table_BattleEnemyParameterDeviationTable": 0,
		"acquire_skill_group_id": 0,
		"level_correction": 0,
		"group_id": 0,
		"ai_script_id_BattleAIScript": 0
	},
	{
		"ID": 54842,
		"stage_BattleStage": 810001060,
		"unit_UnitUnit": 920019,
		"money": 0,
		"initial_coordinate_x": 17,
		"initial_coordinate_y": 14,
		"reinforcement_BattleReinforcement": 0,
		"initial_direction": 180.0,
		"ai_move_group": 0,
		"ai_target_move_x": -1,
		"ai_target_move_y": -1,
		"ai_skill_function": "",
		"ai_attack": "IF( turn <=3, IF(panel_move_distance <= 4, 1, 0),1)",
		"ai_move": "IF(turn <=3,0,1)",
		"ai_heal": "",
		"ai_skill": "",
		"ai_use": "",
		"skill_group_id": 14204,
		"gear_GearGear": 25004,
		"gear_rank": 10,
		"proficiency_UnitProficiency": 5,
		"level": 90,
		"hp": 154,
		"strength": 130,
		"vitality": 93,
		"intelligence": 8,
		"mind": 59,
		"agility": 83,
		"dexterity": 90,
		"lucky": 50,
		"parameter_table_BattleEnemyParameterTable": 0,
		"parameter_deviation_table_BattleEnemyParameterDeviationTable": 0,
		"acquire_skill_group_id": 0,
		"level_correction": 0,
		"group_id": 0,
		"ai_script_id_BattleAIScript": 0
	},
	{
		"ID": 54843,
		"stage_BattleStage": 810001060,
		"unit_UnitUnit": 830002,
		"money": 0,
		"initial_coordinate_x": 11,
		"initial_coordinate_y": 12,
		"reinforcement_BattleReinforcement": 0,
		"initial_direction": 180.0,
		"ai_move_group": 0,
		"ai_target_move_x": -1,
		"ai_target_move_y": -1,
		"ai_skill_function": "",
		"ai_attack": "IF( turn <=5, IF(panel_move_distance <= 4, 1, 0),1)",
		"ai_move": "IF(turn <=5,0,1)",
		"ai_heal": "",
		"ai_skill": "",
		"ai_use": "",
		"skill_group_id": 14643,
		"gear_GearGear": 35001,
		"gear_rank": 10,
		"proficiency_UnitProficiency": 5,
		"level": 90,
		"hp": 124,
		"strength": 95,
		"vitality": 82,
		"intelligence": 11,
		"mind": 77,
		"agility": 110,
		"dexterity": 103,
		"lucky": 57,
		"parameter_table_BattleEnemyParameterTable": 0,
		"parameter_deviation_table_BattleEnemyParameterDeviationTable": 0,
		"acquire_skill_group_id": 0,
		"level_correction": 0,
		"group_id": 0,
		"ai_script_id_BattleAIScript": 0
	},
	{
		"ID": 54844,
		"stage_BattleStage": 810001060,
		"unit_UnitUnit": 830002,
		"money": 0,
		"initial_coordinate_x": 12,
		"initial_coordinate_y": 12,
		"reinforcement_BattleReinforcement": 0,
		"initial_direction": 180.0,
		"ai_move_group": 0,
		"ai_target_move_x": -1,
		"ai_target_move_y": -1,
		"ai_skill_function": "",
		"ai_attack": "IF( turn <=5, IF(panel_move_distance <= 4, 1, 0),1)",
		"ai_move": "IF(turn <=5,0,1)",
		"ai_heal": "",
		"ai_skill": "",
		"ai_use": "",
		"skill_group_id": 14643,
		"gear_GearGear": 35001,
		"gear_rank": 10,
		"proficiency_UnitProficiency": 5,
		"level": 90,
		"hp": 124,
		"strength": 94,
		"vitality": 81,
		"intelligence": 9,
		"mind": 78,
		"agility": 111,
		"dexterity": 106,
		"lucky": 56,
		"parameter_table_BattleEnemyParameterTable": 0,
		"parameter_deviation_table_BattleEnemyParameterDeviationTable": 0,
		"acquire_skill_group_id": 0,
		"level_correction": 0,
		"group_id": 0,
		"ai_script_id_BattleAIScript": 0
	},
	{
		"ID": 54845,
		"stage_BattleStage": 810001060,
		"unit_UnitUnit": 100443,
		"money": 0,
		"initial_coordinate_x": 11,
		"initial_coordinate_y": 8,
		"reinforcement_BattleReinforcement": 0,
		"initial_direction": 270.0,
		"ai_move_group": 0,
		"ai_target_move_x": -1,
		"ai_target_move_y": -1,
		"ai_skill_function": "",
		"ai_attack": "IF( turn <=5, IF(panel_move_distance <= 4, 1, 0),1)",
		"ai_move": "IF(turn <=5,0,1)",
		"ai_heal": "",
		"ai_skill": "",
		"ai_use": "",
		"skill_group_id": 16389,
		"gear_GearGear": 16001,
		"gear_rank": 10,
		"proficiency_UnitProficiency": 6,
		"level": 90,
		"hp": 347,
		"strength": 107,
		"vitality": 76,
		"intelligence": 22,
		"mind": 39,
		"agility": 122,
		"dexterity": 122,
		"lucky": 63,
		"parameter_table_BattleEnemyParameterTable": 0,
		"parameter_deviation_table_BattleEnemyParameterDeviationTable": 0,
		"acquire_skill_group_id": 0,
		"level_correction": 0,
		"group_id": 0,
		"ai_script_id_BattleAIScript": 0
	},
	{
		"ID": 54846,
		"stage_BattleStage": 810001060,
		"unit_UnitUnit": 100343,
		"money": 0,
		"initial_coordinate_x": 12,
		"initial_coordinate_y": 8,
		"reinforcement_BattleReinforcement": 0,
		"initial_direction": 90.0,
		"ai_move_group": 0,
		"ai_target_move_x": -1,
		"ai_target_move_y": -1,
		"ai_skill_function": "",
		"ai_attack": "IF( turn <=5, IF(panel_move_distance <= 4, 1, 0),1)",
		"ai_move": "IF(turn <=5,0,1)",
		"ai_heal": "",
		"ai_skill": "",
		"ai_use": "",
		"skill_group_id": 16390,
		"gear_GearGear": 16001,
		"gear_rank": 10,
		"proficiency_UnitProficiency": 6,
		"level": 90,
		"hp": 322,
		"strength": 84,
		"vitality": 54,
		"intelligence": 38,
		"mind": 63,
		"agility": 123,
		"dexterity": 104,
		"lucky": 65,
		"parameter_table_BattleEnemyParameterTable": 0,
		"parameter_deviation_table_BattleEnemyParameterDeviationTable": 0,
		"acquire_skill_group_id": 0,
		"level_correction": 0,
		"group_id": 0,
		"ai_script_id_BattleAIScript": 0
	},
	{
		"ID": 54847,
		"stage_BattleStage": 810001060,
		"unit_UnitUnit": 840018,
		"money": 0,
		"initial_coordinate_x": 11,
		"initial_coordinate_y": 5,
		"reinforcement_BattleReinforcement": 0,
		"initial_direction": 270.0,
		"ai_move_group": 0,
		"ai_target_move_x": -1,
		"ai_target_move_y": -1,
		"ai_skill_function": "",
		"ai_attack": "IF( turn <=5, IF(panel_move_distance <= 4, 1, 0),1)",
		"ai_move": "IF(turn <=5,0,1)",
		"ai_heal": "",
		"ai_skill": "",
		"ai_use": "",
		"skill_group_id": 14532,
		"gear_GearGear": 44003,
		"gear_rank": 10,
		"proficiency_UnitProficiency": 4,
		"level": 90,
		"hp": 121,
		"strength": 106,
		"vitality": 83,
		"intelligence": 10,
		"mind": 73,
		"agility": 105,
		"dexterity": 102,
		"lucky": 52,
		"parameter_table_BattleEnemyParameterTable": 0,
		"parameter_deviation_table_BattleEnemyParameterDeviationTable": 0,
		"acquire_skill_group_id": 0,
		"level_correction": 0,
		"group_id": 0,
		"ai_script_id_BattleAIScript": 0
	},
	{
		"ID": 54848,
		"stage_BattleStage": 810001060,
		"unit_UnitUnit": 840018,
		"money": 0,
		"initial_coordinate_x": 12,
		"initial_coordinate_y": 5,
		"reinforcement_BattleReinforcement": 0,
		"initial_direction": 90.0,
		"ai_move_group": 0,
		"ai_target_move_x": -1,
		"ai_target_move_y": -1,
		"ai_skill_function": "",
		"ai_attack": "IF( turn <=5, IF(panel_move_distance <= 4, 1, 0),1)",
		"ai_move": "IF(turn <=5,0,1)",
		"ai_heal": "",
		"ai_skill": "",
		"ai_use": "",
		"skill_group_id": 14532,
		"gear_GearGear": 44003,
		"gear_rank": 10,
		"proficiency_UnitProficiency": 4,
		"level": 90,
		"hp": 121,
		"strength": 106,
		"vitality": 80,
		"intelligence": 12,
		"mind": 72,
		"agility": 103,
		"dexterity": 101,
		"lucky": 51,
		"parameter_table_BattleEnemyParameterTable": 0,
		"parameter_deviation_table_BattleEnemyParameterDeviationTable": 0,
		"acquire_skill_group_id": 0,
		"level_correction": 0,
		"group_id": 0,
		"ai_script_id_BattleAIScript": 0
	},
	{
		"ID": 54849,
		"stage_BattleStage": 810001060,
		"unit_UnitUnit": 960015,
		"money": 0,
		"initial_coordinate_x": 10,
		"initial_coordinate_y": 1,
		"reinforcement_BattleReinforcement": 0,
		"initial_direction": 270.0,
		"ai_move_group": 0,
		"ai_target_move_x": -1,
		"ai_target_move_y": -1,
		"ai_skill_function": "",
		"ai_attack": "IF( turn <=7, IF(panel_move_distance <= 4, 1, 0),1)",
		"ai_move": "IF(turn <=7,0,1)",
		"ai_heal": "",
		"ai_skill": "",
		"ai_use": "",
		"skill_group_id": 14542,
		"gear_GearGear": 65002,
		"gear_rank": 10,
		"proficiency_UnitProficiency": 5,
		"level": 90,
		"hp": 108,
		"strength": 8,
		"vitality": 80,
		"intelligence": 113,
		"mind": 122,
		"agility": 99,
		"dexterity": 103,
		"lucky": 54,
		"parameter_table_BattleEnemyParameterTable": 0,
		"parameter_deviation_table_BattleEnemyParameterDeviationTable": 0,
		"acquire_skill_group_id": 0,
		"level_correction": 0,
		"group_id": 0,
		"ai_script_id_BattleAIScript": 0
	},
	{
		"ID": 54850,
		"stage_BattleStage": 810001060,
		"unit_UnitUnit": 960015,
		"money": 0,
		"initial_coordinate_x": 12,
		"initial_coordinate_y": 1,
		"reinforcement_BattleReinforcement": 0,
		"initial_direction": 90.0,
		"ai_move_group": 0,
		"ai_target_move_x": -1,
		"ai_target_move_y": -1,
		"ai_skill_function": "",
		"ai_attack": "IF( turn <=7, IF(panel_move_distance <= 4, 1, 0),1)",
		"ai_move": "IF(turn <=7,0,1)",
		"ai_heal": "",
		"ai_skill": "",
		"ai_use": "",
		"skill_group_id": 14542,
		"gear_GearGear": 65001,
		"gear_rank": 10,
		"proficiency_UnitProficiency": 5,
		"level": 90,
		"hp": 107,
		"strength": 12,
		"vitality": 82,
		"intelligence": 112,
		"mind": 125,
		"agility": 102,
		"dexterity": 100,
		"lucky": 55,
		"parameter_table_BattleEnemyParameterTable": 0,
		"parameter_deviation_table_BattleEnemyParameterDeviationTable": 0,
		"acquire_skill_group_id": 0,
		"level_correction": 0,
		"group_id": 0,
		"ai_script_id_BattleAIScript": 0
	},
	{
		"ID": 54851,
		"stage_BattleStage": 810001060,
		"unit_UnitUnit": 960015,
		"money": 0,
		"initial_coordinate_x": 13,
		"initial_coordinate_y": 1,
		"reinforcement_BattleReinforcement": 0,
		"initial_direction": 90.0,
		"ai_move_group": 0,
		"ai_target_move_x": -1,
		"ai_target_move_y": -1,
		"ai_skill_function": "",
		"ai_attack": "IF( turn <=7, IF(panel_move_distance <= 4, 1, 0),1)",
		"ai_move": "IF(turn <=7,0,1)",
		"ai_heal": "",
		"ai_skill": "",
		"ai_use": "",
		"skill_group_id": 14542,
		"gear_GearGear": 65004,
		"gear_rank": 10,
		"proficiency_UnitProficiency": 5,
		"level": 90,
		"hp": 106,
		"strength": 9,
		"vitality": 82,
		"intelligence": 111,
		"mind": 121,
		"agility": 102,
		"dexterity": 103,
		"lucky": 54,
		"parameter_table_BattleEnemyParameterTable": 0,
		"parameter_deviation_table_BattleEnemyParameterDeviationTable": 0,
		"acquire_skill_group_id": 0,
		"level_correction": 0,
		"group_id": 0,
		"ai_script_id_BattleAIScript": 0
	}
]