[
	{
		"ID": 67200,
		"stage_BattleStage": 810004050,
		"unit_UnitUnit": 960024,
		"money": 0,
		"initial_coordinate_x": 20,
		"initial_coordinate_y": 17,
		"reinforcement_BattleReinforcement": 0,
		"initial_direction": 180.0,
		"ai_move_group": 0,
		"ai_target_move_x": -1,
		"ai_target_move_y": -1,
		"ai_skill_function": "",
		"ai_attack": "IF( turn <=6 ,IF(panel_move_distance <= 6, 1, 0),1)",
		"ai_move": "IF(turn <=5,0,1)",
		"ai_heal": "",
		"ai_skill": "",
		"ai_use": "",
		"skill_group_id": 14780,
		"gear_GearGear": 16001,
		"gear_rank": 1,
		"proficiency_UnitProficiency": 6,
		"level": 100,
		"hp": 5000,
		"strength": 103,
		"vitality": 80,
		"intelligence": 30,
		"mind": 76,
		"agility": 128,
		"dexterity": 113,
		"lucky": 31,
		"parameter_table_BattleEnemyParameterTable": 0,
		"parameter_deviation_table_BattleEnemyParameterDeviationTable": 0,
		"acquire_skill_group_id": 0,
		"level_correction": 0,
		"group_id": 0,
		"ai_script_id_BattleAIScript": 0
	},
	{
		"ID": 67201,
		"stage_BattleStage": 810004050,
		"unit_UnitUnit": 910019,
		"money": 0,
		"initial_coordinate_x": 17,
		"initial_coordinate_y": 17,
		"reinforcement_BattleReinforcement": 0,
		"initial_direction": 180.0,
		"ai_move_group": 0,
		"ai_target_move_x": -1,
		"ai_target_move_y": -1,
		"ai_skill_function": "",
		"ai_attack": "IF( turn <=5 ,IF(panel_move_distance <= 5, 1, 0),1)",
		"ai_move": "IF(turn <=5,0,1)",
		"ai_heal": "",
		"ai_skill": "",
		"ai_use": "",
		"skill_group_id": 13413,
		"gear_GearGear": 15005,
		"gear_rank": 1,
		"proficiency_UnitProficiency": 5,
		"level": 90,
		"hp": 156,
		"strength": 108,
		"vitality": 121,
		"intelligence": 11,
		"mind": 101,
		"agility": 110,
		"dexterity": 111,
		"lucky": 63,
		"parameter_table_BattleEnemyParameterTable": 0,
		"parameter_deviation_table_BattleEnemyParameterDeviationTable": 0,
		"acquire_skill_group_id": 0,
		"level_correction": 0,
		"group_id": 0,
		"ai_script_id_BattleAIScript": 0
	},
	{
		"ID": 67202,
		"stage_BattleStage": 810004050,
		"unit_UnitUnit": 910019,
		"money": 0,
		"initial_coordinate_x": 16,
		"initial_coordinate_y": 18,
		"reinforcement_BattleReinforcement": 0,
		"initial_direction": 180.0,
		"ai_move_group": 0,
		"ai_target_move_x": -1,
		"ai_target_move_y": -1,
		"ai_skill_function": "",
		"ai_attack": "IF( turn <=5 ,IF(panel_move_distance <= 5, 1, 0),1)",
		"ai_move": "IF(turn <=5,0,1)",
		"ai_heal": "",
		"ai_skill": "",
		"ai_use": "",
		"skill_group_id": 13413,
		"gear_GearGear": 15005,
		"gear_rank": 1,
		"proficiency_UnitProficiency": 5,
		"level": 90,
		"hp": 160,
		"strength": 112,
		"vitality": 118,
		"intelligence": 11,
		"mind": 97,
		"agility": 109,
		"dexterity": 107,
		"lucky": 59,
		"parameter_table_BattleEnemyParameterTable": 0,
		"parameter_deviation_table_BattleEnemyParameterDeviationTable": 0,
		"acquire_skill_group_id": 0,
		"level_correction": 0,
		"group_id": 0,
		"ai_script_id_BattleAIScript": 0
	},
	{
		"ID": 67203,
		"stage_BattleStage": 810004050,
		"unit_UnitUnit": 2400513,
		"money": 0,
		"initial_coordinate_x": 15,
		"initial_coordinate_y": 19,
		"reinforcement_BattleReinforcement": 0,
		"initial_direction": 180.0,
		"ai_move_group": 0,
		"ai_target_move_x": -1,
		"ai_target_move_y": -1,
		"ai_skill_function": "",
		"ai_attack": "IF( turn <=5 ,IF(panel_move_distance <= 1, 1, 0),1)",
		"ai_move": "IF(turn <=5,0,1)",
		"ai_heal": "",
		"ai_skill": "",
		"ai_use": "",
		"skill_group_id": 14155,
		"gear_GearGear": 46002,
		"gear_rank": 1,
		"proficiency_UnitProficiency": 6,
		"level": 90,
		"hp": 214,
		"strength": 105,
		"vitality": 102,
		"intelligence": 50,
		"mind": 100,
		"agility": 114,
		"dexterity": 110,
		"lucky": 62,
		"parameter_table_BattleEnemyParameterTable": 0,
		"parameter_deviation_table_BattleEnemyParameterDeviationTable": 0,
		"acquire_skill_group_id": 0,
		"level_correction": 0,
		"group_id": 0,
		"ai_script_id_BattleAIScript": 0
	},
	{
		"ID": 67204,
		"stage_BattleStage": 810004050,
		"unit_UnitUnit": 2840004,
		"money": 0,
		"initial_coordinate_x": 16,
		"initial_coordinate_y": 15,
		"reinforcement_BattleReinforcement": 0,
		"initial_direction": 180.0,
		"ai_move_group": 0,
		"ai_target_move_x": -1,
		"ai_target_move_y": -1,
		"ai_skill_function": "",
		"ai_attack": "IF( turn <=5 ,IF(panel_move_distance <= 1, 1, 0),1)",
		"ai_move": "IF(turn <=5,0,1)",
		"ai_heal": "",
		"ai_skill": "",
		"ai_use": "",
		"skill_group_id": 13435,
		"gear_GearGear": 45001,
		"gear_rank": 1,
		"proficiency_UnitProficiency": 5,
		"level": 90,
		"hp": 155,
		"strength": 107,
		"vitality": 113,
		"intelligence": 12,
		"mind": 98,
		"agility": 99,
		"dexterity": 99,
		"lucky": 54,
		"parameter_table_BattleEnemyParameterTable": 0,
		"parameter_deviation_table_BattleEnemyParameterDeviationTable": 0,
		"acquire_skill_group_id": 0,
		"level_correction": 0,
		"group_id": 0,
		"ai_script_id_BattleAIScript": 0
	},
	{
		"ID": 67205,
		"stage_BattleStage": 810004050,
		"unit_UnitUnit": 860001,
		"money": 0,
		"initial_coordinate_x": 15,
		"initial_coordinate_y": 14,
		"reinforcement_BattleReinforcement": 0,
		"initial_direction": 180.0,
		"ai_move_group": 0,
		"ai_target_move_x": -1,
		"ai_target_move_y": -1,
		"ai_skill_function": "",
		"ai_attack": "IF( turn <=5 ,IF(panel_move_distance <= 4, 1, 0),1)",
		"ai_move": "IF(turn <=5,0,1)",
		"ai_heal": "",
		"ai_skill": "",
		"ai_use": "",
		"skill_group_id": 13386,
		"gear_GearGear": 65001,
		"gear_rank": 1,
		"proficiency_UnitProficiency": 5,
		"level": 90,
		"hp": 136,
		"strength": 19,
		"vitality": 92,
		"intelligence": 112,
		"mind": 140,
		"agility": 97,
		"dexterity": 94,
		"lucky": 53,
		"parameter_table_BattleEnemyParameterTable": 0,
		"parameter_deviation_table_BattleEnemyParameterDeviationTable": 0,
		"acquire_skill_group_id": 0,
		"level_correction": 0,
		"group_id": 0,
		"ai_script_id_BattleAIScript": 0
	},
	{
		"ID": 67206,
		"stage_BattleStage": 810004050,
		"unit_UnitUnit": 960024,
		"money": 0,
		"initial_coordinate_x": 10,
		"initial_coordinate_y": 18,
		"reinforcement_BattleReinforcement": 0,
		"initial_direction": 180.0,
		"ai_move_group": 0,
		"ai_target_move_x": -1,
		"ai_target_move_y": -1,
		"ai_skill_function": "",
		"ai_attack": "IF( turn <=5 ,IF(panel_move_distance <= 2, 1, 0),1)",
		"ai_move": "IF(turn <=5,0,1)",
		"ai_heal": "",
		"ai_skill": "",
		"ai_use": "",
		"skill_group_id": 14380,
		"gear_GearGear": 16001,
		"gear_rank": 1,
		"proficiency_UnitProficiency": 6,
		"level": 90,
		"hp": 550,
		"strength": 95,
		"vitality": 98,
		"intelligence": 30,
		"mind": 72,
		"agility": 135,
		"dexterity": 106,
		"lucky": 40,
		"parameter_table_BattleEnemyParameterTable": 0,
		"parameter_deviation_table_BattleEnemyParameterDeviationTable": 0,
		"acquire_skill_group_id": 0,
		"level_correction": 0,
		"group_id": 0,
		"ai_script_id_BattleAIScript": 0
	},
	{
		"ID": 67207,
		"stage_BattleStage": 810004050,
		"unit_UnitUnit": 2600813,
		"money": 0,
		"initial_coordinate_x": 10,
		"initial_coordinate_y": 19,
		"reinforcement_BattleReinforcement": 0,
		"initial_direction": 180.0,
		"ai_move_group": 0,
		"ai_target_move_x": -1,
		"ai_target_move_y": -1,
		"ai_skill_function": "",
		"ai_attack": "IF( turn <=5 ,IF(panel_move_distance <= 2, 1, 0),1)",
		"ai_move": "IF(turn <=5,0,1)",
		"ai_heal": "",
		"ai_skill": "",
		"ai_use": "",
		"skill_group_id": 14154,
		"gear_GearGear": 66004,
		"gear_rank": 1,
		"proficiency_UnitProficiency": 6,
		"level": 90,
		"hp": 188,
		"strength": 6,
		"vitality": 92,
		"intelligence": 123,
		"mind": 148,
		"agility": 110,
		"dexterity": 97,
		"lucky": 60,
		"parameter_table_BattleEnemyParameterTable": 0,
		"parameter_deviation_table_BattleEnemyParameterDeviationTable": 0,
		"acquire_skill_group_id": 0,
		"level_correction": 0,
		"group_id": 0,
		"ai_script_id_BattleAIScript": 0
	},
	{
		"ID": 67208,
		"stage_BattleStage": 810004050,
		"unit_UnitUnit": 960015,
		"money": 0,
		"initial_coordinate_x": 9,
		"initial_coordinate_y": 18,
		"reinforcement_BattleReinforcement": 0,
		"initial_direction": 180.0,
		"ai_move_group": 0,
		"ai_target_move_x": -1,
		"ai_target_move_y": -1,
		"ai_skill_function": "",
		"ai_attack": "IF( turn <=5 ,IF(panel_move_distance <= 2, 1, 0),1)",
		"ai_move": "IF(turn <=5,0,1)",
		"ai_heal": "",
		"ai_skill": "",
		"ai_use": "",
		"skill_group_id": 13383,
		"gear_GearGear": 65006,
		"gear_rank": 1,
		"proficiency_UnitProficiency": 5,
		"level": 90,
		"hp": 124,
		"strength": 16,
		"vitality": 84,
		"intelligence": 119,
		"mind": 153,
		"agility": 78,
		"dexterity": 99,
		"lucky": 60,
		"parameter_table_BattleEnemyParameterTable": 0,
		"parameter_deviation_table_BattleEnemyParameterDeviationTable": 0,
		"acquire_skill_group_id": 0,
		"level_correction": 0,
		"group_id": 0,
		"ai_script_id_BattleAIScript": 0
	},
	{
		"ID": 67209,
		"stage_BattleStage": 810004050,
		"unit_UnitUnit": 960015,
		"money": 0,
		"initial_coordinate_x": 11,
		"initial_coordinate_y": 18,
		"reinforcement_BattleReinforcement": 0,
		"initial_direction": 180.0,
		"ai_move_group": 0,
		"ai_target_move_x": -1,
		"ai_target_move_y": -1,
		"ai_skill_function": "",
		"ai_attack": "IF( turn <=5 ,IF(panel_move_distance <= 2, 1, 0),1)",
		"ai_move": "IF(turn <=5,0,1)",
		"ai_heal": "",
		"ai_skill": "",
		"ai_use": "",
		"skill_group_id": 13383,
		"gear_GearGear": 65006,
		"gear_rank": 1,
		"proficiency_UnitProficiency": 5,
		"level": 90,
		"hp": 122,
		"strength": 15,
		"vitality": 86,
		"intelligence": 121,
		"mind": 150,
		"agility": 80,
		"dexterity": 97,
		"lucky": 60,
		"parameter_table_BattleEnemyParameterTable": 0,
		"parameter_deviation_table_BattleEnemyParameterDeviationTable": 0,
		"acquire_skill_group_id": 0,
		"level_correction": 0,
		"group_id": 0,
		"ai_script_id_BattleAIScript": 0
	},
	{
		"ID": 67210,
		"stage_BattleStage": 810004050,
		"unit_UnitUnit": 2840004,
		"money": 0,
		"initial_coordinate_x": 9,
		"initial_coordinate_y": 14,
		"reinforcement_BattleReinforcement": 0,
		"initial_direction": 180.0,
		"ai_move_group": 0,
		"ai_target_move_x": -1,
		"ai_target_move_y": -1,
		"ai_skill_function": "",
		"ai_attack": "IF( turn <=5 ,IF(panel_move_distance <= 2, 1, 0),1)",
		"ai_move": "IF(turn <=5,0,1)",
		"ai_heal": "",
		"ai_skill": "",
		"ai_use": "",
		"skill_group_id": 13435,
		"gear_GearGear": 45001,
		"gear_rank": 1,
		"proficiency_UnitProficiency": 5,
		"level": 90,
		"hp": 159,
		"strength": 105,
		"vitality": 118,
		"intelligence": 12,
		"mind": 100,
		"agility": 100,
		"dexterity": 104,
		"lucky": 58,
		"parameter_table_BattleEnemyParameterTable": 0,
		"parameter_deviation_table_BattleEnemyParameterDeviationTable": 0,
		"acquire_skill_group_id": 0,
		"level_correction": 0,
		"group_id": 0,
		"ai_script_id_BattleAIScript": 0
	},
	{
		"ID": 67211,
		"stage_BattleStage": 810004050,
		"unit_UnitUnit": 2840004,
		"money": 0,
		"initial_coordinate_x": 9,
		"initial_coordinate_y": 13,
		"reinforcement_BattleReinforcement": 0,
		"initial_direction": 180.0,
		"ai_move_group": 0,
		"ai_target_move_x": -1,
		"ai_target_move_y": -1,
		"ai_skill_function": "",
		"ai_attack": "IF( turn <=5 ,IF(panel_move_distance <= 2, 1, 0),1)",
		"ai_move": "IF(turn <=5,0,1)",
		"ai_heal": "",
		"ai_skill": "",
		"ai_use": "",
		"skill_group_id": 13435,
		"gear_GearGear": 45001,
		"gear_rank": 1,
		"proficiency_UnitProficiency": 5,
		"level": 90,
		"hp": 159,
		"strength": 103,
		"vitality": 115,
		"intelligence": 12,
		"mind": 98,
		"agility": 101,
		"dexterity": 105,
		"lucky": 59,
		"parameter_table_BattleEnemyParameterTable": 0,
		"parameter_deviation_table_BattleEnemyParameterDeviationTable": 0,
		"acquire_skill_group_id": 0,
		"level_correction": 0,
		"group_id": 0,
		"ai_script_id_BattleAIScript": 0
	},
	{
		"ID": 67212,
		"stage_BattleStage": 810004050,
		"unit_UnitUnit": 831002,
		"money": 0,
		"initial_coordinate_x": 6,
		"initial_coordinate_y": 16,
		"reinforcement_BattleReinforcement": 0,
		"initial_direction": 180.0,
		"ai_move_group": 0,
		"ai_target_move_x": -1,
		"ai_target_move_y": -1,
		"ai_skill_function": "",
		"ai_attack": "IF( turn <=3 ,IF(panel_move_distance <= 7, 1, 0),1)",
		"ai_move": "IF(turn <=3,0,1)",
		"ai_heal": "",
		"ai_skill": "",
		"ai_use": "",
		"skill_group_id": 13615,
		"gear_GearGear": 35002,
		"gear_rank": 1,
		"proficiency_UnitProficiency": 5,
		"level": 90,
		"hp": 177,
		"strength": 102,
		"vitality": 131,
		"intelligence": 15,
		"mind": 85,
		"agility": 94,
		"dexterity": 100,
		"lucky": 61,
		"parameter_table_BattleEnemyParameterTable": 0,
		"parameter_deviation_table_BattleEnemyParameterDeviationTable": 0,
		"acquire_skill_group_id": 0,
		"level_correction": 0,
		"group_id": 0,
		"ai_script_id_BattleAIScript": 0
	},
	{
		"ID": 67213,
		"stage_BattleStage": 810004050,
		"unit_UnitUnit": 831002,
		"money": 0,
		"initial_coordinate_x": 7,
		"initial_coordinate_y": 15,
		"reinforcement_BattleReinforcement": 0,
		"initial_direction": 180.0,
		"ai_move_group": 0,
		"ai_target_move_x": -1,
		"ai_target_move_y": -1,
		"ai_skill_function": "",
		"ai_attack": "IF( turn <=3 ,IF(panel_move_distance <= 7, 1, 0),1)",
		"ai_move": "IF(turn <=3,0,1)",
		"ai_heal": "",
		"ai_skill": "",
		"ai_use": "",
		"skill_group_id": 13615,
		"gear_GearGear": 35002,
		"gear_rank": 1,
		"proficiency_UnitProficiency": 5,
		"level": 90,
		"hp": 180,
		"strength": 103,
		"vitality": 125,
		"intelligence": 15,
		"mind": 80,
		"agility": 101,
		"dexterity": 105,
		"lucky": 60,
		"parameter_table_BattleEnemyParameterTable": 0,
		"parameter_deviation_table_BattleEnemyParameterDeviationTable": 0,
		"acquire_skill_group_id": 0,
		"level_correction": 0,
		"group_id": 0,
		"ai_script_id_BattleAIScript": 0
	},
	{
		"ID": 67214,
		"stage_BattleStage": 810004050,
		"unit_UnitUnit": 2300813,
		"money": 0,
		"initial_coordinate_x": 12,
		"initial_coordinate_y": 15,
		"reinforcement_BattleReinforcement": 0,
		"initial_direction": 180.0,
		"ai_move_group": 0,
		"ai_target_move_x": -1,
		"ai_target_move_y": -1,
		"ai_skill_function": "",
		"ai_attack": "IF( turn <=2 ,IF(panel_move_distance <= 5, 1, 0),1)",
		"ai_move": "IF(turn <=2,0,1)",
		"ai_heal": "",
		"ai_skill": "",
		"ai_use": "",
		"skill_group_id": 14151,
		"gear_GearGear": 36001,
		"gear_rank": 1,
		"proficiency_UnitProficiency": 6,
		"level": 90,
		"hp": 286,
		"strength": 115,
		"vitality": 147,
		"intelligence": 12,
		"mind": 70,
		"agility": 95,
		"dexterity": 97,
		"lucky": 55,
		"parameter_table_BattleEnemyParameterTable": 0,
		"parameter_deviation_table_BattleEnemyParameterDeviationTable": 0,
		"acquire_skill_group_id": 0,
		"level_correction": 0,
		"group_id": 0,
		"ai_script_id_BattleAIScript": 0
	},
	{
		"ID": 67215,
		"stage_BattleStage": 810004050,
		"unit_UnitUnit": 2302413,
		"money": 0,
		"initial_coordinate_x": 13,
		"initial_coordinate_y": 15,
		"reinforcement_BattleReinforcement": 0,
		"initial_direction": 180.0,
		"ai_move_group": 0,
		"ai_target_move_x": -1,
		"ai_target_move_y": -1,
		"ai_skill_function": "",
		"ai_attack": "IF( turn <=2 ,IF(panel_move_distance <= 5, 1, 0),1)",
		"ai_move": "IF(turn <=2,0,1)",
		"ai_heal": "",
		"ai_skill": "",
		"ai_use": "",
		"skill_group_id": 14156,
		"gear_GearGear": 36001,
		"gear_rank": 1,
		"proficiency_UnitProficiency": 6,
		"level": 90,
		"hp": 251,
		"strength": 108,
		"vitality": 128,
		"intelligence": 17,
		"mind": 69,
		"agility": 98,
		"dexterity": 101,
		"lucky": 58,
		"parameter_table_BattleEnemyParameterTable": 0,
		"parameter_deviation_table_BattleEnemyParameterDeviationTable": 0,
		"acquire_skill_group_id": 0,
		"level_correction": 0,
		"group_id": 0,
		"ai_script_id_BattleAIScript": 0
	},
	{
		"ID": 67216,
		"stage_BattleStage": 810004050,
		"unit_UnitUnit": 821003,
		"money": 0,
		"initial_coordinate_x": 12,
		"initial_coordinate_y": 9,
		"reinforcement_BattleReinforcement": 0,
		"initial_direction": 180.0,
		"ai_move_group": 0,
		"ai_target_move_x": -1,
		"ai_target_move_y": -1,
		"ai_skill_function": "",
		"ai_attack": "IF( turn <=2 ,IF(panel_move_distance <= 1, 1, 0),1)",
		"ai_move": "IF(turn <=2,0,1)",
		"ai_heal": "",
		"ai_skill": "",
		"ai_use": "",
		"skill_group_id": 14216,
		"gear_GearGear": 25001,
		"gear_rank": 1,
		"proficiency_UnitProficiency": 5,
		"level": 90,
		"hp": 200,
		"strength": 126,
		"vitality": 144,
		"intelligence": 11,
		"mind": 80,
		"agility": 63,
		"dexterity": 90,
		"lucky": 61,
		"parameter_table_BattleEnemyParameterTable": 0,
		"parameter_deviation_table_BattleEnemyParameterDeviationTable": 0,
		"acquire_skill_group_id": 0,
		"level_correction": 0,
		"group_id": 0,
		"ai_script_id_BattleAIScript": 0
	},
	{
		"ID": 67217,
		"stage_BattleStage": 810004050,
		"unit_UnitUnit": 821003,
		"money": 0,
		"initial_coordinate_x": 13,
		"initial_coordinate_y": 9,
		"reinforcement_BattleReinforcement": 0,
		"initial_direction": 180.0,
		"ai_move_group": 0,
		"ai_target_move_x": -1,
		"ai_target_move_y": -1,
		"ai_skill_function": "",
		"ai_attack": "IF( turn <=2 ,IF(panel_move_distance <= 1, 1, 0),1)",
		"ai_move": "IF(turn <=2,0,1)",
		"ai_heal": "",
		"ai_skill": "",
		"ai_use": "",
		"skill_group_id": 14216,
		"gear_GearGear": 25001,
		"gear_rank": 1,
		"proficiency_UnitProficiency": 5,
		"level": 90,
		"hp": 201,
		"strength": 126,
		"vitality": 146,
		"intelligence": 12,
		"mind": 83,
		"agility": 64,
		"dexterity": 90,
		"lucky": 63,
		"parameter_table_BattleEnemyParameterTable": 0,
		"parameter_deviation_table_BattleEnemyParameterDeviationTable": 0,
		"acquire_skill_group_id": 0,
		"level_correction": 0,
		"group_id": 0,
		"ai_script_id_BattleAIScript": 0
	},
	{
		"ID": 67218,
		"stage_BattleStage": 810004050,
		"unit_UnitUnit": 960024,
		"money": 0,
		"initial_coordinate_x": 2,
		"initial_coordinate_y": 11,
		"reinforcement_BattleReinforcement": 0,
		"initial_direction": 180.0,
		"ai_move_group": 0,
		"ai_target_move_x": -1,
		"ai_target_move_y": -1,
		"ai_skill_function": "",
		"ai_attack": "IF( turn <=1 ,IF(panel_move_distance <= 4, 1, 0),1)",
		"ai_move": "IF(turn <=1,0,1)",
		"ai_heal": "",
		"ai_skill": "",
		"ai_use": "",
		"skill_group_id": 14360,
		"gear_GearGear": 16001,
		"gear_rank": 1,
		"proficiency_UnitProficiency": 6,
		"level": 90,
		"hp": 600,
		"strength": 83,
		"vitality": 102,
		"intelligence": 30,
		"mind": 80,
		"agility": 101,
		"dexterity": 104,
		"lucky": 45,
		"parameter_table_BattleEnemyParameterTable": 0,
		"parameter_deviation_table_BattleEnemyParameterDeviationTable": 0,
		"acquire_skill_group_id": 0,
		"level_correction": 0,
		"group_id": 0,
		"ai_script_id_BattleAIScript": 0
	},
	{
		"ID": 67219,
		"stage_BattleStage": 810004050,
		"unit_UnitUnit": 2102313,
		"money": 0,
		"initial_coordinate_x": 3,
		"initial_coordinate_y": 11,
		"reinforcement_BattleReinforcement": 0,
		"initial_direction": 180.0,
		"ai_move_group": 0,
		"ai_target_move_x": -1,
		"ai_target_move_y": -1,
		"ai_skill_function": "",
		"ai_attack": "IF( turn <=1 ,IF(panel_move_distance <= 4, 1, 0),1)",
		"ai_move": "IF(turn <=1,0,1)",
		"ai_heal": "",
		"ai_skill": "",
		"ai_use": "",
		"skill_group_id": 14157,
		"gear_GearGear": 16034,
		"gear_rank": 1,
		"proficiency_UnitProficiency": 6,
		"level": 90,
		"hp": 220,
		"strength": 103,
		"vitality": 108,
		"intelligence": 12,
		"mind": 78,
		"agility": 116,
		"dexterity": 113,
		"lucky": 58,
		"parameter_table_BattleEnemyParameterTable": 0,
		"parameter_deviation_table_BattleEnemyParameterDeviationTable": 0,
		"acquire_skill_group_id": 0,
		"level_correction": 0,
		"group_id": 0,
		"ai_script_id_BattleAIScript": 0
	},
	{
		"ID": 67220,
		"stage_BattleStage": 810004050,
		"unit_UnitUnit": 960015,
		"money": 0,
		"initial_coordinate_x": 2,
		"initial_coordinate_y": 12,
		"reinforcement_BattleReinforcement": 0,
		"initial_direction": 180.0,
		"ai_move_group": 0,
		"ai_target_move_x": -1,
		"ai_target_move_y": -1,
		"ai_skill_function": "",
		"ai_attack": "IF( turn <=1 ,IF(panel_move_distance <= 1, 1, 0),1)",
		"ai_move": "IF(turn <=1,0,1)",
		"ai_heal": "",
		"ai_skill": "",
		"ai_use": "",
		"skill_group_id": 13174,
		"gear_GearGear": 65001,
		"gear_rank": 1,
		"proficiency_UnitProficiency": 5,
		"level": 90,
		"hp": 125,
		"strength": 16,
		"vitality": 80,
		"intelligence": 117,
		"mind": 147,
		"agility": 79,
		"dexterity": 99,
		"lucky": 61,
		"parameter_table_BattleEnemyParameterTable": 0,
		"parameter_deviation_table_BattleEnemyParameterDeviationTable": 0,
		"acquire_skill_group_id": 0,
		"level_correction": 0,
		"group_id": 0,
		"ai_script_id_BattleAIScript": 0
	},
	{
		"ID": 67221,
		"stage_BattleStage": 810004050,
		"unit_UnitUnit": 960015,
		"money": 0,
		"initial_coordinate_x": 3,
		"initial_coordinate_y": 12,
		"reinforcement_BattleReinforcement": 0,
		"initial_direction": 180.0,
		"ai_move_group": 0,
		"ai_target_move_x": -1,
		"ai_target_move_y": -1,
		"ai_skill_function": "",
		"ai_attack": "IF( turn <=1 ,IF(panel_move_distance <= 1, 1, 0),1)",
		"ai_move": "IF(turn <=1,0,1)",
		"ai_heal": "",
		"ai_skill": "",
		"ai_use": "",
		"skill_group_id": 13174,
		"gear_GearGear": 65001,
		"gear_rank": 1,
		"proficiency_UnitProficiency": 5,
		"level": 90,
		"hp": 120,
		"strength": 15,
		"vitality": 78,
		"intelligence": 123,
		"mind": 148,
		"agility": 81,
		"dexterity": 98,
		"lucky": 59,
		"parameter_table_BattleEnemyParameterTable": 0,
		"parameter_deviation_table_BattleEnemyParameterDeviationTable": 0,
		"acquire_skill_group_id": 0,
		"level_correction": 0,
		"group_id": 0,
		"ai_script_id_BattleAIScript": 0
	},
	{
		"ID": 67222,
		"stage_BattleStage": 810004050,
		"unit_UnitUnit": 2810004,
		"money": 0,
		"initial_coordinate_x": 5,
		"initial_coordinate_y": 9,
		"reinforcement_BattleReinforcement": 0,
		"initial_direction": 180.0,
		"ai_move_group": 0,
		"ai_target_move_x": -1,
		"ai_target_move_y": -1,
		"ai_skill_function": "",
		"ai_attack": "",
		"ai_move": "10.0",
		"ai_heal": "",
		"ai_skill": "",
		"ai_use": "",
		"skill_group_id": 13251,
		"gear_GearGear": 15005,
		"gear_rank": 1,
		"proficiency_UnitProficiency": 5,
		"level": 90,
		"hp": 136,
		"strength": 108,
		"vitality": 100,
		"intelligence": 11,
		"mind": 101,
		"agility": 108,
		"dexterity": 111,
		"lucky": 55,
		"parameter_table_BattleEnemyParameterTable": 0,
		"parameter_deviation_table_BattleEnemyParameterDeviationTable": 0,
		"acquire_skill_group_id": 0,
		"level_correction": 0,
		"group_id": 0,
		"ai_script_id_BattleAIScript": 0
	},
	{
		"ID": 67223,
		"stage_BattleStage": 810004050,
		"unit_UnitUnit": 2810004,
		"money": 0,
		"initial_coordinate_x": 6,
		"initial_coordinate_y": 10,
		"reinforcement_BattleReinforcement": 0,
		"initial_direction": 180.0,
		"ai_move_group": 0,
		"ai_target_move_x": -1,
		"ai_target_move_y": -1,
		"ai_skill_function": "",
		"ai_attack": "",
		"ai_move": "10.0",
		"ai_heal": "",
		"ai_skill": "",
		"ai_use": "",
		"skill_group_id": 13261,
		"gear_GearGear": 15005,
		"gear_rank": 1,
		"proficiency_UnitProficiency": 5,
		"level": 90,
		"hp": 132,
		"strength": 110,
		"vitality": 95,
		"intelligence": 11,
		"mind": 96,
		"agility": 105,
		"dexterity": 115,
		"lucky": 62,
		"parameter_table_BattleEnemyParameterTable": 0,
		"parameter_deviation_table_BattleEnemyParameterDeviationTable": 0,
		"acquire_skill_group_id": 0,
		"level_correction": 0,
		"group_id": 0,
		"ai_script_id_BattleAIScript": 0
	},
	{
		"ID": 67224,
		"stage_BattleStage": 810004050,
		"unit_UnitUnit": 2810004,
		"money": 0,
		"initial_coordinate_x": 7,
		"initial_coordinate_y": 9,
		"reinforcement_BattleReinforcement": 0,
		"initial_direction": 180.0,
		"ai_move_group": 0,
		"ai_target_move_x": -1,
		"ai_target_move_y": -1,
		"ai_skill_function": "",
		"ai_attack": "",
		"ai_move": "10.0",
		"ai_heal": "",
		"ai_skill": "",
		"ai_use": "",
		"skill_group_id": 13251,
		"gear_GearGear": 15005,
		"gear_rank": 1,
		"proficiency_UnitProficiency": 5,
		"level": 90,
		"hp": 130,
		"strength": 105,
		"vitality": 88,
		"intelligence": 11,
		"mind": 92,
		"agility": 111,
		"dexterity": 113,
		"lucky": 57,
		"parameter_table_BattleEnemyParameterTable": 0,
		"parameter_deviation_table_BattleEnemyParameterDeviationTable": 0,
		"acquire_skill_group_id": 0,
		"level_correction": 0,
		"group_id": 0,
		"ai_script_id_BattleAIScript": 0
	},
	{
		"ID": 67225,
		"stage_BattleStage": 810004050,
		"unit_UnitUnit": 2820004,
		"money": 0,
		"initial_coordinate_x": 16,
		"initial_coordinate_y": 6,
		"reinforcement_BattleReinforcement": 0,
		"initial_direction": 180.0,
		"ai_move_group": 0,
		"ai_target_move_x": -1,
		"ai_target_move_y": -1,
		"ai_skill_function": "",
		"ai_attack": "",
		"ai_move": "10.0",
		"ai_heal": "",
		"ai_skill": "",
		"ai_use": "",
		"skill_group_id": 14182,
		"gear_GearGear": 25003,
		"gear_rank": 1,
		"proficiency_UnitProficiency": 5,
		"level": 90,
		"hp": 152,
		"strength": 139,
		"vitality": 110,
		"intelligence": 13,
		"mind": 92,
		"agility": 100,
		"dexterity": 93,
		"lucky": 62,
		"parameter_table_BattleEnemyParameterTable": 0,
		"parameter_deviation_table_BattleEnemyParameterDeviationTable": 0,
		"acquire_skill_group_id": 0,
		"level_correction": 0,
		"group_id": 0,
		"ai_script_id_BattleAIScript": 0
	},
	{
		"ID": 67226,
		"stage_BattleStage": 810004050,
		"unit_UnitUnit": 2201613,
		"money": 0,
		"initial_coordinate_x": 19,
		"initial_coordinate_y": 3,
		"reinforcement_BattleReinforcement": 0,
		"initial_direction": 180.0,
		"ai_move_group": 0,
		"ai_target_move_x": -1,
		"ai_target_move_y": -1,
		"ai_skill_function": "",
		"ai_attack": "",
		"ai_move": "10.0",
		"ai_heal": "",
		"ai_skill": "",
		"ai_use": "",
		"skill_group_id": 14158,
		"gear_GearGear": 26001,
		"gear_rank": 1,
		"proficiency_UnitProficiency": 6,
		"level": 90,
		"hp": 120,
		"strength": 118,
		"vitality": 101,
		"intelligence": 30,
		"mind": 67,
		"agility": 113,
		"dexterity": 108,
		"lucky": 65,
		"parameter_table_BattleEnemyParameterTable": 0,
		"parameter_deviation_table_BattleEnemyParameterDeviationTable": 0,
		"acquire_skill_group_id": 0,
		"level_correction": 0,
		"group_id": 0,
		"ai_script_id_BattleAIScript": 0
	},
	{
		"ID": 67227,
		"stage_BattleStage": 810004050,
		"unit_UnitUnit": 960024,
		"money": 0,
		"initial_coordinate_x": 18,
		"initial_coordinate_y": 5,
		"reinforcement_BattleReinforcement": 0,
		"initial_direction": 180.0,
		"ai_move_group": 0,
		"ai_target_move_x": -1,
		"ai_target_move_y": -1,
		"ai_skill_function": "",
		"ai_attack": "IF( turn <=1 ,IF(panel_move_distance <= 3, 1, 0),1)",
		"ai_move": "IF(turn <=1,0,1)",
		"ai_heal": "",
		"ai_skill": "",
		"ai_use": "",
		"skill_group_id": 14370,
		"gear_GearGear": 16001,
		"gear_rank": 1,
		"proficiency_UnitProficiency": 6,
		"level": 90,
		"hp": 500,
		"strength": 108,
		"vitality": 91,
		"intelligence": 30,
		"mind": 69,
		"agility": 108,
		"dexterity": 110,
		"lucky": 52,
		"parameter_table_BattleEnemyParameterTable": 0,
		"parameter_deviation_table_BattleEnemyParameterDeviationTable": 0,
		"acquire_skill_group_id": 0,
		"level_correction": 0,
		"group_id": 0,
		"ai_script_id_BattleAIScript": 0
	},
	{
		"ID": 67228,
		"stage_BattleStage": 810004050,
		"unit_UnitUnit": 2500813,
		"money": 0,
		"initial_coordinate_x": 18,
		"initial_coordinate_y": 6,
		"reinforcement_BattleReinforcement": 0,
		"initial_direction": 180.0,
		"ai_move_group": 0,
		"ai_target_move_x": -1,
		"ai_target_move_y": -1,
		"ai_skill_function": "",
		"ai_attack": "IF( turn <=1 ,IF(panel_move_distance <= 3, 1, 0),1)",
		"ai_move": "IF(turn <=1,0,1)",
		"ai_heal": "",
		"ai_skill": "",
		"ai_use": "",
		"skill_group_id": 14150,
		"gear_GearGear": 56014,
		"gear_rank": 1,
		"proficiency_UnitProficiency": 6,
		"level": 90,
		"hp": 176,
		"strength": 11,
		"vitality": 76,
		"intelligence": 118,
		"mind": 117,
		"agility": 91,
		"dexterity": 96,
		"lucky": 62,
		"parameter_table_BattleEnemyParameterTable": 0,
		"parameter_deviation_table_BattleEnemyParameterDeviationTable": 0,
		"acquire_skill_group_id": 0,
		"level_correction": 0,
		"group_id": 0,
		"ai_script_id_BattleAIScript": 0
	},
	{
		"ID": 67229,
		"stage_BattleStage": 810004050,
		"unit_UnitUnit": 860010,
		"money": 0,
		"initial_coordinate_x": 19,
		"initial_coordinate_y": 5,
		"reinforcement_BattleReinforcement": 0,
		"initial_direction": 180.0,
		"ai_move_group": 0,
		"ai_target_move_x": -1,
		"ai_target_move_y": -1,
		"ai_skill_function": "",
		"ai_attack": "IF( turn <=1 ,IF(panel_move_distance <= 3, 1, 0),1)",
		"ai_move": "IF(turn <=1,0,1)",
		"ai_heal": "",
		"ai_skill": "",
		"ai_use": "",
		"skill_group_id": 13375,
		"gear_GearGear": 65006,
		"gear_rank": 1,
		"proficiency_UnitProficiency": 5,
		"level": 90,
		"hp": 126,
		"strength": 18,
		"vitality": 79,
		"intelligence": 116,
		"mind": 148,
		"agility": 102,
		"dexterity": 93,
		"lucky": 60,
		"parameter_table_BattleEnemyParameterTable": 0,
		"parameter_deviation_table_BattleEnemyParameterDeviationTable": 0,
		"acquire_skill_group_id": 0,
		"level_correction": 0,
		"group_id": 0,
		"ai_script_id_BattleAIScript": 0
	}
]