[
	{
		"ID": 83117,
		"stage_BattleStage": 901140403,
		"unit_UnitUnit": 3808713,
		"money": 650,
		"initial_coordinate_x": 4,
		"initial_coordinate_y": 11,
		"reinforcement_BattleReinforcement": 0,
		"initial_direction": 180.0,
		"ai_move_group": 0,
		"ai_target_move_x": -1,
		"ai_target_move_y": -1,
		"ai_skill_function": "",
		"ai_attack": "1.0",
		"ai_move": "1.0",
		"ai_heal": "",
		"ai_skill": "",
		"ai_use": "",
		"skill_group_id": 18565,
		"gear_GearGear": 80003,
		"gear_rank": 1,
		"proficiency_UnitProficiency": 1,
		"level": 130,
		"hp": 4123000,
		"strength": 138,
		"vitality": 50,
		"intelligence": 16,
		"mind": 50,
		"agility": 117,
		"dexterity": 130,
		"lucky": 71,
		"parameter_table_BattleEnemyParameterTable": 0,
		"parameter_deviation_table_BattleEnemyParameterDeviationTable": 0,
		"acquire_skill_group_id": 0,
		"level_correction": 0,
		"group_id": 0,
		"ai_script_id_BattleAIScript": 0
	},
	{
		"ID": 83118,
		"stage_BattleStage": 901140403,
		"unit_UnitUnit": 3808513,
		"money": 450,
		"initial_coordinate_x": 3,
		"initial_coordinate_y": 13,
		"reinforcement_BattleReinforcement": 0,
		"initial_direction": 180.0,
		"ai_move_group": 0,
		"ai_target_move_x": -1,
		"ai_target_move_y": -1,
		"ai_skill_function": "",
		"ai_attack": "1.0",
		"ai_move": "1.0",
		"ai_heal": "",
		"ai_skill": "",
		"ai_use": "",
		"skill_group_id": 18564,
		"gear_GearGear": 65003,
		"gear_rank": 1,
		"proficiency_UnitProficiency": 5,
		"level": 90,
		"hp": 405,
		"strength": 9,
		"vitality": 78,
		"intelligence": 107,
		"mind": 116,
		"agility": 93,
		"dexterity": 98,
		"lucky": 53,
		"parameter_table_BattleEnemyParameterTable": 0,
		"parameter_deviation_table_BattleEnemyParameterDeviationTable": 0,
		"acquire_skill_group_id": 0,
		"level_correction": 0,
		"group_id": 0,
		"ai_script_id_BattleAIScript": 0
	},
	{
		"ID": 83119,
		"stage_BattleStage": 901140403,
		"unit_UnitUnit": 3808513,
		"money": 450,
		"initial_coordinate_x": 2,
		"initial_coordinate_y": 12,
		"reinforcement_BattleReinforcement": 0,
		"initial_direction": 180.0,
		"ai_move_group": 0,
		"ai_target_move_x": -1,
		"ai_target_move_y": -1,
		"ai_skill_function": "",
		"ai_attack": "1.0",
		"ai_move": "1.0",
		"ai_heal": "",
		"ai_skill": "",
		"ai_use": "",
		"skill_group_id": 18564,
		"gear_GearGear": 65003,
		"gear_rank": 1,
		"proficiency_UnitProficiency": 5,
		"level": 90,
		"hp": 402,
		"strength": 12,
		"vitality": 74,
		"intelligence": 105,
		"mind": 116,
		"agility": 95,
		"dexterity": 96,
		"lucky": 53,
		"parameter_table_BattleEnemyParameterTable": 0,
		"parameter_deviation_table_BattleEnemyParameterDeviationTable": 0,
		"acquire_skill_group_id": 0,
		"level_correction": 0,
		"group_id": 0,
		"ai_script_id_BattleAIScript": 0
	},
	{
		"ID": 83120,
		"stage_BattleStage": 901140403,
		"unit_UnitUnit": 3808513,
		"money": 450,
		"initial_coordinate_x": 6,
		"initial_coordinate_y": 13,
		"reinforcement_BattleReinforcement": 0,
		"initial_direction": 180.0,
		"ai_move_group": 0,
		"ai_target_move_x": -1,
		"ai_target_move_y": -1,
		"ai_skill_function": "",
		"ai_attack": "1.0",
		"ai_move": "1.0",
		"ai_heal": "",
		"ai_skill": "",
		"ai_use": "",
		"skill_group_id": 18564,
		"gear_GearGear": 65003,
		"gear_rank": 1,
		"proficiency_UnitProficiency": 5,
		"level": 90,
		"hp": 404,
		"strength": 12,
		"vitality": 77,
		"intelligence": 106,
		"mind": 115,
		"agility": 96,
		"dexterity": 98,
		"lucky": 54,
		"parameter_table_BattleEnemyParameterTable": 0,
		"parameter_deviation_table_BattleEnemyParameterDeviationTable": 0,
		"acquire_skill_group_id": 0,
		"level_correction": 0,
		"group_id": 0,
		"ai_script_id_BattleAIScript": 0
	},
	{
		"ID": 83121,
		"stage_BattleStage": 901140403,
		"unit_UnitUnit": 3808513,
		"money": 450,
		"initial_coordinate_x": 7,
		"initial_coordinate_y": 12,
		"reinforcement_BattleReinforcement": 0,
		"initial_direction": 180.0,
		"ai_move_group": 0,
		"ai_target_move_x": -1,
		"ai_target_move_y": -1,
		"ai_skill_function": "",
		"ai_attack": "1.0",
		"ai_move": "1.0",
		"ai_heal": "",
		"ai_skill": "",
		"ai_use": "",
		"skill_group_id": 18564,
		"gear_GearGear": 65003,
		"gear_rank": 1,
		"proficiency_UnitProficiency": 5,
		"level": 90,
		"hp": 401,
		"strength": 10,
		"vitality": 78,
		"intelligence": 106,
		"mind": 119,
		"agility": 97,
		"dexterity": 98,
		"lucky": 55,
		"parameter_table_BattleEnemyParameterTable": 0,
		"parameter_deviation_table_BattleEnemyParameterDeviationTable": 0,
		"acquire_skill_group_id": 0,
		"level_correction": 0,
		"group_id": 0,
		"ai_script_id_BattleAIScript": 0
	},
	{
		"ID": 83122,
		"stage_BattleStage": 901140403,
		"unit_UnitUnit": 3808513,
		"money": 450,
		"initial_coordinate_x": 7,
		"initial_coordinate_y": 10,
		"reinforcement_BattleReinforcement": 0,
		"initial_direction": 180.0,
		"ai_move_group": 0,
		"ai_target_move_x": -1,
		"ai_target_move_y": -1,
		"ai_skill_function": "",
		"ai_attack": "1.0",
		"ai_move": "1.0",
		"ai_heal": "",
		"ai_skill": "",
		"ai_use": "",
		"skill_group_id": 18564,
		"gear_GearGear": 65003,
		"gear_rank": 1,
		"proficiency_UnitProficiency": 5,
		"level": 90,
		"hp": 404,
		"strength": 10,
		"vitality": 74,
		"intelligence": 106,
		"mind": 115,
		"agility": 95,
		"dexterity": 94,
		"lucky": 52,
		"parameter_table_BattleEnemyParameterTable": 0,
		"parameter_deviation_table_BattleEnemyParameterDeviationTable": 0,
		"acquire_skill_group_id": 0,
		"level_correction": 0,
		"group_id": 0,
		"ai_script_id_BattleAIScript": 0
	},
	{
		"ID": 83123,
		"stage_BattleStage": 901140403,
		"unit_UnitUnit": 3808513,
		"money": 450,
		"initial_coordinate_x": 6,
		"initial_coordinate_y": 9,
		"reinforcement_BattleReinforcement": 0,
		"initial_direction": 180.0,
		"ai_move_group": 0,
		"ai_target_move_x": -1,
		"ai_target_move_y": -1,
		"ai_skill_function": "",
		"ai_attack": "IF(panel_move_distance <= 5, 1, 0)",
		"ai_move": "IF(turn <=2,0,1)",
		"ai_heal": "",
		"ai_skill": "",
		"ai_use": "",
		"skill_group_id": 18564,
		"gear_GearGear": 65003,
		"gear_rank": 1,
		"proficiency_UnitProficiency": 5,
		"level": 90,
		"hp": 404,
		"strength": 9,
		"vitality": 74,
		"intelligence": 107,
		"mind": 116,
		"agility": 97,
		"dexterity": 97,
		"lucky": 53,
		"parameter_table_BattleEnemyParameterTable": 0,
		"parameter_deviation_table_BattleEnemyParameterDeviationTable": 0,
		"acquire_skill_group_id": 0,
		"level_correction": 0,
		"group_id": 0,
		"ai_script_id_BattleAIScript": 0
	},
	{
		"ID": 83124,
		"stage_BattleStage": 901140403,
		"unit_UnitUnit": 3808513,
		"money": 450,
		"initial_coordinate_x": 1,
		"initial_coordinate_y": 10,
		"reinforcement_BattleReinforcement": 0,
		"initial_direction": 180.0,
		"ai_move_group": 0,
		"ai_target_move_x": -1,
		"ai_target_move_y": -1,
		"ai_skill_function": "",
		"ai_attack": "IF(panel_move_distance <= 5, 1, 0)",
		"ai_move": "IF(turn <=2,0,1)",
		"ai_heal": "",
		"ai_skill": "",
		"ai_use": "",
		"skill_group_id": 18564,
		"gear_GearGear": 65003,
		"gear_rank": 1,
		"proficiency_UnitProficiency": 5,
		"level": 90,
		"hp": 403,
		"strength": 12,
		"vitality": 77,
		"intelligence": 107,
		"mind": 117,
		"agility": 97,
		"dexterity": 94,
		"lucky": 52,
		"parameter_table_BattleEnemyParameterTable": 0,
		"parameter_deviation_table_BattleEnemyParameterDeviationTable": 0,
		"acquire_skill_group_id": 0,
		"level_correction": 0,
		"group_id": 0,
		"ai_script_id_BattleAIScript": 0
	},
	{
		"ID": 83125,
		"stage_BattleStage": 901140403,
		"unit_UnitUnit": 3808513,
		"money": 450,
		"initial_coordinate_x": 2,
		"initial_coordinate_y": 9,
		"reinforcement_BattleReinforcement": 0,
		"initial_direction": 180.0,
		"ai_move_group": 0,
		"ai_target_move_x": -1,
		"ai_target_move_y": -1,
		"ai_skill_function": "",
		"ai_attack": "IF(panel_move_distance <= 5, 1, 0)",
		"ai_move": "IF(turn <=2,0,1)",
		"ai_heal": "",
		"ai_skill": "",
		"ai_use": "",
		"skill_group_id": 18564,
		"gear_GearGear": 65003,
		"gear_rank": 1,
		"proficiency_UnitProficiency": 5,
		"level": 90,
		"hp": 401,
		"strength": 12,
		"vitality": 77,
		"intelligence": 108,
		"mind": 116,
		"agility": 96,
		"dexterity": 96,
		"lucky": 51,
		"parameter_table_BattleEnemyParameterTable": 0,
		"parameter_deviation_table_BattleEnemyParameterDeviationTable": 0,
		"acquire_skill_group_id": 0,
		"level_correction": 0,
		"group_id": 0,
		"ai_script_id_BattleAIScript": 0
	},
	{
		"ID": 83126,
		"stage_BattleStage": 901140403,
		"unit_UnitUnit": 3808513,
		"money": 450,
		"initial_coordinate_x": 4,
		"initial_coordinate_y": 9,
		"reinforcement_BattleReinforcement": 0,
		"initial_direction": 180.0,
		"ai_move_group": 0,
		"ai_target_move_x": -1,
		"ai_target_move_y": -1,
		"ai_skill_function": "",
		"ai_attack": "IF(panel_move_distance <= 5, 1, 0)",
		"ai_move": "IF(turn <=2,0,1)",
		"ai_heal": "",
		"ai_skill": "",
		"ai_use": "",
		"skill_group_id": 18564,
		"gear_GearGear": 65003,
		"gear_rank": 1,
		"proficiency_UnitProficiency": 5,
		"level": 90,
		"hp": 402,
		"strength": 8,
		"vitality": 77,
		"intelligence": 104,
		"mind": 119,
		"agility": 97,
		"dexterity": 98,
		"lucky": 55,
		"parameter_table_BattleEnemyParameterTable": 0,
		"parameter_deviation_table_BattleEnemyParameterDeviationTable": 0,
		"acquire_skill_group_id": 0,
		"level_correction": 0,
		"group_id": 0,
		"ai_script_id_BattleAIScript": 0
	}
]