[
	{
		"ID": 83237,
		"stage_BattleStage": 901140605,
		"unit_UnitUnit": 3808813,
		"money": 900,
		"initial_coordinate_x": 7,
		"initial_coordinate_y": 6,
		"reinforcement_BattleReinforcement": 0,
		"initial_direction": 270.0,
		"ai_move_group": 0,
		"ai_target_move_x": -1,
		"ai_target_move_y": -1,
		"ai_skill_function": "",
		"ai_attack": "1.0",
		"ai_move": "1.0",
		"ai_heal": "",
		"ai_skill": "",
		"ai_use": "IF(turn % 3 == 1, IF(1 == 1, USESKILL(100000414), 0), IF(turn % 3 == 2, USESKILL(100000412), 0))",
		"skill_group_id": 19652,
		"gear_GearGear": 80003,
		"gear_rank": 1,
		"proficiency_UnitProficiency": 1,
		"level": 180,
		"hp": 8813000,
		"strength": 185,
		"vitality": 55,
		"intelligence": 18,
		"mind": 55,
		"agility": 151,
		"dexterity": 167,
		"lucky": 89,
		"parameter_table_BattleEnemyParameterTable": 0,
		"parameter_deviation_table_BattleEnemyParameterDeviationTable": 0,
		"acquire_skill_group_id": 0,
		"level_correction": 0,
		"group_id": 0,
		"ai_script_id_BattleAIScript": 0
	},
	{
		"ID": 83238,
		"stage_BattleStage": 901140605,
		"unit_UnitUnit": 3808513,
		"money": 450,
		"initial_coordinate_x": 7,
		"initial_coordinate_y": 5,
		"reinforcement_BattleReinforcement": 0,
		"initial_direction": 270.0,
		"ai_move_group": 0,
		"ai_target_move_x": -1,
		"ai_target_move_y": -1,
		"ai_skill_function": "",
		"ai_attack": "1.0",
		"ai_move": "1.0",
		"ai_heal": "",
		"ai_skill": "",
		"ai_use": "",
		"skill_group_id": 18564,
		"gear_GearGear": 66004,
		"gear_rank": 1,
		"proficiency_UnitProficiency": 6,
		"level": 90,
		"hp": 504,
		"strength": 9,
		"vitality": 78,
		"intelligence": 108,
		"mind": 118,
		"agility": 97,
		"dexterity": 97,
		"lucky": 55,
		"parameter_table_BattleEnemyParameterTable": 0,
		"parameter_deviation_table_BattleEnemyParameterDeviationTable": 0,
		"acquire_skill_group_id": 0,
		"level_correction": 0,
		"group_id": 0,
		"ai_script_id_BattleAIScript": 0
	},
	{
		"ID": 83239,
		"stage_BattleStage": 901140605,
		"unit_UnitUnit": 3808513,
		"money": 450,
		"initial_coordinate_x": 8,
		"initial_coordinate_y": 5,
		"reinforcement_BattleReinforcement": 0,
		"initial_direction": 270.0,
		"ai_move_group": 0,
		"ai_target_move_x": -1,
		"ai_target_move_y": -1,
		"ai_skill_function": "",
		"ai_attack": "1.0",
		"ai_move": "1.0",
		"ai_heal": "",
		"ai_skill": "",
		"ai_use": "",
		"skill_group_id": 18564,
		"gear_GearGear": 66004,
		"gear_rank": 1,
		"proficiency_UnitProficiency": 6,
		"level": 90,
		"hp": 503,
		"strength": 12,
		"vitality": 7,
		"intelligence": 107,
		"mind": 117,
		"agility": 95,
		"dexterity": 98,
		"lucky": 54,
		"parameter_table_BattleEnemyParameterTable": 0,
		"parameter_deviation_table_BattleEnemyParameterDeviationTable": 0,
		"acquire_skill_group_id": 0,
		"level_correction": 0,
		"group_id": 0,
		"ai_script_id_BattleAIScript": 0
	},
	{
		"ID": 83240,
		"stage_BattleStage": 901140605,
		"unit_UnitUnit": 3808513,
		"money": 450,
		"initial_coordinate_x": 9,
		"initial_coordinate_y": 8,
		"reinforcement_BattleReinforcement": 0,
		"initial_direction": 270.0,
		"ai_move_group": 0,
		"ai_target_move_x": -1,
		"ai_target_move_y": -1,
		"ai_skill_function": "",
		"ai_attack": "1.0",
		"ai_move": "1.0",
		"ai_heal": "",
		"ai_skill": "",
		"ai_use": "",
		"skill_group_id": 18564,
		"gear_GearGear": 66004,
		"gear_rank": 1,
		"proficiency_UnitProficiency": 6,
		"level": 90,
		"hp": 503,
		"strength": 10,
		"vitality": 78,
		"intelligence": 104,
		"mind": 119,
		"agility": 94,
		"dexterity": 97,
		"lucky": 54,
		"parameter_table_BattleEnemyParameterTable": 0,
		"parameter_deviation_table_BattleEnemyParameterDeviationTable": 0,
		"acquire_skill_group_id": 0,
		"level_correction": 0,
		"group_id": 0,
		"ai_script_id_BattleAIScript": 0
	},
	{
		"ID": 83241,
		"stage_BattleStage": 901140605,
		"unit_UnitUnit": 3808513,
		"money": 450,
		"initial_coordinate_x": 10,
		"initial_coordinate_y": 8,
		"reinforcement_BattleReinforcement": 0,
		"initial_direction": 270.0,
		"ai_move_group": 0,
		"ai_target_move_x": -1,
		"ai_target_move_y": -1,
		"ai_skill_function": "",
		"ai_attack": "1.0",
		"ai_move": "1.0",
		"ai_heal": "",
		"ai_skill": "",
		"ai_use": "",
		"skill_group_id": 18564,
		"gear_GearGear": 66004,
		"gear_rank": 1,
		"proficiency_UnitProficiency": 6,
		"level": 90,
		"hp": 504,
		"strength": 12,
		"vitality": 75,
		"intelligence": 105,
		"mind": 116,
		"agility": 93,
		"dexterity": 96,
		"lucky": 55,
		"parameter_table_BattleEnemyParameterTable": 0,
		"parameter_deviation_table_BattleEnemyParameterDeviationTable": 0,
		"acquire_skill_group_id": 0,
		"level_correction": 0,
		"group_id": 0,
		"ai_script_id_BattleAIScript": 0
	},
	{
		"ID": 83242,
		"stage_BattleStage": 901140605,
		"unit_UnitUnit": 3808513,
		"money": 450,
		"initial_coordinate_x": 10,
		"initial_coordinate_y": 5,
		"reinforcement_BattleReinforcement": 0,
		"initial_direction": 270.0,
		"ai_move_group": 0,
		"ai_target_move_x": -1,
		"ai_target_move_y": -1,
		"ai_skill_function": "",
		"ai_attack": "1.0",
		"ai_move": "1.0",
		"ai_heal": "",
		"ai_skill": "",
		"ai_use": "",
		"skill_group_id": 18564,
		"gear_GearGear": 66004,
		"gear_rank": 1,
		"proficiency_UnitProficiency": 6,
		"level": 90,
		"hp": 505,
		"strength": 10,
		"vitality": 77,
		"intelligence": 107,
		"mind": 114,
		"agility": 94,
		"dexterity": 98,
		"lucky": 51,
		"parameter_table_BattleEnemyParameterTable": 0,
		"parameter_deviation_table_BattleEnemyParameterDeviationTable": 0,
		"acquire_skill_group_id": 0,
		"level_correction": 0,
		"group_id": 0,
		"ai_script_id_BattleAIScript": 0
	},
	{
		"ID": 83243,
		"stage_BattleStage": 901140605,
		"unit_UnitUnit": 3808513,
		"money": 450,
		"initial_coordinate_x": 10,
		"initial_coordinate_y": 4,
		"reinforcement_BattleReinforcement": 0,
		"initial_direction": 270.0,
		"ai_move_group": 0,
		"ai_target_move_x": -1,
		"ai_target_move_y": -1,
		"ai_skill_function": "",
		"ai_attack": "IF(panel_move_distance <= 5, 1, 0)",
		"ai_move": "IF(turn <=2,0,1)",
		"ai_heal": "",
		"ai_skill": "",
		"ai_use": "",
		"skill_group_id": 18564,
		"gear_GearGear": 66004,
		"gear_rank": 1,
		"proficiency_UnitProficiency": 6,
		"level": 90,
		"hp": 501,
		"strength": 11,
		"vitality": 74,
		"intelligence": 108,
		"mind": 120,
		"agility": 97,
		"dexterity": 99,
		"lucky": 55,
		"parameter_table_BattleEnemyParameterTable": 0,
		"parameter_deviation_table_BattleEnemyParameterDeviationTable": 0,
		"acquire_skill_group_id": 0,
		"level_correction": 0,
		"group_id": 0,
		"ai_script_id_BattleAIScript": 0
	},
	{
		"ID": 83244,
		"stage_BattleStage": 901140605,
		"unit_UnitUnit": 3808513,
		"money": 450,
		"initial_coordinate_x": 6,
		"initial_coordinate_y": 3,
		"reinforcement_BattleReinforcement": 0,
		"initial_direction": 270.0,
		"ai_move_group": 0,
		"ai_target_move_x": -1,
		"ai_target_move_y": -1,
		"ai_skill_function": "",
		"ai_attack": "IF(panel_move_distance <= 5, 1, 0)",
		"ai_move": "IF(turn <=2,0,1)",
		"ai_heal": "",
		"ai_skill": "",
		"ai_use": "",
		"skill_group_id": 18564,
		"gear_GearGear": 66004,
		"gear_rank": 1,
		"proficiency_UnitProficiency": 6,
		"level": 90,
		"hp": 504,
		"strength": 8,
		"vitality": 75,
		"intelligence": 107,
		"mind": 111,
		"agility": 98,
		"dexterity": 96,
		"lucky": 53,
		"parameter_table_BattleEnemyParameterTable": 0,
		"parameter_deviation_table_BattleEnemyParameterDeviationTable": 0,
		"acquire_skill_group_id": 0,
		"level_correction": 0,
		"group_id": 0,
		"ai_script_id_BattleAIScript": 0
	},
	{
		"ID": 83245,
		"stage_BattleStage": 901140605,
		"unit_UnitUnit": 3808513,
		"money": 450,
		"initial_coordinate_x": 13,
		"initial_coordinate_y": 7,
		"reinforcement_BattleReinforcement": 0,
		"initial_direction": 270.0,
		"ai_move_group": 0,
		"ai_target_move_x": -1,
		"ai_target_move_y": -1,
		"ai_skill_function": "",
		"ai_attack": "IF(panel_move_distance <= 5, 1, 0)",
		"ai_move": "IF(turn <=2,0,1)",
		"ai_heal": "",
		"ai_skill": "",
		"ai_use": "",
		"skill_group_id": 18564,
		"gear_GearGear": 66004,
		"gear_rank": 1,
		"proficiency_UnitProficiency": 6,
		"level": 90,
		"hp": 502,
		"strength": 8,
		"vitality": 75,
		"intelligence": 104,
		"mind": 114,
		"agility": 93,
		"dexterity": 95,
		"lucky": 54,
		"parameter_table_BattleEnemyParameterTable": 0,
		"parameter_deviation_table_BattleEnemyParameterDeviationTable": 0,
		"acquire_skill_group_id": 0,
		"level_correction": 0,
		"group_id": 0,
		"ai_script_id_BattleAIScript": 0
	},
	{
		"ID": 83246,
		"stage_BattleStage": 901140605,
		"unit_UnitUnit": 3808513,
		"money": 450,
		"initial_coordinate_x": 13,
		"initial_coordinate_y": 6,
		"reinforcement_BattleReinforcement": 0,
		"initial_direction": 270.0,
		"ai_move_group": 0,
		"ai_target_move_x": -1,
		"ai_target_move_y": -1,
		"ai_skill_function": "",
		"ai_attack": "IF(panel_move_distance <= 5, 1, 0)",
		"ai_move": "IF(turn <=2,0,1)",
		"ai_heal": "",
		"ai_skill": "",
		"ai_use": "",
		"skill_group_id": 18564,
		"gear_GearGear": 66004,
		"gear_rank": 1,
		"proficiency_UnitProficiency": 6,
		"level": 90,
		"hp": 501,
		"strength": 8,
		"vitality": 77,
		"intelligence": 105,
		"mind": 119,
		"agility": 93,
		"dexterity": 98,
		"lucky": 55,
		"parameter_table_BattleEnemyParameterTable": 0,
		"parameter_deviation_table_BattleEnemyParameterDeviationTable": 0,
		"acquire_skill_group_id": 0,
		"level_correction": 0,
		"group_id": 0,
		"ai_script_id_BattleAIScript": 0
	}
]