[
	{
		"ID": 83057,
		"stage_BattleStage": 901140302,
		"unit_UnitUnit": 3808515,
		"money": 525,
		"initial_coordinate_x": 4,
		"initial_coordinate_y": 10,
		"reinforcement_BattleReinforcement": 0,
		"initial_direction": 180.0,
		"ai_move_group": 0,
		"ai_target_move_x": -1,
		"ai_target_move_y": -1,
		"ai_skill_function": "",
		"ai_attack": "1.0",
		"ai_move": "1.0",
		"ai_heal": "",
		"ai_skill": "",
		"ai_use": "",
		"skill_group_id": 18553,
		"gear_GearGear": 65001,
		"gear_rank": 1,
		"proficiency_UnitProficiency": 5,
		"level": 105,
		"hp": 2621000,
		"strength": 15,
		"vitality": 50,
		"intelligence": 113,
		"mind": 50,
		"agility": 101,
		"dexterity": 113,
		"lucky": 62,
		"parameter_table_BattleEnemyParameterTable": 0,
		"parameter_deviation_table_BattleEnemyParameterDeviationTable": 0,
		"acquire_skill_group_id": 0,
		"level_correction": 0,
		"group_id": 0,
		"ai_script_id_BattleAIScript": 0
	},
	{
		"ID": 83058,
		"stage_BattleStage": 901140302,
		"unit_UnitUnit": 3808515,
		"money": 450,
		"initial_coordinate_x": 2,
		"initial_coordinate_y": 12,
		"reinforcement_BattleReinforcement": 0,
		"initial_direction": 180.0,
		"ai_move_group": 0,
		"ai_target_move_x": -1,
		"ai_target_move_y": -1,
		"ai_skill_function": "",
		"ai_attack": "1.0",
		"ai_move": "1.0",
		"ai_heal": "",
		"ai_skill": "",
		"ai_use": "",
		"skill_group_id": 18552,
		"gear_GearGear": 65001,
		"gear_rank": 1,
		"proficiency_UnitProficiency": 5,
		"level": 90,
		"hp": 304,
		"strength": 8,
		"vitality": 77,
		"intelligence": 108,
		"mind": 115,
		"agility": 95,
		"dexterity": 98,
		"lucky": 54,
		"parameter_table_BattleEnemyParameterTable": 0,
		"parameter_deviation_table_BattleEnemyParameterDeviationTable": 0,
		"acquire_skill_group_id": 0,
		"level_correction": 0,
		"group_id": 0,
		"ai_script_id_BattleAIScript": 0
	},
	{
		"ID": 83059,
		"stage_BattleStage": 901140302,
		"unit_UnitUnit": 3808515,
		"money": 450,
		"initial_coordinate_x": 4,
		"initial_coordinate_y": 13,
		"reinforcement_BattleReinforcement": 0,
		"initial_direction": 180.0,
		"ai_move_group": 0,
		"ai_target_move_x": -1,
		"ai_target_move_y": -1,
		"ai_skill_function": "",
		"ai_attack": "1.0",
		"ai_move": "1.0",
		"ai_heal": "",
		"ai_skill": "",
		"ai_use": "",
		"skill_group_id": 18552,
		"gear_GearGear": 65001,
		"gear_rank": 1,
		"proficiency_UnitProficiency": 5,
		"level": 90,
		"hp": 302,
		"strength": 8,
		"vitality": 75,
		"intelligence": 106,
		"mind": 116,
		"agility": 96,
		"dexterity": 98,
		"lucky": 55,
		"parameter_table_BattleEnemyParameterTable": 0,
		"parameter_deviation_table_BattleEnemyParameterDeviationTable": 0,
		"acquire_skill_group_id": 0,
		"level_correction": 0,
		"group_id": 0,
		"ai_script_id_BattleAIScript": 0
	},
	{
		"ID": 83060,
		"stage_BattleStage": 901140302,
		"unit_UnitUnit": 3808515,
		"money": 450,
		"initial_coordinate_x": 6,
		"initial_coordinate_y": 12,
		"reinforcement_BattleReinforcement": 0,
		"initial_direction": 180.0,
		"ai_move_group": 0,
		"ai_target_move_x": -1,
		"ai_target_move_y": -1,
		"ai_skill_function": "",
		"ai_attack": "1.0",
		"ai_move": "1.0",
		"ai_heal": "",
		"ai_skill": "",
		"ai_use": "",
		"skill_group_id": 18552,
		"gear_GearGear": 65001,
		"gear_rank": 1,
		"proficiency_UnitProficiency": 5,
		"level": 90,
		"hp": 303,
		"strength": 11,
		"vitality": 74,
		"intelligence": 108,
		"mind": 119,
		"agility": 97,
		"dexterity": 98,
		"lucky": 54,
		"parameter_table_BattleEnemyParameterTable": 0,
		"parameter_deviation_table_BattleEnemyParameterDeviationTable": 0,
		"acquire_skill_group_id": 0,
		"level_correction": 0,
		"group_id": 0,
		"ai_script_id_BattleAIScript": 0
	},
	{
		"ID": 83061,
		"stage_BattleStage": 901140302,
		"unit_UnitUnit": 3808515,
		"money": 450,
		"initial_coordinate_x": 6,
		"initial_coordinate_y": 10,
		"reinforcement_BattleReinforcement": 0,
		"initial_direction": 180.0,
		"ai_move_group": 0,
		"ai_target_move_x": -1,
		"ai_target_move_y": -1,
		"ai_skill_function": "",
		"ai_attack": "1.0",
		"ai_move": "1.0",
		"ai_heal": "",
		"ai_skill": "",
		"ai_use": "",
		"skill_group_id": 18552,
		"gear_GearGear": 65001,
		"gear_rank": 1,
		"proficiency_UnitProficiency": 5,
		"level": 90,
		"hp": 302,
		"strength": 12,
		"vitality": 76,
		"intelligence": 106,
		"mind": 117,
		"agility": 94,
		"dexterity": 94,
		"lucky": 53,
		"parameter_table_BattleEnemyParameterTable": 0,
		"parameter_deviation_table_BattleEnemyParameterDeviationTable": 0,
		"acquire_skill_group_id": 0,
		"level_correction": 0,
		"group_id": 0,
		"ai_script_id_BattleAIScript": 0
	},
	{
		"ID": 83062,
		"stage_BattleStage": 901140302,
		"unit_UnitUnit": 3808515,
		"money": 450,
		"initial_coordinate_x": 2,
		"initial_coordinate_y": 10,
		"reinforcement_BattleReinforcement": 0,
		"initial_direction": 180.0,
		"ai_move_group": 0,
		"ai_target_move_x": -1,
		"ai_target_move_y": -1,
		"ai_skill_function": "",
		"ai_attack": "1.0",
		"ai_move": "1.0",
		"ai_heal": "",
		"ai_skill": "",
		"ai_use": "",
		"skill_group_id": 18552,
		"gear_GearGear": 65001,
		"gear_rank": 1,
		"proficiency_UnitProficiency": 5,
		"level": 90,
		"hp": 303,
		"strength": 8,
		"vitality": 77,
		"intelligence": 107,
		"mind": 116,
		"agility": 95,
		"dexterity": 94,
		"lucky": 52,
		"parameter_table_BattleEnemyParameterTable": 0,
		"parameter_deviation_table_BattleEnemyParameterDeviationTable": 0,
		"acquire_skill_group_id": 0,
		"level_correction": 0,
		"group_id": 0,
		"ai_script_id_BattleAIScript": 0
	},
	{
		"ID": 83063,
		"stage_BattleStage": 901140302,
		"unit_UnitUnit": 3808515,
		"money": 450,
		"initial_coordinate_x": 2,
		"initial_coordinate_y": 8,
		"reinforcement_BattleReinforcement": 0,
		"initial_direction": 180.0,
		"ai_move_group": 0,
		"ai_target_move_x": -1,
		"ai_target_move_y": -1,
		"ai_skill_function": "",
		"ai_attack": "IF(panel_move_distance <= 5, 1, 0)",
		"ai_move": "IF(turn <=2,0,1)",
		"ai_heal": "",
		"ai_skill": "",
		"ai_use": "",
		"skill_group_id": 18552,
		"gear_GearGear": 65001,
		"gear_rank": 1,
		"proficiency_UnitProficiency": 5,
		"level": 90,
		"hp": 304,
		"strength": 10,
		"vitality": 77,
		"intelligence": 107,
		"mind": 116,
		"agility": 96,
		"dexterity": 95,
		"lucky": 53,
		"parameter_table_BattleEnemyParameterTable": 0,
		"parameter_deviation_table_BattleEnemyParameterDeviationTable": 0,
		"acquire_skill_group_id": 0,
		"level_correction": 0,
		"group_id": 0,
		"ai_script_id_BattleAIScript": 0
	},
	{
		"ID": 83064,
		"stage_BattleStage": 901140302,
		"unit_UnitUnit": 3808515,
		"money": 450,
		"initial_coordinate_x": 8,
		"initial_coordinate_y": 8,
		"reinforcement_BattleReinforcement": 0,
		"initial_direction": 180.0,
		"ai_move_group": 0,
		"ai_target_move_x": -1,
		"ai_target_move_y": -1,
		"ai_skill_function": "",
		"ai_attack": "IF(panel_move_distance <= 5, 1, 0)",
		"ai_move": "IF(turn <=2,0,1)",
		"ai_heal": "",
		"ai_skill": "",
		"ai_use": "",
		"skill_group_id": 18552,
		"gear_GearGear": 65001,
		"gear_rank": 1,
		"proficiency_UnitProficiency": 5,
		"level": 90,
		"hp": 304,
		"strength": 12,
		"vitality": 74,
		"intelligence": 105,
		"mind": 116,
		"agility": 93,
		"dexterity": 96,
		"lucky": 52,
		"parameter_table_BattleEnemyParameterTable": 0,
		"parameter_deviation_table_BattleEnemyParameterDeviationTable": 0,
		"acquire_skill_group_id": 0,
		"level_correction": 0,
		"group_id": 0,
		"ai_script_id_BattleAIScript": 0
	},
	{
		"ID": 83065,
		"stage_BattleStage": 901140302,
		"unit_UnitUnit": 3808515,
		"money": 450,
		"initial_coordinate_x": 8,
		"initial_coordinate_y": 11,
		"reinforcement_BattleReinforcement": 0,
		"initial_direction": 180.0,
		"ai_move_group": 0,
		"ai_target_move_x": -1,
		"ai_target_move_y": -1,
		"ai_skill_function": "",
		"ai_attack": "IF(panel_move_distance <= 5, 1, 0)",
		"ai_move": "IF(turn <=2,0,1)",
		"ai_heal": "",
		"ai_skill": "",
		"ai_use": "",
		"skill_group_id": 18552,
		"gear_GearGear": 65001,
		"gear_rank": 1,
		"proficiency_UnitProficiency": 5,
		"level": 90,
		"hp": 305,
		"strength": 12,
		"vitality": 75,
		"intelligence": 104,
		"mind": 118,
		"agility": 97,
		"dexterity": 94,
		"lucky": 53,
		"parameter_table_BattleEnemyParameterTable": 0,
		"parameter_deviation_table_BattleEnemyParameterDeviationTable": 0,
		"acquire_skill_group_id": 0,
		"level_correction": 0,
		"group_id": 0,
		"ai_script_id_BattleAIScript": 0
	},
	{
		"ID": 83066,
		"stage_BattleStage": 901140302,
		"unit_UnitUnit": 3808515,
		"money": 450,
		"initial_coordinate_x": 1,
		"initial_coordinate_y": 11,
		"reinforcement_BattleReinforcement": 0,
		"initial_direction": 180.0,
		"ai_move_group": 0,
		"ai_target_move_x": -1,
		"ai_target_move_y": -1,
		"ai_skill_function": "",
		"ai_attack": "IF(panel_move_distance <= 5, 1, 0)",
		"ai_move": "IF(turn <=2,0,1)",
		"ai_heal": "",
		"ai_skill": "",
		"ai_use": "",
		"skill_group_id": 18552,
		"gear_GearGear": 65001,
		"gear_rank": 1,
		"proficiency_UnitProficiency": 5,
		"level": 90,
		"hp": 304,
		"strength": 8,
		"vitality": 74,
		"intelligence": 108,
		"mind": 115,
		"agility": 96,
		"dexterity": 96,
		"lucky": 52,
		"parameter_table_BattleEnemyParameterTable": 0,
		"parameter_deviation_table_BattleEnemyParameterDeviationTable": 0,
		"acquire_skill_group_id": 0,
		"level_correction": 0,
		"group_id": 0,
		"ai_script_id_BattleAIScript": 0
	}
]