[
	{
		"ID": 75928,
		"stage_BattleStage": 991009312,
		"unit_UnitUnit": 3500213,
		"money": 0,
		"initial_coordinate_x": 9,
		"initial_coordinate_y": 12,
		"reinforcement_BattleReinforcement": 0,
		"initial_direction": 180.0,
		"ai_move_group": 0,
		"ai_target_move_x": -1,
		"ai_target_move_y": -1,
		"ai_skill_function": "",
		"ai_attack": "",
		"ai_move": "",
		"ai_heal": "",
		"ai_skill": "",
		"ai_use": "IF( turn == 1, IF( 1 == 1,USESKILL(100000307),0),0)",
		"skill_group_id": 18756,
		"gear_GearGear": 56016,
		"gear_rank": 5,
		"proficiency_UnitProficiency": 6,
		"level": 90,
		"hp": 139,
		"strength": 14,
		"vitality": 42,
		"intelligence": 139,
		"mind": 66,
		"agility": 127,
		"dexterity": 125,
		"lucky": 51,
		"parameter_table_BattleEnemyParameterTable": 0,
		"parameter_deviation_table_BattleEnemyParameterDeviationTable": 0,
		"acquire_skill_group_id": 0,
		"level_correction": 0,
		"group_id": 0,
		"ai_script_id_BattleAIScript": 0
	},
	{
		"ID": 75929,
		"stage_BattleStage": 991009312,
		"unit_UnitUnit": 3201713,
		"money": 0,
		"initial_coordinate_x": 7,
		"initial_coordinate_y": 11,
		"reinforcement_BattleReinforcement": 0,
		"initial_direction": 180.0,
		"ai_move_group": 0,
		"ai_target_move_x": -1,
		"ai_target_move_y": -1,
		"ai_skill_function": "",
		"ai_attack": "",
		"ai_move": "",
		"ai_heal": "",
		"ai_skill": "",
		"ai_use": "IF( turn == 1, IF( 1 == 1,USESKILL(100000203),0),0)",
		"skill_group_id": 18757,
		"gear_GearGear": 26017,
		"gear_rank": 5,
		"proficiency_UnitProficiency": 6,
		"level": 90,
		"hp": 156,
		"strength": 119,
		"vitality": 76,
		"intelligence": 26,
		"mind": 28,
		"agility": 105,
		"dexterity": 107,
		"lucky": 67,
		"parameter_table_BattleEnemyParameterTable": 0,
		"parameter_deviation_table_BattleEnemyParameterDeviationTable": 0,
		"acquire_skill_group_id": 0,
		"level_correction": 0,
		"group_id": 0,
		"ai_script_id_BattleAIScript": 0
	},
	{
		"ID": 75930,
		"stage_BattleStage": 991009312,
		"unit_UnitUnit": 3302013,
		"money": 0,
		"initial_coordinate_x": 8,
		"initial_coordinate_y": 12,
		"reinforcement_BattleReinforcement": 0,
		"initial_direction": 180.0,
		"ai_move_group": 0,
		"ai_target_move_x": -1,
		"ai_target_move_y": -1,
		"ai_skill_function": "",
		"ai_attack": "",
		"ai_move": "",
		"ai_heal": "",
		"ai_skill": "",
		"ai_use": "IF( turn == 1, IF( 1 == 1,USESKILL(100000269),0),0)",
		"skill_group_id": 18758,
		"gear_GearGear": 36016,
		"gear_rank": 5,
		"proficiency_UnitProficiency": 6,
		"level": 90,
		"hp": 128,
		"strength": 86,
		"vitality": 111,
		"intelligence": 12,
		"mind": 57,
		"agility": 114,
		"dexterity": 116,
		"lucky": 60,
		"parameter_table_BattleEnemyParameterTable": 0,
		"parameter_deviation_table_BattleEnemyParameterDeviationTable": 0,
		"acquire_skill_group_id": 0,
		"level_correction": 0,
		"group_id": 0,
		"ai_script_id_BattleAIScript": 0
	},
	{
		"ID": 75931,
		"stage_BattleStage": 991009312,
		"unit_UnitUnit": 2502713,
		"money": 0,
		"initial_coordinate_x": 8,
		"initial_coordinate_y": 11,
		"reinforcement_BattleReinforcement": 0,
		"initial_direction": 180.0,
		"ai_move_group": 0,
		"ai_target_move_x": -1,
		"ai_target_move_y": -1,
		"ai_skill_function": "",
		"ai_attack": "",
		"ai_move": "",
		"ai_heal": "",
		"ai_skill": "",
		"ai_use": "IF( turn == 4, IF( own_hp >= 0.8,USESKILL(200000232),0),0)",
		"skill_group_id": 18759,
		"gear_GearGear": 56010,
		"gear_rank": 5,
		"proficiency_UnitProficiency": 6,
		"level": 90,
		"hp": 137,
		"strength": 17,
		"vitality": 51,
		"intelligence": 137,
		"mind": 70,
		"agility": 122,
		"dexterity": 117,
		"lucky": 51,
		"parameter_table_BattleEnemyParameterTable": 0,
		"parameter_deviation_table_BattleEnemyParameterDeviationTable": 0,
		"acquire_skill_group_id": 0,
		"level_correction": 0,
		"group_id": 0,
		"ai_script_id_BattleAIScript": 0
	},
	{
		"ID": 75932,
		"stage_BattleStage": 991009312,
		"unit_UnitUnit": 502713,
		"money": 0,
		"initial_coordinate_x": 9,
		"initial_coordinate_y": 11,
		"reinforcement_BattleReinforcement": 0,
		"initial_direction": 180.0,
		"ai_move_group": 0,
		"ai_target_move_x": -1,
		"ai_target_move_y": -1,
		"ai_skill_function": "",
		"ai_attack": "",
		"ai_move": "",
		"ai_heal": "",
		"ai_skill": "",
		"ai_use": "",
		"skill_group_id": 18760,
		"gear_GearGear": 56010,
		"gear_rank": 5,
		"proficiency_UnitProficiency": 6,
		"level": 90,
		"hp": 138,
		"strength": 17,
		"vitality": 49,
		"intelligence": 137,
		"mind": 69,
		"agility": 115,
		"dexterity": 116,
		"lucky": 51,
		"parameter_table_BattleEnemyParameterTable": 0,
		"parameter_deviation_table_BattleEnemyParameterDeviationTable": 0,
		"acquire_skill_group_id": 0,
		"level_correction": 0,
		"group_id": 0,
		"ai_script_id_BattleAIScript": 0
	}
]