[
	{
		"ID": 100111,
		"script": ";;今を大切にしよう,中\n;;信じてついてきて,小\n;;マサムネは、まるで…,大\n# script \"lisp\"\n# fadein \"black\" 0.5\n# background \"sea_castle\"\n# bgmfile \"bgm256\" \"BgmSeaDate\" 0\n# body %(unit_a)s\n# pos %(unit_a)s 3\n# mask %(unit_a)s off\n# chara %(unit_a)s\n# textflame 0 0\n@\nマスターは\nマサムネを誘って\n古城へやってきた\n\n# textflame 1 1\n@マサムネ\n夏草や\n兵どもが\n夢の跡…\n\n# voice 1001 \"masamune_0028\"\n# eye %(unit_a)s \"close\"\n@マサムネ\n…………\n\n# eye %(unit_a)s \"normal\"\n@マサムネ\n古城から周囲を眺めると\nなにやら胸に迫るものがあるな…\n\n# select \"今を大切にしよう\" \"select_label_01\" \"信じてついてきて\" \"select_label_02\" \"マサムネは、まるで…\" \"select_label_03\"\n古城から周囲を眺めると\nなにやら胸に迫るものがあるな…\n\n# label \"select_label_01\"\n# labeljump \"select_label_end\"\n# textwindow \"close\"\n# waitandnext 0.1\n\n# label \"select_label_02\"\n# labeljump \"select_label_end\"\n# textwindow \"close\"\n# waitandnext 0.1\n\n# label \"select_label_03\"\n# labeljump \"select_label_end\"\n# textwindow \"close\"\n# waitandnext 0.1\n\n# label \"select_label_end\"\n# waitandnext 0.1\n\n# fadeout \"black\" 1.2\n# waitandnext 2\n"
	}
]