[
	{
		"ID": 100223,
		"script": ";;A よく来てくれたなって思って…\n# script \"lisp\"\n# fadein \"black\" 0.5\n# background \"sea_onsen\"\n# bgmfile \"bgm256\" \"BgmSeaDate\" 0\n# body %(unit_a)s\n# pos %(unit_a)s 3\n# mask %(unit_a)s off\n# chara %(unit_a)s\n# textflame 1 1\n# face %(unit_a)s \"angry\"\n# voice 1002 \"revatein_0013\"\n@レーヴァテイン\n…誘っておいてそんなこと言うの？\n\n# textflame 0 0\n@\nつい正直な気持ちをこぼしてしまう\nだって、混浴なのである…\n\n# textflame 1 1\n# face %(unit_a)s \"usual\"\n# voice 1002 \"revatein_0003\"\n@レーヴァテイン\n…行きたくなかったら行かない\n良いと思ったからここに来たの\n\n# textflame 1 1\n@レーヴァテイン\n…それ以上でも\nそれ以下でもないから\n\n# textflame 0 0\n@\nレーヴァテインの言葉に\nマスターの顔がぱっと明るくなった\n\n# textflame 1 1\n# face %(unit_a)s \"angry\"\n# voice 1002 \"revatein_0036\"\n@レーヴァテイン\n別にあなたがいるからとかじゃない…\nここだけは勘違いしないで\n\n# textflame 0 0\n@\n来てくれただけでうれしい\nそう言ったマスターの返事を\n聞こえないふりをする彼女だった…\n\n# fadeout \"black\" 1.2\n# waitandnext 2\n"
	}
]