[
	{
		"ID": 100422,
		"script": "# script \"lisp\"\n# fadein \"black\" 0.5\n# background \"sea_fireworks\"\n# bgmfile \"bgm256\" \"BgmSeaDate\" 0\n# body %(unit_a)s\n# pos %(unit_a)s 3\n# mask %(unit_a)s off\n# chara %(unit_a)s\n# textflame 1 1\n# face %(unit_a)s \"angry\"\n# voice 1004 \"kusanagi_0009\"\n@草薙剣\nな～にを言うか！\nこの草薙剣！\n四方を炎に囲まれようとも…\n\n# voice 1004 \"kusanagi_0029\"\n# textflame 1 1\n@草薙剣\nばったばったと剣でなぎ払い！\n火傷一つなくすべてを消し去る！\nたぁ！とぉ～！\n\n# textflame 0 0\n@\n花火そっちのけで\nますます興奮し始める草薙剣に\n夜店の光る玩具剣を与える\n\n# voice 1004 \"kusanagi_0023\"\n# face %(unit_a)s \"sad\"\n# textflame 1 1\n@草薙剣\nな、なんと…！\nそちもしかと見よ！\nこの剣…光るぞ！\n\n# voice 1004 \"kusanagi_0005\"\n# face %(unit_a)s \"normal\"\n# textflame 1 1\n@草薙剣\nもはや世に恐れるものなどない！\n夜空を飾る大輪の花よ！\n一刀のもとに両断してくれよう！\n\n# textflame 0 0\n@\n草薙剣は空に向かって\nおもちゃの剣を振り回し\nご満悦の様子である\n\n# face %(unit_a)s \"smile\"\n# textflame 1 1\n@草薙剣\nよき今宵の土産に\n世にも珍しい火の花を\n持ち帰って飾るのだ～！\n\n# voice 1004 \"kusanagi_0020\"\n# textflame 1 1\n@草薙剣\nそちにピッタリの\n火の花をじゃ！！\n\n# textflame 0 0\n@\nその花なら…\nもう胸で綺麗に咲いているよ\nそう思って笑うマスターだった――\n\n# fadeout \"black\" 1.2\n# waitandnext 2"
	}
]