[
	{
		"ID": 100423,
		"script": "# script \"lisp\"\n# fadein \"black\" 0.5\n# background \"sea_fireworks\"\n# bgmfile \"bgm256\" \"BgmSeaDate\" 0\n# body %(unit_a)s\n# pos %(unit_a)s 3\n# mask %(unit_a)s off\n# chara %(unit_a)s\n# textflame 1 1\n# face %(unit_a)s \"sad\"\n# voice 1004 \"kusanagi_0023\"\n@草薙剣\nむむっ！\n…本当だ、すぐに\n夜空に消えてしまった…\n\n# voice 1004 \"kusanagi_0003\"\n# face %(unit_a)s \"normal\"\n# textflame 1 1\n@草薙剣\nなんとも儚く美しい\nまるで…\n人の一生のようであるな\n\n# textflame 1 1\n@\n興奮していた草薙剣は\n急におとなしくなって\n花火に魅入っていた\n\n# voice 1004 \"kusanagi_0004\"\n# textflame 1 1\n@草薙剣\n…今宵の思い出は\nそちの中であの花火のように\n美しく咲いておるか…？\n\n# textflame 0 0\n@\n瞳に花火が写り込み\nなんだかいつもより大人びて見える\n草薙剣…\n\n# textflame 0 0\n@\nひとりごとのようにこぼした\n彼女の言葉が\nいつまでも耳に残っていた…\n\n# fadeout \"black\" 1.2\n# waitandnext 2"
	}
]