[
	{
		"ID": 100411,
		"script": ";;A 世の中が心配？:小あたり\n;;B 足元もよく見て:大あたり\n;;C 見えないものもある:中あたり\n# script \"lisp\"\n# fadein \"black\" 0.5\n# background \"sea_ferris\"\n# bgmfile \"bgm256\" \"BgmSeaDate\" 0\n# body %(unit_a)s\n# pos %(unit_a)s 3\n# mask %(unit_a)s off\n# chara %(unit_a)s\n# textflame 0 0\n@\nマスターは\n草薙剣を誘って\n観覧車に乗った…\n\n# face %(unit_a)s \"smile\"\n# voice 1004 \"kusanagi_0003\"\n# textflame 1 1\n@草薙剣\nうむ！\n彼方まで実によく見える！\n\n# voice 1004 \"kusanagi_0005\"\n# textflame 1 1\n@草薙剣\n今日も人々は\n健気に一日を\n営んでいるようだな！\n\n# select \"世の中が心配？\" \"select_label_01\" \"足元もよく見て\" \"select_label_02\" \"見えないものもある\" \"select_label_03\"\n今日も人々は\n健気に一日を\n営んでいるようだな！\n\n# label \"select_label_01\"\n# labeljump \"select_label_end\"\n# textwindow \"close\"\n# waitandnext 0.1\n\n# label \"select_label_02\"\n# labeljump \"select_label_end\"\n# textwindow \"close\"\n# waitandnext 0.1\n\n# label \"select_label_03\"\n# labeljump \"select_label_end\"\n# textwindow \"close\"\n# waitandnext 0.1\n\n# label \"select_label_end\"\n# waitandnext 0.1\n\n# fadeout \"black\" 1.2\n# waitandnext 2"
	}
]