[
	{
		"ID": 102312,
		"script": "# script \"lisp\"\n# fadein \"black\" 0.5\n# background %(background)s\n# bgmfile \"bgm256\" \"BgmSeaDate\" 0\n# body %(unit_a)s\n# pos %(unit_a)s 3\n# mask %(unit_a)s off\n# chara %(unit_a)s\n# textflame 1 1\n# face %(unit_a)s \"smile\"\n# voice 1023 \"ascalon_0004\"\n@アスカロン\nですね…\n見慣れた場所も\nこんなに変わるなんて…\n\n# textflame 0 0\n@\n見慣れたはずのアスカロンも\nいつもと違って見える\nと、アスカロンに告げるマスター\n\n# face %(unit_a)s \"sad\"\n# voice 1023 \"ascalon_0022\"\n# textflame 1 1\n@アスカロン\nえっ！\nそ、それってどういう…\n\n# textflame 0 0\n@\nなんだかすっごく綺麗っていうか、\n違う魅力を感じるっていうか…\n\n# voice 1023 \"ascalon_0023\"\n# textflame 1 1\n@アスカロン\n～～！！\n\n# face %(unit_a)s \"angry\"\n# textflame 1 1\n@アスカロン\nも、もう、マスター！\nからかうの辞めてください！\n\n# face %(unit_a)s \"sad\"\n# voice 1023 \"ascalon_0022\"\n# textflame 1 1\n@アスカロン\nへっ！？\nか、からかってるんじゃ…ない！？\n\n# voice 1023 \"ascalon_0028\"\n# textflame 1 1\n@アスカロン\n…………\n\n# textflame 0 0\n@\n教会での二人の夜は\n新鮮な発見続きとなるのだった――\n\n# fadeout \"black\" 1.2\n# waitandnext 2\n"
	}
]