[
	{
		"ID": 102314,
		"script": "# script \"lisp\"\n# fadein \"black\" 0.5\n# background %(background)s\n# bgmfile \"bgm256\" \"BgmSeaDate\" 0\n# body %(unit_a)s\n# pos %(unit_a)s 3\n# mask %(unit_a)s off\n# chara %(unit_a)s\n# textflame 1 1\n# face %(unit_a)s \"sad\"\n# voice 1023 \"ascalon_0008\"\n@アスカロン\nそうですよね！\n\n# textflame 1 1\n@アスカロン\n…………\n\n# textflame 0 0\n@\n反芻しただけだからか、\n特に会話は続かなかった…\n\n# fadeout \"black\" 1.2\n# waitandnext 2\n"
	}
]