[
	{
		"ID": 103422,
		"script": ";;A大\n# script \"lisp\"\n# fadein \"black\" 0.5\n# background \"sea_onsen\"\n# bgmfile \"bgm256\" \"BgmSeaDate\" 0\n# body %(unit_a)s\n# pos %(unit_a)s 3\n# mask %(unit_a)s off\n# chara %(unit_a)s\n# face 2103411 \"sad\"\n# textflame 1 1\n@ダクネス\n心配…？\n\n# textflame 0 0\n@\nいつも怪我が絶えないことをだよ\nとマスター\n\n# face 2103411 \"normal\"\n# voice 1034 \"dakunesu_0004\"\n# textflame 1 1\n@ダクネス\nむしろ臨むところだ\n前衛で敵の攻撃を受け輝く\nそれはクルセイダーとしての誇りだ\n\n@ダクネス\nだからマスターは\n何も気にしなくてもいい\n\n;;モノローグ\n# textflame 0 0\n@\nマスターは\nでも女の子なのに、と口にする\n\n# textflame 1 1\n@ダクネス\nま、マスター…\nだがな…\n\n;;モノローグ\n# textflame 0 0\n@\nうん、わかってる\n君は誇り高い\n\n# textflame 1 1\n@ダクネス\n…………\n\n@ダクネス\n…ありがとう\n\n@ダクネス\n…こほん\n\n# textflame 0 0\n@\n珍しく照れたダクネスの様子に\nマスターはつい笑ってしまう\n\n# voice 1034 \"dakunesu_0009\"\n# textflame 1 1\n@ダクネス\nいきなりなんだ笑い出して…\n\n# textflame 0 0\n@\n傷ついてほしくないけど\nでもそれが君の望むなら\n止めないよ、とマスター\n\n@\nでもそうなったときは\nまた一緒にここに来ようね\nと付け加える\n\n# textflame 1 1\n@ダクネス\nああ、ぜひ…\n\n# textflame 0 0\n@\nそのまま二人は\nゆっくりと温泉を満喫したのだった\n\n# fadeout \"black\" 1.2\n# waitandnext 2\n"
	}
]