[
	{
		"ID": 103521,
		"script": ";;B:水鉄砲で撃ち合いをしよう\n;;C:潜りっこ勝負をしよう\n;;A:ゆったりと温泉に浸かろう\n# script \"lisp\"\n# fadein \"black\" 0.5\n# background \"sea_onsen\"\n# bgmfile \"bgm256\" \"BgmSeaDate\" 0\n# body %(unit_a)s\n# pos %(unit_a)s 3\n# mask %(unit_a)s off\n# chara %(unit_a)s\n# textflame 0 0\n# face %(unit_a)s \"usual\"\n@\nダモクレスを連れて、\n水着着用の温泉へやってきた\nマスター\n\n# textflame 1 1\n# face %(unit_a)s \"happy\"\n# voice 1035 \"damocles_0021\"\n@ダモクレス\nわ～い！\nマスターと一緒にお風呂だー\n\n# textflame 0 0\n@\n幸い、今の時間は他に客がおらず\nダモクレスがはしゃいでも\n大丈夫なようだった\n\n# textflame 1 1\n# voice 1035 \"damocles_0005\"\n@ダモクレス\nあはは～\nお風呂ってやっぱり気持ちいいよね！\n\n# face %(unit_a)s \"usual\"\n@ダモクレス\nよ～し、マスター\nなにして遊ぼっか？\n\n# select \"ゆったりと温泉に浸かろう\" \"select_label_01\" \"水鉄砲で撃ち合いをしよう\" \"select_label_02\" \"潜りっこ勝負をしよう\" \"select_label_03\"\nよ～し、マスター\nなにして遊ぼっか？\n\n# label \"select_label_01\"\n# labeljump \"select_label_end\"\n# textwindow \"close\"\n# waitandnext 0.1\n\n# label \"select_label_02\"\n# labeljump \"select_label_end\"\n# textwindow \"close\"\n# waitandnext 0.1\n\n# label \"select_label_03\"\n# labeljump \"select_label_end\"\n# textwindow \"close\"\n# textflame 1 1\n# waitandnext 0.1\n\n# label \"select_label_end\"\n# waitandnext 1.2\n# fadeout \"black\" 2"
	}
]