[
	{
		"ID": 103525,
		"script": ";;A:ゆったりと温泉に浸かろう\n# script \"lisp\"\n# fadein \"black\" 0.5\n# background \"sea_onsen\"\n# bgmfile \"bgm256\" \"BgmSeaDate\" 0\n# body %(unit_a)s\n# pos %(unit_a)s 3\n# mask %(unit_a)s off\n# chara %(unit_a)s\n# textflame 0 0\n# face %(unit_a)s \"usual\"\n@\nダモクレスを連れて、\n水着着用の温泉へやってきた\nマスター\n\n# textflame 1 1\n# face %(unit_a)s \"happy\"\n# voice 1035 \"damocles_0021\"\n@ダモクレス\nわ～い！\nマスターと一緒にお風呂だー\n\n# textflame 0 0\n@\n幸い、今の時間は他に客がおらず\nダモクレスがはしゃいでも\n大丈夫なようだった\n\n# textflame 1 1\n# voice 1035 \"damocles_0005\"\n@ダモクレス\nあはは～\nお風呂ってやっぱり気持ちいいよね！\n\n# face %(unit_a)s \"usual\"\n@ダモクレス\nよ～し、マスター\nなにして遊ぼっか？\n\n# textflame 0 0\n@\nゆったりと温泉に浸かろう\nと、マスター\n\n# textflame 1 1\n# face %(unit_a)s \"sad\"\n@ダモクレス\nえー\nせっかくマスターと\n一緒のお風呂なのに…\n\n# textflame 0 0\n@\nふてくされるダモクレスを説得し\nきちんと肩まで温泉に\n浸からせる\n\n# face %(unit_a)s \"angry\"\n# textflame 1 1\n@ダモクレス\nぶぅ…\nあぁ～、せっかくだから\nマスターと遊びたかったなぁ\n\n# textflame 0 0\n@\nゆったりと温泉に浸かり\n体力を回復させた\n\n# textflame 0 0\n@\nだが、ダモクレスはしばらく\n機嫌が悪いままだった…\n\n;;----------------------------------------\n\n# fadeout \"black\" 1.2\n# waitandnext 2"
	}
]