[
	{
		"ID": 200222,
		"script": ";;デートへまた行こう 大\n# script \"lisp\"\n# fadein \"black\" 0.5\n# background \"sea_fireworks\"\n# bgmfile \"bgm256\" \"BgmSeaDate\" 0\n# body %(unit_a)s\n# pos %(unit_a)s 3\n# mask %(unit_a)s off\n# chara %(unit_a)s\n# textflame 1 1\n@アイムール\n…………\n\n# face %(unit_a)s \"smile\"\n# voice 2002 \"aimuru_0004\"\n@アイムール\nはいっ\nわがままかもしれませんが…\n\n# eye %(unit_a)s \"close\"\n@アイムール\n私は、マスターと\nまたこうやって花火をみたり\n一緒に街を歩いたりして、\n\n# eye %(unit_a)s \"normal\"\n# voice 2002 \"aimuru_0021\"\n@アイムール\nマスターとデートをしている、\nそういう実感を味わいたいです\n\n# face %(unit_a)s \"normal\"\n@アイムール\n特別な時間を過ごしている…\nそういった実感が…\n\n# textflame 0 0\n@\nアイムールの見せた柔和な表情は\n喜びと楽しさで彩られていた\n\n# face %(unit_a)s \"smile\"\n# textflame 1 1\n# voice 2002 \"aimuru_0036\"\n@アイムール\n…約束ですよ\nきっとまた誘ってください\n\n# textflame 0 0\n@\nアイムールはじっと\nマスターを見つめるのだった―\n\n# fadeout \"black\" 1.2\n# waitandnext 2\n"
	}
]