[
	{
		"ID": 200314,
		"script": "# script \"lisp\"\n# fadein \"black\" 0.5\n# background %(background)s\n# bgmfile \"bgm256\" \"BgmSeaDate\" 0\n# body %(unit_a)s\n# pos %(unit_a)s 3\n# mask %(unit_a)s off\n# chara %(unit_a)s\n# textflame 1 1\n# face %(unit_a)s \"smile\"\n# voice 2003 \"loveryus_0041\"\n@ラブリュス\nしたい、したい～！！\nで、でも…\n\n# textflame 0 0\n@\nラブリュスは今にも\n飛び出しそうになる気持ちを\n必死に抑えているようだった\n\n# face %(unit_a)s \"sad\"\n# textflame 1 1\n@ラブリュス\nあの子達も…\nちゃんと準備して立ってるんだから\n邪魔はできないよ…\n\n# textflame 0 0\n@\nラブリュスの瞳は真剣だった\n自分が乱入されたら…\nそう考えたのかもしれない\n\n# textflame 0 0\n@\nそんな彼女の本気さに\n胸が熱くなるマスターだった…\n;;--------------------------------------\n\n# fadeout \"black\" 1.2\n# waitandnext 2\n"
	}
]