[
	{
		"ID": 201131,
		"script": "# script \"lisp\"\n# fadein \"black\" 0.5\n# background \"sea_town_night\"\n# bgmfile \"bgm256\" \"BgmSeaDate\" 0\n# body %(unit_a)s\n# pos %(unit_a)s 3\n# mask %(unit_a)s off\n# chara %(unit_a)s\n# textflame 0 0\n# face %(unit_a)s \"usual\"\n@\n夜の街にやってきた\nマスターと%(unitName:unit_a)s\n\n@\n街の喧騒は\n日が暮れた今も変わらず\nふたりの気持ちを弾ませる…\n\n# textflame 1 1\n# voice 2011 \"Wazra_0003\"\n# face %(unit_a)s \"smile\"\n@%(unitName:unit_a)s\n光明に照らされた民が元気に\n闊歩する光景はよいものです！\n\n# textflame 0 0\n@\n%(unitName:unit_a)sとの距離が\nより近くなった気がした。\n\n# fadeout \"black\" 1.2\n# waitandnext 2"
	}
]