[
	{
		"ID": 201313,
		"script": "# script \"lisp\"\n# fadein \"black\" 0.5\n# background %(background)s\n# bgmfile \"bgm256\" \"BgmSeaDate\" 0\n# body %(unit_a)s\n# pos %(unit_a)s 3\n# mask %(unit_a)s off\n# chara %(unit_a)s\n# textflame 1 1\n# face %(unit_a)s \"angry\"\n# voice 2013 \"reshef_0029\"\n@レシェフ\nチェスト～～！！\n\n# textflame 0 0\n@\nいきなり殴られた！！\n\n# textflame 1 1\n@レシェフ\n理由を！聞け！\n\n@レシェフ\nなにか訳ありって思わない！？\n思うでしょ今のあたしの反応！！\n\n# voice 2013 \"reshef_0027\"\n@レシェフ\n…あー、この流れで\n説明するのヤダ\nもう言うのやめた\n\n# textflame 0 0\n@\nレシェフは完全に拗ねてしまったが…\n\n@\n「気にしてほしい」という\n彼女のサインが\nたまらなくかわいかった…\n;;--------------------------------------\n\n# fadeout \"black\" 1.2\n# waitandnext 2\n"
	}
]