[
	{
		"ID": 202513,
		"script": "# script \"lisp\"\n# fadein \"black\" 0.5\n# background \"sea_cafe\"\n# bgmfile \"bgm256\" \"BgmSeaDate\" 0\n# body %(unit_a)s\n# pos %(unit_a)s 3\n# mask %(unit_a)s off\n# chara %(unit_a)s\n# textflame 1 1\n# voice 2025 \"hercule_0005\"\n@エルキュール\nはい、とてもっ\nおしゃれですし、\nなによりのんびり出来て\n\n# face %(unit_a)s \"smile\"\n@エルキュール\n食べ物も飲み物も\n美味しいです\n\n# textflame 0 0\n@\nそう言う彼女は、\nこっちを見て頬を\n赤く染めた\n\n# face %(unit_a)s \"normal\"\n# textflame 1 1\n@エルキュール\nあ、ごめんなさい…\n少しはしゃぎすぎちゃいました\n\n# voice 2025 \"hercule_0020\"\n@エルキュール\nでも、マスターとここに\n来られて、本当によかったです\n\n# textflame 0 0\n@\nそう言いながら\n少し恥ずかしそうに\n笑顔をみせるエルキュール\n\n@\nうれしそうにする彼女に\nマスターも笑みを浮かべて\n応えるのだった\n\n;;-----------------------------------------\n# waitandnext 2\n# fadeout \"black\" 1.2\n"
	}
]