[
	{
		"ID": 2100231,
		"script": "# script \"lisp\"\n# fadein \"black\" 0.5\n# background \"sea_resort_night\"\n# bgmfile \"bgm256\" \"BgmSeaDate\" 0\n# body %(unit_a)s\n# pos %(unit_a)s 3\n# mask %(unit_a)s off\n# chara %(unit_a)s\n# textflame 0 0\n@\n散歩にやってきた\nマスターと%(unitName:unit_a)s\n\n@\nライトアップされた\nナイトプールの傍らを\nふたりは並んで歩く…\n\n# textflame 1 1\n# face %(unit_a)s \"smile\"\n@%(unitName:unit_a)s\nこういうの悪くないね…\nのんびり出来るし…\n\n# textflame 0 0\n@\n%(unitName:unit_a)sとの距離が\nより近くなった気がした。\n\n# fadeout \"black\" 1.2\n# waitandnext 2"
	}
]