[
	{
		"ID": 2100123,
		"script": "# script \"lisp\"\n# fadein \"black\" 0.5\n# background \"sea_drive\"\n# bgmfile \"bgm256\" \"BgmSeaDate\" 0\n# body %(unit_a)s\n# pos %(unit_a)s 3\n# mask %(unit_a)s off\n# chara %(unit_a)s\n# textflame 1 1\n# face %(unit_a)s \"shy\"\n# voice 210012 \"masamune_k_0021\"\n@マサムネ\n主君もそう思われますか！\n拙者も実は\nここから見上げる星空が好きなのです\n\n# textflame 0 0\n@\nマサムネの言葉に、\n風も気持ちいいしね、と\n頷き返す\n\n# textflame 1 1\n@マサムネ\nそうなのです\n涼しい風に吹かれながら\n闇の中で瞬く星を見つめる…\n\n@マサムネ\nこの場所ならではの景色でもあり…\n風流で密かに \n気に入っているのです\n\n# voice 210012 \"masamune_k_0020\"\n@マサムネ\n…嬉しいものですな\n主君も私と同じ気持ちを\n抱いてくれるなんて…\n\n# textflame 0 0\n@\nマサムネの声には嬉しさが滲んでいて\nここに来てよかったと素直に思える\n\n@\nその後も二人で\n星を見上げて過ごした…\n;;----------------------------------------\n\n# fadeout \"black\" 1.2\n# waitandnext 2"
	}
]