[
	{
		"ID": 2200413,
		"script": ";;C:そんなことよりお腹がすいた\n# script \"lisp\"\n# fadein \"black\" 0.5\n# background %(background)s\n# bgmfile \"bgm256\" \"BgmSeaDate\" 0\n# body %(unit_a)s\n# pos %(unit_a)s 3\n# mask %(unit_a)s off\n# chara %(unit_a)s\n# textflame 1 1\n# face 2200421 \"shy\"\n# voice 220042 \"parashu_k_0020\"\n@パラシュ\nぷっ、あはははっ！\n\n# textflame 0 0\n@\nマスターの言葉に\nパラシュは堪えきれないとばかりに\n吹き出した\n\n# eye %(unit_a)s \"close\"\n# waitandnext 0.2\n\n# voice 220042 \"parashu_k_0004\"\n# eye %(unit_a)s \"normal\"\n# textflame 1 1\n@パラシュ\nふ、ふふっ…\n博物館よりご飯の方が大事かい？\n\n@パラシュ\nでも、まあ…\n“暴食”を司るボクのマスターだし\nそれが正しいのかもね\n\n# textflame 0 0\n@\nひとしきり笑った後、\nパラシュはそう言って目を細めた\n\n# voice 220042 \"parashu_k_0040\"\n# textflame 1 1\n@パラシュ\nじゃあ、早くここを\nまわってご飯にしようか\nもちろん、マスターのおごりで\n\n# textflame 0 0\n@\nそう言って、\n上機嫌に通路を\n進んでいくパラシュ\n\n@\nその後姿に遅れないように、\n急いで後を追った…\n\n;;--------------------------------------\n\n# fadeout \"black\" 1.2\n# waitandnext 2\n"
	}
]