[
	{
		"ID": 2400122,
		"script": ";;とても上がるb\n# script \"lisp\"\n# fadein \"black\" 0.5\n# background \"sea_onsen\"\n# bgmfile \"bgm256\" \"BgmSeaDate\" 0\n# body %(unit_a)s\n# pos %(unit_a)s 3\n# mask %(unit_a)s off\n# chara %(unit_a)s\n# voice 240012 \"arutemisu_k_0004\"\n# face %(unit_a)s \"smile\"\n# textflame 1 1\n@アルテミス\nそんな風に私を\n心配してくださるなんて…\n\n@アルテミス\nふふっ…不思議な気分…\n嬉しくて…少し気持ちが…\n\n# textflame 0 0\n@\n頬を上気させ、\nこちらを見るアルテミス\n\n# textflame 1 1\n# voice 240012 \"arutemisu_k_0020\"\n@アルテミス\nのぼせてなんていませんよ\nさあ、マスター、こちらに…\n\n# textflame 0 0\n@\nそう言って手を差し出す\nアルテミスの手を取って、\n二人はゆっくりと温泉に浸かった\n\n# waitandnext 2\n# fadeout \"black\" 1.2\n"
	}
]