[
	{
		"ID": 300224,
		"script": "# script \"lisp\"\n# fadein \"black\" 0.5\n# background \"sea_shipboard\"\n# bgmfile \"bgm256\" \"BgmSeaDate\" 0\n# body %(unit_a)s\n# pos %(unit_a)s 3\n# mask %(unit_a)s off\n# chara %(unit_a)s\n# face %(unit_a)s \"sad\"\n# textflame 1 1\n# voice 3002 \"toraidento_kyara_1005\"\n@トライデント\nマスター！？\n\n@トライデント\n大丈夫？\n\n@トライデント\n夜の海は揺れとかわかりにくいから…\n\n# face %(unit_a)s \"normal\"\n@トライデント\nえっと、船室に行く？\nこっちの方は揺れるし\n\n# voice 3002 \"toraidento_kyara_1011\"\n# face %(unit_a)s \"sad\"\n@トライデント\nえっ、揺らすと余計に？\nあわわっ、もうしわけぇ…\n\n# textflame 0 0\n@\nそのままトライデントに看病されて\n船上を楽しむ余裕もなかった…\n;;----------------------------------------\n\n# fadeout \"black\" 1.2\n# waitandnext 2\n"
	}
]