[
	{
		"ID": 300625,
		"script": "# script \"lisp\"\n# fadein \"black\" 0.5\n# background \"sea_fireworks\"\n# bgmfile \"bgm256\" \"BgmSeaDate\" 0\n# body %(unit_a)s\n# pos %(unit_a)s 3\n# mask %(unit_a)s off\n# chara %(unit_a)s\n# textflame 0 0\n@\nトリシューラとのデートの帰り道\n夜空に大輪の花が咲いていた\n\n# face %(unit_a)s \"sad\"\n# textflame 1 1\n@トリシューラ\nうおっ！？\n結構近くでやってるな！\n\n# face %(unit_a)s \"smile\"\n# textflame 1 1\n@トリシューラ\nなあ、マスター\nちょっとこの花火、観ていこうぜ\n\n# voice 3006 \"torisyula_0006\"\n# face %(unit_a)s \"sad\"\n# textflame 1 1\n@トリシューラ\n…おっ、あの辺とか\nよく観えそうじゃねえか？\n;;----------------------------------------\n\n# textflame 0 0\n@\n…………\n\n# textflame 0 0\n@\nふたりは楽しい時間を過ごした…\n"
	}
]