[
	{
		"ID": 302511,
		"script": ";;大,眠くなってきた？\n;;中,一日の疲れが出てきた？\n;;小,体が冷えてきた？\n# script \"lisp\"\n# fadein \"black\" 0.5\n# background \"sea_park_night\"\n# bgmfile \"bgm256\" \"BgmSeaDate\" 0\n# body %(unit_a)s\n# pos %(unit_a)s 3\n# mask %(unit_a)s off\n# chara %(unit_a)s\n# textflame 1 1\n# eye %(unit_a)s \"close\"\n@ミネルヴァ\nふぅ…静かですね…\n人が多いところも楽しいですけど\nこういう場所もいいですね\n\n# eye %(unit_a)s \"normal\"\n# textflame 0  0\n@\n周囲に気を配るミネルヴァ\n\n# textflame 0  0\n@\nそんな彼女を休ませたいと、\n誰もいない時間帯の公園へと\n連れ出したマスター\n\n# textflame 0  0\n@\n一緒にベンチへと腰を掛け\n静かに時間を過ごしていく…\n\n# textflame 1 1\n# voice 3025 \"minerva_0002\"\n@ミネルヴァ\nマスター、あの…\n\n# select \"一日の疲れが出てきた？\" \"select_label_01\" \"体が冷えてきた？\" \"select_label_02\" \"眠くなってきた？\" \"select_label_03\"\nマスター、あの…\n\n# label \"select_label_01\"\n# labeljump \"select_label_end\"\n# textwindow \"close\"\n# waitandnext 0.1\n\n# label \"select_label_02\"\n# labeljump \"select_label_end\"\n# textwindow \"close\"\n# waitandnext 0.1\n\n# label \"select_label_03\"\n# labeljump \"select_label_end\"\n# textwindow \"close\"\n# waitandnext 0.1\n\n# label \"select_label_end\"\n# waitandnext 0.1\n\n# fadeout \"black\" 1.2\n# waitandnext 2"
	}
]