[
	{
		"ID": 400122,
		"script": "# script \"lisp\"\n# fadein \"black\" 0.5\n# background \"sea_room\"\n# bgmfile \"bgm256\" \"BgmSeaDate\" 0\n# body %(unit_a)s\n# pos %(unit_a)s 3\n# mask %(unit_a)s off\n# chara %(unit_a)s\n# textflame 0 0\n@\nマスターが部屋を見渡すと\n熊のぬいぐるみが\n目に入った\n\n# voice 4001 \"arutemisu_0015\"\n# face %(unit_a)s \"sad\"\n# textflame 1 1\n@アルテミス\nあ…これはその…！\n\n# textflame 0 0\n@\nしかも１つや２つではない\nベッドから机の上、棚や壁…\nいろんなところに並んでいた\n\n# voice 4001 \"arutemisu_0042\"\n# textflame 1 1\n@アルテミス\nあっ、あわわ！\nあわわわわわ！\n\n# textflame 0 0\n@\nマスターの視線を塞ごうとする\nアルテミスだったが、\nすぐに無駄だと気づいて観念した\n\n# face %(unit_a)s \"normal\"\n# textflame 1 1\n@アルテミス\n…好きで、集めているんです\nどんどん増えてしまって…\n\n@アルテミス\n見ていると心がほっこりして…\n和むというか、なんというか…\n\n# voice 4001 \"arutemisu_0008\"\n# face %(unit_a)s \"sad\"\n@アルテミス\n私のような可愛げのない女が\nくまさんを集めているなんて…\n滑稽ですよね…？\n\n# textflame 0 0\n@\nそんなことないよ\nくまさん、いいじゃない\nと、フォローするマスター\n\n# voice 4001 \"arutemisu_0004\"\n# face %(unit_a)s \"smile\"\n# textflame 1 1\n@アルテミス\n…！\nありがとうございます！\n\n# textflame 0 0\n@\nそういうとアルテミスは\nベッドに置いていた\nくまのぬいぐるみを手に取った\n\n# face %(unit_a)s \"normal\"\n# textflame 1 1\n@アルテミス\nでは、これを…\n\n@アルテミス\n一番お気に入りのオリオーンです…\n手触りがとてもよくって…\n\n# voice 4001 \"arutemisu_0005\"\n# face %(unit_a)s \"smile\"\n@アルテミス\nあの…特別に…\nですからね…？\n\n# textflame 0 0\n@\nそういってくまのぬいぐるみを\nマスターに手渡すアルテミスの顔は\n少女そのものだった――\n\n# fadeout \"black\" 1.2\n# waitandnext 2\n"
	}
]