[
	{
		"ID": 400123,
		"script": "# script \"lisp\"\n# fadein \"black\" 0.5\n# background \"sea_resort_night\"\n# bgmfile \"bgm256\" \"BgmSeaDate\" 0\n# body %(unit_a)s\n# pos %(unit_a)s 3\n# mask %(unit_a)s off\n# chara %(unit_a)s\n# textflame 1 1\n# eye %(unit_a)s \"close\"\n# voice 4001 \"arutemisu_0013\"\n@アルテミス\n気楽に…\nリラックス…\n\n# eye %(unit_a)s \"normal\"\n# face %(unit_a)s \"normal\"\n@アルテミス\n開放…\n己をさらけ出す…\n\n# textflame 0 0\n@\n…なにやらアルテミスが\n深刻な顔で\nぶつぶつとつぶやいている…\n\n# textflame 1 1\n# voice 4001 \"arutemisu_0001\"\n@アルテミス\nマスター…\n不肖アルテミス…\nか、覚悟はしたつもりでしたが…\n\n# face %(unit_a)s \"angry\"\n@アルテミス\nま、まだ私達には…\n気楽におしゃべりなど\n時期尚早ではないでしょうか！？\n\n# textflame 0 0\n@\nとりあえずアルテミスが\n落ち着くまで\n何度も深呼吸させた…\n\n# fadeout \"black\" 1.2\n# waitandnext 2\n"
	}
]