[
	{
		"ID": 400711,
		"script": ";;A キラッキラだね (大)\n;;B ギラギラだね (中)\n;;C キンキンだね (小)\n# script \"lisp\"\n# fadein \"black\" 0.5\n# background %(background)s\n# bgmfile \"bgm256\" \"BgmSeaDate\" 0\n# body %(unit_a)s\n# pos %(unit_a)s 3\n# mask %(unit_a)s off\n# chara %(unit_a)s\n# textflame 0 0\n@\nマスターは\nシェキナーを連れて\nプラネタリウムにやってきた\n\n# textflame 1 1\n# voice 3006 \"torisyula_0005\"\n# face %(unit_a)s \"smile\"\n@シェキナー\n夜空で爆ぜる綺羅星達…\n数多の光の洪水…\n\n@%(unitName:unit_a)s\n@シェキナー\nあのすべてを\n集めたような煌めきを…\n私は知っている気がします…\n\n# select \"キラッキラだね\" \"select_label_01\" \"ギラギラだね\" \"select_label_02\" \"キンキンだね\" \"select_label_03\"\nあのすべてを\n集めたような煌めきを…\n私は知っている気がします…\n\n# label \"select_label_01\"\n# labeljump \"select_label_end\"\n# textwindow \"close\"\n# waitandnext 0.1\n\n# label \"select_label_02\"\n# labeljump \"select_label_end\"\n# textwindow \"close\"\n# waitandnext 0.1\n\n# label \"select_label_03\"\n# labeljump \"select_label_end\"\n# textwindow \"close\"\n# waitandnext 0.1\n\n# label \"select_label_end\"\n# waitandnext 0.1\n\n# fadeout \"black\" 1.2\n# waitandnext 2\n"
	}
]