[
	{
		"ID": 500323,
		"script": "# script \"lisp\"\n# fadein \"black\" 0.5\n# background \"sea_shipboard\"\n# bgmfile \"bgm256\" \"BgmSeaDate\" 0\n# body %(unit_a)s\n# pos %(unit_a)s 3\n# mask %(unit_a)s off\n# chara %(unit_a)s\n# textflame 1 1\n# face %(unit_a)s \"usual\"\n@八咫鏡\nそこは“も”ではなく\n“のほうが”と\nいうところじゃぞ！\n\n# textflame 0 0\n@\n八咫鏡はくすくすと笑う\n\n# textflame 1 1\n@八咫鏡\nわらわはすぐに目に映したものの\n影響を受けてしまう\n\n# textflame 1 1\n@八咫鏡\n今宵は月になってしまったか…\n\n# textflame 1 1\n# face %(unit_a)s \"smile\"\n@八咫鏡\nたしかに…\nわらわの髪の色は\n月のようではある…な\n\n# textflame 0 0\n@\n空を見上げる八咫鏡の美しい銀髪が\n月光に照らされて\n青白く揺らめいていた――\n\n# fadeout \"black\" 1.2\n# waitandnext 2"
	}
]