[
	{
		"ID": 500623,
		"script": "# script \"lisp\"\n# fadein \"black\" 0.5\n# background \"sea_fireworks\"\n# bgmfile \"bgm256\" \"BgmSeaDate\" 0\n# body %(unit_a)s\n# pos %(unit_a)s 3\n# mask %(unit_a)s off\n# chara %(unit_a)s\n# textflame 1 1\n# eye %(unit_a)s \"close\"\n# voice 5006 \"megido_0004\"\n@メギド\n物事は見る角度を変えれば\nまったく別に映るもの\n\n# textflame 1 1\n# eye %(unit_a)s \"normal\"\n@メギド\n善と悪が表裏一体であるように\n裁きをもたらす炎にも\n心を震わす美が備わっている…\n\n# textflame 0 0\n@\nメギドらしいなと思いながら\n一言で言うと？\nとマスターは聞いてみる\n\n# voice 5006 \"megido_0020\"\n# face %(unit_a)s \"smile\"\n# textflame 1 1\n@メギド\n…綺麗だわ\nとても、いいと思う\n\n# textflame 0 0\n@\nそう言ってメギドは\n顔をほころばせた…\n\n# textflame 0 0\n@\nめったに聞けないメギドの本音は\n花火の音に紛れて闇に溶けた…\n\n# fadeout \"black\" 1.2\n# waitandnext 2"
	}
]