[
	{
		"ID": 501724,
		"script": ";;C 小当り\n# script \"lisp\"\n# fadein \"black\" 0.5\n# background \"sea_room\"\n# bgmfile \"bgm256\" \"BgmSeaDate\" 0\n# body %(unit_a)s\n# pos %(unit_a)s 3\n# mask %(unit_a)s off\n# chara %(unit_a)s\n# textflame 1 1\n# face %(unit_a)s \"smile\"\n# voice 5017 \"grimoire_0005\"\n@グリモワール\n…そのとおりよ\n悪いけどワタシの\n研究に付き合ってもらうわ！\n\n# textflame 0 0\n@\nマスターは息を飲む…\n不敵笑うグリモワールは…\nおもむろになにかを取り出した！\n\n# voice 5017 \"grimoire_0007\"\n# face %(unit_a)s \"normal\"\n# textflame 1 1\n@グリモワール\nどっちの水着が可愛いかしら！\n一般論じゃなくて\nキミの好みで答えなさい！\n\n# textflame 0 0\n@\nフフンとドヤ顔で迫ってくる\nグリモワールに圧される形で\nマスターは水着を指さす…\n\n# voice 5017 \"grimoire_0040\"\n# textflame 1 1\n@グリモワール\nこっち？\nこっちね！？\nなるほど、なるほど…\n\n# textflame 0 0\n@\nグリモワールの顔は\nとても満足げで嬉しそうだった―\n\n# fadeout \"black\" 1.2\n# waitandnext 2\n"
	}
]