[
	{
		"ID": 502011,
		"script": ";;A魚獲り上手いんだね（中）\n;;B美味しそうだなぁ（大）\n;;C大きくならないとね！（小）\n# script \"lisp\"\n# fadein \"black\" 0.5\n# background \"sea_stream_day\"\n# bgmfile \"bgm256\" \"BgmSeaDate\" 0\n# body %(unit_a)s\n# pos %(unit_a)s 3\n# mask %(unit_a)s off\n# chara %(unit_a)s\n# textflame 0 0\n# face %(unit_a)s \"usual\"\n@\nタスラムの誘いで\n川にやってきたのだが……\n\n# textflame 1 1\n# face %(unit_a)s \"angry\"\n# voice 5020 \"tasuramu_0029\"\n@タスラム\nうぉおぉおぉお！\n一撃入魂！\n\n# textflame 0 0\n@\nザブーンっ！\n\n# textflame 0 0\n@\nタスラムの投げた石が\n川を泳ぐ魚をめがけて放たれる\n\n# textflame 1 1\n# face %(unit_a)s \"smile\"\n# voice 5020 \"tasuramu_0006\"\n@タスラム\nよっしゃ命中！これで１０匹目！\n焼いて食べるぞマスター！\n\n# textflame 0 0\n@\nタスラムが魚を抱えてやってくる\n食べるのが大好きなんだなあと\nマスターは微笑ましく思った\n\n# select \"魚獲り上手いんだね\" \"select_label_01\" \"美味しそうだなぁ\" \"select_label_02\" \"大きくならないとね！\" \"select_label_03\"\nタスラムが魚を抱えてやってくる\n食べるのが大好きなんだなあと\nマスターは微笑ましく思った\n\n# label \"select_label_01\"\n# labeljump \"select_label_end\"\n# textwindow \"close\"\n# waitandnext 0.1\n\n# label \"select_label_02\"\n# labeljump \"select_label_end\"\n# textwindow \"close\"\n# waitandnext 0.1\n\n# label \"select_label_03\"\n# labeljump \"select_label_end\"\n# textwindow \"close\"\n# waitandnext 0.1\n\n# label \"select_label_end\"\n# waitandnext 0.1\n\n# fadeout \"black\" 1.2\n# waitandnext 2\n"
	}
]