[
	{
		"ID": 503112,
		"script": ";;大Aありがとう、ソロモン\n# script \"lisp\"\n# fadein \"black\" 0.5\n# background \"sea_ferris\"\n# bgmfile \"bgm256\" \"BgmSeaDate\" 0\n# body %(unit_a)s\n# pos %(unit_a)s 3\n# mask %(unit_a)s off\n# chara %(unit_a)s\n# face %(unit_a)s \"normal\"\n# voice 250311 \"solomon_t_0022\"\n# textflame 1 1\n@ソロモン\nえっ？\nいつも計画を立ててくれて\n感謝してるって？\n\n@ソロモン\nそっ、そんな…！\n私がやりたくて\nやっていることだし…\n\n@ソロモン\n私の方こそ\n貴方にお礼を言わせてほしいわ\n\n# voice 250311 \"solomon_t_0026\"\n@ソロモン\n今日の計画を\n考えているとき…\n\n@ソロモン\n胸の奥がそわそわして…\nすごく思い悩んだの\n\n@ソロモン\nグラウにも\n『ソロモンらしくありません』って\n言われたくらい\n\n# face %(unit_a)s \"happy\"\n# voice 250311 \"solomon_t_0003\"\n@ソロモン\nでも、マスターには\n絶対にデートを楽しんでほしい…\n\n@ソロモン\nそう思ったら、\nなんだか私まで\n楽しい気持ちになれて\n\n@ソロモン\nいえ…私が考えた最適解、\nそれ以上の一日だったわ\n\n# face %(unit_a)s \"normal\"\n@ソロモン\nでも…実はまだ、\n帰ってからの計画を\n立てていなくて\n\n# voice 250311 \"solomon_t_0002\"\n@ソロモン\nマスター、もしよかったら\n一緒に考えて\nくれない…？\n\n# textflame 0 0\n@\nソロモンと話し合い、\n帰ってからの予定を\n練りはじめたマスター\n\n@\n二人の共同作業は\n観覧車を降りる直前まで\nつづいたのだった…\n\n;;-----------------------------------------\n# waitandnext 2\n# fadeout \"black\" 1.2\n"
	}
]