[
	{
		"ID": 600111,
		"script": ";;A 君のほうが綺麗,小\n;;B 君の星座は？,中\n;;C 君に言いたいことが…,大\n# script \"lisp\"\n# fadein \"black\" 0.5\n# background \"sea_beach_night\"\n# bgmfile \"bgm256\" \"BgmSeaDate\" 0\n# body %(unit_a)s\n# pos %(unit_a)s 3\n# mask %(unit_a)s off\n# chara %(unit_a)s\n# textflame 0 0\n@\nマスターは\nアスクレピオスを誘って\n夜の散歩に出かけた\n\n# voice 6001 \"asukurepiosu_0004\"\n# face %(unit_a)s \"smile\"\n# textflame 1 1\n@アスクレピオス\n満天の星ってやつね\n…悪くないわ\n\n# voice 6001 \"asukurepiosu_0023\"\n# face %(unit_a)s \"sad\"\n# textflame 1 1\n@アスクレピオス\nえ…？\n素直になれって！？\n\n# face %(unit_a)s \"smile\"\n# textflame 1 1\n@アスクレピオス\n…はいはい、綺麗よ\nすっごく、綺麗だわ…！\n;;----------------------------------------\n\n# select \"君のほうが綺麗\" \"select_label_01\" \"君の星座は？\" \"select_label_02\" \"君に言いたいことが…\" \"select_label_03\"\n…はいはい、綺麗よ\nすっごく、綺麗だわ…！\n\n# label \"select_label_01\"\n# labeljump \"select_label_end\"\n# textwindow \"close\"\n# waitandnext 0.1\n\n# label \"select_label_02\"\n# labeljump \"select_label_end\"\n# textwindow \"close\"\n# waitandnext 0.1\n\n# label \"select_label_03\"\n# labeljump \"select_label_end\"\n# textwindow \"close\"\n# waitandnext 0.1\n\n# label \"select_label_end\"\n# waitandnext 0.1\n\n# fadeout \"black\" 1.2\n# waitandnext 2\n"
	}
]