[
	{
		"ID": 600612,
		"script": "# script \"lisp\"\n# fadein \"black\" 0.5\n# background %(background)s\n# bgmfile \"bgm256\" \"BgmSeaDate\" 0\n# body %(unit_a)s\n# pos %(unit_a)s 3\n# mask %(unit_a)s off\n# chara %(unit_a)s\n# textflame 1 1\n# face %(unit_a)s \"smile\"\n# voice 6006 \"misutoru_0004\"\n@ミストルティン\nピクニックですね\n楽しそうです…\n\n# textflame 1 1\n@ミストルティン\n確か、あそこで\nアイスが売っていましたね…\n\n# textflame 0 0\n@\nふたりはアイスを買い\n並んでベンチに座った\n\n# textflame 1 1\n@ミストルティン\nマスターの味も\n美味しそうですね…\n\n# voice 6006 \"misutoru_kyara_1013\"\n# face %(unit_a)s \"sad\"\n# textflame 1 1\n@ミストルティン\nえ？\n交換…？\n\n;;//文字小さく\n# textsize 20\n# textflame 1 1\n@ミストルティン\nあ、で、でも…\nそんな…間接キスみたいな…\n\n# voice 6006 \"misutoru_0003\"\n# face %(unit_a)s \"normal\"\n# textsize 24\n# textflame 1 1\n@ミストルティン\nマスターが…良ければ…\nど、どうぞ…\n\n# textflame 0 0\n@\nお互いに照れながらも\n幼いカップルのように\nアイスを交換するのだった\n;;--------------------------------------\n\n# fadeout \"black\" 1.2\n# waitandnext 2\n"
	}
]