[
	{
		"ID": 601112,
		"script": ";;A　これを見たかったの？ 大\n# script \"lisp\"\n# fadein \"black\" 0.5\n# background \"sea_museum1\"\n# bgmfile \"bgm256\" \"BgmSeaDate\" 0\n# body %(unit_a)s\n# pos %(unit_a)s 3\n# mask %(unit_a)s off\n# chara %(unit_a)s\n# textflame 1 1\n# face %(unit_a)s \"usual\"\n# voice 6011 \"vanargand_0003\"\n@ヴァナルガンド\nはい、そうなんですよ～\n\n@ヴァナルガンド\nすっごい大きな狼さんの絵が\n飾ってあるって聞いて\n\n@ヴァナルガンド\n一体どのくらいなんだろうって\n気になっちゃったんです\n\n# eye %(unit_a)s \"close\"\n@ヴァナルガンド\nん～、でもちょっと恐い絵ですね\n\n# eye %(unit_a)s \"normal\"\n# face %(unit_a)s \"sad\"\n# voice 6011 \"vanargand_0013\"\n@ヴァナルガンド\nもしかしたらわたしも、\nこんな風に見えてるのかな…\n\n# textflame 0 0\n@\nでも、すごく\nやさしい目をしてる\nとマスターが伝えると\n\n# textflame 0 0\n@\nヴァナルガンドは\n花が咲いたような笑みを浮かべた\n\n# face %(unit_a)s \"smile\"\n# textflame 1 1\n# voice 6011 \"vanargand_0021\"\n@ヴァナルガンド\nそう、ですか？\n本当にそう見えますか？\n\n# face %(unit_a)s \"usual\"\n# voice 6011 \"vanargand_0003\"\n@ヴァナルガンド\n…実はこの絵の題材は、\nフェンリルっていう狼さんなんです～\n\n@ヴァナルガンド\nわたしのキラーズの別名…\n\n@ヴァナルガンド\nだからきっと\nそういうモノとしてあるのが\nわたしなんです…\n\n# face %(unit_a)s \"sad\"\n@ヴァナルガンド\nだから、気になっちゃって\n怖がられてたら嫌だな、って…\n\n# face %(unit_a)s \"smile\"\n# voice 6011 \"vanargand_0005\"\n@ヴァナルガンド\nでも、マスターさんに\nそう見えるなら嬉しいです～\n\n@ヴァナルガンド\nも～っとマスターさんに\n好きになって貰えるように、\nいっぱい甘やかしちゃいますよ～！\n\n# textflame 0 0\n@\nその後、閉館まで\nヴァナルガンドに\n甘やかされる時間を過ごした…\n\n# fadeout \"black\" 1.2\n# waitandnext 2\n"
	}
]