[
	{
		"ID": 602011,
		"script": ";;B:手、繋いでおこうか？\n;;A:ずっとそばにいるから安心して\n;;C:やっぱり怖がってない？\n# script \"lisp\"\n# fadein \"black\" 0.5\n# background \"sea_hauntedhouse\"\n# bgmfile \"bgm256\" \"BgmSeaDate\" 0\n# body %(unit_a)s\n# pos %(unit_a)s 3\n# mask %(unit_a)s off\n# chara %(unit_a)s\n# textflame 0 0\n# face %(unit_a)s \"normal\"\n;;モノローグ\n@\nネスを楽しませるために\nホラーハウスへとやってきた\nマスターだったが…\n\n# voice 6020 \"ness_0025\"\n# face %(unit_a)s \"angry\"\n# textflame 1 1\n@ネス\nきゃあああああああっ！！\nお兄ちゃああああああああん！！\n\n# face %(unit_a)s \"sad\"\n@ネス\n…うう…失敗しました\n所詮は作り物と油断した\nわたしのミスですね…\n\n# face %(unit_a)s \"normal\"\n@ネス\nあっ、いえ、なんでもありません\nなにも言ってません\n怖くありませんので…\n\n@ネス\nしかしこの暗がりは危険ですし\nマスターはわたしから\n離れないようにしてくださいね？\n\n# select \"ずっとそばにいるから安心して\" \"select_label_01\" \"手、繋いでおこうか？\" \"select_label_02\" \"やっぱり怖がってない？\" \"select_label_03\"\nしかしこの暗がりは危険ですし\nマスターはわたしから\n離れないようにしてくださいね？\n\n# label \"select_label_01\"\n# labeljump \"select_label_end\"\n# textwindow \"close\"\n# waitandnext 0.1\n\n# label \"select_label_02\"\n# labeljump \"select_label_end\"\n# textwindow \"close\"\n# waitandnext 0.1\n\n# label \"select_label_03\"\n# labeljump \"select_label_end\"\n# textwindow \"close\"\n# waitandnext 0.1\n\n# label \"select_label_end\"\n# waitandnext 0.1\n\n# fadeout \"black\" 1.2\n# waitandnext 2"
	}
]