[
	{
		"ID": 602512,
		"script": ";;大Cなんで克服したいの？\n# script \"lisp\"\n# fadein \"black\" 0.5\n# background \"sea_beach_day\"\n# bgmfile \"bgm256\" \"BgmSeaDate\" 0\n# body %(unit_a)s\n# pos %(unit_a)s 3\n# mask %(unit_a)s off\n# chara %(unit_a)s\n# textflame 1 1\n# face %(unit_a)s \"sad\"\n# voice 260251 \"chalice_t_0022\"\n@カリス\nえ？\nそれはその～…\n\n# voice 260251 \"chalice_t_0026\"\n@カリス\nみんなが楽しそうに\n泳いでるのを見て…\nなんとなくだけど、いいな～って\n\n@カリス\nそれに、\nもしマスターさんと\n二人で並んで泳げたら\n\n@カリス\nすっごく楽しそうだなー、なんて\n思ったり、して…\n\n# face %(unit_a)s \"angry\"\n# voice 260251 \"chalice_t_0009\"\n@カリス\n…あぁっ！\nいざ口に出すと\n照れちゃうなぁ、もーっ！\n\n@カリス\nとっ、とにかく！\nカリスちゃんに起こせない\nミラクルはないんだから！\n\n# face %(unit_a)s \"sad\"\n# voice 260251 \"chalice_t_0023\"\n@カリス\nマスターさんは\nそこで見守っ…\n…ひゃあああああああっ！？\n\n@カリス\nち、ちちちちょっとっ！？\n\n@カリス\n何するのマスターさんっ、\nこれっ…\nお姫様だっこ…！？\n\n# voice 260251 \"chalice_t_0026\"\n@カリス\nこのまま海に入れば\nきっと怖くないって？\nそ、そうかなぁ…！？\n\n@カリス\nわわっ、もう行くのっ！？\nちょっとまって、\nまだ心の準備がっ！\n\n# face %(unit_a)s \"angry\"\n# voice 260251 \"chalice_t_0036\"\n@カリス\nお、お願い！\nぜーったいに離さないでね！？\n約束だよっ、マスターさん！\n\n# textflame 0 0\n@\nお任せあれ、と\nマスターは自信満々にうなずく\n\n@\nじたばたと怖がるカリスを\nマスターはしっかりと\n抱きとめてあげた…\n\n# fadeout \"black\" 1.2\n# waitandnext 2\n"
	}
]