[
	{
		"ID": 9100837,
		"script": "# script \"lisp\"\n# background %(wayback_background)s\n# bgmfile \"bgm255\" \"BgmSeaDate\" 0\n# body %(unit_a)s\n# pos %(unit_a)s 3\n# mask %(unit_a)s off\n# chara %(unit_a)s\n# fadein \"black\" 0.5\n# textflame 0 0\n@\n帰り道－\n\n# fadein \"white\" 0.5\n# se \"SE_0735\"\n# bgm \"stop\"\n# waitandnext 2\n@\n…………\n\n# fadein \"white\" 0.5\n# se \"SE_0735\"\n# waitandnext 2\n@\n…………\n\n@\nふと、\n傍らを歩く彼女が足を止めた…\n\n# bgmfile \"bgm255\" \"BgmSeaDate\" 0\n# textflame 1 1\n# face %(unit_a)s \"sad\"\n# voice 1008 \"guramu_0001\"\n@グラム\nねぇ、マスター？\n\n@グラム\n私のこと…\nちゃんと知っててくれているか\n聞いてみてもいい？\n\n# face %(unit_a)s \"angry\"\n@グラム\nえっと、なんていうか…\nと、とにかく、答えて！\n\n# face %(unit_a)s \"smile\"\n# voice 1008 \"guramu_0004\"\n@グラム\nえっと、じゃあ…いくよ？\n\n# face %(unit_a)s \"normal\"\n@グラム\n学園姿の私の☆６のスキルは\n『鬼迫の陽隠』と書いて\nなんて読むかわかる？\n\n# se \"SE_0734\"\n# select \"ブレイブナイツ\" \"select_label_correct\" \"きはくのよういん\" \"select_label_wrong1\" \"デーモンコントラスト\" \"select_label_wrong2\"\n学園姿の私の☆６のスキルは\n『鬼迫の陽隠』と書いて\nなんて読むかわかる？\n\n# label \"select_label_correct\"\n# labeljump \"select_label_end\"\n# textwindow \"close\"\n# waitandnext 0.1\n\n# label \"select_label_wrong1\"\n# labeljump \"select_label_end\"\n# textwindow \"close\"\n# waitandnext 0.1\n\n# label \"select_label_wrong2\"\n# labeljump \"select_label_end\"\n# textwindow \"close\"\n# waitandnext 0.1\n\n# label \"select_label_end\"\n# waitandnext 0.1\n\n# sestop \"SE_0734\"\n# fadeout \"black\" 1.2\n# waitandnext 2"
	}
]