[
	{
		"ID": 91011498,
		"script": "# script \"lisp\"\n# background %(wayback_background)s\n# bgmfile \"bgm255\" \"BgmSeaDate\" 0\n# body %(unit_a)s\n# pos %(unit_a)s 3\n# mask %(unit_a)s off\n# chara %(unit_a)s\n# fadein \"black\" 0.5\n# textflame 1 1\n# se \"SE_0733\"\n# face %(unit_a)s \"sad\"\n# voice 1011 \"excalibur_0037\"\n@エクスカリバー\n…っ！\n\n# textflame 1 1\n@エクスカリバー\nあなたの心に…\nまだ寄り添えて\nいませんでしたか…\n\n# textflame 1 1\n@エクスカリバー\nこれほどまでに…\nあなたを近くに感じているのに…\n\n# voice 1011 \"excalibur_0031\"\n# textflame 1 1\n@エクスカリバー\nあなたの剣に\nなりきれないことが\n本当にもどかしい…\n\n# textflame 1 1\n@エクスカリバー\n…………\n\n# textflame 0 0\n@\n彼女のあまりに\nがっかりした顔に\nマスターの心はギュッと痛んだ\n\n# textflame 0 0\n@\nデート中のはずなのに…\nなにやってるんだろう\n\n# textflame 0 0\n@\n急に聞かれても間違えないように\nしっかりと心に刻んでおかないとな…\n\n# fadeout \"black\" 1.2\n# waitandnext 2"
	}
]