[
	{
		"ID": 91014198,
		"script": "# script \"lisp\"\n# background %(wayback_background)s\n# bgmfile \"bgm255\" \"BgmSeaDate\" 0\n# body %(unit_a)s\n# pos %(unit_a)s 3\n# mask %(unit_a)s off\n# chara %(unit_a)s\n# fadein \"black\" 0.5\n# textflame 1 1\n# se \"SE_0733\"\n# face %(unit_a)s \"sad\"\n# voice 1014 \"tyrufing_0049\"\n@ティルフィング\n不正解、ですか…\n\n# voice 1014 \"tyrufing_0008\"\n@ティルフィング\nちょっとショックですね…\n\n# textflame 0 0\n@\nティルフィングは\n表情を暗くして\n落ち込んでしまう\n\n@\n今度こそ正解してみせるから！\nそう言ってティルフィングを\n励ますマスター\n\n# textflame 1 1\n# voice 1014 \"tyrufing_0036\"\n@ティルフィング\nお願いしますね？\nマスターの言葉、信じていますから\n\n# textflame 0 0\n@\nティルフィングに笑顔で言われ、\n次こそ正解しなければ！\nと心に誓うマスターであった\n\n# fadeout \"black\" 1.2\n# waitandnext 2"
	}
]