[
	{
		"ID": 91012199,
		"script": "# script \"lisp\"\n# background %(wayback_background)s\n# bgmfile \"bgm255\" \"BgmSeaDate\" 0\n# body %(unit_a)s\n# pos %(unit_a)s 3\n# mask %(unit_a)s off\n# chara %(unit_a)s\n# fadein \"black\" 0.5\n# textflame 1 1\n# face %(unit_a)s \"smile\"\n# se \"SE_0732\"\n# voice 1012 \"adamasu_0004\"\n@アダマス\nまあこれくらい\n正解して当然よね\n\n# eye %(unit_a)s \"close\"\n@アダマス\nあたしのことを理解してないとか\nあっちゃならないことだしね\n\n# voice 1012 \"adamasu_0005\"\n# eye %(unit_a)s \"normal\"\n# face %(unit_a)s \"normal\"\n@アダマス\nその調子であたしの機嫌を\n損ねないようになさいね♪\n\n# textflame 0 0\n@\nいつもの調子に見えて\nアダマスはどこか嬉しそうな\n笑顔を見せるのだった\n\n@\nその笑顔を見て\n彼女との絆が\nまた深まったのを実感した…\n\n# fadeout \"black\" 1.2\n# waitandnext 2"
	}
]