[
	{
		"ID": 9101122,
		"script": ";;2\n# script \"lisp\"\n# background %(wayback_background)s\n# bgmfile \"bgm255\" \"BgmSeaDate\" 0\n# body %(unit_a)s\n# pos %(unit_a)s 3\n# mask %(unit_a)s off\n# chara %(unit_a)s\n# fadein \"black\" 0.5\n# face %(unit_a)s \"usual\"\n# textflame 0 0\n@\n帰り道－\n\n# fadein \"white\" 0.5\n# se \"SE_0735\"\n# bgm \"stop\"\n# waitandnext 2\n@\n…………\n\n# fadein \"white\" 0.5\n# se \"SE_0735\"\n# waitandnext 2\n@\n…………\n\n@\nふと、\n傍らを歩く彼女が足を止めた…\n\n# voice 1011 \"excalibur_0042\"\n# face %(unit_a)s \"sad\"\n# textflame 1 1\n# bgmfile \"bgm255\" \"BgmSeaDate\" 0\n@エクスカリバー\nマスターは…\n私のことを頭の固い\n女だとお思いでしょうね…？\n\n# textflame 1 1\n@エクスカリバー\nですが、こうして\n誘っていただいた以上は…\n\n# voice 1011 \"excalibur_0036\"\n# textflame 1 1\n@エクスカリバー\nそうでないところもあると\nお伝えしたいのです…\nよいでしょうか？\n\n# textflame 1 1\n# face %(unit_a)s \"usual\"\n@エクスカリバー\n私の☆６のジョブ名を\nお答えください\n\n# se \"SE_0734\"\n# select \"剣王\" \"select_label_1\" \"剣神\" \"select_label_2\" \"剣騎士\" \"select_label_3\"\n私の☆６のジョブ名を\nお答えください\n\n# label \"select_label_1\"\n# labeljump \"select_label_end\"\n# textwindow \"close\"\n# waitandnext 0.1\n\n# label \"select_label_2\"\n# labeljump \"select_label_end\"\n# textwindow \"close\"\n# waitandnext 0.1\n\n# label \"select_label_3\"\n# labeljump \"select_label_end\"\n# textwindow \"close\"\n# waitandnext 0.1\n\n# label \"select_label_end\"\n# waitandnext 0.1\n\n# sestop \"SE_0734\"\n# fadeout \"black\" 1.2\n# waitandnext 2\n"
	}
]