[
	{
		"ID": 91028299,
		"script": "# script \"lisp\"\n# background %(wayback_background)s\n# bgmfile \"bgm255\" \"BgmSeaDate\" 0\n# body %(unit_a)s\n# pos %(unit_a)s 3\n# mask %(unit_a)s off\n# chara %(unit_a)s\n# fadein \"black\" 0.5\n# textflame 1 1\n# face %(unit_a)s \"usual\"\n# se \"SE_0732\"\n@ダーインスレイヴ\nおぬし…\n\n@ダーインスレイヴ\nその包容力…\n本物であったか\n\n# voice 1028 \"dainsleif_0021\"\n# face %(unit_a)s \"normal\"\n@ダーインスレイヴ\n見事…正解だ\n\n@ダーインスレイヴ\nいきなりの不躾な問いにも\n心乱すことなく\n正解を導き出すとは…\n\n# face %(unit_a)s \"usual\"\n@ダーインスレイヴ\nいや…恐れ入った\nそして同時に…\n\n# voice 1028 \"dainsleif_0005\"\n# face %(unit_a)s \"normal\"\n@ダーインスレイヴ\n嬉しく思うぞ\n\n# voice 1028 \"dainsleif_0036\"\n@ダーインスレイヴ\nこれからもわたしのこと…\nその心で包み込んでくれ\n\n# textflame 0 0\n@\nはにかみながら微笑んだ\n彼女の笑顔は\n凛として美しく…\n\n@\n二人の絆が\nまた深まったのを実感した…\n\n# fadeout \"black\" 1.2\n# waitandnext 2"
	}
]