[
	{
		"ID": 9102734,
		"script": ";;1:カドケウス\n# background %(wayback_background)s\n# bgmfile \"bgm255\" \"BgmSeaDate\" 0\n# body %(unit_a)s\n# pos %(unit_a)s 3\n# mask %(unit_a)s off\n# chara %(unit_a)s\n# fadein \"black\" 0.5\n# textflame 0 0\n@\n帰り道－\n\n# fadein \"white\" 0.5\n# se \"SE_0735\"\n# bgm \"stop\"\n# waitandnext 2\n@\n…………\n\n# fadein \"white\" 0.5\n# se \"SE_0735\"\n# waitandnext 2\n@\n…………\n\n@\nふと、\n傍らを歩く彼女が足を止めた…\n\n# bgmfile \"bgm255\" \"BgmSeaDate\" 0\n# face %(unit_a)s \"sad\"\n# voice 1027 \"solais_0002\"\n# textflame 1 1\n@クラウ・ソラス\nあなたと出会ってから\nただひたすらまっすぐに\n向き合ってきたつもりだ…\n\n# eye %(unit_a)s \"close\"\n# textflame 1 1\n@クラウ・ソラス\nぶつかることもあったけれど\n…それなりに通じ合えるように\nなったと思っているんだ\n\n# eye %(unit_a)s \"normal\"\n# voice 1027 \"solais_0028\"\n# textflame 1 1\n@クラウ・ソラス\nマスターは…\nそうは思わないかい…？\n\n# face %(unit_a)s \"smile\"\n# voice 1027 \"solais_0036\"\n# textflame 1 1\n@クラウ・ソラス\n私のことを聞いてもいいかい？\n\n# textflame 1 1\n# face %(unit_a)s \"normal\"\n@クラウ・ソラス\n私と同じ血液型の者はわかるか？\n\n# se \"SE_0734\"\n# select \"カドケウス\" \"select_label_1\" \"ミストルティン\" \"select_label_2\" \"ガンバンテイン\" \"select_label_3\"\n私と同じ血液型の者はわかるか？\n\n# label \"select_label_1\"\n# labeljump \"select_label_end\"\n# textwindow \"close\"\n# waitandnext 0.1\n\n# label \"select_label_2\"\n# labeljump \"select_label_end\"\n# textwindow \"close\"\n# waitandnext 0.1\n\n# label \"select_label_3\"\n# labeljump \"select_label_end\"\n# textwindow \"close\"\n# waitandnext 0.1\n\n# label \"select_label_end\"\n# waitandnext 0.1\n\n# sestop \"SE_0734\"\n# fadeout \"black\" 1.2\n# waitandnext 2\n"
	}
]