[
	{
		"ID": 91038198,
		"script": "# script \"lisp\"\n# background %(wayback_background)s\n# bgmfile \"bgm255\" \"BgmSeaDate\" 0\n# body %(unit_a)s\n# pos %(unit_a)s 3\n# mask %(unit_a)s off\n# chara %(unit_a)s\n# fadein \"black\" 0.5\n# se \"SE_0733\"\n# textflame 1 1\n# face %(unit_a)s \"usual\"\n;;-----------------------------------------\n@アルマス\n………\n\n# face %(unit_a)s \"angry\"\n@アルマス\n不正解\n\n# textflame 0 0\n@\n彼女の表情が怒りで満たされる\n\n# voice 210381 \"almace_0027\"\n# textflame 1 1\n@アルマス\nそれでも私のマスターなの？\n\n# face %(unit_a)s \"sad\"\n# voice 210381 \"almace_0028\"\n@アルマス\n最近、せっかく\n仲良くなれたかなって\n思ってたのに…\n\n@アルマス\nなんか…\n\n@アルマス\n絶ムカつく…\n\n# textflame 0 0\n@\n悲しげな顔で、\n足早に去っていく彼女\n\n# textflame 0 0\n@\nマスターは彼女との距離が\n開いてしまったことを\n悔やむしかなかった…\n\n;;-----------------------------------------\n# fadeout \"black\" 1.2\n# waitandnext 2\n"
	}
]