[
	{
		"ID": 91035299,
		"script": "# script \"lisp\"\n# background %(wayback_background)s\n# bgmfile \"bgm255\" \"BgmSeaDate\" 0\n# body %(unit_a)s\n# pos %(unit_a)s 3\n# mask %(unit_a)s off\n# chara %(unit_a)s\n# fadein \"black\" 0.5\n# textflame 1 1\n# face %(unit_a)s \"happy\"\n# se \"SE_0732\"\n# voice 1035 \"damocles_0041\"\n@ダモクレス\n大正解！\nマスターすごいっ！\n\n@ダモクレス\nえへへ…\nマスターがクレスのこと\n知ってくれてて嬉しい！\n\n# face %(unit_a)s \"usual\"\n@ダモクレス\nねぇねぇ！\nそれじゃあ今度は\nマスターのこと教えてよ！\n\n@ダモクレス\nクイズの出しっこしよう！\nほらほら、はやく～！\n\n# textflame 0 0\n@\n目を輝かせるダモクレスに\n問題を出していく\n\n# textflame 0 0\n@\n一問ごとに楽しそうに表情を変える\nダモクレスを見て\n次の問題も正解したいと思うのだった\n\n# fadeout \"black\" 1.2\n# waitandnext 2"
	}
]