[
	{
		"ID": 91034299,
		"script": ";;//正解\n# script \"lisp\"\n# background %(wayback_background)s\n# bgmfile \"bgm255\" \"BgmSeaDate\" 0\n# body %(unit_a)s\n# pos %(unit_a)s 3\n# mask %(unit_a)s off\n# chara %(unit_a)s\n# fadein \"black\" 0.5\n# textflame 1 1\n# face %(unit_a)s \"smile\"\n# se \"SE_0732\"\n@ダクネス\n正解だ…！\n\n# voice 1034 \"dakunesu_0004\"\n@ダクネス\nそうか、知ってくれていたか\n\n# face %(unit_a)s \"shy\"\n# voice 1034 \"dakunesu_0027\"\n@ダクネス\nきっと私の私生活をマスター権限で\n一時も漏らさずに\n追っていた成果に違いない…くうっ！\n\n# voice 1034 \"dakunesu_0021\"\n@ダクネス\nそういうのも、いいものだな…\n\n;;モノローグ\n# textflame 0 0\n@\nなにやら自分の妄想に入ってしまった\nダクネス\n\n# textflame 1 1\n@ダクネス\nはあはあ…\n\n# textflame 0 0\n@\nさまざまな表情を浮かべ\nこちらを見てくるダクネスを隣に\n不思議な気分の帰り道となった…\n\n# fadeout \"black\" 1.2\n# waitandnext 2"
	}
]