[
	{
		"ID": 91038199,
		"script": "# script \"lisp\"\n# background %(wayback_background)s\n# bgmfile \"bgm255\" \"BgmSeaDate\" 0\n# body %(unit_a)s\n# pos %(unit_a)s 3\n# mask %(unit_a)s off\n# chara %(unit_a)s\n# fadein \"black\" 0.5\n# se \"SE_0732\"\n# textflame 1 1\n# face %(unit_a)s \"usual\"\n;;-----------------------------------------\n@アルマス\n………\n\n# face %(unit_a)s \"smile\"\n# voice 210381 \"almace_0005\"\n@アルマス\nやるじゃない、正解よ\n\n# textflame 0 0\n@\n彼女が嬉しそうに笑った\n\n# face %(unit_a)s \"usual\"\n# textflame 1 1\n@アルマス\nでも、ま…\n私のマスターなら、\n答えられて当然よね\n\n@アルマス\n少しは私のこと、\n見てくれてるみたいだし…\n\n# voice 210381 \"almace_0002\"\n@アルマス\nこれからも守ってあげるわよ\nだって…\n\n# face %(unit_a)s \"shy\"\n# voice 210381 \"almace_0004\"\n@アルマス\n仲間だからね\n\n# textflame 0 0\n@\nいつもは一定の距離を保って、\n接してくる彼女\n\n# textflame 0 0\n@\nだが夏のせいだろうか…？\n今日はそれが一気に縮まったように\n感じるマスターだった…\n\n;;-----------------------------------------\n# fadeout \"black\" 1.2\n# waitandnext 2\n"
	}
]