[
	{
		"ID": 9200430,
		"script": "# script \"lisp\"\n# background %(wayback_background)s\n# bgmfile \"bgm255\" \"BgmSeaDate\" 0\n# body %(unit_a)s\n# pos %(unit_a)s 3\n# mask %(unit_a)s off\n# chara %(unit_a)s\n# fadein \"black\" 0.5\n# textflame 0 0\n@\n帰り道－\n\n# fadein \"white\" 0.5\n# se \"SE_0735\"\n# bgm \"stop\"\n# waitandnext 2\n@\n…………\n\n# fadein \"white\" 0.5\n# se \"SE_0735\"\n# waitandnext 2\n@\n…………\n\n@\nふと、\n傍らを歩く彼女が足を止めた…\n\n# bgmfile \"bgm255\" \"BgmSeaDate\" 0\n# textflame 1 1\n# face %(unit_a)s \"usual\"\n# voice 2004 \"parashu_0028\"\n@パラシュ\n…マスターって、\nボクのことをどれぐらい\n知っていてくれてるんだろう？\n\n# voice 2004 \"parashu_0004\"\n# face %(unit_a)s \"smile\"\n@パラシュ\n急な話なんだけど、\nちょっとクイズを出すから\n答えてくれないかな？\n\n# face %(unit_a)s \"usual\"\n@パラシュ\nボクのことを知っていてくれれば、\nそんなに難しい問題じゃ\nないと思うんだ\n\n# voice 2004 \"parashu_0036\"\n# face %(unit_a)s \"smile\"\n@パラシュ\nじゃあ、いくよ…？\n\n@%(unitName:unit_a)s\nボクが学園姿の時の\n☆５の固有スキルは？\n\n# se \"SE_0734\"\n# select  \"リフレックスロゼ\" \"select_label_1\" \"リフレクタービット\" \"select_label_2\" \"リフレッシュ温泉\" \"select_label_3\"\nボクが学園姿の時の\n☆５の固有スキルは？\n\n# label \"select_label_1\"\n# labeljump \"select_label_end\"\n# textwindow \"close\"\n# waitandnext 0.1\n\n# label \"select_label_2\"\n# labeljump \"select_label_end\"\n# textwindow \"close\"\n# waitandnext 0.1\n\n# label \"select_label_3\"\n# labeljump \"select_label_end\"\n# textwindow \"close\"\n# waitandnext 0.1\n\n# label \"select_label_end\"\n# waitandnext 0.1\n\n# sestop \"SE_0734\"\n# fadeout \"black\" 1.2\n# waitandnext 2"
	}
]