[
	{
		"ID": 92006398,
		"script": "# script \"lisp\"\n# background %(wayback_background)s\n# bgmfile \"bgm255\" \"BgmSeaDate\" 0\n# body %(unit_a)s\n# pos %(unit_a)s 3\n# mask %(unit_a)s off\n# chara %(unit_a)s\n# fadein \"black\" 0.5\n# textflame 1 1\n# se \"SE_0733\"\n# face %(unit_a)s \"sad\"\n@ダグダ\nあ～あ、ハズレちゃった～\n\n# voice 2006 \"daguda_kyara_1009\"\n# textflame 1 1\n@ダグダ\nんもぉ、\nマスターってばダメだなぁ\n\n# textflame 1 1\n@ダグダ\nいつも隣にいるのに、\nダグダのこと見てなかったの？\n\n# textflame 1 1\n@ダグダ\nまあ、でも…\n\n# textflame 1 1\n@ダグダ\n今回はハズレちゃったけど、\nそれだけでダグダのことを\nわかってないわけじゃないよね？\n\n# face %(unit_a)s \"smile\"\n# textflame 1 1\n@ダグダ\n次はきっと正解するもんね？\n頑張ってねー、マスター♪\n\n# textflame 0 0\n@\nそう言ってじっと見つめる\n彼女の目は、\n期待に輝いている\n\n# textflame 0 0\n@\n彼女の期待に\n応えなければいけないな…\n\n# textflame 0 0\n@\n次の機会は\n絶対間違えないように\nしないと…\n\n# fadeout \"black\" 1.2\n# waitandnext 2\n"
	}
]