[
	{
		"ID": 9200337,
		"script": "# script \"lisp\"\n# background %(wayback_background)s\n# bgmfile \"bgm255\" \"BgmSeaDate\" 0\n# body %(unit_a)s\n# pos %(unit_a)s 3\n# mask %(unit_a)s off\n# chara %(unit_a)s\n# fadein \"black\" 0.5\n# textflame 0 0\n@\n帰り道－\n\n# fadein \"white\" 0.5\n# se \"SE_0735\"\n# bgm \"stop\"\n# waitandnext 2\n@\n…………\n\n# fadein \"white\" 0.5\n# se \"SE_0735\"\n# waitandnext 2\n@\n…………\n\n@\nふと、\n傍らを歩く彼女が足を止めた…\n\n# bgmfile \"bgm255\" \"BgmSeaDate\" 0\n;;遺跡,1\n# voice 2003 \"loveryus_0001\"\n# face %(unit_a)s \"smile\"\n# textflame 1 1\n@ラブリュス\nねぇ、ねぇ♪\nマスター、ちょっといい？\n\n# face %(unit_a)s \"sad\"\n# textflame 1 1\n@ラブリュス\nいきなりだけど、\nわたしのこと理解してる？\n\n# textflame 0 0\n@\n真っ直ぐな瞳に見つめられ、\nとりあえず頷くマスター\n\n# face %(unit_a)s \"smile\"\n# textflame 1 1\n@ラブリュス\nそっか～\nじゃあ、ここでクイズタイム♪\n\n# textflame 1 1\n@ラブリュス\nマスターなら、\nきっと答えてくれると\nわたしは信じてるよ！\n;;---------------------------------\n\n@%(unitName:unit_a)s\nラブリュスちゃんのキラーズ\n『ラブリュス』の出身地の\nクレタ島にはなにが多い？\n\n# se \"SE_0734\"\n# select  \"遺跡\" \"select_label_1\" \"人\" \"select_label_2\" \"川\" \"select_label_3\"\nラブリュスちゃんのキラーズ\n『ラブリュス』の出身地の\nクレタ島にはなにが多い？\n\n# label \"select_label_1\"\n# labeljump \"select_label_end\"\n# textwindow \"close\"\n# waitandnext 0.1\n\n# label \"select_label_2\"\n# labeljump \"select_label_end\"\n# textwindow \"close\"\n# waitandnext 0.1\n\n# label \"select_label_3\"\n# labeljump \"select_label_end\"\n# textwindow \"close\"\n# waitandnext 0.1\n\n# label \"select_label_end\"\n# waitandnext 0.1\n\n# sestop \"SE_0734\"\n# fadeout \"black\" 1.2\n# waitandnext 2"
	}
]