[
	{
		"ID": 92007498,
		"script": "# script \"lisp\"\n# background %(wayback_background)s\n# bgmfile \"bgm255\" \"BgmSeaDate\" 0\n# body %(unit_a)s\n# pos %(unit_a)s 3\n# mask %(unit_a)s off\n# chara %(unit_a)s\n# fadein \"black\" 0.5\n# textflame 1 1\n# se \"SE_0733\"\n# face %(unit_a)s \"sad\"\n# voice 2007 \"sharuuru_0013\"\n@シャルウル\n…残念ですが\n不正解です\n\n@シャルウル\nマスターは\nまだまだ私に関する\n情報が足りないようですね\n\n# face %(unit_a)s \"angry\"\n@シャルウル\nですが、それならば\n私が情報提供をするまでです！\n\n# voice 2007 \"sharuuru_0001\"\n@シャルウル\nさぁ！マスター！\nなにが知りたいですか！\n\n# face %(unit_a)s \"normal\"\n@シャルウル\n今なら、なんでもお答えしますよ？\n\n# textflame 0 0\n@\nシャルウルは\n真剣な顔でこちらに\n詰め寄ってくる\n\n@\nその真剣さに\n次こそは応えたいと思ったマスター\n\n@\nそのためにも\n今は情報を集めて\n次こそは正解してみせるぞ！\n\n# fadeout \"black\" 1.2\n# waitandnext 2\n"
	}
]