[
	{
		"ID": 9200436,
		"script": "# script \"lisp\"\n# background %(wayback_background)s\n# bgmfile \"bgm255\" \"BgmSeaDate\" 0\n# body %(unit_a)s\n# pos %(unit_a)s 3\n# mask %(unit_a)s off\n# chara %(unit_a)s\n# fadein \"black\" 0.5\n# textflame 0 0\n@\n帰り道－\n\n# fadein \"white\" 0.5\n# se \"SE_0735\"\n# bgm \"stop\"\n# waitandnext 2\n@\n…………\n\n# fadein \"white\" 0.5\n# se \"SE_0735\"\n# waitandnext 2\n@\n…………\n\n@\nふと、\n傍らを歩く彼女が足を止めた…\n\n# bgmfile \"bgm255\" \"BgmSeaDate\" 0\n# textflame 1 1\n# face %(unit_a)s \"usual\"\n# voice 2004 \"parashu_0001\"\n@パラシュ\n…ねえマスター？\n\n@パラシュ\nボクのことを\nちゃんとわかってくれているか…\n確認しても、いいかな？\n\n# voice 2004 \"parashu_0004\"\n@パラシュ\nえ、問題ない？\n\n# face %(unit_a)s \"smile\"\n@パラシュ\nじゃあ、これから\nクイズ形式で聞いていくからね\n\n# voice 2004 \"parashu_0036\"\n@パラシュ\nじゃあ、いくよ…？\n\n@%(unitName:unit_a)s\nボクの髪の色って何色？\n\n# se \"SE_0734\"\n# select  \"銀髪\" \"select_label_1\" \"白髪\" \"select_label_2\" \"金髪\" \"select_label_3\"\nボクの髪の色って何色？\n\n# label \"select_label_1\"\n# labeljump \"select_label_end\"\n# textwindow \"close\"\n# waitandnext 0.1\n\n# label \"select_label_2\"\n# labeljump \"select_label_end\"\n# textwindow \"close\"\n# waitandnext 0.1\n\n# label \"select_label_3\"\n# labeljump \"select_label_end\"\n# textwindow \"close\"\n# waitandnext 0.1\n\n# label \"select_label_end\"\n# waitandnext 0.1\n\n# sestop \"SE_0734\"\n# fadeout \"black\" 1.2\n# waitandnext 2"
	}
]