[
	{
		"ID": 9200403,
		"script": "# script \"lisp\"\n# background %(wayback_background)s\n# bgmfile \"bgm255\" \"BgmSeaDate\" 0\n# body %(unit_a)s\n# pos %(unit_a)s 3\n# mask %(unit_a)s off\n# chara %(unit_a)s\n# fadein \"black\" 0.5\n# textflame 0 0\n@\n帰り道－\n\n# fadein \"white\" 0.5\n# se \"SE_0735\"\n# bgm \"stop\"\n# waitandnext 2\n@\n…………\n\n# fadein \"white\" 0.5\n# se \"SE_0735\"\n# waitandnext 2\n@\n…………\n\n@\nふと、\n傍らを歩く彼女が足を止めた…\n\n# bgmfile \"bgm255\" \"BgmSeaDate\" 0\n# textflame 1 1\n# face %(unit_a)s \"normal\"\n# voice 2004 \"parashu_0002\"\n@パラシュ\nねえ、マスター\nちょっと…いいかな？\n\n# voice 2004 \"parashu_0028\"\n# eye %(unit_a)s \"close\"\n@パラシュ\nふと疑問に思ったことがあるんだ\nマスターがボクのことを\nどれぐらい知ってるかな、って\n\n# voice 2004 \"parashu_0036\"\n# eye %(unit_a)s \"normal\"\n# face %(unit_a)s \"usual\"\n@パラシュ\nこれからボクの出す質問に\n答えてくれないかい？\n\n# voice 2004 \"parashu_0004\"\n# face %(unit_a)s \"smile\"\n@パラシュ\nそれで…\n正解してくれると嬉しいな…\nじゃあ、いくよ？\n\n@%(unitName:unit_a)s\nキラーズ『パラシュ』の持ち主である\nラーマは、とある神の化身だけど\n…ずばり、誰？\n\n# se \"SE_0734\"\n# select  \"シヴァ\" \"select_label_1\" \"ブラフマー\" \"select_label_2\" \"ヴィシュヌ\" \"select_label_3\"\nキラーズ『パラシュ』の持ち主である\nラーマは、とある神の化身だけど\n…ずばり、誰？\n\n# label \"select_label_1\"\n# labeljump \"select_label_end\"\n# textwindow \"close\"\n# waitandnext 0.1\n\n# label \"select_label_2\"\n# labeljump \"select_label_end\"\n# textwindow \"close\"\n# waitandnext 0.1\n\n# label \"select_label_3\"\n# labeljump \"select_label_end\"\n# textwindow \"close\"\n# waitandnext 0.1\n\n# label \"select_label_end\"\n# waitandnext 0.1\n\n# sestop \"SE_0734\"\n# fadeout \"black\" 1.2\n# waitandnext 2"
	}
]