[
	{
		"ID": 9201728,
		"script": "# script \"lisp\"\n# background %(wayback_background)s\n# bgmfile \"bgm255\" \"BgmSeaDate\" 0\n# body %(unit_a)s\n# pos %(unit_a)s 3\n# mask %(unit_a)s off\n# chara %(unit_a)s\n# fadein \"black\" 0.5\n# textflame 0 0\n@\n帰り道－\n\n# fadein \"white\" 0.5\n# se \"SE_0735\"\n# bgm \"stop\"\n# waitandnext 2\n@\n…………\n\n# fadein \"white\" 0.5\n# se \"SE_0735\"\n# waitandnext 2\n@\n…………\n\n@\nふと、\n傍らを歩く彼女が足を止めた…\n\n# bgmfile \"bgm255\" \"BgmSeaDate\" 0\n;;斧神の嵐閃,2\n# textflame 1 1\n# face %(unit_a)s \"smile\"\n# voice 2017 \"yagurushi_0002\"\n@ヤグルシ\nねえねえマスター\nちょっといーい？\n\n# textflame 0 0\n@\nどうしたの？\nヤグルシに尋ねるマスター\n\n# textflame 1 1\n@ヤグルシ\nマスターがどれだけ\nヤグの事を気にしているか、\nチェックしてあげる！\n\n# face %(unit_a)s \"angry\"\n# textflame 1 1\n@ヤグルシ\nてことで～！\nクイズタイム～！！\n\n# textflame 0 0\n@\nクイズ？\nいきなり言われても自信ないよ\n\n# voice 2017 \"yagurushi_0004\"\n# face %(unit_a)s \"smile\"\n# textflame 1 1\n@ヤグルシ\n大丈夫だよ～！\n\n# textflame 1 1\n@ヤグルシ\nヤグのことを好きなら\nすぐにわかる問題だから～！\n\n# textflame 0 0\n@\nなんだ、それなら大丈夫だな\nどんとこい！\n胸を叩くマスター\n\n# textflame 1 1\n@ヤグルシ\nすっごい自信！\n楽しみだよ～！\n\n# textflame 1 1\n@ヤグルシ\nじゃ、行くよ～？\nクイズスタート！\n;;---------------------------------\n\n@%(unitName:unit_a)s\nヤグがゆんゆんの衣装だった時の\nリーダースキルはわかるかなぁ？\n\n# se \"SE_0734\"\n# select  \"斧神の威厳\" \"select_label_1\" \"斧神の嵐閃\" \"select_label_2\" \"斧神の意地\" \"select_label_3\"\nヤグがゆんゆんの衣装だった時の\nリーダースキルはわかるかなぁ？\n\n# label \"select_label_1\"\n# labeljump \"select_label_end\"\n# textwindow \"close\"\n# waitandnext 0.1\n\n# label \"select_label_2\"\n# labeljump \"select_label_end\"\n# textwindow \"close\"\n# waitandnext 0.1\n\n# label \"select_label_3\"\n# labeljump \"select_label_end\"\n# textwindow \"close\"\n# waitandnext 0.1\n\n# label \"select_label_end\"\n# waitandnext 0.1\n\n# sestop \"SE_0734\"\n# fadeout \"black\" 1.2\n# waitandnext 2"
	}
]