[
	{
		"ID": 9202026,
		"script": "# script \"lisp\"\n# background %(wayback_background)s\n# bgmfile \"bgm255\" \"BgmSeaDate\" 0\n# body %(unit_a)s\n# pos %(unit_a)s 3\n# mask %(unit_a)s off\n# chara %(unit_a)s\n# fadein \"black\" 0.5\n# textflame 0 0\n@\n帰り道－\n\n# fadein \"white\" 0.5\n# se \"SE_0735\"\n# bgm \"stop\"\n# waitandnext 2\n@\n…………\n\n# fadein \"white\" 0.5\n# se \"SE_0735\"\n# waitandnext 2\n@\n…………\n\n@\nふと、\n傍らを歩く彼女が足を止めた…\n\n# bgmfile \"bgm255\" \"BgmSeaDate\" 0\n# textflame 1 1\n# face %(unit_a)s \"usual\"\n# voice 2020 \"harpe_0001\"\n@ハルパー\n失礼…マスター？\n\n# voice 2020 \"harpe_0004\"\n# face %(unit_a)s \"angry\"\n@ハルパー\n突然ですが…\nこれから\nクイズに答えていただきます\n\n@ハルパー\n拒否はしないですよね…？\n\n# face %(unit_a)s \"usual\"\n@ハルパー\n私は実に○○な性格なのです\nさぁ、お答えください\n\n# se \"SE_0734\"\n# select \"不思議\" \"select_label_wrong1\" \"慎重\" \"select_label_correct\" \"豪快\" \"select_label_wrong2\"\n私は実に○○な性格なのです\nさぁ、お答えください\n\n# label \"select_label_wrong1\"\n# labeljump \"select_label_end\"\n# textwindow \"close\"\n# waitandnext 0.1\n\n# label \"select_label_correct\"\n# labeljump \"select_label_end\"\n# textwindow \"close\"\n# waitandnext 0.1\n\n# label \"select_label_wrong2\"\n# labeljump \"select_label_end\"\n# textwindow \"close\"\n# waitandnext 0.1\n\n# label \"select_label_end\"\n# waitandnext 0.1\n\n# sestop \"SE_0734\"\n# fadeout \"black\" 1.2\n# waitandnext 2"
	}
]