[
	{
		"ID": 9300432,
		"script": "# script \"lisp\"\n# background %(wayback_background)s\n# bgmfile \"bgm255\" \"BgmSeaDate\" 0\n# body %(unit_a)s\n# pos %(unit_a)s 3\n# mask %(unit_a)s off\n# chara %(unit_a)s\n# fadein \"black\" 0.5\n# textflame 0 0\n@\n帰り道－\n\n# fadein \"white\" 0.5\n# se \"SE_0735\"\n# bgm \"stop\"\n# waitandnext 2\n@\n…………\n\n# fadein \"white\" 0.5\n# se \"SE_0735\"\n# waitandnext 2\n@\n…………\n\n@\nふと、\n傍らを歩く彼女が足を止めた…\n\n# bgmfile \"bgm255\" \"BgmSeaDate\" 0\n# textflame 1 1\n# face %(unit_a)s \"sad\"\n# voice 3004 \"amenonuboko_0001\"\n@天沼矛\nあの～、マスター…\n\n@天沼矛\nわたしのこと…\nちゃんと知っててくれてるか\n聞いてみても…いいですか～？\n\n# face %(unit_a)s \"smile\"\n@天沼矛\nえっと、たぶん\nマスターなら簡単に\n答えてくれると思うんですけど～\n\n# face %(unit_a)s \"normal\"\n# voice 3004 \"amenonuboko_0036\"\n@天沼矛\nいきますよ～？\n\n@天沼矛\n少し前までやっていたのですが、\n最近はやらなくなった“あれ”、\n覚えてますかぁ？\n\n# se \"SE_0734\"\n# select \"絵を描くこと\" \"select_label_1\" \"習字をすること\" \"select_label_2\" \"腹筋をすること\" \"select_label_3\"\n少し前までやっていたのですが、\n最近はやらなくなった“あれ”、\n覚えてますかぁ？\n\n# label \"select_label_1\"\n# labeljump \"select_label_end\"\n# textwindow \"close\"\n# waitandnext 0.1\n\n# label \"select_label_2\"\n# labeljump \"select_label_end\"\n# textwindow \"close\"\n# waitandnext 0.1\n\n# label \"select_label_3\"\n# labeljump \"select_label_end\"\n# textwindow \"close\"\n# waitandnext 0.1\n\n# label \"select_label_end\"\n# waitandnext 0.1\n\n# sestop \"SE_0734\"\n# fadeout \"black\" 1.2\n# waitandnext 2"
	}
]