[
	{
		"ID": 9300322,
		"script": "# script \"lisp\"\n# background %(wayback_background)s\n# bgmfile \"bgm255\" \"BgmSeaDate\" 0\n# body %(unit_a)s\n# pos %(unit_a)s 3\n# mask %(unit_a)s off\n# chara %(unit_a)s\n# fadein \"black\" 0.5\n# textflame 0 0\n@\n帰り道－\n\n# fadein \"white\" 0.5\n# se \"SE_0735\"\n# bgm \"stop\"\n# waitandnext 2\n@\n…………\n\n# fadein \"white\" 0.5\n# se \"SE_0735\"\n# waitandnext 2\n@\n…………\n\n@\nふと、\n傍らを歩く彼女が足を止めた…\n\n# eye %(unit_a)s \"close\"\n# bgmfile \"bgm255\" \"BgmSeaDate\" 0\n# textflame 1 1\n# voice 3003 \"hotengageki_0001\"\n@方天画戟\n…なにかと噂されちまうオレだが\n扱いづらいと思うか？\n\n# eye %(unit_a)s \"normal\"\n# face %(unit_a)s \"normal\"\n@方天画戟\nオレとしては\nなにもかも主君にさらして\nついていこうと思ってる…\n\n# voice 3003 \"hotengageki_0004\"\n# face %(unit_a)s \"smile\"\n@方天画戟\n今まで交わしてきた話…\n覚えててくれてるだろう？\n\n# face %(unit_a)s \"normal\"\n@方天画戟\nオレの☆５のリーダースキルを\n言ってみな！\n\n# se \"SE_0734\"\n# select \"飛翔の極意\" \"select_label_1\" \"槍騎帝の極意\" \"select_label_2\" \"戟騎帝の極意\" \"select_label_3\"\nオレの☆５のリーダースキルを\n言ってみな！\n\n# label \"select_label_1\"\n# labeljump \"select_label_end\"\n# textwindow \"close\"\n# waitandnext 0.1\n\n# label \"select_label_2\"\n# labeljump \"select_label_end\"\n# textwindow \"close\"\n# waitandnext 0.1\n\n# label \"select_label_3\"\n# labeljump \"select_label_end\"\n# textwindow \"close\"\n# waitandnext 0.1\n\n# label \"select_label_end\"\n# waitandnext 0.1\n\n# sestop \"SE_0734\"\n# fadeout \"black\" 1.2\n# waitandnext 2"
	}
]