[
	{
		"ID": 9300308,
		"script": "# script \"lisp\"\n# background %(wayback_background)s\n# bgmfile \"bgm255\" \"BgmSeaDate\" 0\n# body %(unit_a)s\n# pos %(unit_a)s 3\n# mask %(unit_a)s off\n# chara %(unit_a)s\n# fadein \"black\" 0.5\n# textflame 0 0\n@\n帰り道－\n\n# fadein \"white\" 0.5\n# se \"SE_0735\"\n# bgm \"stop\"\n# waitandnext 2\n@\n…………\n\n# fadein \"white\" 0.5\n# se \"SE_0735\"\n# waitandnext 2\n@\n…………\n\n@\nふと、\n傍らを歩く彼女が足を止めた…\n\n# bgmfile \"bgm255\" \"BgmSeaDate\" 0\n# textflame 1 1\n# voice 3003 \"hotengageki_0001\"\n@方天画戟\nなぁ主君…\n腹ぁ割って話そうぜ\n\n# eye %(unit_a)s \"close\"\n@方天画戟\n盃を交わした仲なんだ…\nお互いのことを知ってなきゃ\nおかしいってもんだろ？\n\n# eye %(unit_a)s \"normal\"\n@方天画戟\nオレのことは…\n全部知っておいてもらわんとな\n\n# voice 3003 \"hotengageki_0036\"\n# face %(unit_a)s \"smile\"\n@方天画戟\nちょっくら\n聞かせてもらっていいか？\n\n# face %(unit_a)s \"normal\"\n@方天画戟\nオレのキラーズの『方天画戟』が\n登場する三国志演義の\n作者はわかるよな？\n\n# se \"SE_0734\"\n# select \"魯迅\" \"select_label_1\" \"羅漢中\" \"select_label_2\" \"司馬遷\" \"select_label_3\"\nオレのキラーズの『方天画戟』が\n登場する三国志演義の\n作者はわかるよな？\n\n# label \"select_label_1\"\n# labeljump \"select_label_end\"\n# textwindow \"close\"\n# waitandnext 0.1\n\n# label \"select_label_2\"\n# labeljump \"select_label_end\"\n# textwindow \"close\"\n# waitandnext 0.1\n\n# label \"select_label_3\"\n# labeljump \"select_label_end\"\n# textwindow \"close\"\n# waitandnext 0.1\n\n# label \"select_label_end\"\n# waitandnext 0.1\n\n# sestop \"SE_0734\"\n# fadeout \"black\" 1.2\n# waitandnext 2"
	}
]