[
	{
		"ID": 93008399,
		"script": "# script \"lisp\"\n# background %(wayback_background)s\n# bgmfile \"bgm255\" \"BgmSeaDate\" 0\n# body %(unit_a)s\n# pos %(unit_a)s 3\n# mask %(unit_a)s off\n# chara %(unit_a)s\n# fadein \"black\" 0.5\n# textflame 1 1\n# face %(unit_a)s \"smile\"\n# se \"SE_0732\"\n# voice 3008 \"gunguniru_0020\"\n@グングニル\n正解だ！\nやるじゃないか\n\n@グングニル\n急なクイズにも\nしっかりと正解を導き出すそなたは\nやはり我のマスターとして相応しい\n\n@グングニル\nふふ、これはいいな…\n我ながらよい質問であった♪\n\n# textflame 0 0\n@\n自分が正解したかのような\n勢いで喜ぶ彼女を見て…\n\n@\nマスターは彼女との絆が\nまた深まったのを実感した…\n\n# fadeout \"black\" 1.2\n# waitandnext 2"
	}
]