[
	{
		"ID": 9301838,
		"script": "# script \"lisp\"\n# background %(wayback_background)s\n# bgmfile \"bgm255\" \"BgmSeaDate\" 0\n# body %(unit_a)s\n# pos %(unit_a)s 3\n# mask %(unit_a)s off\n# chara %(unit_a)s\n# fadein \"black\" 0.5\n# textflame 0 0\n@\n帰り道－\n\n# fadein \"white\" 0.5\n# se \"SE_0735\"\n# bgm \"stop\"\n# waitandnext 2\n@\n…………\n\n# fadein \"white\" 0.5\n# se \"SE_0735\"\n# waitandnext 2\n@\n…………\n\n@\nふと、\n傍らを歩く彼女が足を止めた…\n\n# bgmfile \"bgm255\" \"BgmSeaDate\" 0\n;;魔術書,2\n# textflame 1 1\n# face %(unit_a)s \"usual\"\n# voice 3018 \"forcas_0002\"\n@フォルカス\nあの…\n今から変なことを言いますけど、\n驚かないでくださいね…？\n\n# textflame 0 0\n@\n大丈夫だと、\nマスターはフォルカスに\n微笑んでみせる\n\n# voice 3018 \"forcas_0004\"\n# face %(unit_a)s \"smile\"\n# textflame 1 1\n@フォルカス\nそう言っていただけると、\n嬉しいです…\n\n# textflame 1 1\n@フォルカス\nその…\n質問、してもいいですか？\n\n# textflame 1 1\n@フォルカス\nふと、\n知りたくなったんです\n\n# textflame 1 1\n@フォルカス\nマスターが私のことを、\nどのくらい知っているのか…\n\n# voice 3018 \"forcas_0036\"\n# textflame 1 1\n@フォルカス\nそれでは、\nいきますからね…？\n;;---------------------------------\n\n@%(unitName:unit_a)s\nグリモワールとは、よくお話をする\n仲なのですが、彼女のキラーズは、\nどのようなものだったでしょうか…？\n\n# se \"SE_0734\"\n# select  \"人形\" \"select_label_1\" \"魔術書\" \"select_label_2\" \"剣\" \"select_label_3\"\nグリモワールとは、よくお話をする\n仲なのですが、彼女のキラーズは、\nどのようなものだったでしょうか…？\n\n# label \"select_label_1\"\n# labeljump \"select_label_end\"\n# textwindow \"close\"\n# waitandnext 0.1\n\n# label \"select_label_2\"\n# labeljump \"select_label_end\"\n# textwindow \"close\"\n# waitandnext 0.1\n\n# label \"select_label_3\"\n# labeljump \"select_label_end\"\n# textwindow \"close\"\n# waitandnext 0.1\n\n# label \"select_label_end\"\n# waitandnext 0.1\n\n# sestop \"SE_0734\"\n# fadeout \"black\" 1.2\n# waitandnext 2"
	}
]