[
	{
		"ID": 93017499,
		"script": "# script \"lisp\"\n# background %(wayback_background)s\n# bgmfile \"bgm255\" \"BgmSeaDate\" 0\n# body %(unit_a)s\n# pos %(unit_a)s 3\n# mask %(unit_a)s off\n# chara %(unit_a)s\n# fadein \"black\" 0.5\n# textflame 1 1\n# face %(unit_a)s \"smile\"\n# se \"SE_0732\"\n# voice 3017 \"wotan_0021\"\n@ヴォータン\nなんと…！\n大正解だ、マスター\n\n@ヴォータン\nまさか正解してくれるとは、\n本当に驚きだ…\n\n# voice 3017 \"wotan_0020\"\n@ヴォータン\nふふふふ…っ！\n正解されると嬉しいものだな\n\n@ヴォータン\n最後の最後に、\nクイズを出して良かった…\n\n# voice 3017 \"wotan_0030\"\n# face %(unit_a)s \"normal\"\n@ヴォータン\nお前には、一応…\nれ、礼を言っておくぞ\n\n# textflame 0 0\n@\n彼女から礼を言われたことで、\nマスターも嬉しくなる…\n\n@\nこうして彼女との絆が\nまた深まったような気がした…\n\n# fadeout \"black\" 1.2\n# waitandnext 2\n"
	}
]