[
	{
		"ID": 9302134,
		"script": "# script \"lisp\"\n# background %(wayback_background)s\n# bgmfile \"bgm255\" \"BgmSeaDate\" 0\n# body %(unit_a)s\n# pos %(unit_a)s 3\n# mask %(unit_a)s off\n# chara %(unit_a)s\n# fadein \"black\" 0.5\n# textflame 0 0\n@\n帰り道－\n\n# fadein \"white\" 0.5\n# se \"SE_0735\"\n# bgm \"stop\"\n# waitandnext 2\n@\n…………\n\n# fadein \"white\" 0.5\n# se \"SE_0735\"\n# waitandnext 2\n@\n…………\n\n@\nふと、\n傍らを歩く彼女が足を止めた…\n\n# bgmfile \"bgm255\" \"BgmSeaDate\" 0\n;;デュランダル,1\n# textflame 1 1\n# voice 3021 \"gaebuide_0008\"\n@ガ・ボー\nボーの魂は…\n\n# face %(unit_a)s \"sad\"\n@ガ・ボー\nいつも半分欠けている…\nそんな気がしてしまうのです\n\n# face %(unit_a)s \"normal\"\n@ガ・ボー\nでも…\n\n@ガ・ボー\nあなたがボーことを\n分かっていて下さるのなら…\n\n# voice 3021 \"gaebuide_0022\"\n@ガ・ボー\nこの魂は…\n完全なものになる気がする\n\n# voice 3021 \"gaebuide_0001\"\n# face %(unit_a)s \"sad\"\n@ガ・ボー\nマスター…\n答えて下さいますか？\n;;---------------------------------\n\n@%(unitName:unit_a)s\nボーと血液型が同じ方は\n次のうちどなたでしょうか…？\n\n# se \"SE_0734\"\n# select  \"デュランダル\" \"select_label_1\" \"ペルーン\" \"select_label_2\" \"ピナーカ\" \"select_label_3\"\nボーと血液型が同じ方は\n次のうちどなたでしょうか…？\n\n# label \"select_label_1\"\n# labeljump \"select_label_end\"\n# textwindow \"close\"\n# waitandnext 0.1\n\n# label \"select_label_2\"\n# labeljump \"select_label_end\"\n# textwindow \"close\"\n# waitandnext 0.1\n\n# label \"select_label_3\"\n# labeljump \"select_label_end\"\n# textwindow \"close\"\n# waitandnext 0.1\n\n# label \"select_label_end\"\n# waitandnext 0.1\n\n# sestop \"SE_0734\"\n# fadeout \"black\" 1.2\n# waitandnext 2"
	}
]