[
	{
		"ID": 9302106,
		"script": "# script \"lisp\"\n# background %(wayback_background)s\n# bgmfile \"bgm255\" \"BgmSeaDate\" 0\n# body %(unit_a)s\n# pos %(unit_a)s 3\n# mask %(unit_a)s off\n# chara %(unit_a)s\n# fadein \"black\" 0.5\n# textflame 0 0\n@\n帰り道－\n\n# fadein \"white\" 0.5\n# se \"SE_0735\"\n# bgm \"stop\"\n# waitandnext 2\n@\n…………\n\n# fadein \"white\" 0.5\n# se \"SE_0735\"\n# waitandnext 2\n@\n…………\n\n@\nふと、\n傍らを歩く彼女が足を止めた…\n\n# bgmfile \"bgm255\" \"BgmSeaDate\" 0\n;;猪,3\n# textflame 1 1\n# voice 3021 \"gaebuide_0001\"\n@ガ・ボー\nあの…マスター\n\n# face %(unit_a)s \"sad\"\n# voice 3021 \"gaebuide_0010\"\n@ガ・ボー\nどうしてボーを\n誘って下さったのですか…？\n\n# face %(unit_a)s \"normal\"\n# voice 3021 \"gaebuide_0009\"\n@ガ・ボー\nグズでノロマで使えない私と居ても\n楽しくないのでは…？\n\n# face %(unit_a)s \"sad\"\n@ガ・ボー\n…え？\nもっと自信を持っていい…？\nそこまで仰って下さるなら\n\n# face %(unit_a)s \"smile\"\n# voice 3021 \"gaebuide_0004\"\n@ガ・ボー\nボーのことをどれだけ\n知って下さっているのか…\n聞いてもいいですか…？\n;;---------------------------------\n\n@%(unitName:unit_a)s\nボーのキラーズの持ち主の\nディルムッドはなにを狩るのを\n禁止されていましたでしょうか？\n\n# se \"SE_0734\"\n# select  \"熊\" \"select_label_1\" \"鹿\" \"select_label_2\" \"猪\" \"select_label_3\"\nボーのキラーズの持ち主の\nディルムッドはなにを狩るのを\n禁止されていましたでしょうか？\n\n# label \"select_label_1\"\n# labeljump \"select_label_end\"\n# textwindow \"close\"\n# waitandnext 0.1\n\n# label \"select_label_2\"\n# labeljump \"select_label_end\"\n# textwindow \"close\"\n# waitandnext 0.1\n\n# label \"select_label_3\"\n# labeljump \"select_label_end\"\n# textwindow \"close\"\n# waitandnext 0.1\n\n# label \"select_label_end\"\n# waitandnext 0.1\n\n# sestop \"SE_0734\"\n# fadeout \"black\" 1.2\n# waitandnext 2"
	}
]