[
	{
		"ID": 9302439,
		"script": "# script \"lisp\"\n# background %(wayback_background)s\n# bgmfile \"bgm255\" \"BgmSeaDate\" 0\n# body %(unit_a)s\n# pos %(unit_a)s 3\n# mask %(unit_a)s off\n# chara %(unit_a)s\n# fadein \"black\" 0.5\n# textflame 0 0\n@\n帰り道－\n\n# fadein \"white\" 0.5\n# se \"SE_0735\"\n# bgm \"stop\"\n# waitandnext 2\n@\n…………\n\n# fadein \"white\" 0.5\n# se \"SE_0735\"\n# waitandnext 2\n@\n…………\n\n@\nふと、\n傍らを歩く彼女が足を止めた…\n\n# bgmfile \"bgm255\" \"BgmSeaDate\" 0\n# textflame 1 1\n# face %(unit_a)s \"sad\"\n# voice 3024 \"tonbokiri_0001\"\n@蜻蛉切\nねぇ、殿？\n\n@蜻蛉切\n私のこと…\nちゃんと知っててくれているか\n試してみてもいい？\n\n# face %(unit_a)s \"angry\"\n# voice 3024 \"tonbokiri_0007\"\n@蜻蛉切\nえっと、なんていうか…\nと、とにかく、答えるの！！\n\n# face %(unit_a)s \"normal\"\n@蜻蛉切\nじゃあ…いくよ？\n\n@蜻蛉切\nあの子と仲良しなんだけど、\n殿はわかる？\n\n# se \"SE_0734\"\n# select \"与一\" \"select_label_1\" \"天沼矛\" \"select_label_2\" \"草薙剣\" \"select_label_3\"\nあの子と仲良しなんだけど、\n殿はわかる？\n\n# label \"select_label_1\"\n# labeljump \"select_label_end\"\n# textwindow \"close\"\n# waitandnext 0.1\n\n# label \"select_label_2\"\n# labeljump \"select_label_end\"\n# textwindow \"close\"\n# waitandnext 0.1\n\n# label \"select_label_3\"\n# labeljump \"select_label_end\"\n# textwindow \"close\"\n# waitandnext 0.1\n\n# label \"select_label_end\"\n# waitandnext 0.1\n\n# sestop \"SE_0734\"\n# fadeout \"black\" 1.2\n# waitandnext 2"
	}
]