[
	{
		"ID": 9400112,
		"script": "# script \"lisp\"\n# background %(wayback_background)s\n# bgmfile \"bgm255\" \"BgmSeaDate\" 0\n# body %(unit_a)s\n# pos %(unit_a)s 3\n# mask %(unit_a)s off\n# chara %(unit_a)s\n# fadein \"black\" 0.5\n# textflame 0 0\n@\n帰り道－\n\n# fadein \"white\" 0.5\n# se \"SE_0735\"\n# bgm \"stop\"\n# waitandnext 2\n@\n…………\n\n# fadein \"white\" 0.5\n# se \"SE_0735\"\n# waitandnext 2\n@\n…………\n\n@\nふと、\n傍らを歩く彼女が足を止めた…\n\n# face %(unit_a)s \"sad\"\n# bgmfile \"bgm255\" \"BgmSeaDate\" 0\n# textflame 1 1\n# voice 4001 \"arutemisu_0001\"\n@アルテミス\nもう少しだけ…\nお話させていただいてよいですか？\n\n# face %(unit_a)s \"normal\"\n@アルテミス\nおこがましいですが…\n私のことを、知っていただきたくて…\n\n# voice 4001 \"arutemisu_0005\"\n# face %(unit_a)s \"smile\"\n@アルテミス\nらしくないですが…\nクイズなんて、いかがでしょう？\n\n# face %(unit_a)s \"normal\"\n@アルテミス\n私の身長ですが、\n知っていただけてたら嬉しいです\n\n# se \"SE_0734\"\n# select \"170cm\" \"select_label_1\" \"168cm\" \"select_label_2\" \"172cm\" \"select_label_3\"\n私の身長ですが、\n知っていただけてたら嬉しいです\n\n# label \"select_label_1\"\n# labeljump \"select_label_end\"\n# textwindow \"close\"\n# waitandnext 0.1\n\n# label \"select_label_2\"\n# labeljump \"select_label_end\"\n# textwindow \"close\"\n# waitandnext 0.1\n\n# label \"select_label_3\"\n# labeljump \"select_label_end\"\n# textwindow \"close\"\n# waitandnext 0.1\n\n# label \"select_label_end\"\n# waitandnext 0.1\n\n# sestop \"SE_0734\"\n# fadeout \"black\" 1.2\n# waitandnext 2"
	}
]