[
	{
		"ID": 9400504,
		"script": "# script \"lisp\"\n# background %(wayback_background)s\n# bgmfile \"bgm255\" \"BgmSeaDate\" 0\n# body %(unit_a)s\n# pos %(unit_a)s 3\n# mask %(unit_a)s off\n# chara %(unit_a)s\n# fadein \"black\" 0.5\n# textflame 0 0\n# face %(unit_a)s \"usual\"\n@\n帰り道－\n\n# fadein \"white\" 0.5\n# se \"SE_0735\"\n# bgm \"stop\"\n# waitandnext 2\n@\n…………\n\n# fadein \"white\" 0.5\n# se \"SE_0735\"\n# waitandnext 2\n@\n…………\n\n@\nふと、\n傍らを歩く彼女が足を止めた…\n\n# bgmfile \"bgm255\" \"BgmSeaDate\" 0\n# voice 4005 \"yoichi_0002\"\n# textflame 1 1\n@与一\nあの…マスター\nちょっといいですか？\n\n# face %(unit_a)s \"normal\"\n@与一\nあの…えっとですね\n試すみたいになっちゃうんですが…\n\n# face %(unit_a)s \"usual\"\n@与一\n与一のこと…\nどれだけ知ってるか\n聞いてみても…いいですか…？\n\n# voice 4005 \"yoichi_0036\"\n# face %(unit_a)s \"angry\"\n@与一\nきっとマスターなら…\n簡単だと思います…！\n\n# face %(unit_a)s \"usual\"\n@与一\n与一のキラーズ『与一の弓』の\n持ち主は源氏の◯与一と\n言われていましたがご存知ですか？\n\n# se \"SE_0734\"\n# select \"3\" \"select_label_correct\" \"4\" \"select_label_wrong1\" \"5\" \"select_label_wrong2\"\n与一のキラーズ『与一の弓』の\n持ち主は源氏の◯与一と\n言われていましたがご存知ですか？\n\n# label \"select_label_correct\"\n# labeljump \"select_label_end\"\n# textwindow \"close\"\n# waitandnext 0.1\n\n# label \"select_label_wrong1\"\n# labeljump \"select_label_end\"\n# textwindow \"close\"\n# waitandnext 0.1\n\n# label \"select_label_wrong2\"\n# labeljump \"select_label_end\"\n# textwindow \"close\"\n# waitandnext 0.1\n\n# label \"select_label_end\"\n# waitandnext 0.1\n\n# sestop \"SE_0734\"\n# fadeout \"black\" 1.2\n# waitandnext 2"
	}
]