[
	{
		"ID": 94004399,
		"script": "# script \"lisp\"\n# background %(wayback_background)s\n# bgmfile \"bgm255\" \"BgmSeaDate\" 0\n# body %(unit_a)s\n# pos %(unit_a)s 3\n# mask %(unit_a)s off\n# chara %(unit_a)s\n# fadein \"black\" 0.5\n# textflame 1 1\n# face %(unit_a)s \"smile\"\n# se \"SE_0732\"\n# voice 4004 \"erosu_0004\"\n@エロース\nうふふ♪\n\n# voice 4004 \"erosu_0021\"\n@エロース\n難しい問題を出したのに、\n正解しちゃうなんてぇ…\nマスターすごいですぅ！\n\n# eye %(unit_a)s \"close\"\n@エロース\nマスターが正解できたのはぁ、\n罰ゲームを受けるのが\n嫌だったからでしょうかぁ～？\n\n# eye %(unit_a)s \"normal\"\n# face %(unit_a)s \"normal\"\n@エロース\nそれともぉ…\n\n# face %(unit_a)s \"smile\"\n# voice 4004 \"erosu_0004\"\n@エロース\nマスターはエロースのことなら\nなんでも知ってるんでしょうか？\n\n@エロース\nもしそうならぁ…えへへ♪\nエロースは、嬉しいです～！！\n\n# textflame 0 0\n@\nエロースの言葉に、マスターは\nもちろんだとうなづいた\n\n# textflame 1 1\n# voice 4004 \"erosu_0005\"\n@エロース\n本当ですかぁ？\nもう、マスターってばぁ♪\n\n# textflame 0 0\n@\nエロースの喜びようを見て、\n互いの絆が強化されたと感じた\nマスターであった\n\n# fadeout \"black\" 1.2\n# waitandnext 2"
	}
]