[
	{
		"ID": 94001399,
		"script": "# script \"lisp\"\n# background %(wayback_background)s\n# bgmfile \"bgm255\" \"BgmSeaDate\" 0\n# body %(unit_a)s\n# pos %(unit_a)s 3\n# mask %(unit_a)s off\n# chara %(unit_a)s\n# fadein \"black\" 0.5\n# textflame 1 1\n# face %(unit_a)s \"smile\"\n# se \"SE_0732\"\n# voice 4001 \"arutemisu_0005\"\n@アルテミス\n私は一体…\nなにを心配していたのでしょうね\n\n# voice 4001 \"arutemisu_0031\"\n# face %(unit_a)s \"sad\"\n@アルテミス\nマスターは人を\n色眼鏡で見るような方では\nありませんものね！\n\n# eye %(unit_a)s \"close\"\n@アルテミス\nいつも…見ていてくれて\nありがとうございます…\n\n# textflame 0 0\n# eye %(unit_a)s \"normal\"\n@\n満面の笑顔を\n浮かべる彼女を見て…\n\n# textflame 0 0\n@\nマスターは彼女との絆が\nまた深まったのを実感した…\n\n# fadeout \"black\" 1.2\n# waitandnext 2"
	}
]