[
	{
		"ID": 9400716,
		"script": "# script \"lisp\"\n# background %(wayback_background)s\n# bgmfile \"bgm255\" \"BgmSeaDate\" 0\n# body %(unit_a)s\n# pos %(unit_a)s 3\n# mask %(unit_a)s off\n# chara %(unit_a)s\n# fadein \"black\" 0.5\n# textflame 0 0\n@\n帰り道－\n\n# fadein \"white\" 0.5\n# se \"SE_0735\"\n# bgm \"stop\"\n# waitandnext 2\n@\n…………\n\n# fadein \"white\" 0.5\n# se \"SE_0735\"\n# waitandnext 2\n@\n…………\n\n@\nふと、\n傍らを歩く彼女が足を止めた…\n\n# bgmfile \"bgm255\" \"BgmSeaDate\" 0\n;;水着バージョン,3\n# textflame 1 1\n# eye %(unit_a)s \"close\"\n# voice 4007 \"shekina_0001\"\n@シェキナー\nマスター、\n私達の強さとは…\n統率力の強さだと思うのです\n\n# eye %(unit_a)s \"normal\"\n@シェキナー\nさらなる統率力を手にするため…\n私に関する問題を出したいと思います\n\n# face %(unit_a)s \"sad\"\n@シェキナー\n正解して…\nもっと絆を\n深め合いましょう！\n\n# voice 4007 \"shekina_0006\"\n# face %(unit_a)s \"smile\"\n@シェキナー\nいきますよ！？\n;;---------------------------------\n\n@%(unitName:unit_a)s\n私、シェキナーには…\nこんなバージョンもあるんです…\n\n# se \"SE_0734\"\n# select  \"晴れ着バージョン\" \"select_label_1\" \"下着バージョン\" \"select_label_2\" \"水着バージョン\" \"select_label_3\"\n私、シェキナーには…\nこんなバージョンもあるんです…\n\n# label \"select_label_1\"\n# labeljump \"select_label_end\"\n# textwindow \"close\"\n# waitandnext 0.1\n\n# label \"select_label_2\"\n# labeljump \"select_label_end\"\n# textwindow \"close\"\n# waitandnext 0.1\n\n# label \"select_label_3\"\n# labeljump \"select_label_end\"\n# textwindow \"close\"\n# waitandnext 0.1\n\n# label \"select_label_end\"\n# waitandnext 0.1\n\n# sestop \"SE_0734\"\n# fadeout \"black\" 1.2\n# waitandnext 2"
	}
]