[
	{
		"ID": 94010499,
		"script": "# script \"lisp\"\n# background %(wayback_background)s\n# bgmfile \"bgm255\" \"BgmSeaDate\" 0\n# body %(unit_a)s\n# pos %(unit_a)s 3\n# mask %(unit_a)s off\n# chara %(unit_a)s\n# fadein \"black\" 0.5\n# textflame 1 1\n# face %(unit_a)s \"smile\"\n# se \"SE_0732\"\n# voice 4010 \"Abaris_0030\"\n@アバリス\n…うれしいです！\nありがとうございます！\n\n# face %(unit_a)s \"normal\"\n@アバリス\nちゃんと見てくれてるんだって\n安心しました…！\n\n# face %(unit_a)s \"smile\"\n# voice 4010 \"Abaris_0036\"\n@アバリス\n私、もっと頑張ります！\n\n@アバリス\nもっともっと…\nマスターに知ってほしいので！\n\n# textflame 0 0\n@\n彼女はマスターを見つめて\n柔らかい笑顔を見せてくれた\n\n@\n特別な笑顔が見れて\n彼女との絆が\nさらに深まったのを実感した…\n\n# fadeout \"black\" 1.2\n# waitandnext 2"
	}
]