[
	{
		"ID": 94019499,
		"script": "# script \"lisp\"\n# background %(wayback_background)s\n# bgmfile \"bgm255\" \"BgmSeaDate\" 0\n# body %(unit_a)s\n# pos %(unit_a)s 3\n# mask %(unit_a)s off\n# chara %(unit_a)s\n# fadein \"black\" 0.5\n# textflame 1 1\n# face %(unit_a)s \"normal\"\n# se \"SE_0732\"\n@フェイルノート\n………\n\n# face 2401911 \"smile\"\n# voice 240191 \"failnaught_a_0004\"\n@フェイルノート\n正解よ\n\n@フェイルノート\nお前様の輝き…\n嘘ではなかったようね\n\n@フェイルノート\n約束を果たしてあげる\n\n# textflame 0 0\n@\nそう言うと、\n嬉しそうに歩き出す彼女\n\n# voice 240191 \"failnaught_a_0002\"\n# textflame 1 1\n@フェイルノート\n行くわよ\n夏が輝くのは…\nまだまだこれからなんだから\n\n# textflame 0 0\n@\n振り返り、微笑むフェイルノート\n彼女の笑顔が夏を輝かせている…\n\n# textflame 0 0\n@\nそう思い、\n胸が熱くなる\nマスターだった\n\n# fadeout \"black\" 1.2\n# waitandnext 2\n"
	}
]