[
	{
		"ID": 9500610,
		"script": ";;1:1918年\n# script \"lisp\"\n# background %(wayback_background)s\n# bgmfile \"bgm255\" \"BgmSeaDate\" 0\n# body %(unit_a)s\n# pos %(unit_a)s 3\n# mask %(unit_a)s off\n# chara %(unit_a)s\n# fadein \"black\" 0.5\n# textflame 0 0\n@\n帰り道－\n\n# fadein \"white\" 0.5\n# se \"SE_0735\"\n# bgm \"stop\"\n# waitandnext 2\n@\n…………\n\n# fadein \"white\" 0.5\n# se \"SE_0735\"\n# waitandnext 2\n@\n…………\n\n@\nふと、\n傍らを歩く彼女が足を止めた…\n\n# voice 5006 \"megido_0004\"\n# face %(unit_a)s \"smile\"\n# bgmfile \"bgm255\" \"BgmSeaDate\" 0\n# textflame 1 1\n@メギド\n…私に近づいたからには\n答えてもらわないとね\n\n# textflame 1 1\n@メギド\n私を理解した上で\n誘ったのよね？\n\n# eye %(unit_a)s \"close\"\n# textflame 1 1\n@メギド\n問えばいいだけのこと…\n偽りがあればすぐに露呈する\n\n# voice 5006 \"megido_0036\"\n# eye %(unit_a)s \"normal\"\n# textflame 1 1\n@メギド\nでは問いましょう\n私をいかに知り得ているか\n\n# textflame 1 1\n@メギド\n私のキラーズ『メギドの火』の\nメギドという地の名前が付いている\nメギドの戦いは何年に勃発？\n\n# se \"SE_0734\"\n# select \"1918年\" \"select_label_1\" \"紀元前238年\" \"select_label_2\" \"1418年\" \"select_label_3\"\n私のキラーズ『メギドの火』の\nメギドという地の名前が付いている\nメギドの戦いは何年に勃発？\n\n# label \"select_label_1\"\n# labeljump \"select_label_end\"\n# textwindow \"close\"\n# waitandnext 0.1\n\n# label \"select_label_2\"\n# labeljump \"select_label_end\"\n# textwindow \"close\"\n# waitandnext 0.1\n\n# label \"select_label_3\"\n# labeljump \"select_label_end\"\n# textwindow \"close\"\n# waitandnext 0.1\n\n# label \"select_label_end\"\n# waitandnext 0.1\n\n# sestop \"SE_0734\"\n# fadeout \"black\" 1.2\n# waitandnext 2"
	}
]