[
	{
		"ID": 95006198,
		"script": "# script \"lisp\"\n# background %(wayback_background)s\n# bgmfile \"bgm255\" \"BgmSeaDate\" 0\n# body %(unit_a)s\n# pos %(unit_a)s 3\n# mask %(unit_a)s off\n# chara %(unit_a)s\n# fadein \"black\" 0.5\n# textflame 1 1\n# se \"SE_0733\"\n# face %(unit_a)s \"sad\"\n# voice 5006 \"megido_0009\"\n@メギド\n偽ったのね…\n\n# eye %(unit_a)s \"close\"\n# voice 5006 \"megido_0007\"\n# textflame 1 1\n@メギド\n別に期待もしていなかったから\nどうということはない\n\n# eye %(unit_a)s \"normal\"\n# textflame 1 1\n@メギド\nただはっきり言っておきましょう\n\n# voice 5006 \"megido_0013\"\n# textflame 1 1\n@メギド\n…失望した、と\n\n# textflame 0 0\n@\nそうつぶやく彼女は\nとても残念そうだった\n\n# textflame 0 0\n@\nデート中にこんなに\nがっかりさせてしまうなんて…\n\n# textflame 0 0\n@\n…………\n\n# textflame 0 0\n@\n彼女の聡明な笑顔が好きだから\nメギドのことを\nちゃんと知っておかないとな…\n\n# fadeout \"black\" 1.2\n# waitandnext 2\n"
	}
]