[
	{
		"ID": 9500738,
		"script": "# script \"lisp\"\n# background %(wayback_background)s\n# bgmfile \"bgm255\" \"BgmSeaDate\" 0\n# body %(unit_a)s\n# pos %(unit_a)s 3\n# mask %(unit_a)s off\n# chara %(unit_a)s\n# fadein \"black\" 0.5\n# textflame 0 0\n@\n帰り道－\n\n# fadein \"white\" 0.5\n# se \"SE_0735\"\n# bgm \"stop\"\n# waitandnext 2\n@\n…………\n\n# fadein \"white\" 0.5\n# se \"SE_0735\"\n# waitandnext 2\n@\n…………\n\n@\nふと、\n傍らを歩く彼女が足を止めた…\n\n# bgmfile \"bgm255\" \"BgmSeaDate\" 0\n;;常若の国,2\n# textflame 1 1\n# face %(unit_a)s \"sad\"\n# voice 5007 \"buryunaku_0002\"\n@ブリューナク\nせっかくふたりでいるんだ\n会話のない歩行など、\n勿体ないとは思わないか？\n\n# textflame 0 0\n@\nうん、たしかにもったいない\n頷くマスター\n\n# face %(unit_a)s \"normal\"\n# textflame 1 1\n@ブリューナク\nそうだと思ったよ\nそこで、だ\n\n# textflame 1 1\n@ブリューナク\n突然だが、マスターがちゃんと\nブリューナクのことを\nわかっているか確認したい\n\n# textflame 0 0\n@\n確認したいって…\nつまり何をするの？\nと言って首を傾げるマスター\n\n# textflame 1 1\n@ブリューナク\n何をするのかって？\nちょっとしたクイズだよ\n\n# textflame 0 0\n@\nクイズか…\nなんだか難しそう\nマスターは眉をひそめる\n\n# textflame 1 1\n@ブリューナク\nなに、難しくはないさ\nいつも側にいるんだ、\nきっと答えられるはずだ\n\n# textflame 1 1\n@ブリューナク\n無論、マスターが\nこのブリューナクのことを\n見ていれば…の話だがな\n\n# textflame 1 1\n@ブリューナク\nでは、いくぞ\n;;---------------------------------\n\n@%(unitName:unit_a)s\nブリューナクの出身地の別名は？\n\n# se \"SE_0734\"\n# select  \"常夏の国\" \"select_label_1\" \"常若の国\" \"select_label_2\" \"常夜の国\" \"select_label_3\"\nブリューナクの出身地の別名は？\n\n# label \"select_label_1\"\n# labeljump \"select_label_end\"\n# textwindow \"close\"\n# waitandnext 0.1\n\n# label \"select_label_2\"\n# labeljump \"select_label_end\"\n# textwindow \"close\"\n# waitandnext 0.1\n\n# label \"select_label_3\"\n# labeljump \"select_label_end\"\n# textwindow \"close\"\n# waitandnext 0.1\n\n# label \"select_label_end\"\n# waitandnext 0.1\n\n# sestop \"SE_0734\"\n# fadeout \"black\" 1.2\n# waitandnext 2"
	}
]