[
	{
		"ID": 9500804,
		"script": "# script \"lisp\"\n# background %(wayback_background)s\n# bgmfile \"bgm255\" \"BgmSeaDate\" 0\n# body %(unit_a)s\n# pos %(unit_a)s 3\n# mask %(unit_a)s off\n# chara %(unit_a)s\n# fadein \"black\" 0.5\n# textflame 0 0\n# face %(unit_a)s \"usual\"\n@\n帰り道－\n\n# fadein \"white\" 0.5\n# se \"SE_0735\"\n# bgm \"stop\"\n# waitandnext 2\n@\n…………\n\n# fadein \"white\" 0.5\n# se \"SE_0735\"\n# waitandnext 2\n@\n…………\n\n@\nふと、\n傍らを歩く彼女が足を止めた…\n\n;; face %(unit_a)s \"close\"\n# bgmfile \"bgm255\" \"BgmSeaDate\" 0\n# voice 5008 \"bashosen_0002\"\n# textflame 1 1\n@芭蕉扇\nねぇ…あなた…\nちょっといいかしら？\n\n# face %(unit_a)s \"usual\"\n@芭蕉扇\n…………\n\n# voice 5008 \"bashosen_0036\"\n@芭蕉扇\n私のこと…\nしっかり理解しているのか\n聞いてみていいかしら…？\n\n@芭蕉扇\nコホン…\n\n@芭蕉扇\n私のキラーズの『芭蕉扇』は、\nなんという物語に登場するかしら？\n\n# se \"SE_0734\"\n# select \"西遊記\" \"select_label_correct\" \"三国志\" \"select_label_wrong1\" \"水滸伝\" \"select_label_wrong2\"\n私のキラーズの『芭蕉扇』は、\nなんという物語に登場するかしら？\n\n# label \"select_label_correct\"\n# labeljump \"select_label_end\"\n# textwindow \"close\"\n# waitandnext 0.1\n\n# label \"select_label_wrong1\"\n# labeljump \"select_label_end\"\n# textwindow \"close\"\n# waitandnext 0.1\n\n# label \"select_label_wrong2\"\n# labeljump \"select_label_end\"\n# textwindow \"close\"\n# waitandnext 0.1\n\n# label \"select_label_end\"\n# waitandnext 0.1\n\n# sestop \"SE_0734\"\n# fadeout \"black\" 1.2\n# waitandnext 2"
	}
]