[
	{
		"ID": 9500701,
		"script": "# script \"lisp\"\n# background %(wayback_background)s\n# bgmfile \"bgm255\" \"BgmSeaDate\" 0\n# body %(unit_a)s\n# pos %(unit_a)s 3\n# mask %(unit_a)s off\n# chara %(unit_a)s\n# fadein \"black\" 0.5\n# textflame 0 0\n@\n帰り道－\n\n# fadein \"white\" 0.5\n# se \"SE_0735\"\n# bgm \"stop\"\n# waitandnext 2\n@\n…………\n\n# fadein \"white\" 0.5\n# se \"SE_0735\"\n# waitandnext 2\n@\n…………\n\n@\nふと、\n傍らを歩く彼女が足を止めた…\n\n# bgmfile \"bgm255\" \"BgmSeaDate\" 0\n;;ルー,1\n# textflame 1 1\n# face %(unit_a)s \"sad\"\n# voice 5007 \"buryunaku_0022\"\n@ブリューナク\nどうした、マスター？\n\n# textflame 1 1\n@ブリューナク\nブリューナクの顔を見たところで\n何か面白い事があるわけでも\nないだろう？\n\n# textflame 1 1\n@ブリューナク\n…見ていたい？\nふむ、不思議なことを言う…\n\n# voice 5007 \"buryunaku_0001\"\n# face %(unit_a)s \"normal\"\n# textflame 1 1\n@ブリューナク\n…ところでマスター\nこのままただ無言で歩くのも\n何だかつまらないと思わないか？\n\n# textflame 1 1\n@ブリューナク\nそこで、このブリューナクに\n良い考えがある\n\n# textflame 1 1\n@ブリューナク\n最近、他のキラーズが様々な\nクイズをだしているらしくてな\nそれがなかなか面白いのだとか\n\n# face %(unit_a)s \"smile\"\n# textflame 1 1\n@ブリューナク\n折角だからマスターも、\nブリューナクと一緒に\nそのクイズをやってみないか？\n\n# face %(unit_a)s \"normal\"\n# textflame 1 1\n@ブリューナク\nなに、そんなに難しい問題は\n出さないから安心してほしい\n\n# textflame 1 1\n@ブリューナク\nでは、始めるぞ…\n;;---------------------------------\n\n@%(unitName:unit_a)s\nブリューナクのキラーズ\n『ブリューナク』の持ち主と\n言われている人物は誰か？\n\n# se \"SE_0734\"\n# select  \"ルー\" \"select_label_1\" \"エスス\" \"select_label_2\" \"エボナ\" \"select_label_3\"\nブリューナクのキラーズ\n『ブリューナク』の持ち主と\n言われている人物は誰か？\n\n# label \"select_label_1\"\n# labeljump \"select_label_end\"\n# textwindow \"close\"\n# waitandnext 0.1\n\n# label \"select_label_2\"\n# labeljump \"select_label_end\"\n# textwindow \"close\"\n# waitandnext 0.1\n\n# label \"select_label_3\"\n# labeljump \"select_label_end\"\n# textwindow \"close\"\n# waitandnext 0.1\n\n# label \"select_label_end\"\n# waitandnext 0.1\n\n# sestop \"SE_0734\"\n# fadeout \"black\" 1.2\n# waitandnext 2"
	}
]