[
	{
		"ID": 95005198,
		"script": "# script \"lisp\"\n# background %(wayback_background)s\n# bgmfile \"bgm255\" \"BgmSeaDate\" 0\n# body %(unit_a)s\n# pos %(unit_a)s 3\n# mask %(unit_a)s off\n# chara %(unit_a)s\n# fadein \"black\" 0.5\n# textflame 1 1\n# se \"SE_0733\"\n# face %(unit_a)s \"sad\"\n# voice 5005 \"vajura_0013\"\n@ヴァジュラ\n…マジかよ\n\n@ヴァジュラ\n簡単な問題だと\n思ったんだけどな…\n\n# face %(unit_a)s \"usual\"\n@ヴァジュラ\nあ、いや！\n急に問題なんか出した\nこっちが悪かったよ\n\n@ヴァジュラ\n…でも\n\n# face %(unit_a)s \"sad\"\n@ヴァジュラ\nこのまま帰るのも\nアレだし…\n\n# voice 5005 \"vajura_0008\"\n# face %(unit_a)s \"smile\"\n@ヴァジュラ\n酒でも飲んでこっかな…\n\n# textflame 0 0\n@\nなんとか落ち込んでない雰囲気を\n出そうとする彼女\nその姿がとても痛々しくて…\n\n@\nデート中のはずなのに…\nこんな思いをさせちゃうなんて…\n\n@\nいつも元気な彼女でいて欲しいから、\n今度は間違えないようにしないとな…\n\n# fadeout \"black\" 1.2\n# waitandnext 2"
	}
]