[
	{
		"ID": 9500634,
		"script": ";;1:情けない\n# script \"lisp\"\n# background %(wayback_background)s\n# bgmfile \"bgm255\" \"BgmSeaDate\" 0\n# body %(unit_a)s\n# pos %(unit_a)s 3\n# mask %(unit_a)s off\n# chara %(unit_a)s\n# fadein \"black\" 0.5\n# textflame 0 0\n@\n帰り道－\n\n# fadein \"white\" 0.5\n# se \"SE_0735\"\n# bgm \"stop\"\n# waitandnext 2\n@\n…………\n\n# fadein \"white\" 0.5\n# se \"SE_0735\"\n# waitandnext 2\n@\n…………\n\n@\nふと、\n傍らを歩く彼女が足を止めた…\n\n# bgmfile \"bgm255\" \"BgmSeaDate\" 0\n# eye %(unit_a)s \"close\"\n# textflame 1 1\n@メギド\n…ほんのときどき\n貴方の思考が\n流れ込んでくる気がする\n\n# eye %(unit_a)s \"normal\"\n@メギド\n錯覚だと思っていたわ\n\n@メギド\nでも、もしかしたら…\n私たちなりの関係値が\n生まれたのかもしれない\n\n# voice 5006 \"megido_0036\"\n# face %(unit_a)s \"smile\"\n@メギド\n…確かめてもいいかしら？\n\n# textflame 1 1\n@メギド\n私の好きなしょっぱいもの…\nでは、しょっぱいの\n別の意味は次のうちどれ？\n\n# se \"SE_0734\"\n# select \"情けない\" \"select_label_1\" \"張り切る\" \"select_label_2\" \"勇猛\" \"select_label_3\"\n私の好きなしょっぱいもの…\nでは、しょっぱいの\n別の意味は次のうちどれ？\n\n# label \"select_label_1\"\n# labeljump \"select_label_end\"\n# textwindow \"close\"\n# waitandnext 0.1\n\n# label \"select_label_2\"\n# labeljump \"select_label_end\"\n# textwindow \"close\"\n# waitandnext 0.1\n\n# label \"select_label_3\"\n# labeljump \"select_label_end\"\n# textwindow \"close\"\n# waitandnext 0.1\n\n# label \"select_label_end\"\n# waitandnext 0.1\n\n# sestop \"SE_0734\"\n# fadeout \"black\" 1.2\n# waitandnext 2"
	}
]