[
	{
		"ID": 9501613,
		"script": "# script \"lisp\"\n# background %(wayback_background)s\n# bgmfile \"bgm255\" \"BgmSeaDate\" 0\n# body %(unit_a)s\n# pos %(unit_a)s 3\n# mask %(unit_a)s off\n# chara %(unit_a)s\n# fadein \"black\" 0.5\n# textflame 0 0\n@\n帰り道－\n\n# fadein \"white\" 0.5\n# se \"SE_0735\"\n# bgm \"stop\"\n# waitandnext 2\n@\n…………\n\n# fadein \"white\" 0.5\n# se \"SE_0735\"\n# waitandnext 2\n@\n…………\n\n@\nふと、\n傍らを歩く彼女が足を止めた…\n\n# bgmfile \"bgm255\" \"BgmSeaDate\" 0\n# textflame 1 1\n# face %(unit_a)s \"smile\"\n# voice 5016 \"Flabellum_0004\"\n@フラベルム\nふふっ…\nいいことを思いつきました\n\n# textflame 0 0\n@\n振り返ったフラベルムは、\nイタズラをする時のような顔だった\n一体、なにを思いついたんだろう…\n\n# textflame 1 1\n# face %(unit_a)s \"normal\"\n# voice 5016 \"Flabellum_0003\"\n@フラベルム\nあなたがどのくらい、\nわたくしのことを知っているか、\nテストをしてみようと思います\n\n# textflame 0 0\n@\nテストという言葉に、\nごくりと喉を鳴らす\nマスター\n\n# textflame 1 1\n# voice 5016 \"Flabellum_0019\"\n@フラベルム\nなにをそんなに\n緊張しているでしょう？\n\n# eye %(unit_a)s \"close\"\n@フラベルム\nわたくしのマスターならば、\n簡単にわかる問題ばかりを\n出題するつもりです\n\n# eye %(unit_a)s \"normal\"\n@フラベルム\nそのような問題…\nマスターのあなたは当然、\n全問正解できますよね…？\n\n# voice 5016 \"Flabellum_0005\"\n@フラベルム\nふふっ…\n心の準備はいいですか？\nでは、始めますよ？\n\n@%(unitName:unit_a)s\nわたくしの誕生日は、\n当然、覚えてますよね…？\n\n# se \"SE_0734\"\n# select  \"8月11日\" \"select_label_1\" \"2月19日\" \"select_label_2\" \"11月19日\" \"select_label_3\"\nわたくしの誕生日は、\n当然、覚えてますよね…？\n\n# label \"select_label_1\"\n# labeljump \"select_label_end\"\n# textwindow \"close\"\n# waitandnext 0.1\n\n# label \"select_label_2\"\n# labeljump \"select_label_end\"\n# textwindow \"close\"\n# waitandnext 0.1\n\n# label \"select_label_3\"\n# labeljump \"select_label_end\"\n# textwindow \"close\"\n# waitandnext 0.1\n\n# label \"select_label_end\"\n# waitandnext 0.1\n\n# sestop \"SE_0734\"\n# fadeout \"black\" 1.2\n# waitandnext 2"
	}
]