[
	{
		"ID": 9501722,
		"script": "# script \"lisp\"\n# background %(wayback_background)s\n# bgmfile \"bgm255\" \"BgmSeaDate\" 0\n# body %(unit_a)s\n# pos %(unit_a)s 3\n# mask %(unit_a)s off\n# chara %(unit_a)s\n# fadein \"black\" 0.5\n# textflame 0 0\n@\n帰り道－\n\n# fadein \"white\" 0.5\n# se \"SE_0735\"\n# bgm \"stop\"\n# waitandnext 2\n@\n…………\n\n# fadein \"white\" 0.5\n# se \"SE_0735\"\n# waitandnext 2\n@\n…………\n\n@\nふと、\n傍らを歩く彼女が足を止めた…\n\n# textflame 1 1\n# bgmfile \"bgm255\" \"BgmSeaDate\" 0\n# voice 5017 \"grimoire_0002\"\n@グリモワール\nねぇ、あのさ…\n\n@グリモワール\nキミも”魔法”を\n使ってみせてよ\n\n# voice 5017 \"grimoire_0007\"\n# eye %(unit_a)s \"close\"\n@グリモワール\nなに変な顔してるの\n魔法っていうのはヒントなしで\nワタシのクイズに答えるってこと！\n\n# eye %(unit_a)s \"normal\"\n@グリモワール\nキミの奇跡の魔法に期待してるよ？\n…なんてね\n\n# voice 5017 \"grimoire_0004\"\n# face %(unit_a)s \"smile\"\n@グリモワール\nでは、問題！\n\n@%(unitName:unit_a)s\n私の☆６のジョブ名なんて\n覚えてないよねぇ～？\n\n# se \"SE_0734\"\n# select  \"銃嬢\" \"select_label_1\" \"銃神\" \"select_label_2\" \"銃っ子\" \"select_label_3\"\n私の☆６のジョブ名なんて\n覚えてないよねぇ～？\n\n# label \"select_label_1\"\n# labeljump \"select_label_end\"\n# textwindow \"close\"\n# waitandnext 0.1\n\n# label \"select_label_2\"\n# labeljump \"select_label_end\"\n# textwindow \"close\"\n# waitandnext 0.1\n\n# label \"select_label_3\"\n# labeljump \"select_label_end\"\n# textwindow \"close\"\n# waitandnext 0.1\n\n# label \"select_label_end\"\n# waitandnext 0.1\n\n# sestop \"SE_0734\"\n# fadeout \"black\" 1.2\n# waitandnext 2"
	}
]