[
	{
		"ID": 9501719,
		"script": "# script \"lisp\"\n# background %(wayback_background)s\n# bgmfile \"bgm255\" \"BgmSeaDate\" 0\n# body %(unit_a)s\n# pos %(unit_a)s 3\n# mask %(unit_a)s off\n# chara %(unit_a)s\n# fadein \"black\" 0.5\n# textflame 0 0\n@\n帰り道－\n\n# fadein \"white\" 0.5\n# se \"SE_0735\"\n# bgm \"stop\"\n# waitandnext 2\n@\n…………\n\n# fadein \"white\" 0.5\n# se \"SE_0735\"\n# waitandnext 2\n@\n…………\n\n@\nふと、\n傍らを歩く彼女が足を止めた…\n\n# textflame 1 1\n# bgmfile \"bgm255\" \"BgmSeaDate\" 0\n# voice 5017 \"grimoire_0002\"\n@グリモワール\n…あのさ \n\n# face %(unit_a)s \"angry\"\n@グリモワール\n凡人のキミが\n高貴なワタシとデートできるなんて\n幸せなことなのよ？\n\n# voice 5017 \"grimoire_0007\"\n# eye %(unit_a)s \"close\"\n@グリモワール\nその辺、ちゃんと分かってる？\n\n# eye %(unit_a)s \"normal\"\n@グリモワール\nまったく…。じゃあ、今から\n私に見合うかどうか、\nクイズにして出してあげるから…\n\n# voice 5017 \"grimoire_0005\"\n# face %(unit_a)s \"smile\"\n@グリモワール\n感謝なさい！\n\n@%(unitName:unit_a)s\n私の好きな物くらいわかるでしょ！\n\n# se \"SE_0734\"\n# select  \"新潟の干物\" \"select_label_1\" \"緒方の小枝\" \"select_label_2\" \"星型の小物\" \"select_label_3\"\n私の好きな物くらいわかるでしょ！\n\n# label \"select_label_1\"\n# labeljump \"select_label_end\"\n# textwindow \"close\"\n# waitandnext 0.1\n\n# label \"select_label_2\"\n# labeljump \"select_label_end\"\n# textwindow \"close\"\n# waitandnext 0.1\n\n# label \"select_label_3\"\n# labeljump \"select_label_end\"\n# textwindow \"close\"\n# waitandnext 0.1\n\n# label \"select_label_end\"\n# waitandnext 0.1\n\n# sestop \"SE_0734\"\n# fadeout \"black\" 1.2\n# waitandnext 2"
	}
]