[
	{
		"ID": 95017298,
		"script": "# script \"lisp\"\n# background %(wayback_background)s\n# bgmfile \"bgm255\" \"BgmSeaDate\" 0\n# body %(unit_a)s\n# pos %(unit_a)s 3\n# mask %(unit_a)s off\n# chara %(unit_a)s\n# fadein \"black\" 0.5\n# textflame 1 1\n# face %(unit_a)s \"sad\"\n# se \"SE_0733\"\n@グリモワール\n…は？\n\n# face %(unit_a)s \"angry\"\n# voice 5017 \"grimoire_0010\"\n@グリモワール\nダメ、不正解\n\n@グリモワール\n…………\n\n# face %(unit_a)s \"normal\"\n@グリモワール\nだから、なに？\nこのワタシが\n落ち込んでるとでも…？\n\n# face %(unit_a)s \"angry\"\n@グリモワール\n言っとくけど、\nキミになんか\n正解されなくても\n\n# voice 5017 \"grimoire_0027\"\n@グリモワール\nワタシ、平気だから…！\n\n@グリモワール\n…………\n\n# textflame 0 0\n@\n明らかに無理をしている…\n\n@\nデート中のはずなのに…\nあんな顔をさせてしまうなんて…\n\n@\n今度こそ、どんな質問も\n答えられるようにしておかないと…\n\n# fadeout \"black\" 1.2\n# waitandnext 2"
	}
]