[
	{
		"ID": 9501631,
		"script": "# script \"lisp\"\n# background %(wayback_background)s\n# bgmfile \"bgm255\" \"BgmSeaDate\" 0\n# body %(unit_a)s\n# pos %(unit_a)s 3\n# mask %(unit_a)s off\n# chara %(unit_a)s\n# fadein \"black\" 0.5\n# textflame 0 0\n@\n帰り道－\n\n# fadein \"white\" 0.5\n# se \"SE_0735\"\n# bgm \"stop\"\n# waitandnext 2\n@\n…………\n\n# fadein \"white\" 0.5\n# se \"SE_0735\"\n# waitandnext 2\n@\n…………\n\n@\nふと、\n傍らを歩く彼女が足を止めた…\n\n# bgmfile \"bgm255\" \"BgmSeaDate\" 0\n# textflame 1 1\n# voice 5016 \"Flabellum_0028\"\n@フラベルム\nはぁ…退屈ですね…\n\n# textflame 0 0\n@\n気怠げな表情を浮かべて、\nフラベルムはそんなことを\n言った\n\n# textflame 1 1\n# eye %(unit_a)s \"close\"\n# voice 5016 \"Flabellum_0003\"\n@フラベルム\n退屈しのぎに、\nクイズでもしましょう\nいいですね？\n\n# textflame 0 0\n@\nクイズ…？\nとマスターは首をかしげる\n\n# eye %(unit_a)s \"normal\"\n# face %(unit_a)s \"angry\"\n# textflame 1 1\n@フラベルム\n不満なんですか？\n\n# textflame 0 0\n@\nそんなことはないと、\nマスターは慌てて否定する\n\n# face %(unit_a)s \"normal\"\n# textflame 1 1\n# voice 5016 \"Flabellum_0005\"\n@フラベルム\nなら、いいじゃないですか\nさ、始めますよ？\n\n@%(unitName:unit_a)s\nわたくしと誕生月の同じ\nキル姫を当てられますか？\n\n# se \"SE_0734\"\n# select  \"アスクレピオス\" \"select_label_1\" \"エロース\" \"select_label_2\" \"グリモワール\" \"select_label_3\"\nわたくしと誕生月の同じ\nキル姫を当てられますか？\n\n# label \"select_label_1\"\n# labeljump \"select_label_end\"\n# textwindow \"close\"\n# waitandnext 0.1\n\n# label \"select_label_2\"\n# labeljump \"select_label_end\"\n# textwindow \"close\"\n# waitandnext 0.1\n\n# label \"select_label_3\"\n# labeljump \"select_label_end\"\n# textwindow \"close\"\n# waitandnext 0.1\n\n# label \"select_label_end\"\n# waitandnext 0.1\n\n# sestop \"SE_0734\"\n# fadeout \"black\" 1.2\n# waitandnext 2"
	}
]