[
	{
		"ID": 95026299,
		"script": "# script \"lisp\"\n# background %(wayback_background)s\n# bgmfile \"bgm255\" \"BgmSeaDate\" 0\n# body %(unit_a)s\n# pos %(unit_a)s 3\n# mask %(unit_a)s off\n# chara %(unit_a)s\n# fadein \"black\" 0.5\n# textflame 1 1\n# face %(unit_a)s \"usual\"\n# se \"SE_0732\"\n@ゆんゆん\nその答え…\n\n# face %(unit_a)s \"happy\"\n# voice 250261 \"yunyun_0005\"\n@ゆんゆん\n正解です！\n\n@ゆんゆん\nとても嬉しいですっ！\n\n@ゆんゆん\nこれ…\n一生懸命作ったので、\n食べて下さい！\n\n# textflame 0 0\n@\nと、お弁当を差し出すゆんゆん\n\n# textflame 1 1\n@ゆんゆん\n味には自信あるんです\nお友達も褒めてくれてましたから\n\n# textflame 0 0\n@\nそう言うと、彼女は\nはにかんだ笑顔で\nこちらを覗きこむ\n\n@\nマスターは、彼女と心の距離が\nぐっと縮まったことを\nとても嬉しく思っていた…\n\n# fadeout \"black\" 1.2\n# waitandnext 2\n"
	}
]