[
	{
		"ID": 95031498,
		"script": "# script \"lisp\"\n# background %(wayback_background)s\n# bgmfile \"bgm255\" \"BgmSeaDate\" 0\n# body %(unit_a)s\n# pos %(unit_a)s 3\n# mask %(unit_a)s off\n# chara %(unit_a)s\n# fadein \"black\" 0.5\n# se \"SE_0733\"\n# textflame 1 1\n# face %(unit_a)s \"usual\"\n@ソロモン\n………\n\n# voice 250311 \"solomon_t_0013\"\n@ソロモン\n不正解よ\n\n# face %(unit_a)s \"sad\"\n# voice 250311 \"solomon_t_0027\"\n@ソロモン\n………残念ね\n\n# face %(unit_a)s \"usual\"\n@ソロモン\nもし正解してくれたら、\nその喜びで、\n一つ変われる気がしたんだけど…\n\n@ソロモン\n自分でも慎重すぎる性格だって\nわかってる\n\n@ソロモン\nだから変わりたい…\n\n# voice 250311 \"solomon_t_0028\"\n# face %(unit_a)s \"sad\"\n@ソロモン\nでも…そう簡単に\n上手くはいかないみたいね\n\n# textflame 0 0\n@\n悲しい目を見せる彼女\n\n@\nマスターは成長しようとする\n彼女の力になれなかったことを\n激しく後悔していた…\n\n# fadeout \"black\" 1.2\n# waitandnext 2\n"
	}
]