[
	{
		"ID": 96004198,
		"script": "# script \"lisp\"\n# background %(wayback_background)s\n# bgmfile \"bgm255\" \"BgmSeaDate\" 0\n# body %(unit_a)s\n# pos %(unit_a)s 3\n# mask %(unit_a)s off\n# chara %(unit_a)s\n# fadein \"black\" 0.5\n# textflame 1 1\n# se \"SE_0733\"\n# face %(unit_a)s \"angry\"\n# voice 6004 \"kadokeusu_0027\"\n@カドケウス\nブ～、不正解！\n\n# textflame 1 1\n@カドケウス\nよ～く分かりました…\n\n# textflame 1 1\n@カドケウス\nマスターは私のこと、\nなんにも知らないって\nちゃんと伝わってきましたよ～だ！\n\n# voice 6004 \"kadokeusu_kyara_1013\"\n# textflame 1 1\n@カドケウス\nふん！\n\n# textflame 0 0\n@\nと、そっぽを向く彼女\n\n# textflame 0 0\n@\nせっかくのデートなのに、\n機嫌を損ねてしまった…\n\n# textflame 0 0\n@\n…………\n\n# textflame 0 0\n@\n無邪気な笑顔が好きだから、\n彼女のこと、\nちゃんと知っておかないとな…\n\n# fadeout \"black\" 1.2\n# waitandnext 2\n"
	}
]