[
	{
		"ID": 96008298,
		"script": "# script \"lisp\"\n# background %(wayback_background)s\n# bgmfile \"bgm255\" \"BgmSeaDate\" 0\n# body %(unit_a)s\n# pos %(unit_a)s 3\n# mask %(unit_a)s off\n# chara %(unit_a)s\n# face %(unit_a)s \"angry\"\n# fadein \"black\" 0.5\n# textflame 1 1\n# se \"SE_0733\"\n@グリダヴォル\nはい！？\n\n# face %(unit_a)s \"sad\"\n# voice 6008 \"guridavoru_0008\"\n@グリダヴォル\nえっと…\n\n@グリダヴォル\nハズレ\n\n@グリダヴォル\nあ…\n急にクイズなんか出しちゃって…\n…ごめん\n\n@グリダヴォル\n…………\n\n# textflame 0 0\n@\n彼女は急に\nしょんぼりとしてしまった\n\n# textflame 1 1\n@グリダヴォル\nえっと…移動しよっか\n\n# textflame 0 0\n@\nあんなしょんぼりとした\n顔をさせちゃった…\nデート中のはずなのに…\n\n@\nちゃんと\nどんな質問も答えられるように\n復習しておかないとだな…\n\n# fadeout \"black\" 1.2\n# waitandnext 2"
	}
]