[
	{
		"ID": 9601315,
		"script": "# script \"lisp\"\n# background %(wayback_background)s\n# bgmfile \"bgm255\" \"BgmSeaDate\" 0\n# body %(unit_a)s\n# pos %(unit_a)s 3\n# mask %(unit_a)s off\n# chara %(unit_a)s\n# fadein \"black\" 0.5\n# textflame 0 0\n# face %(unit_a)s \"usual\"\n@\n帰り道－\n\n# fadein \"white\" 0.5\n# se \"SE_0735\"\n# bgm \"stop\"\n# waitandnext 2\n@\n…………\n\n# fadein \"white\" 0.5\n# se \"SE_0735\"\n# waitandnext 2\n@\n…………\n\n@\nふと、\n傍らを歩く彼女が足を止めた…\n\n# bgmfile \"bgm255\" \"BgmSeaDate\" 0\n# textflame 1 1\n# voice 6013 \"sistrum_0001\"\n@シストルム\n急にマスターと\nクイズがしたくなったにゃ♪\n\n# eye %(unit_a)s \"close\"\n@シストルム\nもちろん！\nマスターお気に入りの\nボクについてのクイズにゃ～\n\n# voice 6013 \"sistrum_0029\"\n# eye %(unit_a)s \"normal\"\n# face %(unit_a)s \"smile\"\n@シストルム\n間違えたら\nキライになっちゃうにゃ！\nいっくにゃ～♪\n\n# face %(unit_a)s \"usual\"\n@シストルム\nボクの好きなもの、\n覚えているかにゃ？\n\n# se \"SE_0734\"\n# select \"犬\" \"select_label_1\" \"猫\" \"select_label_2\" \"熊\" \"select_label_3\"\nボクの好きなもの、\n覚えているかにゃ？\n\n# label \"select_label_1\"\n# labeljump \"select_label_end\"\n# textwindow \"close\"\n# waitandnext 0.1\n\n# label \"select_label_2\"\n# labeljump \"select_label_end\"\n# textwindow \"close\"\n# waitandnext 0.1\n\n# label \"select_label_3\"\n# labeljump \"select_label_end\"\n# textwindow \"close\"\n# waitandnext 0.1\n\n# label \"select_label_end\"\n# waitandnext 0.1\n\n# sestop \"SE_0734\"\n# fadeout \"black\" 1.2\n# waitandnext 2"
	}
]