[
	{
		"ID": 96013399,
		"script": "# script \"lisp\"\n# background %(wayback_background)s\n# bgmfile \"bgm255\" \"BgmSeaDate\" 0\n# body %(unit_a)s\n# pos %(unit_a)s 3\n# mask %(unit_a)s off\n# chara %(unit_a)s\n# fadein \"black\" 0.5\n# textflame 1 1\n# face %(unit_a)s \"smile\"\n# se \"SE_0732\"\n# voice 6013 \"sistrum_0021\"\n@シストルム\nにゃにゃ～ん♪\n\n# voice 6013 \"sistrum_0005\"\n# eye %(unit_a)s \"close\"\n@シストルム\nマスターはやっぱり\nボクのツボを\n押さえてるにゃあ～♪\n\n# voice 6013 \"sistrum_0020\"\n# eye %(unit_a)s \"normal\"\n# face %(unit_a)s \"smile\"\n@シストルム\n今ものすっごく\nごろにゃ～♪\nしたくなったにゃん♪\n\n# textflame 0 0\n@\n満面の笑顔を浮かべ\nしっぽをピンと張る彼女を見て…\n\n@\nマスターは彼女との絆が\nまた深まったのを実感した…\n\n# fadeout \"black\" 1.2\n# waitandnext 2"
	}
]