[
	{
		"ID": 100105021,
		"script": ";;5_2_1\n# script \"lisp\"\n# background \"101_cave\"\n# bgmfile \"bgm276\" \"BgmLostRagnarokEvent\" 0\n# body 3100111\n# pos 3100111 4\n# scale 3100111 0.8 0\n# body 137\n# pos 137 2\n# scale 137 0.8 0\n# alpha 137 0 0\n# body 136\n# pos 136 4\n# scale 136 0.8 0\n# alpha 136 0 0\n# body 3103811\n# pos 3103811 2\n# scale 3103811 0.8 0\n# mask 3103811 off\n# body 139\n# pos 139 3\n# scale 139 0.8 0\n# layer 139 3\n# alpha 139 0 0\n# se \"SE_5648\"\n# face 3100111 \"angry\"\n# face 3103811 \"angry\"\n# textboxarrow 0 3\n@マサムネ\nその意気や良し\nこの刃の露と消えよ！\n\n# select \"危ない、アルマス！\" \"select_label_01\" \"待て、アルマス！\" \"select_label_01\" \"殺させはしない！\" \"select_label_01\"\nその意気や良し\nこの刃の露と消えよ！\n\n# label \"select_label_01\"\n# textflame 1 1\n# face 3103811 \"surprise\"\n# voice 1038 \"almace_0022\"\n# textboxarrow 0 1\n@アルマス\nバカ！\n私の前に出たら――\n\n# face 3100111 \"surprise\"\n# textboxarrow 0 3\n@マサムネ\nなにやつ！？\n邪魔立てするなら容赦はせぬ！\n\n# imageset 2 \"c100111\"\n# imagealpha 2 0 0\n# imagelayer 2 3\n# imageset 3 \"bg_white_circle\"\n# imagealpha 3 0 0\n# imagescale 3 1.2 0\n# voice 1038 \"almace_0023\"\n# textboxarrow 0 1\n@アルマス\nマスター！！\n\n;;//マサムネの登場シーンを幾つかフラッシュバック\n# serif 0\n# textwindow \"close\"\n# se \"SE_0742\"\n# fadein \"white\" 0.3\n# imagepos 2 0 30\n# imagepos 3 0 30\n# imagealpha 2 1 0\n# imagealpha 3 1 0\n# waitandnext 1\n\n# serif 0\n# textwindow \"normal\"\n# fadein \"white\" 0.5\n# imagealpha 2 0 0\n# imagealpha 3 0 0\n# voice 3100111 \"masamune_ge_0015\"\n# textboxarrow 0 3\n@マサムネ\n…なんだ、今のは？\n\n# face 136 \"surprise\"\n# alpha 3100111 0 0.5\n# alpha 3103811 0 0.5\n# alpha 137 1 0.5\n# alpha 136 1 0.5\n# textboxarrow 0 3\n@ナディア\nマサムネの刀が止まりました…\n\n# face 3100111 \"sad\"\n# alpha 3100111 1 0.5\n# alpha 3103811 1 0.5\n# alpha 137 0 0.5\n# alpha 136 0 0.5\n# voice 3100111 \"masamune_ge_0019\"\n# textboxarrow 0 3\n@マサムネ\n拙者の中のなにかが…\nこの者に対して…\n\n# face 3100111 \"sad\"\n# voice 3100111 \"masamune_ge_battle_0008\"\n@マサムネ\nぐ、うわぁぁぁっ…！\n\n# alpha 3100111 0 0.5\n# alpha 3103811 0 0.5\n# alpha 137 1 0.5\n# alpha 136 1 0.5\n# alpha 139 1 0.5\n# face 139 \"surprise\"\n# textboxarrow 0 2\n@ティターニア\nマサムネの動きが止まりました\nチャンスですっ\n\n# face 137 \"angry\"\n# imageset 0 \"bg_white\"\n# imagealpha 0 0 0\n# imagelayer 0 1\n# voice 9969 \"gill_0031\"\n# textboxarrow 0 1\n@ギル\nこれでも食らえーっ！\n\n;;//ギルが煙玉を投げる\n;;//背景：白\n# textboxarrow 0 0\n# se \"SE_5633\"\n# imagealpha 0 1 0\n# imagepos 0 0 0\n# fadein \"white\" 2\n# waitandnext 1.5\n\n# voice 310011 \"masamune_ge_0024\"\n@マサムネ\nぬうっ…？\n目くらましとは小賢しい真似を！\n\n@ギル\nナディア様、こっちだ！\nほら、あんたも急げよっ\n\n@ティターニア\nアルマス、あなたも早く！\n\n@トレイセーマ兵\n標的が逃げたぞ！\nゲホッ…ゲホッ…\n追えー！！"
	}
]