[
	{
		"ID": 100103063,
		"script": ";;1章3話_6 戦闘後\n# script \"lisp\"\n# background \"101_city_night1\"\n# bgmfile \"bgm271\" \"BgmLostRagnarokEvent\" 0\n# body 3103811\n# pos 3103811 3\n# scale 3103811 0.8 0\n# alpha 3103811 0 0\n# body 3400711\n# pos 3400711 3\n# scale 3400711 0.8 0\n# alpha 3400711 0 0\n# mask 3400711 off\n# body 136\n# pos 136 3\n# scale 136 0.8 0\n# alpha 136 0 0\n# mask 136 off\n# body 137\n# pos 137 1\n# scale 137 0.8 0\n# alpha 137 0 0\n# body 139\n# pos 139 5\n# scale 139 0.8 0\n# alpha 139 0 0\n# layer 3400711 1\n# layer 139 5\n# layer 3103811 2\n# layer 137 1\n# body 3104011\n# pos 3104011 4\n# scale 3104011 0.8 0\n# body 3104111\n# pos 3104111 2\n# scale 3104111 0.8 0\n# layer 3104111 3\n# layer 3104011 4\n# face 139 \"surprise\"\n;;@？？？（モラ）\n# serif 0\n# textwindow \"close\"\n# serif 1\n# textwindow \"normal\"\n# textboxarrow 1 3\n# chara 3104011\n# voice 1040 \"morallta_0004\"\n@？？？\nあは！\n見つけた、見つけた♪\n見つけたよ、ベガ\n\n;;@？？？（ベガ）\n# serif 1\n# textboxarrow 1 1\n# chara 3104111\n# voice 1041 \"beagallta_0004\"\n@？？？\nうん…\n見つけたね、モラ…\n\n# alpha 137 1 0.5\n# alpha 3103811 1 0.5\n# alpha 139 1 0.5\n# alpha 3104111 0 0.5\n# alpha 3104011 0 0.5\n# face 3103811 \"surprise\"\n# face 137 \"surprise\"\n# serif 1\n# textwindow \"close\"\n# serif 0\n# textwindow \"normal\"\n# textflame 1 1\n# textboxarrow 0 2\n# chara 3103811\n# voice 1038 \"almace_0022\"\n@アルマス\nえっ？\nだ、誰…？\n\n# alpha 137 0 0.5\n# alpha 3103811 0 0.5\n# alpha 139 0 0.5\n# alpha 3400711 1 0.5\n# face 3400711 \"angry\"\n# textflame 1 1\n# textboxarrow 0 2\n# chara 3400711\n@シェキナー\nそこの子ども達、下がりなさい\n崇高な浄化の妨げになりますよ\n\n# alpha 3400711 0 0.5\n# alpha 3104111 1 0.5\n# alpha 3104011 1 0.5\n# serif 0\n# textwindow \"close\"\n# serif 1\n# textwindow \"normal\"\n# textboxarrow 1 0\n@モラ＆ベガ\nふふふふふ…\n\n# alpha 136 1 0.5\n# alpha 3104111 0 0.5\n# alpha 3104011 0 0.5\n# face 136 \"surprise\"\n# serif 1\n# textwindow \"close\"\n# serif 0\n# textwindow \"normal\"\n# textflame 1 1\n# textboxarrow 0 2\n# chara 136\n# voice 9968 \"nadia_0024\"\n@ナディア\nえっ…いけません！\nこっちに来てはダメっ…！\n"
	}
]