[
	{
		"ID": 100213101,
		"script": ";;----------------------------------------------\n;;100213101\n;;タイトル：ケアフル・シューター 10 戦闘前\n;;----------------------------------------------\n# script \"lisp\"\n# background \"angel_world\"\n# bgm \"bgm029_030\" 0\n;;ムー\n# body 161\n# pos 161 3\n# scale 161 0.6 0\n# layer 161 5\n# mask 161 off\n# alpha 161 0 0\n;;レーヴァ\n# body 3100211\n# pos 3100211 3\n# scale 3100211 0.8 0\n# layer 3100211 2\n# mask 3100211 on\n# alpha 3100211 0 0\n# face 3100211 \"angry\"\n;;ヘレナ\n# body 3302811\n# pos 3302811 3\n# scale 3302811 0.8 0\n# layer 3302811 3\n# mask 3302811 off\n# alpha 3302811 1 0\n;;ニール\n# body 162\n# pos 162 3\n# scale 162 0.6 0\n# layer 162 5\n# mask 162 off\n# alpha 162 0 0\n;;ヴァナルカンド\n# body 3601111\n# pos 3601111 1\n# scale 3601111 0.8 0\n# layer 3601111 4\n# mask 3601111 on\n# alpha 3601111 0 0\n;;カーテンフェード\n# imageset 0 \"black\"\n# imagealpha 0 0 0\n# imagelayer 0 1\n;;剣閃（ヘレナ）\n# effectbody 2000 2 -50 0 1\n;;剣閃（ヴァナル）\n# effectbody 3000 4 50 0 3\n;;◆背景：ハルモニア---------------------------------------------\n# textflame 1 1\n# textboxarrow 0 2\n# face 3302811 \"normal\"\n# voice 3028 \"herena_a_0004\"\n# chara 3302811\n@ヘレナ\n磔にしてやろう…くふっ\n\n;;ヘレナ\n# textwindow \"close\"\n# se \"SE_5204\"\n# leftout 3302811 0.3\n# waitandnext 0.3\n\n# voice 3028 \"herena_a_battle_0001\"\n# alpha 3100211 1 0.5\n# pos 3302811 5\n# mask 3302811 on\n# rightin 3302811 0.5\n# waitandnext 0.5\n\n# face 3302811 \"angry\"\n# face 3100211 \"sad\"\n# effectstart 2000\n# se \"SE_4759\"\n# shake 0 0.6\n# fadein \"white\" 0.5\n# leftout 3100211 0.5\n# alpha 3302811 0 0.5\n# waitandnext 0.5\n\n# se \"SE_9146\"\n# alpha 3601111 1 0.5\n# pos 3100211 4\n# alpha 3100211 1 0\n# rightin 3100211 0.5\n# waitandnext 0.5\n\n;;ヴァナル\n# face 3100211 \"surprise\"\n# textwindow \"normal\"\n# textflame 1 1\n# textboxarrow 0 1\n# voice 360111 \"vanargand_t_0004\"\n# chara 3601111\n@ヴァナルガンド\nすっかり形勢が逆転しましたね\nせいっ\n\n# textwindow \"close\"\n# voice 360111 \"vanargand_t_battle_0001\"\n# face 3601111 \"angry\"\n# move 3601111 3 0.1\n# effectstart 3000\n# waitandnext 0.1\n\n# face 3100211 \"surprise\"\n# se \"SE_4759\"\n# shake 1 0.6\n# fadein \"white\" 0.5\n# rightout 3100211 0.6\n# alpha 3601111 0 0.6\n# waitandnext 0.6\n\n# se \"SE_9146\"\n# pos 3100211 3\n# face 3100211 \"sad\"\n# leftin 3100211 0.4\n# waitandnext 0.4\n\n# textwindow \"normal\"\n# textflame 1 1\n# textboxarrow 0 2\n# face 3100211 \"angry\"\n# voice 310021 \"revatein_ge_battle_0005\"\n# chara 3100211\n@レーヴァテイン\nくっ…\n\n# alpha 3100211 0 0.5\n# alpha 161 1 0.5\n# move 161 3 2\n# textwindow \"toge\"\n# textflame 1 1\n# textboxarrow 0 2\n# voice 9953 \"mwu_0045\"\n# chara 161\n@ムー\n何やってんだ、ヘレナ！\n敵に操られてんじゃねえ！！\n\n# move 161 3 2\n# textwindow \"toge\"\n# textflame 1 1\n# textboxarrow 0 2\n# chara 161\n@ムー\nレヴァも、\nもちっと気合い入れて戦えよ！\nさっきから防戦一方じゃねえか！\n\n# textwindow \"normal\"\n# alpha 161 0 0.5\n# pos 3302811 4\n# face 3302811 \"normal\"\n# mask 3302811 on\n# alpha 3302811 1 0.5\n# pos 3601111 2\n# mask 3601111 on\n# alpha 3601111 1 0.5\n# pos 162 5\n# alpha 162 1 0.5\n# textflame 1 1\n# textboxarrow 0 1\n# face 3601111 \"normal\"\n# voice 360111 \"vanargand_t_0007\"\n# chara 3601111\n@ヴァナルガンド\n反撃の隙を与えはしません！\n…この指輪、初めて使いましたけれど\nこれほどの力があるとは\n\n# textflame 1 1\n# textboxarrow 0 3\n# voice 9952 \"nir_0038\"\n# chara 162\n@ニール\n逃げて、レーヴァ！\nヘレナは指輪の力で支配されてるのよ\nどうしようもないわ！\n\n# textflame 1 1\n# textboxarrow 0 3\n# chara 162\n@ニール\nアタチ達のことは放っておいて\nここは退くのが一番よ！\n\n# alpha 3601111 0 0.5\n# alpha 3302811 0 0.5\n# alpha 162 0 0.5\n# alpha 161 1 0.5\n# textflame 1 1\n# textboxarrow 0 2\n# voice 9953 \"mwu_0061\"\n# chara 161\n@ムー\nニールも弱気な発言してんじゃねえ！\nレヴァ！お前の本気は\nこんなもんじゃねえだろうが！？\n\n# textflame 1 1\n# textboxarrow 0 2\n# chara 161\n@ムー\nまたヘレナをボコッちまうのは\n気が引けるが、全力でやりゃ\n二人相手でもいけるだろ！？\n\n# textwindow \"close\"\n# move 161 4 0.5\n# pos 3100211 3\n# mask 3100211 off\n# alpha 3100211 1 0.5\n# waitandnext 0.5\n\n# textwindow \"normal\"\n# textflame 1 1\n# textboxarrow 0 2\n# face 3100211 \"angry\"\n# voice 310021 \"revatein_ge_0027\"\n# chara 3100211\n@レーヴァテイン\n……………………\n\n# move 161 4 0\n# textwindow \"toge\"\n# se \"SE_4756\"\n# shake 0 0.5\n# fadein \"white\" 0.3\n# textflame 1 1\n# voice 9953 \"mwu_0049\"\n# textboxarrow 0 3\n# chara 161\n@ムー\nだああああ…！\n今日のお前、腑抜けてばっかだぞ\n\n# textwindow \"normal\"\n# textflame 1 1\n# textboxarrow 0 2\n# face 3100211 \"normal\"\n# voice 310021 \"revatein_ge_0085\"\n# chara 3100211\n@レーヴァテイン\n黙って\n…きっと、もう少しよ\n\n# textflame 1 1\n# textboxarrow 0 3\n# voice 9953 \"mwu_0022\"\n# chara 161\n@ムー\nあん…？\n\n# alpha 161 0 0.3\n# alpha 3100211 0 0.3\n# pos 3601111 3\n# mask 3601111 off\n# alpha 3601111 1 0.3\n# move 3601111 3 0\n# textwindow \"toge\"\n# textflame 1 1\n# textboxarrow 0 2\n# face 3601111 \"angry\"\n# voice 360111 \"vanargand_t_0029\"\n# chara 3601111\n@ヴァナルガンド\n私の前に立ったこと、後悔しなさい！"
	}
]