[
	{
		"ID": 100205031,
		"script": ";;第５話　タイトル：笑顔でいられる世界\n;;;;背景：街中\n# script \"lisp\"\n# background \"ghost_town2\"\n# bgmfile \"bgm273\" \"BgmLostRagnarokEvent\" 0\n# textwindow \"nomal\"\n;;天沼矛\n# body 3300411\n# pos 3300411 3\n# scale 3300411 0.8 0\n# layer 3300411 1\n;;アルマス\n# body 3103811\n# pos 3103811 1\n# scale 3103811 0.8 0\n# layer 3103811 2\n;;ティニ\n# body 139\n# pos 139 5\n# scale 139 0.8 0\n# layer 139 4\n# imageset 1 \"st180301_1\"\n# imagealpha 1 0 0\n# imagelayer 1 2\n# imageset 2 \"st180301_1\"\n# imagealpha 2 0 0\n# imagelayer 2 3\n# imageset 3 \"st180301_1\"\n# imagealpha 3 0 0\n# imagelayer 3 4\n# imageset 4 \"bg_white\"\n# imagealpha 4 0 0\n# imagelayer 4 5\n# imagescale 4 2 0\n# face 3103811 \"surprise\"\n# face 139 \"surprise\"\n# face 3300411 \"surprise\"\n# textflame 1 1\n# textboxarrow 0 1\n# voice 1038 \"almace_0022\"\n@アルマス\nなに…？\n今の、なんだったの…\n\n# imagepos 1 150 -315\n# imagepos 2 -163 274\n# imagepos 3 0 0\n# imagepos 4 0 0\n# face 3103811 \"worry\"\n@アルマス\nもしかしてキラーメイルの記憶が\n流れ込んできた…？\n\n# imagescale 2 1.5 0\n# textboxarrow 0 2\n@天沼矛\n…………\n\n# textboxarrow 0 3\n# voice 9967 \"titania_0004\"\n@ティターニア\n私にも見えましたっ\nとても強い決意と情熱…\n\n# face 139 \"normal\"\n@ティターニア\nそれから大きな安堵と\n充足感の物語…\n\n# face 3103811 \"sad\"\n# textboxarrow 0 1\n# voice 1038 \"almace_0017\"\n@アルマス\nこのキラーメイル…\n\n@アルマス\n御曹司の地位をなげうって\n天沼矛達の笑顔を取り戻そうとした\nってことなの…？\n\n# textboxarrow 0 2\n@天沼矛\n…………\n\n# face 3103811 \"angry\"\n# textboxarrow 0 1\n# voice 1038 \"almace_0002\"\n@アルマス\nねえ、なにか覚えてないの！？\nあの天沼矛はあなたのことなんでしょ\n\n# se \"SE_0624\"\n# serif 0\n# textwindow \"close\"\n# fadeout \"white\" 1\n# waitandnext 1\n\n# imagescale 1 1.5 0\n# imagealpha 1 1 0\n# waitandnext 0.5\n\n# serif 1\n# textwindow \"normal\"\n# fadein \"white\" 1\n# face 139 \"surprise\"\n# imageset 0 \"bg_white\"\n# imagealpha 0 0 0\n# imagelayer 0 1\n# textboxarrow 1 0\n@ティターニア\nアルマス！\nキラーメイルの体内から…\nなにかが出てきます…！？\n\n# imagepos 0 0 0\n# serif 1\n# textwindow \"normal\"\n# textboxarrow 1 0\n@アルマス\nこれって…槍！？\nひょっとして伝説の武具！？\n\n# select \"天沼矛に渡せ！\" \"select_label_01\" \"それを使うんだ！\" \"select_label_01\" \"記憶を引き出せるかも…\" \"select_label_01\"\n@アルマス\nこれって…槍！？\nひょっとして伝説の武具！？\n\n# label \"select_label_01\"\n# face 3103811 \"angry\"\n# serif 0\n# textwindow \"close\"\n# serif 1\n# textwindow \"normal\"\n# textboxarrow 1 0\n@アルマス\n天沼矛に渡せば、霊装支配を\n打ち破れるかもしれないっ\n受け取りなさい、天沼矛！\n\n# imagealpha 2 1 1\n# imagemoveto 2 -142 260 15\n# serif 1\n# textwindow \"close\"\n# serif 0\n# textwindow \"normal\"\n# textboxarrow 0 0\n# voice 330041 \"amenonuboko_t_battle_0005\"\n@天沼矛\n…ああ、あああああ！\n\n@天沼矛\nあああああああああああああああ！！\n\n# face 3300411 \"cry\"\n# textboxarrow 0 0\n@天沼矛\nわたし…わたしは…！\n\n;;天沼矛が涙を流す\n;;心音演出\n# serif 0\n# textwindow \"close\"\n# se \"SE_0644\"\n# imagealpha 4 1 2\n# waitandnext 2\n\n# imagealpha 3 1 0\n# imagealpha 1 0 0\n# imagealpha 2 0 0\n# waitandnext 0.5\n\n# serif 0\n# textwindow \"normal\"\n# textboxarrow 0 0\n@天沼矛\nわたしは、どうして今まで…\n忘れていたのでしょう\nとても大切なことだったのに…\n\n;;心音演出\n;;背景：白\n;;天沼矛と天沼矛（♂）（暴走していない姿）を出す\n# serif 0\n# textwindow \"close\"\n# imagealpha 4 0 2\n# se \"SE_0742\"\n# waitandnext 2\n\n# serif 1\n# textwindow \"normal\"\n# textboxarrow 1 0\n@天沼矛（♂）\nもう泣かないで下さい\nオレは君達の笑顔を守りたくて\n戦ってきたんです\n\n# serif 0\n# textwindow \"normal\"\n# textboxarrow 0 0\n@天沼矛\nでも…でもっ…\n\n# serif 1\n# textboxarrow 1 0\n@天沼矛（♂）\nその槍は、オレ達から君達への\n最後のプレゼントです\n\n# serif 1\n# textboxarrow 1 0\n@天沼矛（♂）\nこれでゼロとの約束も果たせました\n今度こそ、思い残すことは\nなにもありません…\n\n# serif 1\n# textboxarrow 1 0\n@天沼矛（♂）\nどうか、君達がいつまでも笑顔で\nいられる世界でありますように…\n\n# serif 1\n# textboxarrow 1 0\n@天沼矛（♂）\nそれでは\n\n# serif 0\n# textboxarrow 0 0\n@天沼矛\n待って下さい！\n待って――\n\n;;画面白フラッシュアウト\n;;背景：街中\n# se \"SE_0624\"\n# serif 0\n# textwindow \"close\"\n# serif 1\n# textwindow \"close\"\n# fadeout \"white\" 1.5\n# waitandnext 1.5\n\n# imagealpha 3 0 0\n# face 3103811 \"surprise\"\n# face 139 \"surprise\"\n# waitandnext 0.1\n\n# fadein \"white\" 1.5\n# waitandnext 1.5\n\n# serif 0\n# textwindow \"nomal\"\n# textflame 1 1\n# textboxarrow 0 2\n@天沼矛\nありがとうございます…\nああ、お名前を聞きそびれて\nしまいました\n\n;;心音演出\n# se \"SE_0644\"\n# face 3103811 \"angry\"\n# textboxarrow 0 1\n@アルマス\n天沼矛のキラーズが\n強く反応してる…\nこれなら…\n\n@アルマス\nマスター！"
	}
]