[
	{
		"ID": 100212101,
		"script": ";;第2-10話　タイトル：イノセント・ヒーラー\n;;//背景：ハルモニア\n# script \"lisp\"\n# background \"angel_world\"\n# bgmfile \"bgm271\" \"BgmLostRagnarokEvent\" 0\n# body 3100211\n# pos 3100211 3\n# scale 3100211 0.8 0\n# layer 3100211 1\n# body 161\n# pos 161 4\n# scale 161 0.6 0\n# layer 161 4\n# body 3302811\n# pos 3302811 1\n# scale 3302811 0.8 0\n# alpha 3302811 0 0\n# brightness 3302811 0 0\n# body 162\n# pos 162 3\n# scale 162 0.6 0\n# layer 162 3\n# alpha 162 0 0\n# textwindow \"nomal\"\n# textflame 1 1\n# textboxarrow 0 3\n# voice 9953 \"mwu_0027\"\n@ムー\n意外と追っ手がかからなかったな…\nさて、これからどうすっか\n\n# voice 310021 \"revatein_ge_0013\"\n# face 3100211 \"sad\"\n# textboxarrow 0 2\n@レーヴァテイン\n…いるんでしょ\n出てきて\n\n# face 3100211 \"normal\"\n# se \"SE_0719\"\n# brightness 3302811 1 1\n# move 161 5 0.5\n# move 3100211 4 0.5\n# alpha 3302811 1 1\n# waitandnext 1\n\n# sestop \"SE_0719\"\n# voice 3028 \"herena_a_0004\"\n# textboxarrow 0 1\n@ヘレナ\n勘が良いな、レーヴァ\n元気そうでなによりだよ…\nふふっ\n\n# voice 9953 \"mwu_0009\"\n# textboxarrow 0 3\n@ムー\nヘレナ！\nてめえ、よくもやってくれたな！\nここで会ったが百年目ぇっ！\n\n# voice 310021 \"revatein_ge_0011\"\n# textboxarrow 0 3\n@レーヴァテイン\n黙って\n\n# voice 9953 \"mwu_0025\"\n# move 3100211 5 0.3\n# shake 0 0.5\n# se \"SE_0694\"\n@ムー\nムギュギュギュギュッ…\n\n# move 3100211 4 0.3\n# face 3100211 \"normal\"\n# voice 310021 \"revatein_ge_0002\"\n@レーヴァテイン\n…なにをしていたの？\n\n# voice 3028 \"herena_a_0005\"\n# textboxarrow 0 1\n@ヘレナ\nヘレナのこと怒ってないのか？\nいきなり背中を刺したのに\n…くふっ\n\n# voice 310021 \"revatein_ge_0027\"\n# face 3100211 \"sad\"\n# textboxarrow 0 3\n@レーヴァテイン\n全て計画通りだったんでしょ\n…めんどくさい\n\n# alpha 162 1 0.5\n# voice 9952 \"nir_0004\"\n# textboxarrow 0 2\n@ニール\nあらあら、レーヴァは鋭いのね！\nどこかのトカゲさんと違って\n\n# voice 9953 \"mwu_0010\"\n# face 3100211 \"normal\"\n# textboxarrow 0 3\n@ムー\n俺はトカゲじゃねえ！\n…で、どういうことだよっ？\n\n# voice 3028 \"herena_a_0027\"\n# face 3302811 \"sad\"\n# textboxarrow 0 1\n@ヘレナ\nここでレーヴァに良い報告ができたら\n良かったんだけど…\n\n@ヘレナ\nさすがに今回は\nヘレナの読みが外れたよ\n\n# face 3302811 \"usual\"\n@ヘレナ\nカリスの伝説の武具を探していたんだ\n「聖杯カリス」…\nそれがあれば彼女を解放できるだろ？\n\n# face 3100211 \"surprise\"\n# textboxarrow 0 3\n@レーヴァテイン\n見つからなかったの…？\nそれともフォルカスを\n振り切れなかった…？\n\n# voice 3028 \"herena_a_0028\"\n# face 3302811 \"sad\"\n# textboxarrow 0 1\n@ヘレナ\nフォルカスは上手くまけた\nでも「聖杯カリス」はなかった\n…なかったんだ\n\n# voice 9953 \"mwu_0022\"\n# face 3100211 \"surprise\"\n# textboxarrow 0 3\n@ムー\n…ん？\nまさか、それって\n\n# textboxarrow 0 2\n@ニール\nそのまさかよ…\n「聖杯カリス」は\n教皇庁のどこにもないわ\n\n# voice 3028 \"herena_a_0027\"\n# face 3100211 \"normal\"\n# face 3302811 \"sad\"\n# textboxarrow 0 1\n@ヘレナ\nそれどころか、ハルモニア国内に\n存在している形跡もない\nヘレナにはお手上げだな\n\n# voice 9953 \"mwu_0028\"\n# textboxarrow 0 3\n@ムー\nそんなバカな話があるかよっ\nだってカリスはいるんだぜ！\nだったら「聖杯カリス」だって…\n\n# voice 9952 \"nir_0028\"\n# textboxarrow 0 2\n@ニール\n絶対、どこかにあるって\n言いたいのよね\nそのくらいヘレナだって分かってるわ\n\n# voice 3028 \"herena_a_0003\"\n# face 3302811 \"usual\"\n# textboxarrow 0 1\n@ヘレナ\nそもそも「聖杯カリス」は\n存在自体が曖昧なんだ\nその形状も定かじゃない\n\n# textboxarrow 0 2\n@ニール\n「聖杯」の伝承だって\n不確かなものばかりなのよ\n昔からたくさんの人が探索してきたの\n\n# textboxarrow 0 1\n@ヘレナ\nそして大半が見つけられず挫折した…\nヘレナが思うに、\n「聖杯」は願望の象徴なんだ\n\n@ヘレナ\n奇跡を願い、追い求める人々の願望\nそれこそが「聖杯カリス」の\n正体なのかもね\n\n# voice 310021 \"revatein_ge_0014\"\n# face 3100211 \"sad\"\n# textboxarrow 0 3\n@レーヴァテイン\n御託はいらない\nつまり「聖杯カリス」は\n手に入らないってことでしょ\n\n# face 3302811 \"normal\"\n# textboxarrow 0 1\n@ヘレナ\nそれこそ、奇跡が起きない限りはね\nレーヴァが本気でカリスを\n仲間にしたいと願ったら\n\n# voice 3028 \"herena_a_0005\"\n@ヘレナ\n願いに応じて「聖杯」が\n具現化するかもな…\nくふっ\n\n# voice 310021 \"revatein_ge_0028\"\n# face 3100211 \"normal\"\n# textboxarrow 0 3\n@レーヴァテイン\n強い願いの具現化…\n曖昧過ぎるわね\n\n# face 3100211 \"sad\"\n@レーヴァテイン\nカリスを仲間にするのは\n諦めた方が良さそう…\n\n# textboxarrow 0 3\n@ムー\nそんな、あっさり諦めちまって\n良いのかよ！？\n他になにか良い方法ねぇのかっ？\n\n# face 3100211 \"normal\"\n@レーヴァテイン\n手がかりがない以上、\nどうすることもできないわ\n彼女のことは放っておくしかない\n\n# voice 9953 \"mwu_0027\"\n@ムー\nなんか納得いかねぇなあ…\n\n# voice 9952 \"nir_0022\"\n# bgmfile \"bgm276\" \"BgmLostRagnarokEvent\" 0\n# textboxarrow 0 2\n@ニール\nねえ！\n向こうで火の手が上がってるわよ\nあれはなにかしら？\n\n# textboxarrow 0 3\n@レーヴァテイン\nあっちは擬人区じゃなさそうだけど…\nいや待って\n\n# voice 3028 \"herena_a_0013\"\n# face 3302811 \"usual\"\n# textboxarrow 0 1\n@ヘレナ\nマリア達は引っ越すよう\n言われていたな\n確か、あの辺りに\n\n# textboxarrow 0 3\n@ムー\nおいおいおい！\nなにかまずいことになってねぇか！？\n\n# voice 310021 \"revatein_ge_0014\"\n# face 3100211 \"angry\"\n# textboxarrow 0 3\n@レーヴァテイン\n急ぐわよ\n\n# voice 3028 \"herena_a_0004\"\n# face 3302811 \"normal\"\n# textboxarrow 0 1\n@ヘレナ\nふっ…\n「人類浄化計画」の真相が\n分かりそうだな\n\n# voice 9952 \"nir_0027\"\n# textboxarrow 0 2\n@ニール\nそれも最悪の真相がね\n"
	}
]