[
	{
		"ID": 100204041,
		"script": ";;第４話　タイトル：天沼矛\n;;//背景：森\n# script \"lisp\"\n# background \"forest\"\n# bgmfile \"bgm166_167\" \"BgmPJZero001\" 0\n# textwindow \"nomal\"\n;;天沼矛\n# body 3300411\n# pos 3300411 5\n# scale 3300411 0.8 0\n# layer 3300411 1\n# alpha 3300411 0 0.5\n;;アルマス\n# body 3103811\n# pos 3103811 3\n# scale 3103811 0.8 0\n# layer 3103811 2\n;;ティニ\n# body 139\n# pos 139 5\n# scale 139 0.8 0\n# layer 139 3\n;;ギル\n# body 137\n# pos 137 1\n# scale 137 0.8 0\n;;ユノ\n# body 154\n# pos 154 3\n# scale 154 0.8 0\n# alpha 154 0 0\n# layer 154 1\n;;天沼矛♂\n# body 1300491\n# pos 1300491 3\n# scale 1300491 0.8 0\n# alpha 1300491 0 0\n# mask 1300491 off\n# textwindow \"nomal\"\n# face 3103811 \"surprise\"\n# face 139 \"surprise\"\n# face 137 \"sad\"\n# textflame 1 1\n# textboxarrow 0 2\n@アルマス\nあのキラーメイルが\n「奴隷区」に現れたの！？\nなんてこと…\n\n# face 3103811 \"worry\"\n# textboxarrow 0 1\n# voice 9969 \"gill_0025\"\n@ギル\n俺…\nユノを守るって言ったのに…\nなにも出来なくて…\n\n# textboxarrow 0 3\n@ティターニア\n自分を責めることはありません\nよく知らせに来てくれました\n\n# face 3103811 \"angry\"\n# textboxarrow 0 2\n@アルマス\n急ごう！\nきっとまだ間に合う\n\n;;//背景：街中\n# textwindow \"close\"\n# fadeout \"black\" 1\n# waitandnext 1\n\n# background \"ghost_town2\"\n# alpha 3103811 0 0\n# alpha 137 0 0\n# alpha 139 0 0\n# alpha 1300491 1 0\n# envbody 2000 7 0\n# effectstart 2000\n# waitandnext 0.5\n\n# fadein \"black\" 1\n# waitandnext 1\n\n# shake 1 0.8\n# textwindow \"nomal\"\n# textboxarrow 0 2\n@？？？\nグウウウウウウウウ！\n\n# serif 1\n@男性\nく…来るな！\nこっちに来ないでくれぇっ…！\n\n# serif 1\n@女性\n一体なんなの、この化け物はっ…？\n\n# serif 1\n# textwindow \"close\"\n# serif 0\n# textflame 1 1\n# textboxarrow 0 2\n# alpha 154 1 0.5\n# alpha 1300491 0 0.5\n@ユノ\n皆さん、こちらです！\n早く逃げて下さい！\n\n# mask 1300491 on\n# move 1300491 5 0\n# waitandnext 0.1\n\n# se \"SE_5008\"\n# sedelay \"SE_5009\" 0.2\n# sedelay \"SE_5008\" 0.4\n# move 1300491 4 0.5\n# alpha 1300491 1 0.5\n# move 154 2 0.5\n# shake 1 0.5\n# textboxarrow 0 3\n@？？？\nグウウウ…\nガアアアアアアア！\n\n# move 3103811 3 0\n# move 154 1 0.5\n# textboxarrow 0 1\n@ユノ\nこっちに近づいてくる…\nここは私が囮になって――\n\n# se \"SE_4000\"\n# leftin 3103811 0.3\n# alpha 3103811 1 0\n# waitandnext 0.2\n\n# se \"SE_4830\"\n# effectbody 700 1 150 0\n# effectpattern 700 1 7\n# effectstart 700\n# shake 1 0.6\n# move 1300491 5 0.1\n# textboxarrow 0 2\n# voice 1038 \"almace_battle_0002\"\n@アルマス\nせいっ！\n\n;;//アルマスが？？？に斬りかかる\n# textboxarrow 0 1\n@ユノ\nアルマスさんっ\nギルは間に合ったんですね…\n\n# textboxarrow 0 2\n@アルマス\nここは任せて、\nあなたも早く森に逃げなさい！\n\n# textboxarrow 0 1\n@ユノ\nでも…一人で勝てるんですか？\n\n# textboxarrow 0 2\n@アルマス\n私は一人じゃない！\n…一応、マスターがいるから\n\n# textboxarrow 0 1\n@ユノ\nマスター…？\n\n# se \"SE_5205\"\n# textboxarrow 0 2\n@アルマス\n行くわよ、キラーメイル！\nマスター、少しは頼りになるところを\n見せてよねっ\n\n# shake 1 1\n# textboxarrow 0 3\n@？？？\nグルアアアアアアアア！！\n\n# fadeout \"black\" 1\n# waitandnext 1"
	}
]