[
	{
		"ID": 100212013,
		"script": ";;----------------------------------------------\n;;100212011\n;;第2-1話戦闘前　タイトル：イノセント・ヒーラー\n;;----------------------------------------------\n# script \"lisp\"\n# background \"devil_world\"\n# bgmfile \"bgm272\" \"BgmLostRagnarokEvent\" 0\n# textwindow \"close\"\n;;ムー\n# body 161\n# pos 161 2\n# scale 161 0.6 0\n# layer 161 5\n# mask 161 off\n# alpha 161 0 0\n;;レーヴァ\n# body 3100211\n# pos 3100211 1\n# scale 3100211 0.8 0\n# layer 3100211 3\n# mask 3100211 on\n# alpha 3100211 0 0\n;;ヘレナ\n# body 3302811\n# pos 3302811 4\n# scale 3302811 0.8 0\n# layer 3302811 2\n# alpha 3302811 0 0\n;;ニール\n# body 162\n# pos 162 5\n# scale 162 0.6 0\n# layer 162 5\n# mask 162 off\n# alpha 162 0 0\n;;カリス\n# body 3602511\n# pos 3602511 3\n# scale 3602511 0.8 0\n# layer 3602511 2\n# mask 3602511 on\n;;キプル\n# body 163\n# pos 163 3\n# scale 163 0.6 0\n# layer 163 3\n# mask 163 off\n# alpha 163 0 0\n;;ケイオス兵\n# body 3820001\n# pos 3820001 4\n# scale 3820001 0.8 0\n# layer 3820001 1\n# mask 3820001 on\n# alpha 3820001 0 0\n;;カーテンフェード\n# imageset 0 \"black\"\n# imagealpha 0 0 0\n# imagelayer 0 1\n;;黒バック\n# imageset 1 \"bg_black\"\n# imagepos 1 0 0\n# imagelayer 1 1\n# imageleftin 1 0\n# imagealpha 1 0 0\n;;◆背景：ケイオスリオン-----------------------------------------\n# face 3100211 \"normal\"\n# face 3302811 \"normal\"\n# waitandnext 0.1\n\n;;回復フラッシュ\n# se \"SE_4781\"\n# subfillrect 1 \"green\" 0.8 0 0.4\n# waitandnext 1.3\n\n# subfillrect 1 \"green\" 1.0 0.4 0\n# waitandnext 1.2\n\n# textwindow \"normal\"\n# textflame 1 1\n# textboxarrow 0 2\n# face 3602511 \"happy\"\n# voice 6025 \"chalice_t_0006\"\n# chara 3602511\n@カリス\nこれで大丈夫だよ！\n負傷してる悪魔人兵士さんを\n治療しちゃうなんて…\n\n# textflame 1 1\n# textboxarrow 0 2\n# chara 3602511\n@カリス\nカリスちゃん、マジ天使！\nさ、次は誰かなーっ？\n\n# textwindow \"close\"\n# move 3602511 2 0.5\n# alpha 3820001 1 0.5\n# waitandnext 0.5\n\n# textwindow \"normal\"\n# textflame 1 1\n# textboxarrow 0 3\n# voice 382000 \"demon_0028\"\n# chara 3820001\n@ケイオスリオン兵\nううう…\nどうして…\n俺達を助けてくれるんだ…？\n\n# textflame 1 1\n# textboxarrow 0 1\n# face 3602511 \"normal\"\n# voice 6025 \"chalice_t_0004\"\n# chara 3602511\n@カリス\nう～ん…\nなんとなく、かな？\nあ、まだ喋らない方が良いよ～\n\n;;レーヴァ登場\n# textwindow \"close\"\n# alpha 3820001 0 0.5\n# alpha 3602511 0 0.5\n# waitandnext 0.5\n\n# pos 3100211 3\n# pos 161 4\n# alpha 161 1 0.5\n# alpha 3100211 1 0.5\n# waitandnext 0.5\n\n# textwindow \"normal\"\n# textflame 1 1\n# textboxarrow 0 2\n# voice 310021 \"revatein_ge_0053\"\n# chara 3100211\n@レーヴァテイン\nカリス、戻るわよ\n\n;;カリスとレーヴァ合流\n# textwindow \"close\"\n# move 3100211 4 0.5\n# move 161 5 0.5\n# pos 3602511 2\n# alpha 3602511 1 0.5\n# waitandnext 0.5\n\n# textwindow \"normal\"\n# textflame 1 1\n# textboxarrow 0 1\n# face 3602511 \"sad\"\n# voice 6025 \"chalice_t_0054\"\n# chara 3602511\n@カリス\nレーヴァ、もうちょっと待って！\nまだ兵士さん達の\n治療が終わってないから！\n\n# textflame 1 1\n# textboxarrow 0 3\n# voice 9953 \"mwu_0027\"\n# chara 161\n@ムー\nいやいや、そいつら俺達の敵だろ\nむしろなんで治療してんだって\n話だからよ\n\n# textflame 1 1\n# textboxarrow 0 3\n# chara 161\n@ムー\nまた襲ってこられたら困んだろ？\n放っといて早く行くぜ！\n\n# textflame 1 1\n# textboxarrow 0 1\n# face 3602511 \"angry\"\n# voice 6025 \"chalice_t_0011\"\n# chara 3602511\n@カリス\nやだ！\nわたしはみんなを救ってみせるって\n決めたんだから、例外はないのっ\n\n# move 3602511 3 0.3\n# textflame 1 1\n# textboxarrow 0 2\n# chara 3602511\n@カリス\nレーヴァも、わたしのミラクルを\n楽しみにしてくれてるでしょっ？\n\n# textflame 1 1\n# textboxarrow 0 2\n# voice 6025 \"chalice_t_0036\"\n# chara 3602511\n@カリス\nだからもう少し待って！\nすぐだから、すぐ！\n\n# move 3602511 2 0.5\n# textwindow \"normal\"\n# textsize 24\n# textflame 1 1\n# textboxarrow 0 3\n# voice 9953 \"mwu_0028\"\n# chara 161\n@ムー\nそんな迫ってくんなって…\nテンション高過ぎなんだよっ\nこっちも困るってもんだ\n\n# textflame 1 1\n# textboxarrow 0 3\n# face 3100211 \"sad\"\n# voice 310021 \"revatein_ge_0032\"\n# chara 3100211\n@レーヴァテイン\nはぁ…、おっけ\n気が済むまでやればいいわ\n\n# textflame 1 1\n# textboxarrow 0 3\n# face 3602511 \"normal\"\n# chara 161\n@ムー\nいいのかよ、レヴァ！？\n\n;;キプル登場（初出なので中央）\n# textwindow \"close\"\n# alpha 163 1 0.5\n# waitandnext 0.5\n\n# textwindow \"normal\"\n# textflame 1 1\n# textboxarrow 0 2\n# voice 9951 \"kipuru_0031\"\n# chara 163\n@キプル\nううっ…、すみません\nカリスがまたご迷惑をおかけして…\n\n# textflame 1 1\n# textboxarrow 0 2\n# chara 163\n@キプル\n治療が終わり次第、\nすぐに連れていきますので、\nどうか…どうかっ…！\n\n# textflame 1 3\n# textboxarrow 0 1\n# face 3602511 \"happy\"\n# voice 6025 \"chalice_t_0029\"\n# chara 3602511\n@カリス\nほら、キプル\n次はこっちだよー！\n\n;;カリスが走り去る\n# se \"SE_5575\"\n# leftout 3602511 0.5\n# textflame 1 3\n# textboxarrow 0 2\n# chara 163\n@キプル\nああ！お待ちなさい、カリス！\n謝っている最中だというのにっ…\n\n;;キプル退場\n# textwindow \"close\"\n# se \"SE_4747\"\n# leftout 163 0.6\n# waitandnext 0.6\n\n;;◆レーヴァとムー-----------------------------------------------\n# textwindow \"close\"\n# face 3100211 \"normal\"\n# alpha 163 0 0\n# alpha 3602511 0 0\n# move 161 4 0.5\n# move 3100211 3 0.5\n# waitandnext 0.5\n\n# textwindow \"normal\"\n# textflame 1 1\n# textboxarrow 0 3\n# voice 9953 \"mwu_0007\"\n# chara 161\n@ムー\nったく…忙しない奴らだぜ\nキプルも謝るくらいならもう少し\nカリスを説得して欲しいもんだ\n\n# textflame 1 1\n# textboxarrow 0 3\n# chara 161\n@ムー\nあいつ、謝罪が\n体に染みついてんじゃねえか\nってくらい謝るからなあ\n\n# textflame 1 1\n# textboxarrow 0 3\n# chara 161\n@ムー\n突っ走りがちの\nカリスに振り回されてばっか\nって感じだぜ\n\n# textflame 1 1\n# textboxarrow 0 2\n# voice 310021 \"revatein_ge_0069\"\n# chara 3100211\n@レーヴァテイン\n戻るわよ、ムー\n\n# textflame 1 1\n# textboxarrow 0 3\n# chara 161\n@ムー\nあいつら本当に放っとくのか？\nあの分だと治療だけで日が暮れるぜ\n\n# textflame 1 1\n# textboxarrow 0 2\n# face 3100211 \"sad\"\n# chara 3100211\n@レーヴァテイン\nあれは彼女の本質…\nだからどうしようもないわ…\nめんどくさい…\n\n# textflame 1 1\n# textboxarrow 0 3\n# voice 9953 \"mwu_0039\"\n# chara 161\n@ムー\nレヴァも大人になったねぇ\nそれとも諦めてんのか？\nあの救済大好き娘のこと\n\n# textflame 1 1\n# textboxarrow 0 3\n# chara 161\n@ムー\nなにを言っても無差別に助けるのを\n止める気なさそうだしなっ\n\n# textflame 1 1\n# textboxarrow 0 2\n# face 3100211 \"normal\"\n# voice 310021 \"revatein_ge_0013\"\n# chara 3100211\n@レーヴァテイン\nはぁ…\n私が焚きつけたところも\nあるから…あのとき\n\n# textflame 1 1\n# textboxarrow 0 3\n# voice 9953 \"mwu_0005\"\n# chara 161\n@ムー\nははは！\nまあ、ありゃまさにミラクルだった\nからなあ"
	}
]