[
	{
		"ID": 100201051,
		"script": ";;２章１話５戦闘前\n;;第１話　タイトル：トレイセーマ潜入\n;;//背景：街中\n# script \"lisp\"\n# background \"004_outland_enening\"\n# bgmfile \"bgm272\" \"BgmLostRagnarokEvent\" 0\n;;アルマス\n# body 151\n# pos 151 3\n# scale 151 0.8 0\n;;ギル\n# body 153\n# pos 153 1\n# scale 153 0.8 0\n;;ティターニア\n# body 152\n# pos 152 5\n# scale 152 0.8 0\n# layer 151 2\n# layer 153 1\n# layer 152 5\n;;アルマスボイス用\n# body 3103811\n# pos 3103811 3\n# alpha 3103811 0 0\n# textflame 1 1\n# textboxarrow 0 2\n# chara 151\n@アルマス\n首都までもう一息ね\nここまでは順調だった\n\n# face 152 \"sad\"\n# textflame 1 1\n# textboxarrow 0 3\n# chara 152\n# voice 9967 \"titania_0042\"\n@ティターニア\nトレイセーマ軍は\n私達に全く興味がないようですね…\nでも…\n\n# face 151 \"surprise\"\n# textflame 1 1\n# textboxarrow 0 2\n# chara 151\n@アルマス\nどうしたの、ティニ？\n\n# textflame 1 1\n# textboxarrow 0 3\n# chara 152\n@ティターニア\n…実は、\nトレイセーマ国内に入ってから\n\n# face 152 \"angry\"\n# textflame 1 1\n# textboxarrow 0 3\n# chara 152\n@ティターニア\nずっと誰かに見られているような…\nそんな気がしてならないんです\n\n# face 151 \"angry\"\n# face 153 \"surprise\"\n# textflame 1 1\n# textboxarrow 0 1\n# chara 153\n# voice 9969 \"gill_0024\"\n@ギル\n監視されてるってのか！？\nどこだよ！？\n\n# face 152 \"sad\"\n# textflame 1 1\n# textboxarrow 0 3\n# chara 152\n# voice 9967 \"titania_0067\"\n@ティターニア\n落ち着いて下さい、ギル\nそんな気がする、\nというくらいのものなのです\n\n# face 153 \"normal\"\n# face 151 \"normal\"\n# textflame 1 1\n# textboxarrow 0 2\n# chara 151\n# voice 1038 \"almace_0028\"\n@アルマス\nティニの感覚は\nバカにできないと思うけど…\n\n# textflame 1 1\n# textboxarrow 0 2\n# chara 151\n@アルマス\n悪意や殺気なら私だって\n感じられるはずだし…\n\n# textflame 1 1\n# textboxarrow 0 3\n# chara 152\n@ティターニア\n気のせい…\nだと良いのですけれど…\n\n# face 153 \"angry\"\n# textflame 1 1\n# textboxarrow 0 1\n# chara 153\n@ギル\nすっげぇ気になるじゃねえか！\n\n# face 153 \"surprise\"\n# textflame 1 1\n# textboxarrow 0 1\n# chara 153\n# voice 9969 \"gill_0026\"\n@ギル\nうわ！？\n…今、そこの木に誰か！？\n\n# face 153 \"normal\"\n# textflame 1 1\n# textboxarrow 0 1\n# chara 153\n@ギル\n…気のせいか？\n\n# face 151 \"sad\"\n# textflame 1 1\n# textboxarrow 0 2\n# chara 151\n# voice 1038 \"almace_0005\"\n@アルマス\nぷふぅっ…！\n木のせいで、気のせい…\nアハハハハ！\n\n# face 153 \"sad\"\n# textflame 1 1\n# textboxarrow 0 1\n# chara 153\n# voice 9969 \"gill_0036\"\n@ギル\nどの辺に笑う要素があったんだよ…\nアルマスのツボが分からねえ…\n\n# bgmfile \"bgm276\" \"BgmLostRagnarokEvent\" 0\n# serif 1\n# textboxarrow 1 0\n@トレイセーマ民\nイミテーションの分際で、\n人間様に口答えしてんじゃねえ！！\n\n;;//トレイセーマ民が人間を殴る\n# se \"SE_4602\"\n# face 152 \"surprise\"\n# face 153 \"surprise\"\n# face 151 \"surprise\"\n# serif 1\n# textboxarrow 1 0\n@人間\nすみません！\nすみません…！\n\n# face 151 \"angry\"\n# serif 1\n# textwindow \"close\"\n# serif 0\n# textwindow \"normal\"\n# textflame 1 1\n# textboxarrow 0 2\n# chara 151\n@アルマス\nあれって…！\nあいつっ\n\n# face 152 \"angry\"\n# textflame 1 1\n# textboxarrow 0 3\n# chara 152\n# voice 9967 \"titania_navi_1012\"\n@ティターニア\n堪えて下さい、アルマスっ\n今、騒ぎを起こすわけにはいきません\n\n# face 151 \"worry\"\n# textflame 1 1\n# textboxarrow 0 2\n# chara 151\n# voice 1038 \"almace_0013\"\n@アルマス\n…分かってる\n私だって少しは我慢できるように\nなったんだから\n\n# face 153 \"normal\"\n# textflame 1 1\n# textboxarrow 0 1\n# chara 153\n@ギル\n…あの人達、町の外に出ていくぜ？\nもう日が暮れるっていうのに、\nどこに行くんだろう？\n"
	}
]