[
	{
		"ID": 100204021,
		"script": ";;第４話　タイトル：天沼矛\n;;//背景：街中\n# script \"lisp\"\n# background \"town\"\n# bgmfile \"bgm271\" \"BgmLostRagnarokEvent\" 0\n# textwindow \"nomal\"\n# body 3300411\n# pos 3300411 5\n# scale 3300411 0.8 0\n# layer 3300411 1\n# alpha 3300411 0 0.5\n# body 3103811\n# pos 3103811 3\n# scale 3103811 0.8 0\n# layer 3103811 2\n# body 139\n# pos 139 5\n# scale 139 0.8 0\n# layer 139 3\n# body 137\n# pos 137 1\n# scale 137 0.8 0\n# body 154\n# pos 154 5\n# scale 154 0.8 0\n# alpha 154 0 0\n# textwindow \"nomal\"\n# textflame 1 1\n# textboxarrow 0 3\n@ティターニア\n救助は一段落しましたね\nあとはトレイセーマの救援部隊に\nお任せしましょう\n\n# face 3103811 \"angry\"\n# textboxarrow 0 2\n# voice 1038 \"almace_0047\"\n@アルマス\n私達は逃げていったキラーメイルを\n捕まえないといけないわ！\n今度こそ行くわよ、マスター！\n\n# face 137 \"sad\"\n# textboxarrow 0 1\n# voice 9969 \"gill_0025\"\n@ギル\nでも、あいつに勝てるのかよ…？\n全く歯が立たなかったじゃないか…\n\n# face 139 \"worry\"\n# textboxarrow 0 3\n# voice 9967 \"titania_0020\"\n@ティターニア\nアルマス…なんの対策もなく戦っても\n先程の二の舞です\n作戦を立てなければ\n\n# face 3103811 \"worry\"\n# textboxarrow 0 2\n@アルマス\nそんなことを言っている間に、\nあいつを捕り逃がすかもしれないのよ\nそれに…\n\n# face 3103811 \"angry\"\n@アルマス\nあのキラーメイルがまたどこかの町を\n襲ったらどうするのっ？\n\n# face 139 \"surprise\"\n# textboxarrow 0 3\n@ティターニア\nそれは…\nそういえば不思議ですね\n\n# face 139 \"worry\"\n# voice 9967 \"titania_0042\"\n@ティターニア\nこれまでキラーメイルに町を襲われた\nという話は聞いたことがありません\n\n@ティターニア\nそもそも姿を見かけることすら\nなかったというのに…これはなにか\n裏がありそうですね\n\n# textboxarrow 0 2\n@アルマス\n考えてるばかりじゃ\nなにも始まらない！\n私は行くわよ、ティニ！\n\n;;//アルマスが走り去る\n# se \"SE_5575\"\n# face 137 \"surprise\"\n# face 139 \"surprise\"\n# textboxarrow 0 0\n# alpha 3103811 0 0.8\n# waitandnext 0.8\n\n# move 139 3 0.5\n# textboxarrow 0 2\n# voice 9967 \"titania_0065\"\n@ティターニア\nお待ちなさい、アルマス！\nまた、あの子はっ…\n\n# select \"アルマスに賛成だ\" \"select_label_01\" \"やるしかない！\" \"select_label_02\" \"まず動くべきだろう\" \"select_label_03\"\nお待ちなさい、アルマス！\nまた、あの子はっ…\n\n# label \"select_label_01\"\n# labeljump \"select_label_end\"\n# textflame 1 1\n# textboxarrow 0 2\n@ティターニア\nえっ？\nマスター、アナタもアルマスに\n賛成なのですかっ？\n\n# label \"select_label_02\"\n# labeljump \"select_label_end\"\n# textflame 1 1\n# textboxarrow 0 2\n@ティターニア\nえっ？\nマスター、アナタもアルマスに\n賛成なのですかっ？\n\n# label \"select_label_03\"\n# labeljump \"select_label_end\"\n# textflame 1 1\n# textboxarrow 0 2\n@ティターニア\nえっ？\nマスター、アナタもアルマスに\n賛成なのですかっ？\n\n# label \"select_label_end\"\n# face 139 \"normal\"\n# face 137 \"normal\"\n@ティターニア\n…分かりました\nあの子をお願いします\n\n@ティターニア\nギル、アナタはユノを家まで\n送りなさい\nこれ以上は危険です\n\n# alpha 154 1 0.5\n# textboxarrow 0 3\n@ユノ\n私は平気だよ！\nもっとアルマス達の側にいさせてっ\n\n# face 137 \"surprise\"\n# textboxarrow 0 1\n@ギル\nなに言ってんだよっ\nこれ以上は本当に危ないんだ！\nユノ、家に帰ろうぜ\n\n# face 137 \"usual\"\n# voice 9969 \"gill_0035\"\n@ギル\n俺、お前のこと守ってみせるから\n\n# textboxarrow 0 3\n@ユノ\nギルがそこまで言うなら…\n\n# face 139 \"surprise\"\n# textboxarrow 0 2\n@ティターニア\n決まりですね\n天沼矛は…あらっ？\n天沼矛がいない！？\n\n# face 137 \"surprise\"\n# voice 9967 \"titania_0015\"\n@ティターニア\n私としたことが…\nきっとアルマスを\n追っていったんですね…"
	}
]