[
	{
		"ID": 10035204,
		"script": "# script \"lisp\"\n# background \"town\"\n# bgm \"bgm002\" 0\n# body 100351\n# pos 100351 3\n# mask 100351 off\n# textboxarrow 0 2\n# chara 100351\n# textboxarrow 0 2\n# textflame 0 0\n@\nあれから数日後─\n\n@\n再び街を歩いている\nマスターとデュランダル\n\n# textflame 1 1\n# chara 100351\n# face 100351 \"angry\"\n@デュランダル\n………\n\n# textflame 0 0\n@\n真剣な眼差しの彼女\n\n# textflame 1 1\n# chara 100351\n# face 100351 \"sad\"\n@デュランダル\n…むぅぅ\n\n# textflame 0 0\n@\nそんな探したって、\n迷子なんて、そうそういないよ？\nそれよりさ…\n\n@\nマスターが声を掛ける\nそれを制すように、\n\n# textflame 1 1\n# chara 100351\n# face 100351 \"surprise\"\n# voice 1003 \"durandaru_0014\"\n@デュランダル\n…べ、別にそんなんじゃ\nありません！\n\n# textflame 0 0\n@\n慌てて否定する彼女\n\n# textflame 1 1\n# chara 100351\n# face 100351 \"angry\"\n@デュランダル\nもう、あんなに泣かれるのは\nゴメンなのです！！\n\n# chara 100351\n@デュランダル\n迷子なんていないなら、\nその方が幸せッ！\n\n# chara 100351\n# voice 1003 \"durandaru_0027\"\n# face 100351 \"normal\"\n@デュランダル\nわたくしは淑女なのですよ？\n人の不幸を探すなんて真似…\n\n# textflame 0 0\n@\nそこに大きな荷物を持った\nお婆ちゃんが通り掛かる\n\n# textflame 1 1\n# chara 100351\n# face 100351 \"happy\"\n# voice 1003 \"durandaru_kyara_1011\"\n@デュランダル\nあら、大変そうですわね！？\nその荷物、お持ち致しますわ、\nお婆ちゃま！\n\n# textflame 0 0\n@\n家まで送ってもらい、\n礼を言って去ってゆく\nお婆ちゃん\n\n# textflame 1 1\n# chara 100351\n# voice 1003 \"durandaru_0004\"\n@デュランダル\nうふふ♪\n\n# select \"不幸？困った人を探してたんでしょ？\" \"select_label_01\" \"人を幸せにするのが好きなんだよね？\" \"select_label_02\" \"随分、嬉しそうだね？人の幸せが\" \"select_label_03\"\nうふふ♪\n\n# label \"select_label_01\"\n# labeljump \"select_label_end\"\n# face 100351 \"surprise\"\n# textflame 1 1\n# chara 100351\n@デュランダル\n…う、ま、まぁ…\n\n# label \"select_label_02\"\n# labeljump \"select_label_end\"\n# face 100351 \"happy\"\n# textflame 1 1\n# chara 100351\n@デュランダル\n当然です！だって…\n\n# label \"select_label_03\"\n# labeljump \"select_label_end\"\n# face 100351 \"happy\"\n# textflame 1 1\n# chara 100351\n@デュランダル\nうふふ…はい！\n\n# label \"select_label_end\"\n# chara 100351\n# face 100351 \"normal\"\n@デュランダル\n“感謝”という名の\n見返りを求めるなんて行為…\n\n# chara 100351\n# face 100351 \"sad\"\n@デュランダル\n淑女の精神に反しているとも\n思いましたわ…\nでも、やっぱりわたくしは…\n\n# chara 100351\n# face 100351 \"happy\"\n# voice 1003 \"durandaru_0004\"\n@デュランダル\n人の笑顔に\nチカラをもらえるのです！\n\n# chara 100351\n# face 100351 \"angry\"\n@デュランダル\nだから、助けてあげたい！\n困っている人達を！！\nそれがわたくしの…\n\n# chara 100351\n@デュランダル\n淑女道ですわ！！\n\n#se \"SE_0602\"\n# textflame 0 0\n@\nその想いが、彼女に新たなる奥義\n『レディグラッツェ』を\n授けていた\n\n@\nじゃあさ…\nと彼女に声を掛けるマスター\n\n# textflame 1 1\n# chara 100351\n# face 100351 \"normal\"\n@デュランダル\nなんですの？\n\n# textflame 0 0\n@\n君が買った、この大量のマカロン…\n持ってもらえないかな…？\nと、お伺いを立てるマスター\n\n# textflame 1 1\n# chara 100351\n# face 100351 \"happy\"\n# voice 1003 \"durandaru_kyara_1011\"\n@デュランダル\nあら、失礼\nそんなに困ってるようには\n見えませんでしたので\n\n# chara 100351\n@デュランダル\nでも、困っていると仰るのなら\n仕方ないですわね～\n\n# textflame 0 0\n@\n上から目線で、妙に得意げな彼女\n\n@\nだがマスターは、\nちゃんと彼女の優しさを\n知っていた\n\n# imageset 0 \"c100351\"\n# imagealpha 0 0 0\n# textflame 1 1\n# chara 100351\n@デュランダル\n持ってあげてもよろしくてよ\n\n# imagealpha 0 1 0\n# imagepos 0 0 0 \n# voice 1003 \"durandaru_kyara_0011\"\n# fadein \"white\" 3\n# textwindow \"close\""
	}
]