[
	{
		"ID": 100502063,
		"script": "# background \"400_angel_town_daytime\"\n# bgmfile \"bgm276\" \"BgmLostRagnarokEvent\" 0\n# body 3100711\n# mask 3100711 off\n# pos 3100711 3\n# scale 3100711 0.8 0\n# alpha 3100711 0 0\n# body 3104011\n# pos 3104011 4\n# scale 3104011 0.8 0\n# body 3104111\n# pos 3104111 2\n# scale 3104111 0.8 0\n# face 3104011 \"happy\"\n# face 3104111 \"happy\"\n# textwindow \"nomal\"\n# textflame 1 1\n# textboxarrow 0 3\n# voice 1040 \"morallta_battle_0001\"\n@モラルタ\nアハハハハ！\nお姉さん、そんな剣でボクは\n殺せないないないよぉ！！\n\n# voice 310071 \"arondaito_ge_0013\"\n# alpha 3104011 0 0.5\n# alpha 3104111 0 0.5\n# alpha 3100711 1 0.5\n# face 3100711 \"sad\"\n# textboxarrow 0 2\n@アロンダイト\nどういうことですか…\n全く手応えが感じられませんっ\n"
	}
]