[
	{
		"ID": 10065201,
		"script": ";;【EP1】(フリ)\n# script \"lisp\"\n# background \"classroom01\"\n# bgm \"bgm002\" 0\n# body 76\n# pos 76 3\n# mask 76 off\n# textboxarrow 0 2\n# chara 76\n# voice 1006 \"nageruring_0026\"\n# face 76 \"angry\"\n# textflame 1 1\n@ナーゲルリング\nこんなフリフリの服を着て…\nおかえりなさいませご主人様？\nどういう設定ですかそれ…\n\n# textflame 0 0\n@\n学園祭の準備期間中\n最後の最後まで陰で\nぶつくさ言っていた彼女を思い出す…\n\n# voice 1006 \"nageruring_0005\"\n# face 76 \"happy\"\n# textflame 1 1\n# chara 76\n@ナーゲルリング\nお待たせいたしました、ご主人様！\n萌えキュンオムライス\n二人前でございます♪\n\n# voice 1006 \"nageruring_0003\"\n# textflame 1 1\n# chara 76\n@ナーゲルリング\nケチャップでお名前を\n書かせていただいても\nよろしいでしょうか～？\n\n# textflame 0 0\n@\n支給されたメイド服を持って\nしかめっ面をしていたのが\nまるで嘘のようだ…\n\n# textflame 0 0\n# face 76 \"normal\"\n@\n今ではまったくそんな素振りも見せず\nナーゲルリングはとびっきりの笑顔で\nところ狭しと店内を行き来している\n\n# voice 1006 \"nageruring_0004\"\n# face 76 \"happy\"\n# textflame 1 1\n# chara 76\n@ナーゲルリング\nは～いご主人様♪\nドジっ娘メイドの熱々ココアですね？\nお待ちくださいませ～！\n\n# textflame 1 1\n# chara 76\n@ナーゲルリング\nそちらのお嬢様も\nご注文はお決まりですか？\n…はい、またのちほど伺います♪\n\n# textflame 0 0\n@\nシェキナーが夜なべして作ったらしい\nメイドの接客マニュアルを\n開きもしていない様子だったが…\n\n# textflame 1 1\n# chara 76\n@ナーゲルリング\nそれでは、こちらのお飲み物に\n美味しくなる呪文をかけますね♪\nも～え～き～る～きゅん☆\n\n# textflame 0 0\n@\n完璧過ぎるくらい完璧なメイド接客\nどこで覚えたのか…ではなく\nまったくもって感心するしかない\n\n# textflame 0 0\n@\n一言、すごいねと伝えたくて\n厨房に下がったナーゲルリングを\n追いかけるマスター\n\n# textflame 1 1\n# face 76 \"sad\"\n# chara 76\n@ナーゲルリング\n……はぁぁ～\n\n# textflame 0 0\n@\nナーゲルリングはうってかわって\n疲れ切ったような表情で\n壁に寄りかかっている…\n\n# voice 1006 \"nageruring_0008\"\n# face 76 \"surprise\"\n# textflame 1 1\n# chara 76\n@ナーゲルリング\nあ…マスター\nごめんなさい、すぐ出ますね\n…おかえりなさいませ、ご主人様♪\n\n# textflame 0 0\n# face 76 \"happy\"\n@\n何事もなかったかのように\n笑顔に戻るナーゲルリングだったが\nマスターは気になって仕方がなかった\n"
	}
]