[
	{
		"ID": 10071302,
		"script": "# script \"lisp\"\n# background \"highland\"\n# bgm \"bgm003\" 0\n# body 100713\n# mask 100713 off\n# pos 100713 3\n# textboxarrow 0 2\n# face 100713 \"angry\"\n# chara 100713\n@アロンダイト\nはぁッ！はぁッ！はぁッ！\n# se \"SE_4000\"\n\n# se \"SE_4100\"\n# chara 100713\n@アロンダイト\nす…素振り…百万回…\nお…終わりッ…！\n\n# chara 100713\n@アロンダイト\n…はぁ…はぁ…\n…あ、マスター\nまだ…見てらしたのですか…？\n\n# face 100713 \"amazed\"\n# chara 100713\n@アロンダイト\nさっきは…素っ気無く断ってしまい\n申し訳ありませんでした…\nせっかく誘って頂いたのに\n\n# face 100713 \"normal\"\n# chara 100713\n@アロンダイト\nでも…少し気分が晴れました…\nそれは、いつも気に掛けて下さる\nマスターのおかげかも\n\n# chara 100713\n@アロンダイト\nま…まだ間に合うのであれば…\nお付き合い願えますか…？\n遊びに…\n\n# textflame 0 0\n@\n遠慮がちに、\n上目遣いで尋ねてくるアロンダイト\n\n# select \"アロンダイトは本当に真面目だな\" \"select_label_01\" \"稽古も大事だけどリフレッシュもね\" \"select_label_02\" \"そんな、遠慮しなくていいんだよ！\" \"select_label_03\"\n遠慮がちに、\n上目遣いで尋ねてくるアロンダイト\n\n# textflame 1 1\n# label \"select_label_01\"\n# labeljump \"select_label_end\"\n# chara 100713\n@アロンダイト\nゆ…融通が利かなくて…\n頑固なだけです…\n\n# textflame 1 1\n# label \"select_label_02\"\n# labeljump \"select_label_end\"\n# chara 100713\n@アロンダイト\nはい…その心の余裕がなければ\n強くはなれませんね\n\n# textflame 1 1\n# label \"select_label_03\"\n# labeljump \"select_label_end\"\n# chara 100713\n@アロンダイト　\nそれではいけないのです…\n常に強くなければ…\n\n# label \"select_label_end\"\n# face 100713 \"shy\"\n# chara 100713\n@アロンダイト\nマスターをお守りするのが、\n私の使命ですから\nいつだって…強くありたいのです\n\n# chara 100713\n@アロンダイト\n冷たく…愛想がないと\nお感じかも知れませんが…\n\n# chara 100713\n@アロンダイト\nマスターをお守りしたい…\nその気持ちは本物ですから\n\n# textflame 0 0\n@\n真剣な目で、\nマスターをじっと\n見つめる彼女\n\n# textflame 1 1\n# voice 1007 \"Arondaito_0020\"\n# face 100713 \"happy\"\n# chara 100713\n@アロンダイト\n…あ、蝶々さん\nふふ、あなたも一緒に\n遊びに行く？\n\n# textflame 0 0\n@\n目の前で、ひらひらと舞う蝶\nアロンダイトは優しく手を\n差し出した…が、\n\n# textflame 1 1\n# face 100713 \"amazed\"\n# chara 100713\n# voice 1007 \"Arondaito_0024\"\n@アロンダイト\n…っ！\nなぜ…蝶々さんを捕まえる事が\n出来ないのでしょうか\n\n# chara 100713\n@アロンダイト\n何度やっても…\n\n# textflame 0 0\n@\n蝶は彼女の手から\n身をかわし逃げてゆく\n\n# textflame 1 1\n# face 100713 \"surprise\"\n# chara 100713\n@アロンダイト\nこれはもしかして…\n新たな稽古になるかも！\n\n# textflame 0 0\n@\nそう言って目を閉じ、\n精神を統一し始めた\nアロンダイト\n\n# textflame 0 0\n@\n「あの…遊びは…？」\n尋ねるマスター\n\n# textflame 1 1\n# voice 1007 \"Arondaito_0031\"\n# face 100713 \"angry\"\n# chara 100713\n@アロンダイト\n申し訳ありませんが…\n今はそれどころでは\nありませんから\n\n# textflame 0 0\n@\n本当に真面目で稽古の虫…\nまあ、そこが彼女のいいところか…\nと思うマスターだった"
	}
]