[
	{
		"ID": 10094203,
		"script": ";;バルムンク【EP3】(オチ)\n# script \"lisp\"\n# background \"town\"\n# bgm \"bgm002\" 0\n# body 100941\n# pos 100941 3\n# mask 100941 off\n# face 100941 \"angry\"\n# alpha 100941 0 0\n# textboxarrow 0 2\n# chara 100941\n# textflame 0 0\n@\n悲鳴の聞こえた場所まで\nやってきたマスター\n\n@\nそこには窓にしがみ付き、\n落ちそうになっている\n小さな子供の姿が…\n\n@\nまずい…！\n\n@\n力が抜け、子どもが\n手を離してしまった\nその瞬間…！\n\n;;トゲトゲ吹き出し\n;;文字大きく\n# se \"SE_5224\"\n# fadein \"white\" 1\n# textflame 1 1\n# textwindow \"toge\"\n# textsize 32\n# chara 100941\n# alpha 100941 1 0\n# rightin 100941 0.3\n# voice 1009 \"barumunku_0029\"\n@バルムンク\nテェェェーーーイッ！！\n\n# textflame 0 0\n# textwindow \"nomal\"\n# textsize 24\n@\nすさまじいスピードで\n子どもの落下を受け止める黒い影\n\n# textflame 1 1\n# textwindow \"nomal\"\n# chara 100941\n# face 100941 \"surprise\"\n# voice 1009 \"barumunku_0037\"\n@バルムンク\n大丈夫！？\n\n# textflame 0 0\n@\n子どもの窮地を救ったのは、\nバルムンクだった\n\n# textflame 1 1\n# chara 100941\n# face 100941 \"happy\"\n# voice 1009 \"barumunku_kyara_1008\"\n@バルムンク\n良かった…間に合った\n\n# se \"SE_0602\"\n# textflame 0 0\n@\nそれは彼女の新たなる奥義\n『雷が如し龍ノ瞬き』\n誕生の瞬間だった\n\n# textflame 0 0\n@\nありがとう…とマスターが\n声を掛けてくる\n\n# textflame 1 1\n# chara 100941\n# face 100941 \"normal\"\n# voice 1009 \"barumunku_0004\"\n@バルムンク\n大切な使命を…\n忘れるところでした\n\n# chara 100941\n@バルムンク\n人々を救うという…\nキル姫の使命を\n\n;;もやもや吹き出し\n# textwindow \"moya\"\n# textboxarrow 0 0\n# chara 100941\n# face 100941 \"sad\"\n@バルムンク\nその大義に比べたら…\n私の願いなんて、\nとてもちっぽけ\n\n;;もやもや吹き出し\n# chara 100941\n@バルムンク\n私の小さな願いは、\n今じゃなくても、\nいつか叶えば…\n\n# textflame 0 0\n@\nじゃあ、行こっか！\nマスターが声を上げる\n\n# textflame 1 1\n# textwindow \"nomal\"\n# textboxarrow 0 2\n# chara 100941\n# face 100941 \"surprise\"\n# voice 1009 \"barumunku_0022\"\n@バルムンク\nえ…？\nど…どこへ…？\n\n# textflame  0 0\n@\nどこって…\nお茶するんじゃなかったっけ？\nと答えるマスター\n\n# textflame 1 1\n# chara 100941\n# voice 1009 \"barumunku_0023\"\n@バルムンク\n…！\n\n# chara 100941\n# voice 1009 \"barumunku_0024\"\n@バルムンク\n忘れて…なかったんですか\n覚えてくれてたんですか…？\n\n# textflame 0 0\n@\n当たり前じゃない！\nさ、行こう！\nと進むマスター\n\n@\nその裾を、\nくいっと引っ張るバルムンク\n\n;;選択肢\n# select \"あれ？行かないの…？\" \"select_label_01\" \"どうしたの…？\" \"select_label_02\" \"やっぱり…違う店がいい？\" \"select_label_03\"\nその裾を、\nくいっと引っ張るバルムンク\n\n# label \"select_label_01\"\n# labeljump \"select_label_end\"\n# face 100941 \"sad\"\n# textflame 1 1\n# chara 100941\n@バルムンク\n行きます…ただ…\n\n# label \"select_label_02\"\n# labeljump \"select_label_end\"\n# face 100941 \"sad\"\n# textflame 1 1\n# chara 100941\n@バルムンク\n私は…他の姫が…\n\n# label \"select_label_03\"\n# labeljump \"select_label_end\"\n# face 100941 \"sad\"\n# textflame 1 1\n# chara 100941\n@バルムンク\nいいえ…ただ…\n\n# label \"select_label_end\"\n# chara 100941\n# face 100941 \"sad\"\n@バルムンク\n羨ましかったんです\n\n# chara 100941\n# face 100941 \"shy\"\n@バルムンク\n私もこうして…\nみんなのように…\n\n# chara 100941\n# face 100941 \"happy\"\n# voice 1009 \"barumunku_0005\"\n@バルムンク\nマスターのこと、\n引っ張ってみたかったんです\n\n# imageset 0 \"c100941\"\n# imagealpha 0 0 0\n# textflame 0 0\n@\n裾を持ったまま、\n頬を赤く染める\nバルムンクだった\n\n;;「目立ちたくないとは言いましたけど…マスターには気にかけてほしいなっていうか…」\n# imagealpha 0 1 0\n# imagepos 0 0 0 \n# voice 1009 \"barumunku_kyara_0010\"\n# fadein \"white\" 3\n# textwindow \"close\"\n"
	}
]