[
	{
		"ID": 10102303,
		"script": "# script \"lisp\"\n# background \"town\"\n# bgm \"bgm003\" 0\n# body 101021\n# mask 101021 off\n# pos 101021 3\n# textboxarrow 0 2\n# textflame 1 1\n# chara 101021\n@フラガラッハ\n少しだけ待ってて下さる、\nマスター？\n\n# face 101021 \"angry\"\n# textflame 1 1\n# chara 101021\n@フラガラッハ\n怪我をしたウサちゃんは\n必ず見つけ出す\nそして…必ず、あなたの元に帰る\n\n# face 101021 \"smile\"\n# textflame 1 1\n# chara 101021\n@フラガラッハ\n安心なさって？わたしのキラーズは、\n必ず主の元に戻る剣…\nフラガラッハよ\n\n# textflame 1 1\n# chara 101021\n@フラガラッハ\nそれに…\nあなたが心配なさっている\n理由は…\n\n# textflame 1 1\n# chara 101021\n@フラガラッハ\nわたしに付けられた傷は…\n決して治癒されないから…\n…でしょ？\n\n# face 101021 \"angry\"\n# voice 1010 \"furagaraha_kyara_1001\"\n# textflame 1 1\n# chara 101021\n@フラガラッハ\n大丈夫…\n必ず…何とかしてみせる\n奇跡を信じて…！\n\n# select \"わかった…君に任せたよ\" \"select_label_01\" \"頼んだよ、フラガラッハ\" \"select_label_02\" \"僕も信じるよ…奇跡を！\" \"select_label_03\"\n大丈夫…\n必ず…何とかしてみせる\n奇跡を信じて…！\n\n# label \"select_label_01\"\n# labeljump \"select_label_end\"\n# face 101021 \"smile\"\n# textflame 1 1\n# chara 101021\n@フラガラッハ\nえぇ、決めてみせるわ…\n華麗に美しく！\n\n# label \"select_label_02\"\n# labeljump \"select_label_end\"\n# face 101021 \"smile\"\n# textflame 1 1\n# chara 101021\n@フラガラッハ\nふふ、優雅に\nお茶でも飲んで待っていて\n\n# label \"select_label_03\"\n# labeljump \"select_label_end\"\n# face 101021 \"smile\"\n# textflame 1 1\n# chara 101021\n@フラガラッハ\nあなたの目…美しいわ\n\n# label \"select_label_end\"\n# textflame 0 0\n@\nそう言って、彼女は瞬く間に\nマスターの元から駆けて行くのだった\n\n# fadeout \"black\" 0.5\n\n# fadein \"black\" 0.5\n# face 101021 \"sad\"\n# voice 1010 \"furagaraha_0001\"\n# textflame 1 1\n# chara 101021\n@フラガラッハ\nマスター、あなたは…\n\n# textflame 1 1\n# chara 101021\n@フラガラッハ\nなんて美しき心の持ち主\n\n# face 101021 \"angry\"\n# textflame 1 1\n# chara 101021\n@フラガラッハ\nその心に…添い遂げたい…\n美しき心を…傷つけたくない…！\n\n# face 101021 \"surprise\"\n# voice 1010 \"furagaraha_0023\"\n# textflame 1 1\n# chara 101021\n@フラガラッハ\n…！\nあれは…\n\n# textflame 0 0\n@\n彼女の目の前には、\n足から血を流す一羽のウサギ\n\n# face 101021 \"normal\"\n# textflame 1 1\n# chara 101021\n@フラガラッハ\nもう安心して…\nあなたの傷は…\n\n# face 101021 \"angry\"\n# textflame 1 1\n# chara 101021\n@フラガラッハ\nわたしが治すから！！\n\n# voice 1010 \"furagaraha_0029\"\n# textwindow \"toge\"\n# textsize 32\n# textflame 1 1\n# chara 101021\n@フラガラッハ\nはああああ！！\n\n# textflame 0 0\n# textsize 24\n@\n光に包まれた手を\nウサギにかざす彼女\n\n# textflame 1 1\n# textwindow \"nomal\"\n# chara 101021\n@フラガラッハ\n届け…この想い！！\n\n# imageset 1 \"bg_white\"\n# imagepos 1 0 0\n# imagealpha 1 0 0\n# se \"SE_0602\"\n# textflame 1 1\n# chara 101021\n@フラガラッハ\n新技『ティルナソーラス』、\n発動！！\n\n# imagepos 1 0 0\n# imagealpha 1 1 1\n# textflame 0 0\n@\n彼女の放つ光が、\nウサギを優しく包み込んだ\n\n# imagepos 1 0 0\n# imagealpha 1 0 0.5\n# background \"town\"\n# alpha 101021 0 0\n# textflame 0 0\n@\n…一時間後\n\n# textflame 0 0\n@\n彼女に指定された場所へと\nやってきたマスター\n果たして、彼女は…\n\n# alpha 101021 1 0.3\n# face 101021 \"smile\"\n# voice 1010 \"furagaraha_0004\"\n# textflame 1 1\n# chara 101021\n@フラガラッハ\n遅かったですわね、マスター\n待ちくたびれましたわ\n\n# textflame 1 1\n# chara 101021\n@フラガラッハ\nほら、見て下さい\nウサちゃんも、この通り\n\n# textflame 0 0\n@\n彼女の足元で、\n元気にニンジンを食べている\nウサギ\n\n# textflame 0 0\n@\nありがとう\n…と、マスターが\n彼女に礼を言う\n\n# face 101021 \"sad\"\n# textflame 1 1\n# chara 101021\n@フラガラッハ\nこの子を傷つけたのは、\nわたしなのにお礼なんて…\nあなたって人は…どこまでも…\n\n# face 101021 \"smile\"\n# voice 1010 \"furagaraha_0004\"\n# textflame 1 1\n# chara 101021\n@フラガラッハ\nふふ…わたしが間違ってましたわ\n\n# face 101021 \"normal\"\n# textflame 1 1\n# chara 101021\n@フラガラッハ\nあなたを見惚れさせたいのなら…\n外の美しさを磨いても仕方がない\n\n# textflame 1 1\n# chara 101021\n@フラガラッハ\nあなたを見惚れさせるには…\n中から溢れ出る、\n心の美しさを磨かないと！\n\n# face 101021 \"smile\"\n# voice 1010 \"furagaraha_0006\"\n# textflame 1 1\n# chara 101021\n@フラガラッハ\nよし、わたし…\nこれから、もっともっと\n磨いていきますわ！\n\n# textflame 1 1\n# chara 101021\n@フラガラッハ\nあなたをこの美貌にも…\nそして、\n心にも見惚れさせるから！\n\n# textflame 0 0\n@\nそう言い放った彼女の瞳は、\nとても澄み渡っていた\n\n# face 101021 \"surprise\"\n# textflame 1 1\n# chara 101021\n@フラガラッハ\nあら？\nどうなさったの…？\n\n# textflame 0 0\n@\nいや、何か…いつもより可愛い気が…\nマスターが正直な思いを伝える\n\n# face 101021 \"shy\"\n# voice 1010 \"furagaraha_0024\"\n# textflame 1 1\n# chara 101021\n@フラガラッハ\nな、なにをいきなり\nおっしゃっるの…！？\n\n# textflame 0 0\n@\n突然の言葉に、柄にもなく照れる彼女\n\n# textflame 0 0\n@\nマスターの言う通り、\nほんの少しの心の変化が、\n彼女の表情を柔らかくしたのか…\n\n# face 101021 \"normal\"\n# textflame 1 1\n# chara 101021\n@フラガラッハ\nいいえ！\nわたしはいつでも…\n\n# imageset 0 \"c101021\"\n# imagealpha 0 0 0\n# face 101021 \"smile\"\n# voice 1010 \"furagaraha_0005\"\n# textflame 1 1\n# chara 101021\n@フラガラッハ\n美しいです！！\n\n# imagealpha 0 1 0\n# imagepos 0 0 0 \n# fadein \"white\" 3\n# voice 1010 \"furagaraha_kyara_0017\"\n# textwindow \"close\"\n\n# textwindow \"nomal\"\n# textflame 0 0\n@\n照れる彼女の顔は、\n美しいというより\nとっても可愛らしかった"
	}
]