[
	{
		"ID": 10101201,
		"script": ";;【EP1】(フリ)\n# script \"lisp\"\n# background \"plain\"\n# bgm \"bgm002\" 0\n# body 101011\n# pos 101011 3\n# mask 101011 off\n# textboxarrow 0 2\n# textflame 0 0\n@\n戦闘の合間の休日─\n\n# textflame 1 1\n# chara 101011\n@フラガラッハ\n……\n\n# textflame 0 0\n@\n風に吹かれながら、\n日向ぼっこをするフラガラッハに\nマスターが声を掛ける\n\n# textflame 1 1\n# chara 101011\n# voice 1010 \"furagaraha_0004\"\n@フラガラッハ\nいいえ、特に何も\nただ、ぼ～っとしてたんです\n\n# textflame 0 0\n@\n彼女が微笑む\n\n@\nじゃあ…\n\n# textflame 1 1\n# chara 101011\n# voice 1010 \"furagaraha_kyara_1013\"\n@フラガラッハ\nあら、誘って下さるの？\n街へ、お買い物？\nそれとも、お食事かしら？\n\n# textflame 0 0\n@\n嬉しそうに身を乗り出す彼女\n\n@\nク…クイズでもする？\nと、ばつが悪そうに\n提案するマスター\n\n# textflame 1 1\n# chara 101011\n@フラガラッハ\n……\n\n# chara 101011\n# face 101011 \"surprise\"\n@フラガラッハ\n…クイズ？\n\n# chara 101011\n@フラガラッハ\nなぜ…？\nなぜクイズ…？\n\n# chara 101011\n# face 101011 \"normal\"\n@フラガラッハ\n美しい女性をデートに誘わず、\nクイズに誘うマスターの行動こそ、\n難解なクイズ問題ですわね\n\n# chara 101011\n# face 101011 \"irregular\"\n# voice 1010 \"furagaraha_0007\"\n@フラガラッハ\nまぁ、答えは簡単ですけどね\nそれは…\n\n#se \"SE_0613\"\n# chara 101011\n# face 101011 \"angry\"\n@フラガラッハ\nお金が無いから！！\n\n# textflame 0 0\n@\nビシッ！と指さす彼女に対し、\n申し訳なさげに頭を下げるマスター\n\n# textflame 1 1\n# chara 101011\n# face 101011 \"normal\"\n@フラガラッハ\n古（いにしえ）の剣\n「フラガラッハ」は…\n\n# chara 101011\n@フラガラッハ\n“応答するもの”という\n意味もありますの\n\n# chara 101011\n@フラガラッハ\nそれに、わたしも\n嫌いじゃありませんし\n\n# chara 101011\n# face 101011 \"happy\"\n@フラガラッハ\nマスターのクイズ…\n付き合ってあげても\nよろしくてよ？\n\n# chara 101011\n# face 101011 \"normal\"\n# voice 1010 \"furagaraha_0005\"\n@フラガラッハ\n美しく華麗に…\n答えてみせますわ！\n\n# textflame 0 0\n@\n自信満々な彼女だった"
	}
]