[
	{
		"ID": 101104010,
		"script": ";;-----------------------------------------\n;;4-1-10　タイトル：神への叛逆\n;;背景：深奥\n;;-----------------------------------------\n# script \"lisp\"\n# background \"profound\"\n# bgm \"stop\"\n;;-----------------------------------------\n;;アルマス\n# body 172\n# pos 172 2\n# scale 172 0.8 0\n# alpha 172 0 0\n;;ティターニア\n# body 139\n# pos 139 3\n# scale 139 0.8 0\n# alpha 139 0 0\n;;アフロディーテ\n# body 3401311\n# pos 3401311 4\n# scale 3401311 0.8 0\n# alpha 3401311 0 0\n;;-----------------------------------------\n# textwindow \"nomal\"\n# textflame 0 0\n@\n少し前――\n\n# bgmfile \"bgm320\" \"BgmLostRagnarokBattle006\" 0\n# alpha 172 1 0.5\n# alpha 3401311 1 0.5\n# textflame 1 1\n# textboxarrow 0 1\n# face 172 \"normal\"\n# voice 1038 \"almace_0027\"\n@アルマス\n急いでるから通してって\n言っても無理よね？\n\n# textboxarrow 0 3\n# face 3401311 \"normal\"\n# voice 340131 \"aphrodite_a_0004\"\n@アフロディーテ\nその真摯な眼差し\n高まりますわ♪\n\n# textboxarrow 0 1\n# face 172 \"angry\"\n# voice 1038 \"almace_0007\"\n@アルマス\n行くわよ、ティニ！\nマスター！\n\n# move 3401311 5 0.5\n# waitandnext 0.5\n\n# textboxarrow 0 3\n# voice 340131 \"aphrodite_a_0032\"\n@アフロディーテ\nここを通りたいのなら\nどうぞ\n\n# textboxarrow 0 1\n# face 172 \"surprise\"\n# voice 1038 \"almace_0022\"\n@アルマス\nえっ…！？\nどういうつもりっ\n\n# textboxarrow 0 3\n# face 3401311 \"sad\"\n@アフロディーテ\nあのモニュメントに\n近づこうとしても無駄ですわ\n強力な結界に守られていますの\n\n@アフロディーテ\n先程からパラシュ達が総出で\n破壊を試みていましたけれど…\n彼女達の愛がまるで届きませんわ\n\n# face 3401311 \"normal\"\n@アフロディーテ\nですから、あなた一人程度の愛が\n届くなどとは想像できません\n\n# textboxarrow 0 1\n# face 172 \"normal\"\n@アルマス\nそういうこと…！\nでも、ここまで来て\n引き下がるつもりはない\n\n# face 172 \"angry\"\n@アルマス\n絶対に道を切り拓いてみせる！\n\n# textboxarrow 0 3\n# face 3401311 \"happy\"\n# voice 340131 \"aphrodite_a_0005\"\n@アフロディーテ\nうふふ…その迷いのない瞳\n狂おしいほどの愛で\n包んであげたくなります\n\n# mask 172 off\n# move 172 3 0.5\n# alpha 3401311 0 0.5\n# textboxarrow 0 2\n@アルマス\n結界が何だっていうのよ！\nせいっ！\n\n# textboxarrow 0 0\n# se \"SE_4000\"\n# effectbody 1000 1 0 0 0\n# effectstart 1000\n# waitandnext 0.4\n\n;;アルマスが結界に弾かれる\n# se \"SE_3006\"\n# shake 0 0.5\n# fadein \"white\" 0.5\n# move 172 2 0.2\n# waitandnext 1\n\n# move 172 3 0.5\n# textboxarrow 0 2\n# voice 1038 \"almace_battle_0005\"\n@アルマス\nくうっ…\nまだまだ！\n\n# alpha 172 0 0.5\n# alpha 139 1 0.5\n# face 139 \"surprise\"\n# voice 9967 \"titania_0030\"\n@ティターニア\nえっ…？\n今の感覚…気のせいでしょうか…\n\n# alpha 139 0 0.5\n# mask 3401311 off\n# move 3401311 3 0\n# alpha 3401311 1 0.5\n# face 3401311 \"surprise\"\n# voice 340131 \"aphrodite_a_0022\"\n@アフロディーテ\nあら…\nパラシュの攻撃はすり抜けていたと\nいうのに…\n\n# alpha 3401311 0 0.5\n# alpha 172 1 0.5\n# voice 1038 \"almace_0029\"\n@アルマス\nせええええええい！\n\n# textboxarrow 0 0\n# se \"SE_4000\"\n# effectbody 1001 1 0 0 0\n# effectstart 1001\n# waitandnext 0.4\n\n# se \"SE_4000\"\n# effectbody 1002 2 0 0 0\n# effectstart 1002\n# waitandnext 0.4\n\n;;結界にヒビが入る\n# se \"SE_3006\"\n# sedelay \"SE_9484\" 0.6\n# fadein \"white\" 1\n# shake 0 1\n# waitandnext 1.5\n\n# alpha 172 0 0.5\n# alpha 3401311 1 0.5\n# textboxarrow 0 2\n# voice 340131 \"aphrodite_a_0023\"\n@アフロディーテ\nなんと…！\n僅かですけれど、結界にヒビが…\nまさか本当に…\n\n# alpha 3401311 0 0.5\n# alpha 172 1 0.5\n# voice 1038 \"almace_0038\"\n@アルマス\nこんな結界…\n砕け散れえええええ！\n\n# textboxarrow 0 0\n# se \"SE_4001\"\n# effectbody 1003 1 0 0 0\n# effectstart 1003\n# waitandnext 0.4\n\n;;ヒビが大きくなる\n# move 139 4 0\n# mask 139 on\n# se \"SE_3006\"\n# sedelay \"SE_9896\" 0.5\n# fadein \"white\" 1\n# shake 1 0.5\n# waitandnext 1\n\n# alpha 3401311 0 0.5\n# alpha 139 1 0.5\n# move 172 2 0.5\n# mask 172 on\n# textboxarrow 0 3\n@ティターニア\nやっぱり微かに…\nアルマス、効いていますよっ\nもう一押しです\n\n# textboxarrow 0 1\n# voice 1038 \"almace_battle_0006\"\n@アルマス\nハァ…ハァ…\n絶・固いわねっ\nこのぉっ！\n\n# textboxarrow 0 0\n# alpha 139 0 0.5\n# waitandnext 0.5\n\n# se \"SE_4000\"\n# effectbody 1004 2 0 0 0\n# effectstart 1004\n# mask 172 off\n# move 172 3 0.2\n# waitandnext 0.4\n\n;;アルマスが結界に弾かれる\n# se \"SE_3006\"\n# shake 0 0.8\n# fadein \"white\" 0.5\n# move 172 2 0.2\n# waitandnext 0.8\n\n# alpha 172 0 0.5\n# alpha 3401311 1 0.5\n# textboxarrow 0 2\n# face 3401311 \"angry\"\n# voice 340131 \"aphrodite_a_0007\"\n@アフロディーテ\nまあ…\n良い感じでしたのに、\nここまでですの？\n\n# alpha 3401311 0 0.5\n# alpha 139 1 0.5\n# mask 172 on\n# alpha 172 1 0.5\n# textboxarrow 0 3\n# voice 9967 \"titania_0064\"\n@ティターニア\nアルマスっ…\n踏ん張って下さい…！\nきっとアナタなら破れます！\n\n# alpha 139 0 0.5\n# move 172 3 0.5\n# mask 172 off\n# textboxarrow 0 2\n# voice 1038 \"almace_0029\"\n@アルマス\nありがと、ティニ…！\nやああああああああ！！\n\n# textboxarrow 0 0\n# se \"SE_4000\"\n# effectbody 1005 1 0 0 0\n# effectstart 1005\n# waitandnext 0.4\n\n# se \"SE_4000\"\n# effectbody 1006 2 0 0 0\n# effectstart 1006\n# waitandnext 0.4\n\n;;アルマスが結界に弾かれる\n# se \"SE_3006\"\n# shake 1 0.5\n# fadein \"white\" 0.5\n# move 172 2 0.3\n# waitandnext 1\n\n# move 172 3 0.5\n# textboxarrow 0 2\n# face 172 \"angry\"\n# voice 1038 \"almace_battle_0007\"\n@アルマス\nくぅっ…\n何で…これ以上、届かないのよっ…\n\n;;選択肢\n# select \"集中するんだ\" \"select_label_01\" \"結界のことを忘れろ\" \"select_label_02\" \"いつも通りで良いよ\" \"select_label_03\"\n@アルマス\nくぅっ…\n何で…これ以上、届かないのよっ…\n\n# label \"select_label_01\"\n# labeljump \"select_label_end\"\n# textboxarrow 0 2\n# face 172 \"normal\"\n# voice 1038 \"almace_0003\"\n@アルマス\nそうね\nもう一度、集中する\nこの一撃に全てを込めるわ\n\n# label \"select_label_02\"\n# labeljump \"select_label_end\"\n# textboxarrow 0 2\n# face 172 \"surprise\"\n# voice 1038 \"almace_0022\"\n@アルマス\n結界を忘れる？\nそっか…こんなもの私達の前では\nないに等しいわよね！\n\n# label \"select_label_03\"\n# labeljump \"select_label_end\"\n# textboxarrow 0 2\n# face 172 \"shy\"\n# voice 1038 \"almace_0022\"\n@アルマス\nこんなときに何よっ\n…でも、うん\nちょっと力入りすぎてたのかも\n\n# label \"select_label_end\"\n# bgmfile \"bgm266\" \"BgmLostRagnarokBattle001\" 0\n# face 172 \"shy\"\n# voice 1038 \"almace_0042\"\n@アルマス\n普段はあまり役に立たないくせに\nマスターって、どうして\nこういうときばっかり…もうっ\n\n# se \"SE_10585\"\n# face 172 \"normal\"\n@アルマス\nいくわよ、ティニ！\nこれで切り拓く\n\n# se \"SE_9039\"\n# face 172 \"angry\"\n@アルマス\n絶突破ーっ！！"
	}
]