[
	{
		"ID": 101205051,
		"script": ";;-----------------------------------------\n;;【PUNK】新章ストーリー12章\n;;タイトル：因果、転輪\n;;5-5-1\n;;背景：地底\n;;-----------------------------------------\n# script \"lisp\"\n# background \"underground_world_3\"\n# bgmfile \"bgm279_280\" \"BgmLostRagnarokBattle002\" 0\n;;-----------------------------------------\n;;アルマス\n# body 172\n# pos 172 2\n# scale 172 0.8 0\n# alpha 172 0 0\n;;ティターニア\n# body 139\n# pos 139 3\n# scale 139 0.8 0\n# alpha 139 0 0\n# mask 139 off\n;;ギル\n# body 137\n# pos 137 3\n# scale 137 0.8 0\n# alpha 137 0 0\n;;カシウス\n# body 3303111\n# pos 3303111 3\n# scale 3303111 0.8 0\n# alpha 3303111 0 0\n# mask 3303111 off\n;;ティルフィング\n# body 3101411\n# pos 3101411 2\n# scale 3101411 0.8 0\n# alpha 3101411 0 0\n;;レーヴァテイン\n# body 3100211\n# pos 3100211 2\n# scale 3100211 0.8 0\n# alpha 3100211 0 0\n# mask 3100211 off\n;;アルテミス\n# body 3400111\n# pos 3400111 3\n# scale 3400111 0.8 0\n# alpha 3400111 0 0\n# mask 3400111 off\n;;スイハ\n# body 3401719\n# pos 3401719 3\n# scale 3401719 0.8 0\n# alpha 3401719 1 0\n# mask 3401719 off\n# layer 3401719 5\n;;ハルパー\n# body 3202011\n# pos 3202011 3\n# scale 3202011 0.8 0\n# alpha 3202011 0 0\n# mask 3202011 off\n;;-----------------------------------------\n# textboxarrow 0 2\n# face 3401719 \"normal\"\n# voice 340171 \"suiha_c_0007\"\n@スイハ\n理由は後で調べましょう\n邪魔する者は消去するのみです\n\n# alpha 3401719 0 0.5\n# alpha 3202011 1 0.5\n# textboxarrow 0 2\n# face 3202011 \"happy\"\n# voice 320201 \"harpe_t_0004\"\n@ハルパー\nうふ…新しい子が来たわ…\n楽しい狩りの始まりねぇ\n\n# textboxarrow 0 2\n# face 3202011 \"angry\"\n@ハルパー\nまずは足から潰して、\n逃げられないようにして\nあげましょうか\n\n# alpha 3202011 0 0.5\n# alpha 3303111 1 0.5\n# textboxarrow 0 2\n# face 3303111 \"angry\"\n# voice 3031 \"cassius_ge_0059\"\n@カシウス\nアルマス、立って\n未来への一歩を踏み出しましょう\n\n# mask 3303111 on\n# move 3303111 4 0.5\n# alpha 172 1 0.5\n# textboxarrow 0 1\n# face 172 \"normal\"\n# voice 1038 \"almace_0028\"\n@アルマス\nええと…\nここから離脱するってことで…\nいいのよね？\n\n# textboxarrow 0 3\n# voice 3031 \"cassius_ge_0003\"\n@カシウス\n全ては輪廻の理に導かれるの\nわたしがあらゆる未来を\n見通してみせる\n\n# textboxarrow 0 1\n# face 172 \"angry\"\n# voice 1038 \"almace_0035\"\n@アルマス\nここは任せろって言いたいの…？\nでも、カシウス一人じゃ…\n\n# alpha 3303111 0 0.5\n# alpha 172 0 0.5\n# alpha 3401719 1 0.5\n# textboxarrow 0 2\n# face 3401719 \"angry\"\n# voice 340171 \"suiha_c_0010\"\n@スイハ\nいい加減にしなさい\n射抜きますよ？\n\n;;スイハの攻撃をカシウスが防御する\n# se \"SE_9018\"\n# sedelay \"SE_3006\" 0.8\n# textwindow \"close\"\n# leftout 3401719 0.3\n# waitandnext 0.2\n\n# alpha 3401719 0 0\n# waitandnext 0.2\n\n# move 3401719 4 0\n# alpha 3401719 1 0\n# rightin 3401719 0.3\n# move 3303111 3 0\n# alpha 3303111 1 0\n# leftin 3303111 0.3\n# waitandnext 0.2\n\n# fadein \"white\" 0.3\n# waitandnext 1\n\n# alpha 3401719 0 0.5\n# alpha 3303111 0 0.5\n# alpha 3202011 1 0.5\n# textwindow \"nomal\"\n# textboxarrow 0 2\n# face 3202011 \"happy\"\n# voice 320201 \"harpe_t_0021\"\n@ハルパー\n素敵だわぁ\n次は私がいくわねぇ\n\n# alpha 3202011 0 0.5\n# alpha 3400111 1 0.5\n# textboxarrow 0 2\n# face 3400111 \"angry\"\n# voice 340011 \"arutemisu_ge_battle_0001\"\n@アルテミス\n規律を乱すのであれば、\nカシウス殿であろうと\n容赦はしません！\n\n# alpha 3400111 0 0.5\n# move 3303111 3 0\n# mask 3303111 off\n# alpha 3303111 1 0.5\n# textboxarrow 0 2\n# face 3303111 \"sad\"\n@カシウス\n全て見通しているの"
	}
]