[
	{
		"ID": 101205043,
		"script": ";;-----------------------------------------\n;;【PUNK】新章ストーリー12章\n;;タイトル：因果、転輪\n;;5-4-3\n;;背景：地底\n;;-----------------------------------------\n# script \"lisp\"\n# background \"underground_world_3\"\n# bgmfile \"bgm276\" \"BgmLostRagnarokEvent\" 0\n;;-----------------------------------------\n;;アルマス\n# body 172\n# pos 172 2\n# scale 172 0.8 0\n# alpha 172 1 0\n;;ティターニア\n# body 139\n# pos 139 4\n# scale 139 0.8 0\n# alpha 139 1 0\n;;マサムネ\n# body 3100111\n# pos 3100111 4\n# scale 3100111 0.8 0\n# alpha 3100111 0 0\n;;ロンギヌス\n# body 3300111\n# pos 3300111 2\n# scale 3300111 0.8 0\n# alpha 3300111 0 0\n;;スイハ\n# body 3401719\n# pos 3401719 3\n# scale 3401719 0.8 0\n# alpha 3401719 0 0\n# mask 3401719 off\n;;カシウス\n# body 3303111\n# pos 3303111 4\n# scale 3303111 0.8 0\n# alpha 3303111 0 0\n;;-----------------------------------------\n# imageset 0 \"black\"\n# imagealpha 0 0 0\n# imagelayer 0 1\n;;-----------------------------------------\n# alpha 172 1 0\n# alpha 139 1 0\n# imagealpha 0 0 0.5\n# imagerightout 0 0.5\n# textwindow \"nomal\"\n# textboxarrow 0 1\n# face 172 \"angry\"\n# voice 1038 \"almace_0015\"\n@アルマス\nくっ…まだ…まだよっ…\n私はまだ…戦える…！\n\n# textboxarrow 0 3\n# face 139 \"surprise\"\n# voice 9967 \"titania_0035\"\n@ティターニア\nアルマス…\n\n# textboxarrow 0 1\n@アルマス\nティニ…こんな状況…今までだって\n何度もあったでしょ…\n\n# textboxarrow 0 1\n@アルマス\nここから…絶・逆転するんだから…\n安心…して…\n\n# alpha 172 0 0.5\n# alpha 139 0 0.5\n# alpha 3401719 1 0.5\n# textboxarrow 0 2\n# face 3401719 \"normal\"\n# voice 340171 \"suiha_c_0007\"\n@スイハ\n憐れですね\nあなたが頼りにしている者達は\n皆、倒れましたよ\n\n# alpha 3401719 0 0.5\n# alpha 3100111 1 0.5\n# alpha 3300111 1 0.5\n# textboxarrow 0 3\n# face 3100111 \"sad\"\n# voice 310011 \"masamune_ge_0037\"\n@マサムネ\n主君…アルマス殿…\nすまぬ…\n\n# textboxarrow 0 1\n# face 3300111 \"sad\"\n# voice 330111 \"ronginusu_t_0038\"\n@ロンギヌス\n私はただ…居場所が欲しかった…\nだけなのに…\n\n# alpha 3100111 0 0.5\n# alpha 3300111 0 0.5\n# alpha 172 1 0.5\n# alpha 139 1 0.5\n# textboxarrow 0 1\n# voice 1038 \"almace_0038\"\n@アルマス\nそう…\nだけど…私はまだ立ってる…\nマスターだって…いる！\n\n# textboxarrow 0 1\n@アルマス\n今の私が絶・好調――\n\n;;スイハの矢がアルマスに刺さる\n# se \"SE_4815\"\n# fadein \"red\" 1\n# waitandnext 0.7\n\n# textboxarrow 0 3\n@ティターニア\nアルマス…！？\n\n# textboxarrow 0 1\n# voice 1038 \"almace_battle_0008\"\n@アルマス\nあ…カハッ…！\n\n# se \"SE_5288\"\n# alpha 172 0 0.5\n# waitandnext 0.5\n\n# alpha 139 0 0.5\n# alpha 3401719 1 0.5\n# face 3401719 \"angry\"\n# textboxarrow 0 2\n@スイハ\n先程、言いましたよ\n滅びの時だと\nさようなら\n\n# alpha 3401719 0 0.5\n# move 172 3 0\n# mask 172 off\n# alpha 172 1 0.5\n# textboxarrow 0 2\n# voice 1038 \"almace_battle_0007\"\n@アルマス\nまだ…まだよぉっ…！\n\n# alpha 172 0 0.5\n# alpha 3401719 1 0.5\n# textboxarrow 0 2\n# voice 340171 \"suiha_c_0027\"\n@スイハ\nしぶといですね\nでは、次で本当に最後です\n\n;;スイハが矢を放つ\n# bgm \"stop\"\n# se \"SE_9018\"\n# fadein \"white\" 0.5\n# waitandnext 0.5\n\n;;カシウスが防御する\n# alpha 3401719 0 0.5\n# alpha 172 1 0.5\n# waitandnext 0.5\n\n# se \"SE_3006\"\n# mask 172 on\n# mask 3303111 on\n# alpha 3303111 1 0\n# rightin 3303111 0.3\n# fadein \"white\" 0.3\n# waitandnext 0.7\n\n# move 172 2 0.5\n# textboxarrow 0 1\n# face 172 \"surprise\"\n@アルマス\n…………！？\n\n# bgmfile \"bgm279\" \"BgmLostRagnarokBattle002\" 0\n# textboxarrow 0 3\n# face 3303111 \"normal\"\n# voice 3031 \"cassius_ge_0037\"\n@カシウス\n時の巡りを越えて\n邂逅するための儀式に\n想像を絶する困難を要したの\n\n# textboxarrow 0 3\n# face 3303111 \"angry\"\n@カシウス\n機を逸しかけたこと\nわたし自身の胸も傷んでいることを\n伝えておきたい\n\n# textboxarrow 0 1\n# face 172 \"surprise\"\n# voice 1038 \"almace_0022\"\n@アルマス\nえっと…\nそれって…遅刻したことを…\n謝ってるの…？\n\n# textboxarrow 0 3\n# face 3303111 \"sad\"\n# voice 3031 \"cassius_ge_0028\"\n@カシウス\n否定する材料を\nわたしは持ち合わせていない\n\n# textboxarrow 0 1\n# face 172 \"sad\"\n@アルマス\nだから…回りくどいんだってば…\n\n# alpha 172 0 0.5\n# alpha 3303111 0 0.5\n# alpha 3401719 1 0.5\n# textboxarrow 0 2\n# face 3401719 \"surprise\"\n# voice 340171 \"suiha_c_0022\"\n@スイハ\nどういうことですか？\n掌握は完全に遂行されたはずなのに\n\n# alpha 3401719 0 0.5\n# move 3303111 3 0\n# mask 3303111 off\n# alpha 3303111 1 0.5\n# textboxarrow 0 2\n# face 3303111 \"angry\"\n# voice 3031 \"cassius_ge_0003\"\n@カシウス\n輪廻の縁を掴むことができた僥倖、\nこの時に全て賭けるわ"
	}
]