[
	{
		"ID": 101203030,
		"script": ";;-----------------------------------------\n;;【PUNK】新章ストーリー12章\n;;タイトル：天上、鳴動\n;;3-3\n;;背景：天上世界\n;;-----------------------------------------\n# script \"lisp\"\n# background \"forest\"\n# bgmfile \"bgm170\" \"BgmPJZero_EV001\" 0\n;;-----------------------------------------\n;;ティバルト\n# body 42\n# pos 42 3\n# scale 42 0.8 0\n# alpha 42 0 0\n# mask 42 off\n;;ゼロ\n# body 23\n# pos 23 3\n# scale 23 0.8 0\n# alpha 23 1 0\n# mask 23 off\n;;-----------------------------------------\n# textflame 1 1\n# textboxarrow 0 2\n# face 23 \"normal\"\n# voice 11002 \"laevateinm_0002\"\n@ゼロ\n悪いな…\n俺のワガママに\n付き合わせちまって\n\n# voice 11002 \"laevateinm_0007\"\n@ゼロ\n最後にあんたと\nゆっくり話してみたかったってのも\nあるんだ\n\n# face 23 \"sad\"\n@ゼロ\n…アマネが、妹が、世話になったな\n\n# face 23 \"normal\"\n@ゼロ\nアマネだけじゃねえ…\nティルフィングも…他の斬ル姫も…\nみんな…\n\n@ゼロ\nあんたがどの程度、\n斬ル姫に思い入れがあるのかは\n知らねえが…\n\n# face 23 \"sad\"\n@ゼロ\nあいつらは…あんたとの時間を\n大切に思っていたぜ…\n\n# face 23 \"angry_2\"\n# voice 11002 \"laevateinm_0024\"\n@ゼロ\nだから…取り戻してくれ…！\n奪われたあいつらを…\n奪還して欲しいんだっ\n\n# face 23 \"normal\"\n@ゼロ\n今、地上にはアマネしかいねえ…\nティルフィングが目覚めるのは\nずっと後になるだろう…\n\n# face 23 \"angry_2\"\n# voice 11002 \"laevateinm_0037\"\n@ゼロ\nだから…それまでの間、\nあんたがあいつの支えに…\nグゥッ…！\n\n# face 23 \"normal\"\n# voice 11002 \"laevateinm_0032\"\n@ゼロ\nああ…気にすんな\n俺も限界が近いってだけだ…\n\n# voice 11002 \"laevateinm_0007\"\n@ゼロ\n魔獣化する前に…\n自分のケリは自分でつける\n\n@ゼロ\nその前に…あいつに挨拶して\nおきたかったんだ\n\n# imageset 0 \"black\"\n# imagealpha 0 0 0\n# imagelayer 0 1\n# waitandnext 0.1\n\n;;暗転挟む\n# imagealpha 0 1 0\n# imagepos 0 0 30\n# imageleftin 0 0.5\n# textwindow \"close\"\n# waitandnext 1\n\n# background \"cemetery\"\n# imagealpha 0 0 0.5\n# imagerightout 0 0.5\n# textwindow \"nomal\"\n# textboxarrow 0 2\n@ゼロ\nここか…ここに眠っているんだな…\nリベリオンは\n\n# voice 11002 \"laevateinm_0002\"\n@ゼロ\nよう…\nまさか、こんなところで最期を\n迎えることになるとはな\n\n# voice 11002 \"laevateinm_0027\"\n@ゼロ\nお互い、随分と遠くまで\n来ちまったじゃねえか\n\n@ゼロ\n酒の一つでも持ってきたかったんだが\n生憎と手持ちがなくてな\nすまん\n\n# face 23 \"sad\"\n@ゼロ\n…リベリオン\nお前は最後まで生き抜いた\n\n@ゼロ\n俺は…どうだったんだろうな？\n\n@ゼロ\n結局、色々と任せきりになっちまった\n情けない兄だよ…\n\n# face 23 \"normal\"\n# voice 11002 \"laevateinm_0004\"\n@ゼロ\nああ…空が青いな\n\n# voice 11002 \"laevateinm_0002\"\n@ゼロ\nなあ、あんた\nここまでありがとう\nもう、行ってくれて良いぞ\n\n# face 23 \"sad\"\n# voice 11002 \"laevateinm_0036\"\n@ゼロ\n俺はここで終わりだ\n悪いが…後は頼む\n\n# imageset 0 \"black\"\n# imagealpha 0 0 0\n# imagelayer 0 1\n# waitandnext 0.1\n\n;;暗転挟む\n# imagealpha 0 1 0\n# imagepos 0 0 30\n# imageleftin 0 0.5\n# textwindow \"close\"\n# waitandnext 1\n\n;;背景：天上世界\n# background \"plain\"\n# imagealpha 0 0 0.5\n# imagerightout 0 0.5\n# alpha 23 0 0\n# alpha 42 1 0\n# textwindow \"nomal\"\n# textboxarrow 0 2\n# face 42 \"normal\"\n# voice 9980 \"tybalt_0028\"\n@ティバルト\n…そうか\n彼は友人の墓前で…\n\n@ティバルト\nこんなことを言っても\n気休めにしかならないだろうが…\n彼は最後まで生き抜いたと思うぞ\n\n@ティバルト\nそれに悪いが…\nあまり感傷に浸ってばかりも\nいられそうにない…\n\n@ティバルト\n彼のお陰で地上の状況を\n知ることができた\n急ぎ対策を練らなければ\n\n# voice 9980 \"tybalt_0003\"\n@ティバルト\n今、地上で一人戦っているという\nレーヴァテインを可能な限り\n支援しよう\n\n@ティバルト\n皆で「地底の潜む者」に奪われた\n斬ル姫達を奪還するんだ\n\n# face 42 \"angry\"\n# voice 9980 \"tybalt_0002\"\n@ティバルト\n力を貸してくれ、\n%(USERNAME)s！"
	}
]