[
	{
		"ID": 10145201,
		"script": "# script \"lisp\"\n# background \"town\"\n# bgm \"bgm002\" 0\n# body 101451\n# mask 101451 off\n# pos 101451 3\n# textflame 1 1\n# textboxarrow 0 0\n# face 101451 \"shy\"\n# voice 1014 \"tyrufing_0001\"\n@ティルフィング\n…あ！マ、マスター！\nあ、この洋服ですか…？\nこれは、その…\n\n# voice 1014 \"tyrufing_0002\"\n@ティルフィング\n寒くなってきたので…\n冬仕様と言いますか…\n\n# textflame 0 0\n@\n「似合うよ」と言い、\nその場を後にするマスター\n\n# textflame 1 1\n# textboxarrow 0 0\n# voice 1014 \"tyrufing_0030\"\n@ティルフィング\n…ぁ…ありがとうございます\n\n# textflame 0 0\n@\nぽ〜っとするティルに、\nデュリンが檄を飛ばす\n\n# textflame 1 1\n# textboxarrow 0 0\n# voice 1014 \"tyrufing_0013\"\n@ティルフィング\n…い、言えないわよ…\nバレンタインデーに合わせて、\nわざわざ買ったなんて…\n\n# textflame 1 1\n# textboxarrow 0 0\n# voice 1014 \"tyrufing_0027\"\n@ティルフィング\nそりゃ…普通の女の子みたいな\nバレンタインデーを送りたいとは\n言ったけど…\n\n# face 101451 \"normal\"\n# voice 1014 \"tyrufing_0004\"\n@ティルフィング\nでも…似合ってるって…\n言ってもらえたから…\n\n# textflame 0 0\n@\nそれだけで嬉しそうなティルに\n呆れ顔のデュリン\n\n# textflame 1 1\n# textboxarrow 0 0\n# voice 1014 \"tyrufing_0003\"\n@ティルフィング\nじゃあ、明日渡す用の\nチョコを買いに行こうか\nデュリン\n\n# face 101451 \"surprise\"\n# voice 1014 \"tyrufing_0022\"\n@ティルフィング\n…え？う、うん…\n街で買おうかと…\n\n# face 101451 \"shy\"\n@ティルフィング\nだって…手作りはちょっと…\n\n# textflame 0 0\n@\n照れてる場合か！と、\nデュリンが怒りをあらわにする\n\n# face 101451 \"worry\"\n# textflame 1 1\n# textboxarrow 0 0\n@ティルフィング\nで、でも…\n\n# textflame 0 0\n@\nデュリンに促され、ティルフィングは\n手作りチョコの材料を\n買わされるのだった"
	}
]