[
	{
		"ID": 10181301,
		"script": "# script \"lisp\"\n# background \"wild\"\n# bgm \"bgm002\" 0\n# body 101811\n# mask 101811 off\n# pos 101811 3\n# textboxarrow 0 2\n# textflame 0 0\n@\n丘の上——\n歌を歌っている少女が一人\n\n# textflame 1 0\n# voice 1018 \"denparley_0001\"\n# chara 101811\n@でんぱ\nあ、マスター！\n\n# voice 1018 \"denparley_0004\"\n# chara 101811\n@でんぱ\nもしかして聞いてた？\nもう〜ワタシのライブは\nタダ見禁止だよ？なぁんてね♪\n\n# voice 1018 \"denparley_event_1005\"\n# chara 101811\n@でんぱ\nえ？なんで歌うのかって？\nだって、もうすぐライブだし！\n練習してたの♪\n\n# chara 101811\n@でんぱ\nほら！ワタシの歌を聞きに、\nあんなにもたくさんの人が\n集まってくれてるんだよ\n\n# chara 101811\n@でんぱ\nガンバらないわけには\nいかないでしょッ！？\n\n# voice 1018 \"denparley_0005\"\n\n# chara 101811\n@でんぱ\nえ？そうじゃなくて…？\nワタシが歌う…“理由”？\n\n# voice 1018 \"denparley_0028\"\n# chara 101811\n@でんぱ\nむむ〜ん…\nそりゃあ…\n\n# voice 1018 \"denparley_0020\"\n# chara 101811\n@でんぱ\nアイドルだから！\n\n# chara 101811\n@でんぱ\nそう！アイドルの歌は\n“魔法の時間”なの！\n\n# chara 101811\n@でんぱ\nみんなが笑顔になるような、\nそんな素敵な魔法をかけるの♪\nそれがアイドルの使命だからね！\n\n# chara 101811\n@でんぱ\nだから、マスターも\nちゃんと聞いててよ？\nワタシの魔法の歌！\n\n# chara 101811\n@でんぱ\nそれじゃ、そろそろ本番\nいってみよ〜う！\n\n# voice 1018 \"denparley_kyara_1008\"\n\n# textflame 0 0\n@\n丘の上のステージに出て行く彼女\nその歌を聞きに来た\n街の人達から歓声が上がる\n\n#se \"SE_0607\"\n\n# face 101811 \"happy\"\n# textflame 1 0\n# voice 1018 \"denparley_scenaio_0001\"\n# chara 101811\n@でんぱ\nみんな〜！\nぱーるんのソロライブ〜\nは〜じま〜るよ〜♪\n\n#se \"SE_0607\"\n\n# textflame 0 0\n@\n人を魅了する彼女の声は\n天性の輝きだと思うマスターだった"
	}
]