[
	{
		"ID": 10211204,
		"script": ";;【EP4】\n# script \"lisp\"\n# background \"town\"\n# bgm \"bgm003\" 0\n# body 102111\n# pos 102111 3\n# mask 102111 off\n# alpha 102111 0 0\n# textflame 0 0\n@\nあれから数日後─\n\n# textflame 0 0\n@\nめんまは\nみんなの前から\n姿を消した…\n\n# textflame 0 0\n@\n一体どこへ…\n元の世界へ戻ってしまったのか…\n\n# textflame 0 0\n@\nもぅ、あの笑顔には…\n会えないのだろうか…\n\n# textflame 0 0\n@\n不安になったマスターは\n必死に彼女の姿を探して回っていた\n\n# textflame 0 0\n@\nしかし\nその想いが届く事は\nなか…\n\n# alpha 102111 1 1\n# textflame 1 1\n# textboxarrow 0 2\n# chara 102111\n# face 102111 \"happy\"\n# voice 1021 \"menmaf_0001\"\n@めんま\nあぁ、マスター！\nなにしてるの～？\n\n# select \"め…めんま！君こそ…ここでなにを？\" \"select_label_01\" \"…君こそ…どうしてこんな遠くに…？\" \"select_label_02\" \"いなくなっちゃったのかと思ったよ…\" \"select_label_03\"\nあぁ、マスター！\nなにしてるの～？\n\n# label \"select_label_01\"\n# labeljump \"select_label_end\"\n# textflame 1 1\n# textboxarrow 0 2\n# chara 102111\n# face 102111 \"sad\"\n@めんま\nかくれんぼ…じゃないよ\n\n# label \"select_label_02\"\n# labeljump \"select_label_end\"\n# textflame 1 1\n# textboxarrow 0 2\n# chara 102111\n# face 102111 \"sad\"\n@めんま\n見つからないよう遠くまで来たのに～\n\n# label \"select_label_03\"\n# labeljump \"select_label_end\"\n# textflame 1 1\n# textboxarrow 0 2\n# chara 102111\n# face 102111 \"smile\"\n@めんま\n大丈夫、めんま…いなくならないよ\n\n# label \"select_label_end\"\n# textflame 1 1\n# textboxarrow 0 2\n# chara 102111\n# face 102111 \"normal\"\n@めんま\nめんまね…\n\n# textboxarrow 0 2\n# chara 102111\n# face 102111 \"smile\"\n# voice 1021 \"menmaf_0004\"\n@めんま\nビックリさせようと思って\n内緒で必殺技の特訓してたの！\n\n# textflame 0 0\n@\nそうだったんだ…\n\n# textflame 0 0\n@\nでも、どうして特訓を…？\n\n# textflame 1 1\n# textboxarrow 0 2\n# chara 102111\n# face 102111 \"sad\"\n@めんま\n…うん\n\n# textboxarrow 0 2\n# chara 102111\n@めんま\nめんまね\n\n# textboxarrow 0 2\n# chara 102111\n@めんま\n前いた世界では\n大切なお友達とたくさん\n思い出を作れなかったから\n\n# textboxarrow 0 2\n# chara 102111\n# face 102111 \"smile\"\n@めんま\nだから、決めたんだ！\nここにいるみんなとは\nいっぱいいっぱい思い出作るって！\n\n# textboxarrow 0 2\n# chara 102111\n# face 102111 \"happy\"\n@めんま\nだから、めんまもっと強くなるの！\n大好きな人たちと…\n今度こそずっと一緒にいたいから！\n\n# se \"SE_5786\"\n# fadein \"white\" 3\n# textflame 0 0\n@\n彼女の身体が不思議な光を放ち始める\n\n# textflame 0 0\n@\n切実なる想いが\n新たなるスキルをもたらしていた\n\n;;//吹き出し大きく\n# se \"SE_0602\"\n# textflame 1 1\n# serif 0\n# textwindow \"toge\"\n# textboxarrow 0 0\n# chara 102111\n# face 102111 \"angry\"\n@めんま\n『めんまフラーーーッシュ！！』\n\n# serif 0\n# textwindow \"nomal\"\n# textflame 0 0\n@\n天に向かって、放った大きな光\n\n# textflame 1 1\n# textboxarrow 0 2\n# chara 102111\n# face 102111 \"happy\"\n# voice 1021 \"menmaf_0006\"\n@めんま\nわぁ…花火みた～い！\n\n# textflame 0 0\n@\nその光を見た姫たちが\nめんまの元に集まってくる\n\n;;//文字大きく\n# textsize 32\n# textflame 0 0\n@\n“めんま、みーつけた！”\n\n# textsize 24\n# textflame 1 1\n# textboxarrow 0 2\n# chara 102111\n# face 102111 \"smile\"\n# voice 1021 \"menmaf_0008\"\n@めんま\nえへへ…\nまた見つかっちゃった\n\n# textflame 0 0\n@\nはにかみながら笑う彼女\n\n# textflame 1 1\n# textboxarrow 0 2\n# chara 102111\n# face 102111 \"happy\"\n@めんま\nマスター、約束だよ\nずっと一緒\n\n# textflame 0 0\n@\nうん、約束\n\n# imageset 0 \"c102111\"\n# imagealpha 0 0 0\n# textflame 0 0\n@\nめんまの願いに\n力強く答えるマスターだった\n\n# imagealpha 0 1 0\n# imagepos 0 0 0 \n# fadein \"white\" 3\n# voice 1021 \"menmaf_kyara_0027\"\n# textwindow \"close\"\n;;//「マスターはね、めんまの大事な人だよ。ずーっとずーーっと、大好きだよ！」"
	}
]