[
	{
		"ID": 10221303,
		"script": "# script \"lisp\"\n# background \"valley\"\n# bgm \"bgm005\" 0\n# body 102211\n# mask 102211 off\n# pos 102211 3\n# textflame 1 1\n# textboxarrow 0 2\n# voice 1022 \"rukina_0038\"\n# chara 102211\n# face 102211 \"angry\"\n@ルキナ\nはぁ…はぁ…\n私だけの力じゃ勝てない…\n\n# textflame 0 0\n@\n疲弊し崩れ落ちるルキナ\n\n# textflame 1 1\n# textboxarrow 0 2\n# voice 1022 \"rukina_0017\"\n# chara 102211\n# face 102211 \"worry\"\n@ルキナ\nここまで…なの…\n\n# voice 1022 \"rukina_unit_0007\"\n# chara 102211\n# face 102211 \"sad\"\n@ルキナ\nお母様、お父様\n力をお貸しください！\n\n# textflame 0 0\n@\n魔法で相手を弱らせて！\nと助言するマスター\n\n# textflame 1 1\n# textboxarrow 0 2\n# voice 1022 \"rukina_0022\"\n# chara 102211\n# face 102211 \"normal\"\n@ルキナ\nはっ！\nなるほど…\n\n# chara 102211\n# face 102211 \"angry\"\n@ルキナ\n力押しが通じないなら\n相手を弱らせ倒す！\n\n# textflame 0 0\n@\n異族に魔法攻撃を仕掛け\n弱体させるルキナ\n\n# textflame 1 1\n# textboxarrow 0 2\n# voice 1022 \"rukina_unit_0015\"\n# chara 102211\n@ルキナ\nこれで…決める！！\n\n# textflame 0 0\n@\nルキナの一撃により\nついに頑強な異族は倒れた\n\n# bgm \"bgm003\" 0\n# textflame 1 1\n# textboxarrow 0 2\n# voice 1022 \"rukina_0031\"\n# chara 102211\n# face 102211 \"sad\"\n@ルキナ\n思った以上に手こずりました…\n\n# voice 1022 \"rukina_0030\"\n# chara 102211\n# face 102211 \"smile\"\n@ルキナ\nマスター\nあなたの助言のおかげで\n勝利出来ました\n\n# chara 102211\n@ルキナ\nこれが私の\n新奥義…\n\n#se \"SE_0602\"\n# voice 1022 \"rukina_dgcollabo_0002\"\n# chara 102211\n@ルキナ\n『メビウスネイド』!!\n\n# voice 1022 \"rukina_0004\"\n# chara 102211\n@ルキナ\nなんだか…\n吹っ切れました\n\n# voice 1022 \"rukina_0002\"\n# chara 102211\n@ルキナ\n異族を倒した時に\n離れ離れになったお父様とお母様が\nそばに居て力をくれた気がしたんです\n\n# chara 102211\n@ルキナ\nこれまでは海にいたときでしか\n感じられなかったのに…\n\n# select \"これでもう寂しくない？\" \"select_label_01\" \"海を両親に重ねてた？\" \"select_label_02\" \"これからもやっていけそう？\" \"select_label_03\"\nこれまでは海にいたときでしか\n感じられなかったのに…\n\n# label \"select_label_01\"\n# labeljump \"select_label_end\"\n# textflame 1 1\n# textboxarrow 0 2\n@ルキナ\nはい！もう大丈夫です\n\n# label \"select_label_02\"\n# labeljump \"select_label_end\"\n# textflame 1 1\n# textboxarrow 0 2\n@ルキナ\n知らず知らずに\n重ねていたのかもしれません\n\n# label \"select_label_03\"\n# labeljump \"select_label_end\"\n# textflame 1 1\n# textboxarrow 0 2\n@ルキナ\nマスターと一緒なら大丈夫です\n\n# label \"select_label_end\"\n# chara 102211\n@ルキナ\n海がなくたって…\n私は生きていける\n\n# textflame 0 0\n@\nルキナは本当に海が好きだね\nと微笑むマスター\n\n# textflame 1 1\n# textboxarrow 0 2\n# voice 1022 \"rukina_0005\"\n# chara 102211\n# face 102211 \"shy\"\n@ルキナ\nあなたにも本物の海を\nみせてあげたいです\n\n# voice 1022 \"rukina_0042\"\n# chara 102211\n@ルキナ\nそれに…あなたと二人だけで\n海に行ってみたいですし…\n\n# imageset 0 \"c102211\"\n# imagepos 0 0 0\n# imagealpha 0 0 0\n# textflame 0 0\n@\nそう、小声でつぶやくルキナに\nなにか言いかけた？と\nマスターが問いかける\n\n# imagealpha 0 1 0\n# imagepos 0 0 0\n# fadein \"white\" 2\n# textwindow \"close\"\n\n# textwindow \"nomal\"\n# voice 1022 \"rukina_kyara_0028\"\n# textflame 1 1\n# textboxarrow 0 2\n# chara 102211\n@ルキナ\nふふっ、秘密です…\nこの世界にも私の世界と同じくらいの\n海をつくってくれたら教えてあげます\n\n# textflame 0 0\n@\nいたずらっぽく笑うルキナ\nその姿は快晴の空よりも\n遥かに晴れ渡っていた"
	}
]