[
	{
		"ID": 10235204,
		"script": "# script \"lisp\"\n# background \"town\"\n# bgm \"bgm002\" 0\n# textboxarrow 0 2\n# body 102351\n# mask 102351 off\n# pos 102351 3\n# face 102351 \"normal\"\n# textflame 0 0\n@\n見事、ならず者集団を\n退けたアスカロン\n\n@\nウェディングドレスを返しに、\nマスターと共に\n洋服屋へと向かっていた\n\n# face 102351 \"smile\"\n# voice 1023 \"ascalon_0001\"\n# textflame 1 1\n@アスカロン\nマスター…私、さっき\n一緒に乗り越えていきましょうって\n言ったでしょ…？\n\n# textflame 0 0\n@\nえ？う、うん…\n少し焦った様子でマスターが\n返事をする\n\n# face 102351 \"normal\"\n# textflame 1 1\n@アスカロン\n考えたんです、\n女の子の幸せって\nなんなのかって\n\n@アスカロン\n人間は、好きな男性と夫婦となり、\n共に一生を過ごしていく\nそれはすごく素敵な事だと思います\n\n@アスカロン\nそう思うと、私たちキル姫は…\n\n# textflame 0 0\n@\n………\n彼女たちの運命を想うと、\n黙る事しか出来ないマスター\n\n# face 102351 \"smile\"\n# voice 1023 \"ascalon_0004\"\n# textflame 1 1\n@アスカロン\n結婚しているようなものですよね？\n\n# textflame 0 0\n@\nどういうこと…？\nマスターが尋ねる\n\n# face 102351 \"normal\"\n# textflame 1 1\n@アスカロン\n一生を共に過ごしていくのが夫婦なら…\n\n@アスカロン\n私たちキル姫は、\nこの身が朽ちるまで\nマスターと共に戦うわけでしょ？\n\n# face 102351 \"smile\"\n@アスカロン\n一生を賭して共に歩んでいく\nこれって、マスターの\nお嫁さんという事になりませんか？\n\n# voice 1023 \"ascalon_0005\"\n@アスカロン\nそんな人生…\n私はとても幸せだと\n思います！！\n\n@アスカロン\nマスターを支えるため、\n一生添い遂げていく…\nそう決意を新たにしたら…\n\n# face 102351 \"normal\"\n@アスカロン\nまた、力が湧いてきました！\n\n#se \"SE_0602\"\n# face 102351 \"smile\"\n@アスカロン\n新技『エターナルハピネス』、\n誕生です！！\n\n# voice 1023 \"ascalon_0004\"\n@アスカロン\nふふ、今日１日色々あったけど…\nウェディングドレスを着る事が\nできて、とても楽しかったです！\n\n@アスカロン\nこれからも、\nよろしくお願いしますね！\nマスター！！\n\n# textflame 0 0\n@\nそう言った彼女の笑顔は、\nとても素敵だった\n\n# select \"とても似合ってるよ、ドレス\" \"select_label_01\" \"とてもきれいだよ\" \"select_label_02\" \"とても光り輝いてるよ\" \"select_label_03\"\nそう言った彼女の笑顔は、\nとても素敵だった\n\n# face 102351 \"shy\"\n# label \"select_label_01\"\n# labeljump \"select_label_end\"\n# textflame 1 1\n# chara 102351\n@アスカロン\nえ！？\nな、なんですか、突然…！？\n\n# face 102351 \"shy\"\n# label \"select_label_02\"\n# labeljump \"select_label_end\"\n# textflame 1 1\n# chara 102351\n@アスカロン\nき、きれい！？\n…ですか、私…？\n\n# face 102351 \"shy\"\n# label \"select_label_03\"\n# labeljump \"select_label_end\"\n# textflame 1 1\n# chara 102351\n@アスカロン\n…！\nそんな…恥ずかしいです…\n\n# label \"select_label_end\"\n# imageset 0 \"c102351\"\n# imagealpha 0 0 0\n# textflame 0 0\n@\n顔を真っ赤にして照れている彼女\n\n# imagealpha 0 1 0\n# imagepos 0 0 0 \n# fadein \"white\" 3\n# voice 1023 \"ascalon_event_0007\"\n# textwindow \"close\"\n\n# voice 1023 \"ascalon_0030\"\n# textwindow \"nomal\"\n# textflame 1 1\n@アスカロン\nあ…ありがとうございます！！\nこれからも…がんばります！！"
	}
]