[
	{
		"ID": 10281202,
		"script": "# script \"lisp\"\n# background \"plain\"\n# bgm \"bgm000\" 0\n# body 102811\n# mask 102811 off\n# pos 102811 3\n# textboxarrow 0 2\n# textflame 0 0\n# chara 102811\n# textflame 0 0\n@\n突如、コースへと駆けて行った\nダーインスレイヴ\n\n# face 102811 \"normal\"\n# voice 1028 \"dainsleif_0009\"\n# textflame 1 1\n@ダーインスレイヴ\nどうしたの…だって？\nおぬしには見えなかったのか…？\n\n# textflame 0 0\n@\nそのままコースを横切り、\n横の森へと入っていく\n\n# face 102811 \"sad\"\n# voice 1028 \"dainsleif_0019\"\n# textflame 1 1\n@ダーインスレイヴ\n早くしなければ…\n\n# textflame 0 0\n@\nなにやら焦っている様子の彼女\n\n# select \"一体、どうしたの…？\" \"select_label_01\" \"失格になっちゃうよ…？\" \"select_label_02\" \"せっかく優勝間近だったのに\" \"select_label_03\"\nなにやら焦っている様子の彼女\n\n# face 102811 \"normal\"\n# label \"select_label_01\"\n# labeljump \"select_label_end\"\n# textflame 1 1\n# chara 102811\n@ダーインスレイヴ\n緊急事態だ\n\n# face 102811 \"normal\"\n# label \"select_label_02\"\n# labeljump \"select_label_end\"\n# textflame 1 1\n# chara 102811\n@ダーインスレイヴ\n失格…？構わない\n\n# face 102811 \"normal\"\n# label \"select_label_03\"\n# labeljump \"select_label_end\"\n# textflame 1 1\n# chara 102811\n@ダーインスレイヴ\n優勝…？意味の無いことだ\n\n# label \"select_label_end\"\n# face 102811 \"surprise\"\n# textflame 1 1\n@ダーインスレイヴ\nさっきも言ったであろう？\nわたしは誰かに褒められる為に\nプレイしているのではないと\n\n# face 102811 \"normal\"\n@ダーインスレイヴ\nルールとマナーを遵守し、\nその中で最高のパフォーマンスを\nするのみ…\n\n@ダーインスレイヴ\nでなければ…どんなことも、\nなんでもありの粗野なものに\nなってしまうからな\n\n# face 102811 \"angry\"\n# voice 1028 \"dainsleif_0013\"\n@ダーインスレイヴ\nだから、わたしは許さぬ…\nマナーを犯す奴は…！\n\n# textflame 0 0\n@\nその理由は分からないが、\n彼女の中の静かなる怒りを、\nマスターは感じていた"
	}
]