[
	{
		"ID": 10331203,
		"script": ";;【EP3】\n# script \"lisp\"\n# background \"town\"\n# bgm \"bgm002\" 0\n# textboxarrow 0 2\n# body 103311\n# mask 103311 off\n# pos 103311 3\n# textflame 1 1\n# textboxarrow 0 2\n# chara 103311\n# face 103311 \"surprise2\"\n@クロエ\nマスター！\n\n# textflame 0 0\n@\nマスターを守るため、\nならず者集団の前に\n立ちはだかるクロエ\n\n# textflame 0 0\n@\nなんだ、女！？\nたった一人で\n勝てると思ってんのか！？\n\n# textflame 0 0\n@\n彼らの怒号が飛び交う\n\n# textflame 1 1\n# textboxarrow 0 2\n# chara 103311\n# face 103311 \"usual\"\n@クロエ\n………\n\n# textflame 0 0\n@\nならず者達が持つ剣を見て、\nクロエが言い放つ\n\n# textflame 1 1\n# textboxarrow 0 2\n# chara 103311\n# voice 1033 \"chloe_0007\"\n# face 103311 \"irregular\"\n@クロエ\n錆び付いた剣など…\n何本あっても同じことよ\n\n# textflame 0 0\n@\nなんだと！？\n\n# textflame 0 0\n@\n彼女に一斉に襲い掛かるならず者\n\n# textflame 1 1\n# textboxarrow 0 2\n# chara 103311\n# voice 1033 \"chloe_battle_0002\"\n# face 103311 \"normal\"\n@クロエ\nはっ！！\n\n# textflame 0 0\n@\n敵の攻撃を、\n己の剣で受け止めるクロエ\n\n# textflame 0 0\n@\nクロエが受けただけで、\n敵の剣は全て折れてしまった\n\n# textflame 1 1\n# textboxarrow 0 2\n# chara 103311\n@クロエ\n剣の手入れもしていない者になど\n負けないはしない…決して\n\n# textflame 1 1\n# textboxarrow 0 2\n# chara 103311\n@クロエ\n曲がりなりにも剣を持つ者なら…\nまずは己の心を磨きなさい\n\n# textflame 0 0\n@\nならず者達は、\nやってきた衛兵に連行されていった\n\n# textflame 1 1\n# textboxarrow 0 2\n# chara 103311\n# se \"SE_0602\"\n# face 103311 \"usual\"\n@クロエ\n思わぬところで…\n新技『クリスタルブレイク』\n完成か…\n\n# textflame 0 0\n@\n一点の綻びも見逃さない目が、\n彼女に新たなるスキルを与えた\n\n# textflame 1 1\n# textboxarrow 0 2\n# chara 103311\n# face 103311 \"surprise2\"\n@クロエ\n大丈夫でしたか、マスター？\n\n# textflame 1 1\n# textboxarrow 0 2\n# chara 103311\n# voice 1033 \"chloe_0028\"\n# face 103311 \"sad\"\n@クロエ\n…というか、\n遅かったですが、\nなにをされていたのですか？\n\n# select \"寂しがっていると聞いたから\" \"select_label_01\" \"これを買いに行ってて\" \"select_label_02\" \"君に渡したいものがあって\" \"select_label_03\"\n…というか、\n遅かったですが、\nなにをされていたのですか？\n\n# label \"select_label_01\"\n# labeljump \"select_label_end\"\n# textflame 1 1\n# textboxarrow 0 2\n# chara 103311\n# voice 1033 \"chloe_0022\"\n# face 103311 \"surprise1\"\n@クロエ\n…え？私の為に…？\n\n# label \"select_label_02\"\n# labeljump \"select_label_end\"\n# textflame 1 1\n# textboxarrow 0 2\n# chara 103311\n# face 103311 \"surprise1\"\n@クロエ\nもしかして…私の為に…？\n\n# label \"select_label_03\"\n# labeljump \"select_label_end\"\n# textflame 1 1\n# textboxarrow 0 2\n# chara 103311\n# face 103311 \"sad\"\n@クロエ\n私の為に…危険な目に…\n\n# label \"select_label_end\"\n# textflame 1 1\n# textboxarrow 0 2\n# chara 103311\n# face 103311 \"surprise2\"\n@クロエ\n…！これは…\n\n# textflame 0 0\n@\nマスターから渡された包みを\n開けるクロエ\n\n# textflame 1 1\n# textboxarrow 0 2\n# chara 103311\n# face 103311 \"shy\"\n@クロエ\n…ぬいぐるみ\n\n# textflame 1 1\n# textboxarrow 0 2\n# chara 103311\n# face 103311 \"sad\"\n@クロエ\n………\n\n# textflame 0 0\n@\n喜んでくれるとかと思ったが…\n\n# textflame 1 1\n# textboxarrow 0 2\n# chara 103311\n# voice 1033 \"chloe_0014\"\n# face 103311 \"angry\"\n@クロエ\nもう…子供じゃないんですよ、私！\n\n# textflame 0 0\n@\n顔を赤くして怒り出す彼女\n\n# textflame 1 1\n# textboxarrow 0 2\n# chara 103311\n# face 103311 \"shy\"\n@クロエ\nでも…\n\n# textflame 1 1\n# textboxarrow 0 2\n# chara 103311\n@クロエ\nもう寂しいなんて言いません\n\n# textflame 1 1\n# textboxarrow 0 2\n# chara 103311\n@クロエ\nここには…\nあなたというマスターがいて、\nキル姫という仲間もいる\n\n# textflame 1 1\n# textboxarrow 0 2\n# chara 103311\n# face 103311 \"usual\"\n@クロエ\n寂しいなんて言ってないで…\n\n# textflame 1 1\n# textboxarrow 0 2\n# chara 103311\n# voice 1033 \"chloe_0004\"\n# face 103311 \"smile1\"\n@クロエ\n私も己の心を磨いてゆきます\n\n# imageset 0 \"black\"\n# imagealpha 0 0 0\n# imagelayer 0 1\n# textflame 0 0\n@\nその笑顔は、とても晴れやかだった\n\n;;――場面転換――\n;;【town夜】\n# imagealpha 0 1 0\n# imagepos 0 0 30\n# imageleftin 0 0.5\n# serif 0\n# textwindow \"close\"\n# serif 1\n# textwindow \"close\"\n# waitandnext 1\n\n# background \"town_night\"\n# imagerightout 0 0.5\n# serif 0\n# textwindow \"nomal\"\n# textflame 0 0\n@\nその夜─\n\n# textflame 0 0\n@\nクロエの部屋から、\nなにやら声が聞こえてくる\n\n# textflame 1 1\n# textboxarrow 0 2\n# chara 103311\n# voice 1033 \"chloe_0017\"\n# face 103311 \"surprise2\"\n@クロエ\n…あ！\n\n# textflame 0 0\n@\n彼女が、ぬいぐるみと\n会話しているところを\n目撃してしまうマスター\n\n# textflame 1 1\n# textboxarrow 0 2\n# chara 103311\n# voice 1033 \"chloe_kyara_0027\"\n# face 103311 \"shy\"\n@クロエ\nべ…別に…！これは…その！\n\n# textflame 0 0\n@\n真っ赤になって弁明する彼女\n\n# textflame 0 0\n@\nしっかり者とはかけ離れた\n乙女な一面をからかわれ、\n拗ねて見せるクロエだった\n\n# imageset 0 \"c103311\"\n# imagealpha 0 0 0\n# textflame 1 1\n# textboxarrow 0 2\n# chara 103311\n# voice 1033 \"chloe_0007\"\n# face 103311 \"angry\"\n@クロエ\nもう…知りません！\n\n;;一枚絵ボイス：クロエ「て、照れてなんかいません！」\n# imagealpha 0 1 0\n# imagepos 0 0 0 \n# fadein \"white\" 3\n# voice 1033 \"chloe_kyara_0028\"\n# textwindow \"close\""
	}
]