[
	{
		"ID": 10341202,
		"script": ";;【EP2】\n# script \"lisp\"\n# background \"plain\"\n# bgm \"bgm002\" 0\n# textboxarrow 0 2\n# body 103411\n# mask 103411 off\n# pos 103411 3\n# textflame 1 1\n# textboxarrow 0 2\n# chara 103411\n# voice 1034 \"dakunesu_0009\"\n# face 103411 \"sad\"\n@ダクネス\nなぜ、今日も戦闘がないんだ…\n\n# textflame 1 1\n# textboxarrow 0 2\n# chara 103411\n# face 103411 \"shy1\"\n@ダクネス\nあ、いや、平和はむしろ\n喜ばしいことなのだが、\nこれでは私が鎧を脱ぎ捨てた意味が…\n\n# textflame 1 1\n# textboxarrow 0 2\n# chara 103411\n# face 103411 \"surprise\"\n@ダクネス\nあ、いや…なんでもない！\n\n# textflame 0 0\n@\nスピードを上げるんじゃなかったの？\nマスターが敢えて尋ねる\n\n# textflame 1 1\n# textboxarrow 0 2\n# chara 103411\n# voice 1034 \"dakunesu_0022\"\n# face 103411 \"angry\"\n@ダクネス\nそ、その通りだ！\n\n# textflame 0 0\n@\n剣を抜き、走り出す彼女\n\n# textflame 1 1\n# textboxarrow 0 2\n# chara 103411\n@ダクネス\n誰も付いてこれない程の\nスピードで敵を翻弄し…\n\n# fadein \"white\" 0.5\n# se \"SE_5575\"\n# textflame 1 1\n# textboxarrow 0 2\n# chara 103411\n# voice 1034 \"dakunesu_0029\"\n@ダクネス\n貫く！\n\n# se \"SE_5215\"\n# textflame 0 0\n@\nドガァァァァン！！\n\n# textflame 0 0\n@\nと言いながら、\n思いっきり岩に激突する\n\n# textflame 0 0\n@\nな、なにやってるんだーっ！！\n\n# textflame 1 1\n# textboxarrow 0 2\n# chara 103411\n# voice 1034 \"dakunesu_battle_0006\"\n# face 103411 \"shy2\"\n@ダクネス\n…ぐ、これはこれで…\n\n# textflame 0 0\n@\nダメだ、こりゃ…\n呆れ気味のマスター\n\n# textflame 0 0\n@\nスピードを上げたいなら、\nぶつかるんじゃなく、\nよける訓練をしないと\n\n# textflame 1 1\n# textboxarrow 0 2\n# chara 103411\n# voice 1034 \"dakunesu_0004\"\n# face 103411 \"surprise\"\n@ダクネス\nわ、わかっている…！\n今のは…ただの小手調べだ！\n\n# textflame 0 0\n@\n次に、布に大量の石を包み、\n空中に放り投げるダクネス\n\n# textflame 1 1\n# textboxarrow 0 2\n# chara 103411\n# face 103411 \"angry\"\n@ダクネス\n落ちてくる石を\n全てよけられたら…\n私のスピードは…！\n\n# se \"SE_5795\"\n# textflame 0 0\n@\nドカドカドカ！\n\n# textflame 1 1\n# textboxarrow 0 2\n# chara 103411\n# voice 1034 \"dakunesu_0005\"\n# face 103411 \"sad\"\n@ダクネス\nぐふぅ…！\n\n# textflame 0 0\n@\nやると思った…\n\n# textflame 1 1\n# textboxarrow 0 2\n# chara 103411\n# voice 1034 \"dakunesu_0005\"\n# face 103411 \"angry\"\n@ダクネス\nま…まだまだ！\n\n# textflame 0 0\n@\nよける訓練と言いながら、\nあれから毎日\n石をくらい続けている彼女\n\n# textflame 1 1\n# textboxarrow 0 2\n# chara 103411\n# face 103411 \"sad\"\n@ダクネス\nはぁ…はぁ…\n頭では分かっていても…\nか、体がつい刺激を求めて…\n\n# textflame 0 0\n@\n見かねたマスターは、\n彼女に声を掛けた\n\n# textflame 1 1\n# textboxarrow 0 2\n# chara 103411\n# face 103411 \"surprise\"\n@ダクネス\nな、なんだ！？\n私を叱るつもりか！？\n\n# textflame 1 1\n# textboxarrow 0 2\n# chara 103411\n# voice 1034 \"dakunesu_0004\"\n@ダクネス\nいいぞ、一体どんな汚い言葉を\n私に浴びせかけるつもりだ…！？\n\n# select \"もっと自分を大切にして欲しいんだ\" \"select_label_01\" \"君の身体が心配だよ\" \"select_label_02\" \"頑丈とは言え、女の子なんだから…\" \"select_label_03\"\nいいぞ、一体どんな汚い言葉を\n私に浴びせかけるつもりだ…！？\n\n# label \"select_label_01\"\n# labeljump \"select_label_end\"\n# textflame 1 1\n# textboxarrow 0 2\n# chara 103411\n# face 103411 \"surprise\"\n@ダクネス\n…え？た、大切に…？\n\n# label \"select_label_02\"\n# labeljump \"select_label_end\"\n# textflame 1 1\n# textboxarrow 0 2\n# chara 103411\n# face 103411 \"surprise\"\n@ダクネス\n…え？し…心配…と言ったのか？\n\n# label \"select_label_03\"\n# labeljump \"select_label_end\"\n# textflame 1 1\n# textboxarrow 0 2\n# chara 103411\n# face 103411 \"surprise\"\n@ダクネス\nもしかして…心配しているのか？\n\n# label \"select_label_end\"\n# textflame 1 1\n# textboxarrow 0 2\n# chara 103411\n# face 103411 \"usual\"\n@ダクネス\nお前…\n\n# textflame 1 1\n# textboxarrow 0 2\n# chara 103411\n# face 103411 \"surprise\"\n@ダクネス\nそこまで…私のことを…\n\n# textflame 0 0\n@\n驚いた眼差しで、\nマスターを見つめる\nダクネスだった"
	}
]