[
	{
		"ID": 10362203,
		"script": ";;【EP3】\n# script \"lisp\"\n# background \"town_night\"\n# bgm \"bgm002\" 0\n# body 103621\n# pos 103621 3\n# mask 103621 off\n# alpha 103621 0 0\n# textflame 0 0\n@\n初詣への道中─\n\n# face 103621 \"happy\"\n# voice 1036 \"ragnarok_0005\"\n# alpha 103621 1 0.5\n# textflame 1 1\n# textboxarrow 0 2 \n@ラグナロク\nふふ、初詣なんて初めて\n胸が高鳴るわ\n\n# textflame 0 0\n@\n楽しそうだね？\nマスターが尋ねる\n\n# voice 1036 \"ragnarok_0003\"\n# textflame 1 1\n# textboxarrow 0 2 \n@ラグナロク\nそうね\n\n# textflame 1 1\n# textboxarrow 0 2 \n@ラグナロク\nあなたのおかげで、\nまた仲間というものに\n心を許そうと思えた\n\n# face 103621 \"shy\"\n# voice 1036 \"ragnarok_0002\"\n# textflame 1 1\n# textboxarrow 0 2 \n@ラグナロク\nあなたは…\n\n# textflame 1 1\n# textboxarrow 0 2 \n@ラグナロク\n固く閉ざしていた私の心を\n深淵の闇から\n光溢れる場所へと導いてくれた\n\n# voice 1036 \"ragnarok_0005\"\n# textflame 1 1\n# textboxarrow 0 2 \n@ラグナロク\nその光はまるで…\n太陽のように眩しくて、\n熱いエネルギーに満ちている\n\n# textflame 1 1\n# textboxarrow 0 2 \n@ラグナロク\nその光とは…仲間\nみんなといると…\n心が温かくなる\n\n# face 103621 \"happy\"\n# textflame 1 1\n# textboxarrow 0 2 \n@ラグナロク\n私の心に…\nまさに太陽が昇ったよう\n\n# textflame 0 0\n@\n彼女が微笑む\n\n# face 103621 \"sad\"\n# voice 1036 \"ragnarok_0022\"\n# textflame 1 1\n# textboxarrow 0 2 \n@ラグナロク\nあれは…！\n\n# textflame 0 0\n@\n神社へ向かう道すがら、\n泣いている少女を発見した彼女\n\n# voice 1036 \"ragnarok_0002\"\n# textflame 1 1\n# textboxarrow 0 2 \n@ラグナロク\nどうしたの、キミ？\n\n# textflame 0 0\n@\n少女が泣きながら\n事情を説明する\n\n# voice 1036 \"ragnarok_0028\"\n# textflame 1 1\n# textboxarrow 0 2 \n@ラグナロク\nそっか…\nお財布、忘れてきちゃったんだ\n\n# face 103621 \"normal\"\n# textflame 1 1\n# textboxarrow 0 2 \n@ラグナロク\nじゃあ、\n私ので良かったら\nあげよっか？\n\n# textflame 0 0\n@\nえ？でも…\n遠慮がちに戸惑う少女\n\n# textflame 1 1\n# textboxarrow 0 2 \n@ラグナロク\n大丈夫！気にしないの\n\n# voice 1036 \"ragnarok_0005\"\n# textflame 1 1\n# textboxarrow 0 2 \n@ラグナロク\nこのコインはね、\n私がお賽銭用に取っておいた\n特別なコイン\n\n# textflame 1 1\n# textboxarrow 0 2 \n@ラグナロク\nだから効き目あるよ、きっと\n\n# textflame 0 0\n@\nい、いいの…？\n少女が尋ねる\n\n# face 103621 \"happy\"\n# voice 1036 \"ragnarok_0003\"\n# textflame 1 1\n# textboxarrow 0 2 \n@ラグナロク\nうん！\n願い事…叶うといいね\n\n# textflame 0 0\n@\nありがとう！\nコインを受け取った少女は、\n嬉しそうに神社へ走って行った\n\n# select \"本当に良かったの？\" \"select_label_01\" \"いいことしたね？\" \"select_label_02\" \"ずいぶん優しいじゃない？\" \"select_label_03\"\nありがとう！\nコインを受け取った少女は、\n嬉しそうに神社へ走って行った\n\n# label \"select_label_01\"\n# labeljump \"select_label_end\"\n# textflame 1 1\n@ラグナロク\nもちろん！だって…\n\n# label \"select_label_02\"\n# labeljump \"select_label_end\"\n# textflame 1 1\n@ラグナロク\nうふふ、そうね、だって…\n\n# label \"select_label_03\"\n# labeljump \"select_label_end\"\n# textflame 1 1\n@ラグナロク\n後悔はないわ、だって…\n\n# label \"select_label_end\"\n# textflame 1 1\n# textboxarrow 0 2 \n@ラグナロク\n今、願いの一つが叶ったから\n\n# textflame 0 0\n@\n願い…？\n\n# voice 1036 \"ragnarok_0003\"\n# textflame 1 1\n# textboxarrow 0 2 \n@ラグナロク\n世界中の人々が\n笑顔になりますように\n\n# textflame 0 0\n@\nその願い…\nいつか完全に叶えようね\n\n# face 103621 \"normal\"\n# voice 1036 \"ragnarok_0004\"\n# textflame 1 1\n# textboxarrow 0 2 \n@ラグナロク\n当然よ！\n\n# textflame 0 0\n@\nマスターの想いにバイブスが共鳴\n\n# textflame 0 0\n@\n隊の姫達も、\n彼女の優しさに温かな力をもらう\n\n# se \"SE_0602\"\n# textflame 1 1\n# textboxarrow 0 2 \n@ラグナロク\n奥義『暁闇の讃美歌』\nこの新たな力で…\n少しずつ願いを叶えていくわ\n\n# textflame 0 0\n@\n目的地の灯りを見据える彼女\n\n# textflame 1 1\n# textboxarrow 0 2 \n@ラグナロク\nふふ、今年も…\n\n# face 103621 \"happy\"\n# textflame 1 1\n# textboxarrow 0 2 \n@ラグナロク\nいい年になるといいな\n\n# imageset 0 \"c103621\"\n# imagealpha 0 0 0\n# textflame 0 0\n@\n絶対に願いを叶える…\nそう固く心に誓うのだった\n\n# imagealpha 0 1 0\n# imagepos 0 0 0\n# fadein \"white\" 3\n# textwindow \"close\"\n# voice 1036 \"ragnarok_kyara_0026\"\n;;ラグナロク　「もう、絶対に失いたくない。仲間も。そして…あなたも」"
	}
]