[
	{
		"ID": 1100401,
		"script": ";;//背景：妖精王の城\n# script \"lisp\"\n# background \"pope_room\"\n# bgmfile \"bgm263\" \"BgmLostRagnarok001\" 0\n# body 136\n# pos 136 3\n# alpha 136 0 0\n# scale 136 0.8 0\n# body 137\n# pos 137 3\n# alpha 137 0 0\n# scale 137 0.8 0\n# mask 137 off\n# body 135\n# pos 135 3\n# scale 135 0.8 0\n# mask 135 off\n# layer 136 3\n# layer 137 2\n# layer 135 1\n# textflame 1 1\n# textboxarrow 0 2\n# chara 135\n@オベロン\n…バイブスを有する者よ\nこの伝承には、\n一つだけ不可解な部分がある\n\n# textflame 1 1\n# textboxarrow 0 2\n# chara 135\n@オベロン\n大樹ユグドラシルを\n消し去ったのは…\n\n# textflame 1 1\n# textboxarrow 0 2\n# chara 135\n@オベロン\nティルフィングであると\n伝えられておるのだ\n\n# textflame 1 1\n# textboxarrow 0 2\n# chara 135\n@オベロン\nその事実が他国にも知れ渡り、\nラグナロク王国は他国の人々から\n恨まれるようになってしまった\n\n# textflame 1 1\n# textboxarrow 0 2\n# chara 135\n@オベロン\n斬ル姫なきラグナロク王国が\n他国に攻められれば\nひとたまりもあるまい\n\n# textflame 1 1\n# textboxarrow 0 2\n# chara 135\n@オベロン\nわしはこれ以上、\n人類同士で争うのを見るのは\n耐えられなんだ…\n\n# alpha 135 0 0.5\n# alpha 136 1 0.5\n# textflame 1 1\n# textboxarrow 0 2\n# chara 136\n@ナディア\nティルヘルムは元々、\nトレイセーマという国の\n一部だったのですが、\n\n# textflame 1 1\n# textboxarrow 0 2\n# chara 136\n@ナディア\nオベロン様が独立を宣言なされ…\n\n# textflame 1 1\n# textboxarrow 0 2\n# chara 136\n@ナディア\n私達を守る立場に立って\n下さったのです\n\n# textflame 1 1\n# textboxarrow 0 2\n# chara 136\n@ナディア\nラグナロク王国はティルヘルムの\n一部に加えていただくことで、\n他国の脅威から生き存えています\n\n# pos 135 2\n# mask 135 on\n# textflame 1 1\n# textboxarrow 0 2\n# chara 136\n@ナディア\n妖精王オベロン様には\nいくら感謝してもしきれません\n\n# alpha 135 1 0.5\n# move 136 4 0.5\n# textflame 1 1\n# textboxarrow 0 1\n# chara 135\n@オベロン\nそのように畏まることはないと\n幾度も言っておるのだがな\n\n# textflame 1 1\n# textboxarrow 0 1\n# chara 135\n@オベロン\n代わりにラグナロク王国の者達は\n国外に出ることを許されず、\n他国からの亡命も受け入れられぬ\n\n# voice 9970 \"oberon_0029\"\n# textflame 1 1\n# textboxarrow 0 1\n# chara 135\n@オベロン\nわしにはその条件でしか他国を\n納得させることが出来なかった…\n\n# face 136 \"sad\"\n# textflame 1 1\n# textboxarrow 0 3\n# chara 136\n@ナディア\n他国の人々の気持ちも分かるのです…\nきっと、あまりに\n過酷な日々だったのでしょうから…\n\n# textflame 1 1\n# textboxarrow 0 3\n# chara 136\n@ナディア\n建国の王が、なぜユグドラシルを\n破壊したのか…\n理由は分からないままです\n\n# textflame 1 1\n# textboxarrow 0 1\n# chara 135\n@オベロン\n彼女自身もユグドラシル消失とともに\n行方知れずとなったそうだ\n\n# textflame 1 1\n# textboxarrow 0 1\n# chara 135\n@オベロン\nそして姿を消す直前、\n “ロスト・ラグナロク”という\n言葉を残したと伝えられておる\n\n# textflame 1 1\n# textboxarrow 0 3\n# chara 136\n@ナディア\nそのとき、一体なにがあったのか…\n今となっては知りようもありません\n\n# textflame 1 1\n# textboxarrow 0 3\n# chara 136\n@ナディア\nそして、\n“ロスト・ラグナロク”とは\nなんなのかも…\n\n# face 136 \"normal\"\n# textflame 1 1\n# textboxarrow 0 3\n# chara 136\n@ナディア\nただ、私は王女として\n民を守り慈しみ続けます\n皆が平和に暮らしていけますように\n\n# bgm \"stop\"\n# alpha 135 0 0.5\n# alpha 136 0 0.5\n# alpha 137 1 0.5\n# textflame 1 1\n# textboxarrow 0 2\n# chara 137\n# voice 9969 \"gill_0009\"\n@ギル\nおい、あんた\nそんな与太話、信じない方が良いぞ\n\n# alpha 135 1 0.5\n# alpha 136 1 0.5\n# alpha 137 0 0.5\n# face 136 \"surprise\"\n# textflame 1 1\n# textboxarrow 0 3\n# chara 136\n# voice 9968 \"nadia_0023\"\n@ナディア\nギル！？\n戻ってきていたんですね…\nアナタはまたそんなことを言って\n\n# bgm \"bgm004\" 0\n# alpha 135 0 0.5\n# alpha 136 0 0.5\n# alpha 137 1 0.5\n# face 137 \"angry\"\n# textflame 1 1\n# textboxarrow 0 2\n# chara 137\n# voice 9969 \"gill_0011\"\n@ギル\n平和に暮らしてる？\n隔離されてるの間違いだろ\n\n# textflame 1 1\n# textboxarrow 0 2\n# chara 137\n@ギル\n国の周りを高い壁に囲まれて、\n俺達は外に出ることを許されてない\nなんだよ、この牢獄はっ\n\n# face 137 \"normal\"\n# textflame 1 1\n# textboxarrow 0 2\n# chara 137\n# voice 9969 \"gill_prolo_0004\"\n@ギル\nこんな狭っ苦しい世界で\n一生を終えてたまるかってんだ！\n\n# face 136 \"sad\"\n# textflame 1 1\n# textboxarrow 0 2\n# chara 137\n@ギル\nナディア様だって…\n外の世界を見てみたいって\n言ってたじゃないかっ…！\n\n;;//再びギルが走り去る\n# se \"SE_5575\"\n# textboxarrow 0 0\n# alpha 137 0 0.5\n# waitandnext 1\n\n# alpha 135 1 0.5\n# alpha 136 1 0.5\n# textflame 1 1\n# textboxarrow 0 3\n# chara 136\n@ナディア\nギル…\n\n# textflame 1 1\n# textboxarrow 0 3\n# chara 136\n# voice 9968 \"nadia_0033\"\n@ナディア\nお客様に、お見苦しいところを\n見せてしまいましたね…\n\n# textflame 1 1\n# textboxarrow 0 1\n# chara 135\n@オベロン\nあのくらいの若者は皆、\n外の世界に憧れるものだ\nしかし、出てはならぬ…\n\n# textflame 1 1\n# textboxarrow 0 1\n# chara 135\n@オベロン\n出てしまえば、\n残酷な真実を知ることに\nなるのだから…\n\n# textflame 1 1\n# textboxarrow 0 1\n# chara 135\n@オベロン\nバイブスを有する者よ\n記憶が戻るまで、\nここでゆっくりしていくと良い\n\n# textflame 1 1\n# textboxarrow 0 1\n# chara 135\n@オベロン\nナディア、\n空いている部屋は\n好きに使って良いから案内を頼む\n\n# face 136 \"normal\"\n# textflame 1 1\n# textboxarrow 0 3\n# chara 136\n# voice 9968 \"nadia_0032\"\n@ナディア\nありがとうございます、オベロン様\nそれでは、参りましょう\n\n;;//背景：室内（夜）\n# fadeout \"black\" 1.5\n# waitandnext 1.5\n\n# bgm \"bgm003\" 0\n# alpha 135 0 0\n# move 136 3 0\n# background \"church_room\"\n# waitandnext 0.5\n\n# fadein \"black\" 1\n# textflame 1 1\n# textboxarrow 0 2\n# chara 136\n@ナディア\nたいしたおもてなしは\nできませんけれど\n\n# textflame 1 1\n# textboxarrow 0 2\n# chara 136\n@ナディア\nご自分の家と思って\nくつろいで下さいね\n\n# select \"ありがとう\" \"select_label_01\" \"すみません\" \"select_label_01\" \"優しすぎないか？\" \"select_label_01\"\nご自分の家と思って\nくつろいで下さいね\n\n# label \"select_label_01\"\n# textflame 1 1\n# textboxarrow 0 2\n# chara 136\n@ナディア\nいえ…\n不思議とアナタとは初対面という\n感じがしないんです\n\n# mask 137 on\n# pos 137 2\n# face 137 \"surprise\"\n# textflame 1 1\n# textboxarrow 0 2\n# chara 136\n@ナディア\nそれでは、おやすみなさい\n\n;;//ギルが駆け込んでくる\n# se \"SE_5575\"\n# bgm \"bgm005\" 0\n# alpha 137 1 0.3\n# leftin 137 0.5\n# move 136 4 0.5\n# face 136 \"surprise\"\n# textflame 1 1\n# textboxarrow 0 1\n# chara 137\n@ギル\n姫様！？\n…良かった、無事だった\n\n# textflame 1 1\n# textboxarrow 0 3\n# chara 136\n# voice 9968 \"nadia_0024\"\n@ナディア\nどうしたんですか、ギル？\nそんなに汗だくになって\n\n# textflame 1 1\n# textboxarrow 0 1\n# chara 137\n@ギル\nオベロン様が、\n急いで広間に来てくれって！\n\n# textflame 1 1\n# textboxarrow 0 1\n# chara 137\n@ギル\n国中の人達を城に\n集めなきゃいけないらしいんだ\n\n# face 136 \"sad\"\n# textflame 1 1\n# textboxarrow 0 3\n# chara 136\n@ナディア\nどういうことでしょう？\nオベロン様がそんなことを\n仰るなんて…\n\n;;//ナディアが走り去る\n# textboxarrow 0 0\n# se \"SE_5575\"\n# alpha 136 0 0.5\n# waitandnext 1\n\n# face 137 \"normal\"\n# imageset 0 \"black\"\n# imagealpha 0 0 0\n# imagelayer 0 1\n# textflame 1 1\n# textboxarrow 0 1\n# chara 137\n# voice 9969 \"gill_0009\"\n@ギル\nおい、あんたも急げよ！\n…姫様はオレが守るからなっ\n\n;;//背景：妖精王の城\n;;――場面転換――\n# se \"SE_5575\"\n# imagealpha 0 1 0\n# imagepos 0 0 30\n# imageleftin 0 0.5\n# serif 0\n# textwindow \"close\"\n# serif 1\n# textwindow \"close\"\n# waitandnext 1\n\n# background \"pope_room\"\n# alpha 136 1 0\n# alpha 135 1 0\n# alpha 137 0 0\n# face 136 \"surprise\"\n# waitandnext 0.2\n\n# imagealpha 0 0 0.5\n# imagerightout 0 0.5\n# serif 0\n# textwindow \"normal\" \n# textflame 1 1\n# textboxarrow 0 3\n# chara 136\n@ナディア\nオベロン様！\nなにが起きたのですかっ？\n\n# textflame 1 1\n# textboxarrow 0 1\n# chara 135\n@オベロン\nうむ…落ち着いて聞いて欲しい\n「幻想結界」に一部、\n外から穴が開けられたのだ\n\n# textflame 1 1\n# textboxarrow 0 3\n# chara 136\n# voice 9968 \"nadia_0023\"\n@ナディア\nオベロン様の結界に穴が…\nそんなことって…\n\n# face 136 \"sad\"\n# textflame 1 1\n# textboxarrow 0 3\n# chara 136\n@ナディア\n他国はティルヘルムと\n不戦協定を結んでいるはずですっ\nこんなこと許されないのに…\n\n# face 135 \"angry\"\n# textflame 1 1\n# textboxarrow 0 1\n# chara 135\n# voice 9970 \"oberon_0029\"\n@オベロン\n…信じたくはないが、\n協定を破って進軍してきたようだ\n\n# textflame 1 1\n# textboxarrow 0 1\n# chara 135\n@オベロン\nわしの結界を破った、あの力…\nまずいことになったのかもしれぬ\n\n# body 3810001\n# pos 3810001 3\n# alpha 3810001 0 0\n# scale 3810001 0.8 0\n# mask 3810001 off\n# body 3820001\n# pos 3820001 3\n# alpha 3820001 0 0\n# scale 3820001 0.8 0\n# mask 3820001 off\n# body 3830001\n# pos 3830001 3\n# alpha 3830001 0 0\n# scale 3830001 0.8 0\n# mask 3830001 off\n# layer 3830001 1\n# textflame 1 1\n# textboxarrow 0 1\n# chara 135\n@オベロン\nともかく、今は全ての国民を\n城内に入れて守ることを\n優先させるのだ\n\n;;//背景：街中\n;;――場面転換――\n# imagealpha 0 1 0\n# imagepos 0 0 30\n# imageleftin 0 0.5\n# serif 0\n# textwindow \"close\"\n# serif 1\n# textwindow \"close\"\n# waitandnext 1\n\n# background \"101_city_night3\"\n# alpha 136 0 0\n# alpha 135 0 0\n# waitandnext 0.2\n\n# imagealpha 0 0 0.5\n# imagerightout 0 0.5\n# serif 1\n# textwindow \"normal\" \n@住民１\n助けてくれぇっ…！\n\n# alpha 3820001 1 0.5\n# serif 0\n# textwindow \"normal\" \n# textflame 1 1\n# textboxarrow 0 2\n# voice 382000 \"demon_0007\"\n@ケイオスリオン兵\n邪魔なんだよ、\nこのイミテーションども！\n\n;;//兵士が住民を斬り殺す\n# serif 0\n# textwindow \"close\"\n# serif 1\n# textwindow \"close\"\n# fadein \"red\" 0.5\n# shake 0 0.5\n# se \"SE_4824\"\n# waitandnext 1.5\n\n# alpha 3820001 0 0.5\n# alpha 3830001 1 0.5\n# serif 0\n# textwindow \"normal\" \n# textflame 1 1\n# textboxarrow 0 2\n# voice 383000 \"cryptid_0010\"\n@トレイセーマ兵\n他国に後れを取るな！\n進軍を妨げるイミテーションどもは\n皆殺しにして構わん\n\n;;//兵士が住民を斬り殺す\n# serif 0\n# textwindow \"close\"\n# serif 1\n# textwindow \"close\"\n# fadein \"red\" 0.5\n# shake 0 0.5\n# se \"SE_4824\"\n# waitandnext 1.5\n\n# serif 1\n# textwindow \"normal\" \n@住民２\nな…なんでこんな…\n酷いことをっ…\n\n# alpha 3810001 1 0.5\n# alpha 3830001 0 0.5\n# serif 0\n# textwindow \"normal\" \n# textflame 1 1\n# textboxarrow 0 2\n# voice 381000 \"angel_0010\"\n@ハルモニア兵\nイミテーション風情に対し、\n答える義務はありません\n薄汚い者達よ、浄化されなさい\n\n;;//兵士が住民を斬り殺す\n# serif 0\n# textwindow \"close\"\n# serif 1\n# textwindow \"close\"\n# fadein \"red\" 0.5\n# shake 0 0.5\n# se \"SE_4824\"\n# waitandnext 1.5\n\n# move 137 3 0\n# alpha 3810001 0 0.5\n# alpha 137 1 0.5\n# face 137 \"surprise\"\n# serif 0\n# textwindow \"normal\"\n# textflame 1 1\n# textboxarrow 0 2\n# chara 137\n# voice 9969 \"gill_0028\"\n@ギル\nてめえら、なんてことしやがる！\n\n;;//ギルが兵士に挑みかかろうとしてナディアに止められる\n# alpha 136 1 0.5\n# move 137 2 0.5\n# face 136 \"surprise\"\n# textflame 1 1\n# textboxarrow 0 3\n# chara 136\n@ナディア\nギル！戦ってはいけません\n逃げてきた方の誘導を\n手伝って下さい\n\n# face 137 \"sad\"\n# textflame 1 1\n# textboxarrow 0 1\n# chara 137\n# voice 9969 \"gill_0014\"\n@ギル\nなんでだよ、姫様っ…！\n\n# serif 1\n# textwindow \"normal\"\n@住民３\nナディア様！一体、\nなにがどうなっているのですか…？\n\n# serif 1\n# textwindow \"close\"\n# serif 0\n# textwindow \"normal\"\n# face 136 \"sad\"\n# textflame 1 1\n# textboxarrow 0 3\n# chara 136\n@ナディア\n大丈夫…\n大丈夫ですから、\n早く城の奥へっ\n\n# face 136 \"angry\"\n# textflame 1 1\n# textboxarrow 0 3\n# chara 136\n@ナディア\nアナタも急いで下さい！\nオベロン様の結界に入れば、\n安全ですっ"
	}
]