[
	{
		"ID": 110011212,
		"script": ";;-----------------------------------------\n;;マサムネ2-1\n;;-----------------------------------------\n# script \"lisp\"\n# background \"plain\"\n# bgm \"bgm100\" 0\n;;-----------------------------------------\n# body 1100111\n# pos 1100111 3\n# scale 1100111 0.8 0\n# layer 1100111 2\n# mask 1100111 off\n# alpha 1100111 1 0\n;;-----------------------------------------\n# textflame 0 0\n@\nあれから数日後─\n\n# textflame 0 0\n@\nマサムネの看病の甲斐あって、\n少し快復してきた小鳥\n\n# textflame 1 1\n# textboxarrow 0 2\n# face 1100111 \"angry\"\n# voice 11001 \"masamunem_battle_0003\"\n@マサムネ\nたぁっ！\nはぁっ！！\n\n# textflame 0 0\n@\nそうなると、もう放ったらかしで\n剣の修行に励んでいるマサムネ\n\n# textflame 1 1\n# textboxarrow 0 2\n# face 1100111 \"normal\"\n@マサムネ\n…ご主君か\n\n@マサムネ\n小鳥…？\nもう大丈夫だろう\n元気も戻ってきたしな\n\n@マサムネ\nしかし俺は看病に時間を取られ、\n修行が遅れてしまった\n取り返さないとな\n\n# face 1100111 \"angry\"\n# voice 11001 \"masamunem_battle_0003\"\n@マサムネ\nはぁっ！！\n\n# textflame 0 0\n@\nそう言って、またすぐ修行に戻る\n\n# select \"なぜ、そこまで自分を追い込むの？\" \"select_label_01\" \"修羅のような顔になってるよ…\" \"select_label_02\" \"きみの笑顔…見たことがないな\" \"select_label_03\"\n@\nそう言って、またすぐ修行に戻る\n\n# label \"select_label_01\"\n# labeljump \"select_label_end\"\n# textflame 1 1\n# textboxarrow 0 2\n# face 1100111 \"normal\"\n# voice 11001 \"masamunem_0013\"\n@マサムネ\n…その理由が…知りたいのか…？\n\n# label \"select_label_02\"\n# labeljump \"select_label_end\"\n# textflame 1 1\n# textboxarrow 0 2\n# face 1100111 \"normal\"\n# voice 11001 \"masamunem_0007\"\n@マサムネ\n…！\nふっ…鬼神の顔…か\n\n# label \"select_label_03\"\n# labeljump \"select_label_end\"\n# textflame 1 1\n# textboxarrow 0 2\n# face 1100111 \"normal\"\n# voice 11001 \"masamunem_0013\"\n@マサムネ\n…笑顔……だと…？\n\n# label \"select_label_end\"\n# textflame 1 1\n# textboxarrow 0 2\n# face 1100111 \"sad\"\n@マサムネ\n…………\n\n# bgm \"stop\"\n# textflame 0 0\n@\nしばらく黙っていたマサムネが、\nその口を開いた\n\n# bgm \"bgm005\" 0\n# textflame 1 1\n# textboxarrow 0 2\n# voice 11001 \"masamunem_0019\"\n@マサムネ\n俺がキラーメイルになったのは…\n\n@マサムネ\n妹を守るためだ\n\n@マサムネ\n妹は…昔から泣いてばかりだった\nいつも俺の服の裾を掴んで、\nついてくる気の弱い子だった\n\n@マサムネ\nあいつは…\n俺がいないとダメなんだ\n\n# face 1100111 \"normal\"\n@マサムネ\nあいつは…\n俺が必ず守ってやる\n\n# face 1100111 \"angry\"\n@マサムネ\nそう決めたんだ…！\n\n@マサムネ\n医者では…\nあいつを治す事は出来ても…\n守ることは出来ない…！\n\n@マサムネ\n妹を守るために…\nもっと強くならなければ！\n強くなるには…研鑽あるのみだ\n\n# face 1100111 \"surprise\"\n# voice 11001 \"masamunem_0042\"\n@マサムネ\nい、言っとくけど…！\nシ…シスコンじゃないからな！\n\n# textflame 0 0\n@\n珍しく焦った表情を見せたマサムネ\nしかし…\n\n# textflame 1 1\n# textboxarrow 0 2\n# face 1100111 \"normal\"\n@マサムネ\n妹を脅かすものは許さない…\n俺のこの顔は…\n今の世界に対する怒りの表れなんだ\n\n# textflame 0 0\n@\n来る日も来る日も歯を食いしばり鍛え\nいつの間にか修羅のような顔に\nなってしまったマサムネ\n\n# textflame 0 0\n@\n彼が放つ殺気に\n小鳥も怯え、震えていた\n\n# textflame 1 1\n# textboxarrow 0 2\n# voice 11001 \"masamunem_battle_0003\"\n# face 1100111 \"angry\"\n@マサムネ\nはぁぁっ！！"
	}
]