[
	{
		"ID": 1230101,
		"script": ";;■□■２－３改修案■□■\n;;【２－３－１（バトル前）】\n;;整形済み\n# script \"lisp\"\n# background \"valley\"\n# bgm \"bgm031\" 0\n# body 24\n# pos 24 2\n# scale 24 0.8 0\n# alpha 24 1 0\n# body 0\n# pos 0 4\n# scale 0 0.8 0\n# alpha 0 1 0\n# body 1\n# pos 1 5\n# scale 1 0.8 0\n# alpha 1 0 0\n# body 2\n# pos 2 3\n# scale 2 0.8 0\n# alpha 2 0 0\n# mask 2 off\n# textboxarrow 0 1\n# face 24 \"surprise\"\n# voice 1014 \"tyrufing_0043\"\n@ティルフィング\nねぇ、デュリン…ディブロ村って？\nここはエゼル村じゃないの？\n\n# textboxarrow 0 3\n# voice 9999 \"durin_0007\"\n@デュリン\nきっと…悪魔に呪われし村の\nイメージを払拭したくて、\n名前を変えたのね\n\n# textboxarrow 0 1\n@ティルフィング\n…“悪魔に呪われし村”？\n\n# textboxarrow 0 3\n@デュリン\n…20年以上前の話だと思うけど\n…この村のナパルという少年が、\n人外域・ワスレナに迷い込んだの\n\n# textboxarrow 0 1\n# face 24 \"sad\"\n@ティルフィング\n…昔は今ほど厳重に\n封鎖されていなかったのよね？\n\n@ティルフィング\n耕民区の人たちがよく迷い込んでた\nって聞いたことがある…\n\n# textboxarrow 0 3\n# face 0 \"serious\"\n@デュリン\nうん、けれど…彼はそこで、\n他の人たちとは違う\n特殊な体験をしたみたい\n\n# face 0 \"serious2\"\n@デュリン\n村に戻って、\n興奮して叫んでたんだって…\n「僕は天使を見た！」って\n\n# textboxarrow 0 1\n# face 24 \"surprise\"\n# voice 1014 \"tyrufing_0022\"\n@ティルフィング\n天使…？\n\n# textboxarrow 0 3\n# face 0 \"occur\"\n@デュリン\nんなもん、いるとは思えないけど…\nただ…その日を境に、\n彼に異変が起こった\n\n# face 0 \"normal\"\n@デュリン\nトトと同じ…\n異族に狙われるようになったのよ\n\n# alpha 24 0 0.5\n# alpha 0 0 0.5\n# alpha 2 1 0.5\n# textboxarrow 0 2\n# face 2 \"sad\"\n@村人B\n以来…村にも異族の大群が\n頻繁に襲来するようになった\n\n@村人B\n異族を呼ぶ村と評判が立ち…\nいつしか“悪魔に呪われし村”などと\n呼ばれるようになったんだ\n\n# alpha 2 0 0.5\n# alpha 24 1 0.5\n# alpha 0 1 0.5\n# textboxarrow 0 3\n# face 0 \"angry\"\n# voice 9999 \"durin_0052\"\n@デュリン\nアンタたち…村に戻りなさい！\n異族に襲われるわよ！？\n\n# move 0 3 0.5\n# alpha 2 0 0.5\n# alpha 1 1 0.5\n# textboxarrow 0 3\n# face 1 \"sad\"\n@村人A\nトトは“悪魔の子”ナパルの\n生まれ変わり…\n\n# face 1 \"angry\"\n@村人A\n締め出したこの村を呪い、\n復讐に現れたのだ！\n\n# textboxarrow 0 2\n# face 0 \"normal\"\n# voice 9999 \"durin_0009\"\n@デュリン\n締め出した…？\nなによ、それ…\n\n# textboxarrow 0 1\n# face 24 \"angry\"\n# voice 1014 \"tyrufing_0037\"\n@ティルフィング\n…デュリン、話は後に\n異族が近付いているわ\n\n# textboxarrow 0 2\n# face 0 \"angry\"\n# voice 9999 \"durin_0049\"\n@デュリン\n…！"
	}
]