[
	{
		"ID": 1231002,
		"script": ";;■□■２－３改修案■□■\n;;【２－３－３（バトル前）】\n;;整形済み\n# background \"valley\"\n# bgm \"bgm004\" 0\n# body 24\n# pos 24 2\n# scale 24 0.8 0\n# alpha 24 1 0\n# body 0\n# pos 0 4\n# scale 0 0.8 0\n# alpha 0 0 0\n# body 1\n# pos 1 4\n# scale 1 0.8 0\n# alpha 1 1 0\n# face 1 \"angry\"\n# textboxarrow 0 1\n# face 24 \"surprise\"\n# voice 1014 \"tyrufing_0024\"\n@ティルフィング\nラグナロクが来なかった…！？\nそんな、まさか…\n\n# face 24 \"sad\"\n@ティルフィング\nラグナロクが…\n村を見放したなんてこと…\n\n# textboxarrow 0 3\n@村人A\nなにを言うておる！\n\n@村人A\nおぬしらラグナロクが\n来てくれてさえいたら…\n\n@村人A\nワシらもナパル一家を\n追放せずに済んだのだ！\n\n@村人A\nワシらが望んで\n追放したとでも思うたか！\n\n# textboxarrow 0 1\n# voice 1014 \"tyrufing_0037\"\n@ティルフィング\nそんな！\nデュリン…\n\n# alpha 1 0 0.5\n# alpha 0 1 0.5\n# textboxarrow 0 3\n# face 0 \"serious2\"\n@デュリン\n…派遣要請が立て込んだ場合、\nどうしても王都に近い中心部の要請が\n優先されてしまう、無くは無い話だわ\n\n# textboxarrow 0 1\n# voice 1014 \"tyrufing_0015\"\n@ティルフィング\nそんな！\nそんなこと…\n\n# textboxarrow 0 3\n# face 0 \"serious\"\n@デュリン\nそういう意味で言うなら…\n確かに、命は平等じゃないのかも\nしれないわね…"
	}
]