[
	{
		"ID": 1330702,
		"script": "# script \"lisp\"\n# body 0\n# pos 0 1\n# body 4\n# pos 4 3\n# body 6\n# pos 6 5\n# scale 0 0.7 0\n# scale 4 0.8 0\n# scale 6 0.8 0\n# layer 0 1\n# textboxarrow 0 3\n# chara 6\n@ディーン\n天使を見たせいで\n異族に追われてる…？\nこのガキが…？\n\n# serif 1\n# textboxarrow 1 2\n# face 4 \"sad\"\n# chara 4\n@トト\n…………\n\n# serif 1\n# textboxarrow 1 1\n# chara 0\n@デュリン\nそうよ。ナパルにもらった\n首飾りのおかげで\n異族を寄せ付けていないけど…\n\n# serif 0\n# textboxarrow 0 3\n# face 6 \"happy\"\n# chara 6\n@ディーン\nつまりコイツも“悪魔の子”\nってことか…？ハハ！こりゃいいや！\n\n# serif 0\n# textboxarrow 0 3\n# chara 6\n@ディーン\n二代目ホラ吹きの称号…\nこのクソガキに\nうってつけじゃねぇか！\n\n# serif 1\n# textboxarrow 1 2\n# face 4 \"angry\"\n# chara 4\n@トト\nっ…！\nこのーっ！！\n\n# serif 0\n# textboxarrow 0 3\n# chara 6\n@ディーン\nおっと…\nなにムキになってんだよ、クソガキ？\n\n# serif 0\n# textboxarrow 0 3\n# chara 6\n@ディーン\nホラばっか吹いてる、\nお前が悪いんだろ？\n自業自得じゃねぇか？\n\n# serif 1\n# textboxarrow 1 2\n# chara 4\n@トト\nグギギ…！\n離せよ、コイツ！！\n\n# serif 1\n# textboxarrow 1 1\n# chara 0\n@デュリン\n離して。トトは生意気だけど、\nウソはつかない…\nホラ吹きなんかじゃないわ\n\n# serif 0\n# textboxarrow 0 3\n# face 6 \"normal\"\n# chara 6\n@ディーン\nは？だってコイツ、\n天使を見たって言ってんだろ？\n\n# serif 0\n# textboxarrow 0 3\n# chara 6\n@ディーン\nまさか…お前まで\n“カミノツカイ”がいるなんて\n言い出すんじゃないだろうな？\n\n# serif 1\n# textboxarrow 1 1\n# chara 0\n@デュリン\n正直…アタシだって、\nそんなものがいるとは思えない…\nでも…\n\n# serif 0\n# textboxarrow 0 3\n# chara 6\n@ディーン\nでも…？\n\n# serif 1\n# textboxarrow 1 1\n# chara 0\n@デュリン\n現実に起きている事象を見ると…\nそれに代わる存在がいると\n考えざるをえない\n\n# serif 0\n# textboxarrow 0 3\n# chara 6\n@ディーン\nは…？"
	}
]