[
	{
		"ID": 1430502,
		"script": "# script \"lisp\"\n# body 101411\n# pos 101411 1\n# body 0\n# pos 0 2\n# body 7\n# pos 7 3\n# body 6\n# pos 6 5\n# scale 101411 0.8 0\n# scale 0 0.7 0\n# scale 7 0.8 0\n# scale 6 0.8 0\n# layer 0 1\n# textboxarrow 0 3\n# voice 9997 \"deen_0045\"\n# chara 6\n@ディーン\n関所に勤める息子…！\nもしかして、その息子が…\n\n# serif 1\n# textboxarrow 1 1\n# chara 0\n@デュリン\n融通した可能性はあるわね。\nねぇ…入域許可証って持ってる？\n\n# serif 0\n# textboxarrow 0 2\n# chara 7\n@学者さま\n乳液硬化症？\n\n# serif 1\n# textboxarrow 1 3\n# voice 9997 \"deen_0031\"\n# chara 6\n@ディーン\n爺さん…ボケてんのか、\nマジなのか…どっちだ？\n\n# serif 0\n# textboxarrow 0 1\n# chara 0\n@デュリン\n奇跡的な聞き間違いをするわね…\n入域許可証！\n人民区に入る為の書類！\n\n# serif 1\n# face 7 \"smile\"\n# textboxarrow 1 2\n# chara 7\n@学者さま\nおお、おお！\n通行手形のことか？\n\n# serif 1\n# textboxarrow 1 2\n# face 7 \"normal\"\n# chara 7\n@学者さま\nまったく、\nそんなもんいらんと言うとるのに…\nあのバカ息子が送って来よったわい\n\n# serif 0\n# textboxarrow 0 1\n# voice 1014 \"tyrufing_0023\"\n# chara 101411\n@ティルフィング\n…っ！\nお持ちなんですね！？\n\n# serif 1\n# voice 9999 \"durin_0006\"\n# textboxarrow 1 1\n# chara 0\n@デュリン\nやった！！\n\n# serif 0\n# textboxarrow 0 2\n# chara 7\n@学者さま\n耕民区は危険じゃから、\n安全な人民区に移れと送って来よった\n\n# serif 0\n# textboxarrow 0 2\n# chara 7\n@学者さま\nそんなもんより、\n顔のひとつも見せろと言うとるに…\nまったく、出来の悪い息子じゃわい\n\n# serif 1\n# textboxarrow 1 1\n# chara 101411\n@ティルフィング\nお爺さん…\n\n# serif 0\n# textboxarrow 0 2\n# chara 7\n@学者さま\nそれより、ほれ…\n向こうにおるのは、\nおぬしらの仲間かえ？\n\n# serif 1\n# textboxarrow 1 0\n@トト\nわ！\n異族だよ！向かってくる！\n\n# serif 0\n# textboxarrow 0 1\n# chara 0\n@デュリン\nもう、なんなのこの爺さん！？\n目がいいんだか悪いんだか、\nよくわかんないわ！！"
	}
]