[
	{
		"ID": 1521003,
		"script": ";;【５－２－３（バトル前）】\n# background \"005_Checkpoint\"\n# bgm \"bgm005\" 0\n# body 0\n# pos 0 3\n# scale 0 0.8 0\n# alpha 0 1 0\n# body 6\n# pos 6 5\n# scale 6 0.8 0\n# alpha 6 1 0\n# body 24\n# pos 24 1\n# scale 24 0.8 0\n# alpha 24 1 0\n# body 4\n# pos 4 5\n# scale 4 0.8 0\n# alpha 4 0 0\n# face 24 \"sad\"\n# face 0 \"occur\"\n# voice 9999 \"durin_0028\"\n# textboxarrow 0 2\n@デュリン\nたぶんだけど…\nあのゲートキーパーは、\n爺さんの息子に間違いないわ\n\n# voice 9997 \"deen_0030\"\n# textboxarrow 0 3\n@ディーン\nあ？\nなんでだよ…？\n\n# voice 9999 \"durin_0007\"\n# textboxarrow 0 2\n@デュリン\nあのゲートキーパー…\n“見知らぬ爺さんの話を\nいくらされようと…”って言ったのよ\n\n# face 0 \"serious2\"\n# textboxarrow 0 2\n@デュリン\nアタシ達…あの人の\n前では、爺さんのことを\n“学者さま”としか呼んでない\n\n# face 0 \"serious\"\n# textboxarrow 0 2\n@デュリン\nアタシ達の会話から、\n学者さまの年齢や性別を\n推測できるはずがないのよ\n\n# face 24 \"surprise\"\n# voice 1014 \"tyrufing_0022\"\n# textboxarrow 0 1\n@ティルフィング\n…っ！\nあのゲートキーパーさん…\n学者さまのことを知っているのね！？\n\n# face 0 \"occur\"\n# voice 0 \"durin_0007\"\n# textboxarrow 0 2\n@デュリン\n爺さんは、\n王都に追われ身を隠していた\nそんな人間を知る人物といえば…\n\n# alpha 4 1 0.5\n# alpha 6 0 0.5\n# face 4 \"smile01\"\n# voice 9998 \"toto_0022\"\n# textboxarrow 0 3\n@トト\n爺ちゃんの子供だ！！\nやった！！\n\n# textboxarrow 0 1\n@ティルフィング\nデュリン…\n\n# face 0 \"serious2\"\n# voice 9999 \"durin_0007\"\n# textboxarrow 0 2\n@デュリン\n気を抜くのは早いわ、オルトを\n説得する材料を見つけただけだもの\nそれに…\n\n# alpha 6 1 0.5\n# alpha 4 0 0.5\n# voice 9997 \"deen_0010\"\n# textboxarrow 0 3\n@ディーン\n…巡視兵団か？\n\n# face 24 \"surprise\"\n# voice 1014 \"tyrufing_0002\"\n# textboxarrow 0 1\n@ティルフィング\nなんなのですか、\nその巡視兵団って…？\n\n# face 0 \"serious\"\n# textboxarrow 0 2\n@デュリン\n反乱分子摘発が目的の、\n王立軍の特務部隊\n\n# textboxarrow 0 2\n@デュリン\n神出鬼没で、どこで見ているか\nわからない監視の恐怖から…\n世間じゃ“王国の目”って言われてる\n\n# face 0 \"occur\"\n# textboxarrow 0 2\n@デュリン\n大きな声じゃ言えないけど…\n\n# voice 9999 \"durin_0027\"\n# textboxarrow 0 2\n@デュリン\n意にそぐわないヤツは、\nなんでもかんでも反乱分子として\n引っ張っていくって噂だわ\n\n# voice 9997 \"deen_0010\"\n# textboxarrow 0 3\n@ディーン\n目ぇつけられるんじゃないかって\n怯えてんのは、\n王立軍のヤツらも同じらしいぜ？\n\n# textboxarrow 0 3\n@ディーン\n軍の内部監査もしてるって話だからな\n\n# face 0 \"angry\"\n# voice 9999 \"durin_0013\"\n# textboxarrow 0 2\n@デュリン\nもう！面倒ね！\nなんで、この関所にいるのよ！\nタイミング悪いったらないわ！！\n\n# face 0 \"angry2\"\n# voice 9997 \"deen_0011\"\n# textboxarrow 0 3\n@ディーン\nんなこと言ったって仕方ねぇだろ\n\n# textboxarrow 0 3\n@ディーン\nともかく…爺ぃの息子\nってとこを突いて、\n説得するしか手はねぇ\n\n# voice 9997 \"deen_0031\"\n# textboxarrow 0 3\n@ディーン\nとっとと行くぞ…\nこっちには時間がねぇんだ"
	}
]