[
	{
		"ID": 1530302,
		"script": ";;-----------------------------------------\n;;1530302\n;;4/6　全員のスケールを0.8に統一\n;; 　　テキストの表示位置をキャラ毎に固定に変更\n;; 　　表情を修正\n;;-----------------------------------------\n# script \"lisp\"\n# body 101411\n# pos 101411 2\n# body 4\n# pos 4 4\n# scale 4 0.8 0\n# scale 101411 0.8 0\n# textwindow \"bottom_close\"\n# serif 1\n# textboxarrow 1 3\n# face 4 \"sad\"\n# voice 9998 \"toto_0001\"\n# chara 4\n@トト\nねぇ、ティルフィング…\n僕達、どうなっちゃうの？\n\n# serif 0\n# textwindow \"normal\"\n# textboxarrow 0 1\n# face 101411 \"sad\"\n# voice 1014 \"tyrufing_0015\"\n# chara 101411\n@ティルフィング\nわからない…\n\n# serif 1\n# textboxarrow 1 3\n# chara 4\n@トト\nデュリンも黙ったままだ…\nあんな、取り乱したデュリン…\n初めて見た\n\n# serif 0\n# textboxarrow 0 1\n# chara 101411\n@ティルフィング\n…それだけ、\n追い込まれてるってことですね\n\n# serif 1\n# textboxarrow 1 3\n# chara 4\n@トト\n洗礼も…出来なくなっちゃったの…？\n\n# serif 0\n# textboxarrow 0 1\n# chara 101411\n@ティルフィング\n…わからない\n\n# serif 1\n# textboxarrow 1 3\n# voice 9998 \"toto_0033\"\n# face 4 \"angry\"\n# chara 4\n@トト\n僕の…せいだ…\n\n# serif 0\n# textboxarrow 0 1\n# voice 1014 \"tyrufing_0049\"\n# face 101411 \"angry\"\n# chara 101411\n@ティルフィング\n…っ！\n違うわ、トト…\nアナタだけの問題じゃ…\n\n# serif 1\n# textboxarrow 1 3\n# face 4 \"normal\"\n# chara 4\n@トト\nだって…みんなは\n関所を通れるんでしょ？\n\n# serif 1\n# textboxarrow 1 3\n# face 4 \"sad\"\n# chara 4\n@トト\n僕がいるから、\nこんなことになってるんでしょ？\n\n# serif 0\n# textboxarrow 0 1\n# face 101411 \"normal\"\n# chara 101411\n@ティルフィング\n…それは…違うわ、トト\nアナタを王都に連れて行くことは、\nナパルさんとの約束…\n\n# serif 0\n# textboxarrow 0 1\n# chara 101411\n@ティルフィング\n私達が決めたことなの\nアナタのせいじゃないわ\n\n# serif 1\n# textboxarrow 1 3\n# voice 9998 \"toto_0040\"\n# chara 4\n@トト\nっ…でも…\n\n# serif 0\n# textboxarrow 0 1\n# face 101411 \"sad\"\n# chara 101411\n@ティルフィング\nアナタのせいなんかじゃない\nそんな考え方をするのはやめて…\nいい？\n\n# serif 1\n# textboxarrow 1 3\n# face 4 \"normal\"\n# chara 4\n@トト\nう…うん…\n"
	}
]