[
	{
		"ID": 1610202,
		"script": ";;1-3戦闘前\n# script \"lisp\"\n# background \"006_church\"\n# bgm \"bgm005\" 0\n# body 29\n# pos 29 4\n# face 29 \"usual\"\n# body 28\n# pos 28 2\n# scale 29 0.8 0\n# scale 28 0.8 0\n# textflame 1 1\n# textboxarrow 0 3\n# chara 29\n@祀官\n何度言ったらわかるんですか！？\nそんなものはないと\n申しているでしょう！\n\n# serif 1\n# textboxarrow 1 1\n# chara 28\n# voice 9984 \"ren_0009\"\n# face 28 \"angry\"\n@レン\nウソよ！\nちゃんと調べてよ！\n\n# serif 1\n# textboxarrow 1 1\n# chara 28\n# voice 9984 \"ren_0014\"\n@レン\n大昔に一度、“扉”は開いてんの！\nその時の資料があるはずでしょ！？\n\n# serif 0\n# textboxarrow 0 3\n# body 0\n# pos 0 3\n# scale 0 0.7 0\n# alpha 0 0 0\n# layer 0 1\n# chara 29\n@祀官\nそんな古い資料が、\nこの小さな教会にあると\nお思いですか！？\n\n;;そこへやってくる一行\n# serif 1\n# textboxarrow 1 2\n# textboxarrow 0 0\n# move 29 5 0.5\n# move 28 1 0.5\n# alpha 0 1 0.7\n# chara 0\n# face 0 \"usual2\"\n@デュリン\nあの…お取込み中ですか？\n\n# serif 0\n# textboxarrow 0 3\n# chara 29\n# face 29 \"normal\"\n@祀官\nあ、いえ…\nこれはこれは、ご苦労様です\n\n# serif 1\n# textboxarrow 1 1\n# chara 28\n# voice 9984 \"ren_0010\"\n@レン\nちょっと！\n取り込み中でしょ！？\n\n# serif 1\n# textboxarrow 1 1\n# chara 28\n# voice 9984 \"ren_0046\"\n# face 28 \"normal\"\n@レン\n悪いけどさ…\nアンタ達、後にしてくれる？\n\n# serif 0\n# textboxarrow 0 3\n# chara 29\n# face 29 \"usual\"\n@祀官\nちょっと、いい加減になさい！\n\n# serif 1\n# textboxarrow 1 1\n# chara 28\n# voice 9984 \"ren_0013\"\n# face 28 \"surprise\"\n@レン\nこっちだって時間がないの！\nいつ“扉”が開いても、\nおかしくないのよ！？\n\n# serif 1\n# textboxarrow 1 1\n# body 6\n# pos 6 3\n# scale 6 0.8 0\n# alpha 6 0 0\n# chara 28\n# voice 9984 \"ren_0007\"\n# face 28 \"angry\"\n@レン\n資料を見せてもらうまで、\n絶対に帰らないから！！\n\n# serif 0\n# textboxarrow 0 2\n# alpha 0 0 0.5\n# alpha 6 1 0.5\n# chara 6\n# face 6 \"normal\"\n@ディーン\n扉…？\n…なんなんすか？\n\n# serif 1\n# textboxarrow 1 3\n# chara 29\n# face 29 \"normal\"\n@祀官\nいや、それが私にも…\nなんとかの扉が開く\nと騒いでおりまして…\n\n# serif 0\n# textboxarrow 0 1\n# chara 28\n@レン\n“現（うつつ）の扉”！！\n\n# serif 0\n# textboxarrow 0 1\n# chara 28\n# voice 9984 \"ren_0009\"\n# face 28 \"surprise\"\n@レン\nアンタ達ラグナロク教会が\n知らなくて、\n誰が知ってるって言うのよ！？\n\n# serif 1\n# textboxarrow 1 2\n# alpha 6 0 0.5\n# alpha 0 1 0.5\n# chara 0\n# face 0 \"serious\"\n@デュリン\n…大昔の細かな記録は、\n王都の大聖堂に保存されてるの\n\n# serif 1\n# textboxarrow 1 2\n# chara 0\n# face 0 \"serious2\"\n@デュリン\n調べたいのなら、\n大聖堂の広報に問い合わせたほうが…\n\n# serif 1\n# textboxarrow 1 2\n# chara 0\n# face 0 \"serious\"\n@デュリン\n…祀官様、\n書簡を出してあげたらいかがですか？\n\n# serif 0\n# textboxarrow 0 1\n# chara 28\n# face 28 \"angry\"\n@レン\n王都からの返事を\n待ってる時間なんてないの！\n\n# serif 0\n# textboxarrow 0 1\n# chara 28\n# voice 9984 \"ren_0014\"\n@レン\nもう…！\n待ってるから、\nさっさと用件を済ませてよ！\n\n;;席を外すレン\n# serif 1\n# textboxarrow 1 3\n# textboxarrow 0 0\n# alpha 28 0 0.5\n# move 29 4 0.5\n# move 0 2 0.5\n# chara 29\n@祀官\nまったく…\n\n# serif 0\n# textboxarrow 0 1\n# chara 0\n# face 0 \"worry\"\n@デュリン\nそれより、祀官様…\n伺った診療所を当たってみたんですが\n残念ながら全滅で…\n\n# serif 0\n# textboxarrow 0 1\n# chara 0\n@デュリン\n他に思い当たる\n医療施設はありませんか？\n\n# serif 1\n# textboxarrow 1 3\n# chara 29\n@祀官\nそうですか…\n\n# serif 1\n# textboxarrow 1 3\n# chara 29\n@祀官\n申し訳ありません…\n昨日お伝えしたものが、\n私の知る全てでして…\n\n# serif 0\n# textboxarrow 0 1\n# chara 0\n# face 0 \"worry\"\n# voice 9999 \"durin_0027\"\n@デュリン\nですよね…\n\n# serif 1\n# textboxarrow 1 1\n# textboxarrow 0 0\n# pos 6 1\n# alpha 6 1 0.5\n# move 29 5 0.5\n# move 0 3 0.5\n# chara 6\n# face 6 \"sad\"\n@ディーン\n…やっぱ、フレンネル大公に\n力添えを求めるのが、\n手っ取り早いんじゃねぇか？\n\n;;フレンネル大公の名に、ピクリと反応するレン\n# serif 0\n# textboxarrow 0 2\n# textboxarrow 1 0\n# alpha 0 0 0.5\n# alpha 29 0 0.5\n# alpha 6 0 0.5\n# alpha 28 1 0.5\n# pos 28 3\n# mask 28 off\n# chara 28\n# face 28 \"trouble\"\n@レン\n…！\n\n# serif 1\n# textboxarrow 1 2\n# textboxarrow 0 0\n# move 28 1 0.5\n# mask 28 on\n# rightin 0 0.5\n# rightin 29 0.5\n# alpha 0 1 0.5\n# alpha 29 1 0.5\n# chara 0\n# face 0 \"serious2\"\n@デュリン\nそうね…ダメ元で、\nアプローチしてみてもいいかもね…\n\n# serif 1\n# textboxarrow 1 2\n# chara 0\n# face 0 \"serious\"\n@デュリン\n…祀官様、すみません\n王都へ書簡を出したいんですが…\n\n# serif 0\n# textboxarrow 0 1\n# chara 28\n@レン\n…………"
	}
]