[
	{
		"ID": 1650101,
		"script": ";;５話OP『リベリオン』\n;;とある密室…暗闇に浮かび上がる王政府上層部の人間たち\n;;079使用してＯＫ？\n# script \"lisp\"\n# bgmfile \"bgm079\" \"BgmFTcollabo001\" 0\n# background \"black\"\n# imageset 1 \"bg_black\"\n# imagelayer 1 2\n# imagealpha 1 1 0\n# imagepos 1 0 30\n# imageset 0 \"006_hall\"\n# imagealpha 0 0 0\n# imagelayer 0 1\n# imagescale 1 5 0\n# textwindow \"close\"\n# waitandnext 0.3\n\n;;王政府上層部１\n# imagealpha 1 0 0.5\n# imagealpha 0 1 0\n# imagepos 0 0 30\n# serif 0\n# textwindow \"nomal\"\n# textflame 1 1\n# textboxarrow 0 0\n@？？？\n…第６師団に続き、\n第８師団も壊滅に至ったとのこと\n\n;;王政府上層部１\n# serif 0\n# textwindow \"nomal\"\n# textboxarrow 0 0\n@？？？\n現在…第４、第７師団が\n合同で交戦中だが…\n\n;;王政府上層部３\n# serif 1\n# textboxarrow 1 0\n@？？？\n時間の問題であろうな…\nこのままでは、悪戯に戦力を\n欠くだけではあるまいか？\n\n;;王政府上層部２\n# serif 0\n# textboxarrow 0 0\n@？？？\n…お告げは、まだ下らんのか？\n\n;;王政府上層部１\n# serif 1\n# textboxarrow 1 0\n@？？？\nあの御方たちにおいても、\n異界は不干渉の領域…今しばらく、\nその動向を見定めておるのだろう\n\n;;王政府上層部２\n# serif 0\n# textboxarrow 0 0\n@？？？\nやれやれ…まるで、\n実験体…キル姫のようではないか\n\n;;王政府上層部３\n# serif 1\n# textboxarrow 1 0\n@？？？\n慎まれよ、命は無駄にすべきではない\n\n;;王政府上層部２\n# serif 0\n# textboxarrow 0 0\n@？？？\nフン…\n…で…このまま、我が軍が\n崩壊してゆくのを見守るおつもりか？\n\n;;王政府上層部１\n# serif 1\n# textboxarrow 1 0\n@？？？\nいや…第１師団を当てようと思う\n\n;;王政府上層部４\n# serif 0\n# textboxarrow 0 0\n@？？？\nほう…確かに…\nあの男の働きがあらば、\n被害は最小限に食い止められよう\n\n;;王政府上層部１\n# serif 1\n# textboxarrow 1 0\n@？？？\n少なくとも…あの御方達の\n求める成果を引き出すことが\n出来るはず\n\n;;王政府上層部１\n# serif 1\n# textboxarrow 1 0\n@？？？\nさすれば、\nお告げが下るのも\n遠からぬ話であろう\n\n;;王政府上層部３\n# serif 0\n# textboxarrow 0 0\n@？？？\nうむ。異論はない\n\n;;王政府上層部２\n# serif 1\n# textboxarrow 1 0\n@？？？\n異論はない\n\n;;王政府上層部４\n# serif 0\n# textboxarrow 0 0\n@？？？\nついに、この大陸の英雄の登場か\n…これは見ものだな\n"
	}
]