[
	{
		"ID": 1710102,
		"script": ";;【指定】bgm005\n;;１－１＜戦闘画面＞\n# script \"lisp\"\n# background \"006_town\"\n# bgm \"bgm005\" 0\n# body 6\n# pos 6 1\n# body 0\n# pos 0 3\n# mask 0 off\n# layer 0 1\n# face 0 \"serious2\"\n# body 44\n# pos 44 5\n# scale 6 0.8 0\n# scale 44 0.8 0\n# scale 0 0.7 0\n# textflame 1 1\n# textboxarrow 0 1\n# chara 6\n@ディーン\n黒奏官か…\nヤツは今、キトゥリス市場街の\n教会にいるはずだ\n\n# serif 1\n# textboxarrow 1 2\n# chara 0\n# face 0 \"serious\"\n@デュリン\nアンタに会いたがってる、\nレンという女性記者と一緒にね\n\n# serif 0\n# textboxarrow 0 3\n# body 4\n# pos 4 1\n# scale 4 0.8 0\n# alpha 4 0 0\n# chara 44\n# face 44 \"surprise\"\n@リベリオン\n俺に…？\n\n# serif 1\n# textboxarrow 1 1\n# alpha 4 1 0.5\n# alpha 6 0 0.3\n# chara 4\n# voice 9998 \"toto_0003\"\n@トト\nお父さんの遺言を、\n伝えなきゃならないんだって\n\n# serif 1\n# chara 4\n@トト\n一緒に来たがってたけど、\n危ないからって止められたんだ\n\n# serif 0\n# textboxarrow 0 3\n# chara 44\n# voicedelay 9979 \"rebellion_0001\" 0.5\n# face 44 \"normal\"\n@リベリオン\n…遺言\n誰なんだ、\nその女の父親ってのは？\n\n# serif 1\n# textboxarrow 1 2\n# chara 0\n# voice 9999 \"durin_0009\"\n@デュリン\nアタシ達が知るわけないでしょ\n本人に聞きなさいよ\n\n# serif 0\n# textboxarrow 0 3\n# body 24\n# pos 24 1\n# scale 24 0.8 0\n# alpha 24 0 0\n# chara 44\n@リベリオン\n…その女が、無事ならな\n\n# serif 1\n# textboxarrow 1 1\n# alpha 24 1 0.5\n# alpha 4 0 0.3\n# chara 101411\n# voice 1014 \"tyrufing_0022\"\n# face 24 \"surprise\"\n@ティルフィング\nえ…？\n\n# serif 0\n# textboxarrow 0 3\n# chara 44\n@リベリオン\nもしその遺言が、\n俺にとって有益な情報なら…\n\n# chara 44\n@リベリオン\nヤツらはおそらく、\n揉み消しにかかるはずだ\n\n# serif 1\n# textboxarrow 1 2\n# chara 0\n# face 0 \"worry\"\n@デュリン\nヤツら…？\n黒奏官だけじゃないってこと…？\n\n# serif 0\n# textboxarrow 0 3\n# chara 44\n# face 44 \"sad\"\n@リベリオン\nさぁな…\nそいつのバックに、\nどれだけの人間がいるのか…\n\n# chara 44\n# face 44 \"normal\"\n@リベリオン\n俺は、そこを探ろうとしてるんだよ\n\n# serif 1\n# textboxarrow 1 1\n# alpha 6 1 0.5\n# alpha 24 0 0.3\n# chara 6\n# face 6 \"sad\"\n@ディーン\nラグナロク内の、\n特定の人間を探るってことなのか？\n\n# serif 1\n# chara 6\n# voice 9997 \"deen_0031\"\n@ディーン\n…ったく、\nお前の意図を理解できなきゃ、\n俺達も協力のしようがねぇよ\n\n# serif 0\n# textboxarrow 0 2\n# chara 0\n# voice 9999 \"durin_navi_1108\"\n# face 0 \"angry\"\n@デュリン\n協力って…アンタ、\nまさかコイツに手を貸す気！？\n\n# serif 1\n# textboxarrow 1 1\n# chara 6\n# voice 9997 \"deen_0008\"\n# face 6 \"angry\"\n@ディーン\n嫌なら、お前らはよしとけよ\n…俺だって、こんなわけのわからねぇ\nヤツと共にしたくはねぇ\n\n# serif 1\n# chara 6\n@ディーン\nだが…どうやら、\n目的が同じみたいだからな\n\n# serif 0\n# textboxarrow 0 2\n# chara 0\n# face 0 \"serious2\"\n@デュリン\n同じって…？\n\n# serif 1\n# textboxarrow 1 1\n# chara 6\n# face 6 \"normal\"\n@ディーン\n黒奏官だよ…\n俺は、あの男が隠している\n闇を探りたい\n\n# serif 0\n# textboxarrow 0 3\n# chara 44\n# voice 9979 \"rebellion_0039\"\n@リベリオン\nほう…？\n\n# serif 1\n# textboxarrow 1 1\n# chara 6\n@ディーン\nこれまで、\n存在を隠し通してきたことからも\nわかるように…\n\n# serif 1\n# chara 6\n@ディーン\nアイツは、\nとんでもなく抜け目のない男だ\n\n# serif 1\n# chara 6\n# face 6 \"angry\"\n@ディーン\n俺なんかが探りを入れたところで、\n尻尾を掴めるとは思えねぇ\n\n# serif 1\n# chara 6\n@ディーン\n…だが、\nコイツの強引な突破力があれば、\n\n# serif 1\n# chara 6\n@ディーン\n口を割らせることが\nできるかもしれない\n\n;;真剣な表情のディーンをジッと見つめるリベリオン\n# serif 0\n# textboxarrow 0 3\n# chara 44\n@リベリオン\n口を割らせる…\n…なにか、事情でもあるのか？\n\n# serif 1\n# textboxarrow 1 1\n# chara 6\n# voice 9997 \"deen_0008\"\n@ディーン\n…アンタには、\n関係のないことだ\n\n# serif 0\n# textboxarrow 0 3\n# chara 44\n# voice 9979 \"rebellion_0007\"\n# face 44 \"smile\"\n@リベリオン\nフッ…\nまぁ、いいや…\n喜んで利用されてやるよ\n\n;;一行に向き直るリベリオン\n# chara 44\n# face 44 \"normal\"\n@リベリオン\n探りを入れてみなけりゃ、\nハッキリしたことは言えないが…\n\n# chara 44\n@リベリオン\nラグナロクの教会組織は、\nおそらく腐敗が進んでいる\n\n# chara 44\n@リベリオン\nお前らの知る…\n絶対正義を目指すラグナロクの姿は、\nその表層でしかない\n\n# serif 1\n# textboxarrow 1 2\n# chara 0\n# face 0 \"worry\"\n@デュリン\n…！"
	}
]