[
	{
		"ID": 20048204,
		"script": ";;【EP4】\n# script \"lisp\"\n# background \"schoolroad_evening\"\n# bgm \"bgm003\" 0\n# body 118\n# pos 118 3\n# mask 118 off\n# alpha 118 0 0\n# textflame 0 0\n# body 200481\n# alpha 200481 0 0\n@\n放課後、そろそろ帰ろうという\n時間になったが…\n疲れた様子のパラシュが気がかりだ\n\n# textflame 1 1\n# textboxarrow 0 2\n# chara 118\n# alpha 118 1 0.5\n# face 118 \"sad\"\n@パラシュ\n君は…\n本当に心配症だな！\n\n# textboxarrow 0 2\n# chara 118\n@パラシュ\n確かに根を詰めていたのは認める\nでも一人で帰れないほどじゃあ…！\n\n# textflame 0 0\n@\nそういうパラシュの足取りは\nどこかふわふわしている\n\n# textflame 0 0\n@\n心配で、なんとか説得して\n一緒に帰路についたマスターである\n\n# textflame 1 1\n# textboxarrow 0 2\n# chara 118\n# face 118 \"normal\"\n@パラシュ\n…………\n\n# textflame 0 0\n@\n気づくと横にいたはずの\nパラシュがいない\n振り返ると…\n\n# textflame 0 0\n@\n花屋の前で立ち止まり\nなにかを見つめているようだった\n\n# textflame 1 1\n# textboxarrow 0 2\n# chara 118\n# voice 20048 \"parashu_0031\"\n# face 118 \"sad\"\n@パラシュ\nすまない\n急に立ち止まったりして…\n\n# textflame 0 0\n@\n気にしなくていいよ、と\nマスターはパラシュに伝える\n\n# textflame 0 0\n@\n花に関心を持つような\n心の余裕がパラシュにあるなら\nむしろマスターはうれしかった\n\n# textflame 1 1\n# textboxarrow 0 2\n# chara 118\n# face 118 \"happy\"\n@パラシュ\n…きれいな赤いバラが\n店頭に並んでいたから…\nついつい見惚れてしまって\n\n# textboxarrow 0 2\n# chara 118\n# voice 20048 \"parashu_0020\"\n# face 118 \"normal\"\n@パラシュ\n…そうだ、マスターは\nバラの花言葉を知ってるかい？\n色や本数で変わるんだが…\n\n# textflame 0 0\n@\nそう言って、パラシュは\nバラにまつわるいろいろなことを\nあれこれ聞かせてくれた\n\n# textflame 0 0\n@\nパラシュはバラが好き…\nマスターはその言葉を胸に留めた\n\n;;//場面転換の暗転\n# fadeout \"black\" 2\n# serif 0\n# textwindow \"close\"\n# serif 1\n# textwindow \"close\"\n# waitandnext 2\n\n# face 118 \"sad\"\n# background \"classroom02_afternoon\"\n# fadein \"black\" 1\n# serif 0\n# textwindow \"nomal\"\n# textflame 0 0\n@\n実力テストの\n二日目が終わった放課後――\n\n# textflame 0 0\n@\nパラシュはまたもテスト勉強で\n遅くまで頑張ったのか\n明らかに眠そうだった\n\n# textflame 1 1\n# textboxarrow 0 2\n# chara 118\n# voice 20048 \"parashu_0022\"\n# face 118 \"surprise\"\n@パラシュ\n…どうしたんだい？\nえ、バラの花言葉を調べてきた！？\n\n# textflame 0 0\n@\n赤いバラには\n「情熱」という意味があった\n\n# select \"まさに君にぴったりの花だね\" \"select_label_01\" \"常に熱く燃えてる君みたい\" \"select_label_02\" \"君によく似合うと思う\" \"select_label_03\"\n赤いバラには\n「情熱」という意味があった\n\n# label \"select_label_01\"\n# labeljump \"select_label_end\"\n# textflame 1 1\n# textboxarrow 0 2\n# chara 118\n# face 118 \"shy\"\n@パラシュ\n恥ずかしげもなくそんなことを…\n\n# label \"select_label_02\"\n# labeljump \"select_label_end\"\n# textflame 1 1\n# textboxarrow 0 2\n# face 118 \"shy\"\n# chara 118\n@パラシュ\nボクが…バラみたい…？\n\n# label \"select_label_03\"\n# labeljump \"select_label_end\"\n# textflame 1 1\n# textboxarrow 0 2\n# chara 118\n# face 118 \"shy\"\n@パラシュ\nそんなこと言われたのは初めてだ…\n\n# label \"select_label_end\"\n# textflame 0 0\n@\nパラシュの瞳に、静かに火が灯る\n\n# textflame 1 1\n# textboxarrow 0 2\n# chara 118\n# voice 20048 \"parashu_1003\"\n# face 118 \"normal\"\n@パラシュ\nそうだ…ボクの胸にはいつでも\n情熱の炎が燃えている…\n\n# textboxarrow 0 2\n# chara 118\n# face 118 \"angry\"\n@パラシュ\nその炎がある限り…\nボクは理想に向かって\n努力し続けることができる！！\n\n# se \"SE_0602\"\n# textboxarrow 0 2\n# chara 118\n@パラシュ\n『リラックスロゼ』\n理想へのたぎる想い…\n燃やし続けていくよ！\n\n# textflame 0 0\n@\n力強く誓うパラシュは\n明日の実力テスト最終日に向け\n今晩も頑張るのであろう\n\n# textflame 0 0\n@\nその頑張りに\nなにか報いてあげたいと\nマスターはある約束をする\n\n# textflame 1 1\n# textboxarrow 0 2\n# chara 118\n# voice 20048 \"parashu_0023\"\n# face 118 \"surprise\"\n@パラシュ\n青いバラ…\nテストが終わったら…\nボクに…！？\n\n# textflame 0 0\n@\nどういうわけかパラシュは\n急に挙動不審になる\n\n# textflame 1 1\n# textboxarrow 0 2\n# chara 118\n@パラシュ\nバラは色によって花言葉が違う…\n君は…それを知っていて\n青いバラを選んだのかい…？\n\n# textflame 0 0\n@\nマスターはキョトンとする\n昨日店頭で一番心を惹かれたのが\n青いバラだったからなのだが…\n\n# textflame 1 1\n# textboxarrow 0 2\n# chara 118\n# voice 20048 \"parashu_0004\"\n# face 118 \"happy\"\n@パラシュ\nそ、そうか！\nそうだよね…！\nあはは！あは…\n\n# textflame 0 0\n@\n少しがっかりしたような\nほっとしたような…？\n不思議なリアクションのパラシュ\n\n# textflame 0 0\n@\nマスターは花言葉が気になって\nパラシュに尋ねてみる\n\n# textflame 1 1\n# textboxarrow 0 2\n# chara 118\n# face 118 \"shy\"\n@パラシュ\nえ！？\nそれは…その、なんていうか…\n\n# imageset 0 \"c200481\"\n# imagealpha 0 0 0\n# textflame 0 0\n@\nパラシュは激しく動揺し、口ごもる\nそうして、恥ずかしそうに\nマスターへと口を尖らせるのだった\n\n# voice 20048 \"parashu_g_kyara_1025\"\n# imagealpha 0 1 0\n# imagepos 0 0 0 \n# fadein \"white\" 3\n# textwindow \"close\"\n;;一枚絵ボイス「だ、だからってボクに言わせるのは無しだから！ちゃんと自分で調べてよ！」"
	}
]