[
	{
		"ID": 20064203,
		"script": "# script \"lisp\"\n# background \"valley\"\n# bgm \"bgm004\" 0\n# body 200642\n# mask 200642 off\n# pos 200642 3\n# voice 2006 \"daguda_0015\"\n# face 200642 \"disgust\"\n# textboxarrow 0 2\n# chara 200642\n@ダグダ\nう…大丈夫…？\nマスター…\n\n# textboxarrow 0 2\n# chara 200642\n@ダグダ\n待っててね…今…\n\n# face 200642 \"angry\"\n# voice 2006 \"daguda_unit_1012\"\n# textboxarrow 0 2\n# chara 200642\n@ダグダ\n…ぐ…足が挟まってて…\n抜けない…\n\n# face 200642 \"surprise\"\n# textboxarrow 0 2\n# chara 200642\n@ダグダ\n…あっ！マスター！\n\n# textflame 0 0\n@\n見ると、マスターは\n胸を強打したらしく\n苦しんでいる\n\n# face 200642 \"sad\"\n# voice 2006 \"daguda_0015\"\n# textflame 1 0\n# textboxarrow 0 2\n# chara 200642\n@ダグダ\nこんな時に…\nなにもできないなんて…\n\n# textboxarrow 0 2\n# chara 200642\n@ダグダ\nいつも…マスターに甘えてばかり…\n助けてもらってばっかりなのに…\n\n# textboxarrow 0 2\n# chara 200642\n@ダグダ\n普段は怠け者だけど…\nいざって時は…\nマスターの助けになりたいって…\n\n# face 200642 \"sad\"\n# bgm \"bgm005\" 0\n# voice 2006 \"daguda_0016\"\n# textboxarrow 0 2\n# chara 200642\n@ダグダ\nずっと、そう思ってたのにぃっ！！\n\n# textflame 0 0\n@\nダグダの目に光る大粒の涙\nそれが地面に落ちた時、\n奇跡が起きた\n\n# face 200642 \"angry\"\n# textflame 1 0\n# textboxarrow 0 2\n# chara 200642\n@ダグダ\nうああぁぁぁぁーーーっ！！\n\n# textflame 0 0\n@\n全身に力を込めると、\n一気に馬車を持ち上げた\n\n# se \"SE_0602\"\n# textflame 1 0\n# textboxarrow 0 2\n# chara 200642\n@ダグダ\n新技！\n『バーストフォース』！！\n\n# textflame 0 0\n@\nそれはまさしく、\n彼女が新たなるスキルに\n目覚めた瞬間だった\n\n# face 200642 \"normal\"\n# textflame 1 0\n# textboxarrow 0 2\n# chara 200642\n@ダグダ\n待っててね！マスター！！\n今、助けてあげるから！\nこれは、ダグダの…\n\n# textboxarrow 0 2\n# chara 200642\n@ダグダ\n恩返しだよ！！\n\n# textflame 0 0\n@\nそう言って、マスターを\nおんぶするダグダ\n\n# fadeout \"black\" 3\n\n# fadein \"black\" 1\n# bgm \"bgm003\" 0\n# textflame 0 0\n@\nそれから数時間後…\n\n# textflame 0 0\n@\n彼女の適切な処置のおかげで\nマスターはすっかり\n元気を取り戻していた\n\n# select \"ありがとう、ダグダのおかげだよ\" \"select_label_01\" \"いざという時は…頼りになるね\" \"select_label_02\" \"初めてダグダにおんぶされちゃった\" \"select_label_03\"\n彼女の適切な処置のおかげで\nマスターはすっかり\n元気を取り戻していた\n\n# label \"select_label_01\"\n# labeljump \"select_label_end\"\n# textflame 1 0\n# textboxarrow 0 2\n# chara 200642\n@ダグダ\n言ったでしょ…？恩返しだって\n\n# label \"select_label_02\"\n# labeljump \"select_label_end\"\n# textflame 1 0\n# textboxarrow 0 2\n# chara 200642\n@ダグダ\nホントに…？\nそう言ってもらえて…\nすごく嬉しい！\n\n# label \"select_label_03\"\n# labeljump \"select_label_end\"\n# textflame 1 0\n# textboxarrow 0 2\n# chara 200642\n@ダグダ\nホントだね！マスターって\n意外と軽いんだね♪\n\n# label \"select_label_end\"　\n# voice 2006 \"daguda_unit_1012\"\n# textboxarrow 0 2\n# chara 200642\n@ダグダ\nマスター…\nいつも、ごめんね…甘えちゃって\n\n# textboxarrow 0 2\n# voice 2006 \"daguda_kyara_1001\"\n# chara 200642\n@ダグダ\n感謝しているのに…\n素直に言えないから…\nだから…\n\n# textboxarrow 0 2\n# chara 200642\n@ダグダ\nサンドイッチ…作ってきたんだ\n感謝と…愛情を込めて…\n\n# textboxarrow 0 2\n# chara 200642\n@ダグダ\nいっぺんには無理かもだけど…\nこれからは少しずつ…\n怠け癖、治してくから…だから…\n\n# face 200642 \"shy\"\n# voice 2006 \"daguda_kyara_1018\"\n# textboxarrow 0 2\n# chara 200642\n@ダグダ\nこれからも…\nよ、よろしくね！\nマスター！\n\n# textflame 0 0\n@\n顔を少し赤くして、頭を下げる姿が\n妙に愛しいダグダだった\nしかし…、\n\n# face 200642 \"surprise\"\n# voice 2006 \"daguda_0042\"\n# textflame 1 0\n# textboxarrow 0 2\n# chara 200642\n@ダグダ\n…あ…ダメだ…\nふにゃ〜\n\n# textflame 0 0\n@\nと、その場に座り込んでしまった\n\n# face 200642 \"happy\"\n# voice 2006 \"daguda_0008\"\n# textflame 1 0\n# textboxarrow 0 2\n# chara 200642\n@ダグダ\nえへ…やっぱ慣れないことは\nするもんじゃないね…\n力…使い果たしちゃったみたい\n\n# face 200642 \"surprise\"\n# voice 2006 \"daguda_0022\"\n# textboxarrow 0 2\n# chara 200642\n@ダグダ\n…え？\nきゃっ！\nちょ…ちょっとマスター！！\n\n# face 200642 \"shy\"\n# voice 2006 \"daguda_0042\"\n# textboxarrow 0 2\n# chara 200642\n@ダグダ\nい…いいよ！\n恥ずかしいよ！\nお姫様だっこなんて…！\n\n# textboxarrow 0 2\n# chara 200642\n@ダグダ\nね…ねぇ…\nマスター…\n\n# textflame 0 0\n@\n顔を赤らめ、意を決したように\n目を閉じるダグダ\n次の瞬間…\n\n# face 200642 \"surprise\"\n# textflame 1 0\n# textboxarrow 0 2\n# chara 200642\n@ダグダ\n…！\nえっ！うそっ！！\nダグダ…\n\n# textsize 30\n# textboxarrow 0 2\n# chara 200642\n@ダグダ\n重いっ！？\n\n# face 200642 \"happy\"\n# imageset 0 \"c200641\"\n# imagealpha 0 0 0\n# voice 2006 \"daguda_0017\"\n# textsize 24\n# textboxarrow 0 2\n# chara 200642\n@ダグダ\nはぁ〜、やっぱ怠けすぎたか〜\nこりゃ帰ったらダイエットだね\n\n# imagealpha 0 1 0\n# imagepos 0 0 0 \n# voice 2006 \"daguda_kyara_0018\"\n# fadein \"white\" 3\n# textwindow \"close\"\n\n# textwindow \"nomal\"\n# textflame 0 0\n@\n肩を落とすダグダ\nでも、マスターは嬉しかった\n\n# textflame 0 0\n@\n今日一日で、彼女の深い\n優しさを感じることが\nできたのだから"
	}
]