[
	{
		"ID": 20064202,
		"script": "# script \"lisp\"\n# background \"valley\"\n# bgm \"bgm002\" 0\n# body 200642\n# mask 200642 off\n# pos 200642 3\n# textboxarrow 0 2\n# voice 2006 \"daguda_0001\"\n# chara 200642\n@ダグダ\nお待たせ、マスター！\nこの馬車で行くの？\nいいね〜！\n\n# textboxarrow 0 2\n# chara 200642\n@ダグダ\nじゃあ出発、\n進行〜う！\n\n# textflame 0 0\n@\nマスターが走らせる馬車で\n遠出する二人\n\n# textflame 0 0\n@\nダグダはいつにも増して\nはしゃいでいる\n\n# face 200642 \"happy\"\n# voice 2006 \"daguda_0041\"\n# textflame 1 0\n# textboxarrow 0 2\n# chara 200642\n@ダグダ\nわぁ〜、すご〜い！\nこんなキレイなところが\nあったんだぁ\n\n# voice 2006 \"daguda_kyara_1014\"\n# textboxarrow 0 2\n# chara 200642\n@ダグダ\n戦闘ばっかの毎日で、\n気づかなかったなぁ\n\n# select \"たまには、こういうのもいいだろ？\" \"select_label_01\" \"休みに遠出ってのも悪くないだろ？\" \"select_label_02\" \"美しい景色って心が洗われるだろ？\" \"select_label_03\"\n戦闘ばっかの毎日で、\n気づかなかったなぁ\n\n# label \"select_label_01\"\n# labeljump \"select_label_end\"\n# chara 200642\n@ダグダ\nホントだね！ナイス♪マスター！\n\n# label \"select_label_02\"\n# labeljump \"select_label_end\"\n# chara 200642\n@ダグダ\nうん！メンドくさがってる\n場合じゃなかったね！\n\n# label \"select_label_03\"\n# labeljump \"select_label_end\"\n# chara 200642\n@ダグダ\nうん！\nなんだか心が安らぐ感じ！\n\n# label \"select_label_end\"　\n# voice 2006 \"daguda_0003\"\n# textboxarrow 0 2\n# chara 200642\n@ダグダ\nもったいなかったなぁ\nこんなに素晴らしいものを\n今まで見てこなかったなんて！\n\n# textflame 0 0\n@\n初めて出逢う世界に、\n彼女の目はキラキラと輝いていた\n\n# face 200642 \"normal\"\n# voice 2006 \"daguda_unit_1006\"\n# textflame 1 0\n# textboxarrow 0 2\n# chara 200642\n@ダグダ\nねぇ、マスター\nおなか空かない？\n\n# voice 2006 \"daguda_0004\"\n# textboxarrow 0 2\n# chara 200642\n@ダグダ\nあのね、マスター\nこれ…作ってきたんだ\n\n# textflame 0 0\n@\nサンドイッチ！\n\n# face 200642 \"happy\"\n# textflame 1 0\n# textboxarrow 0 2\n# chara 200642\n@ダグダ\nそ！\nダグダの手作りだよ〜\n早起きして、作ったんだから！\n\n# voice 2006 \"daguda_0007\"\n# textboxarrow 0 2\n# chara 200642\n@ダグダ\nへへ、これでもう\nグダグダグダとは\n言えないでしょ？\n\n# textboxarrow 0 2\n# chara 200642\n@ダグダ\nどう？一つ、食べてみる？\nそれかダグダが食べさせたげよっか？\nはい、マスター！あ〜ん\n\n# textflame 0 0\n@\nと、ダグダがサンドイッチを\n差し出した、その時…\n\n# face 200642 \"surprise\"\n# shake 1 0.8\n# se \"SE_5218\"\n\n# textsize 30\n# textflame 1 0\n# voice 2006 \"daguda_0022\"\n# textboxarrow 0 2\n# chara 200642\n@ダグダ\nきゃっ！！\n\n# textsize 24\n# textflame 0 0\n@\n転がっていた石に\n車輪が乗り上げ、\n馬車が大きく傾く\n\n# textflame 1 0\n# textboxarrow 0 2\n# chara 200642\n@ダグダ\nあぁ…っ！\n\n# textflame 0 0\n@\nダグダの手から離れていく\nサンドイッチ…\n\n# textflame 0 0\n@\n飛びついたマスターが、\n見事にキャッチした\n\n# textflame 1 0\n# textboxarrow 0 2\n# chara 200642\n@ダグダ\nやった！！\n\n# textflame 0 0\n@\nだが…\n\n# shake 1 1\n# se \"SE_5218\"\n# textsize 30\n# textflame 1 0\n# textboxarrow 0 2\n# chara 200642\n@ダグダ\nきゃあーーっ！！\n\n# textsize 24\n# textflame 0 0\n@\n大きく体勢が崩れた馬車は、\nそのまま地面に激しく\n叩きつけられるのであった…"
	}
]