[
	{
		"ID": 20164202,
		"script": ";;【EP2】\n# script \"lisp\"\n# background \"corridor_evening\"\n# bgm \"bgm002\" 0\n# body 91\n# mask 91 off\n# pos 91 3\n# body 201621\n# pos 201621 3\n# alpha 201621 0 0\n# textflame 1 1\n# textboxarrow 0 2\n# chara 91\n# face 91 \"surprise\"\n# voice 2016 \"shita_0022\"\n@シタ\n私とミトゥムちゃんがケンカ？\n\n# face 91 \"happy\"\n# voice 2016 \"shita_0004\"\n@シタ\n……ふふふっ！\n心配してくれているのですね！\n\n# face 91 \"normal\"\n@シタ\nですが…今回は違います\nちょっとした勝負をしているんです\n\n# textflame 0 0\n@\nルールは簡単…\n15分逃げ切ったらシタの勝ち\nもちろん捕まったらミトゥムの勝ちだ\n\n@\nシタにしては珍しい…\nこの手の体力勝負は不利だから\n絶対乗らないはずなのだが…\n\n# textflame 1 1\n# textboxarrow 0 2\n# chara 91\n@シタ\nちょっとした賭けをしているんです\n\n@シタ\nミトゥムちゃんが勝ったら\nクレーンゲームでライオンの\nぬいぐるみを取ってあげる約束です\n\n# face 91 \"angry\"\n@シタ\nでも私が勝ったら…\n園芸部のお手伝いをしてもらいます！\n\n# textflame 0 0\n@\nなるほど、それで合点がいく\n案外、今回言い出したのは\nシタの方かもしれない\n\n# face 91 \"sad\"\n# textflame 1 1\n# textboxarrow 0 2\n# chara 91\n# voice 2016 \"shita_0034\"\n@シタ\nですが、まともに鬼ごっこをしては\n身体能力的にミトゥムちゃんには\nどうやったって勝てません\n\n# face 91 \"normal\"\n@シタ\nだからこうして…\n隠れながら逃げているんです♪\n\n# select \"それって鬼ごっこなの…？\" \"select_label_01\" \"隠れたら反則では…\" \"select_label_02\" \"鬼かくれんぼ！\" \"select_label_03\"\nだからこうして…\n隠れながら逃げているんです♪\n\n# label \"select_label_01\"\n# labeljump \"select_label_end\"\n# textflame 1 1\n# face 91 \"happy\"\n# chara 91\n@シタ\nええ、れっきとした鬼ごっこです\n\n# label \"select_label_02\"\n# labeljump \"select_label_end\"\n# textflame 1 1\n# face 91 \"happy\"\n# chara 91\n@シタ\nふふ、なんのことでしょう♪\n\n# label \"select_label_03\"\n# labeljump \"select_label_end\"\n# textflame 1 1\n# face 91 \"happy\"\n# chara 91\n@シタ\nそれはよい名称ですね！\n\n# label \"select_label_end\"\n# textflame 1 1\n# textboxarrow 0 2\n# face 91 \"normal\"\n# chara 91\n@シタ\nはじめに「隠れてはいけない」という\nルールは定義していません\nだから問題なしです！\n\n# textflame 0 0\n@\nさすがシタ…\n勝てる算段は勝負の前から\nついていたようだ\n\n@\nしかし、次の瞬間！！\n\n# serif 1\n# textboxarrow 1 0\n@ミトゥム\nんーーー\nなんかこっちな気がする\n姉ちゃんの匂いがするかも…\n\n# serif 1\n# textwindow \"close\"\n# serif 0\n# textwindow \"nomal\"\n# textflame 0 0\n@\nミトゥムが…\n階段付近に戻ってきた！！\n\n@\n階段影の奥は行き止まりだ\n一度廊下に出ないと逃げ道がない\nしかしそこにはミトゥムがいる…\n\n# textflame 1 1\n# textboxarrow 0 2\n# chara 91\n# face 91 \"happy\"\n# voice 2016 \"shita_0005\"\n@シタ\nふふ……\nマスター、ご安心を\n策は、まだ尽きていません…！"
	}
]