[
	{
		"ID": 210031104,
		"script": ";;EP4\n# script \"lisp\"\n# background \"sea_jungle_day\"\n# bgmfile \"bgm230\" \"BgmSeaEvent\" 0\n# body 2100311\n# pos 2100311 3\n# mask 2100311 off\n# scale 2100311 0.8 0\n# face 2100311 \"usual\"\n# textflame 0 0\n# textboxarrow 0 2\n@\nあの湖で遊んだ日から数日後―\n\n@\n再びデュランダルとマスターは\nジャングル内の水辺を訪れた\n\n# face 2100311 \"smile\"\n# textflame 1 1\n# voice 1003 \"durandaru_0001\"\n@デュランダル\n今日も快晴の空…！\nほらマスター、早く行きますよ～！\n\n# textflame 0 0\n@\n水辺へ向かって走っていく彼女に\nもうパラソルはいいの？\nとマスターが声を掛けると\n\n# textflame 1 1\n# voice 1003 \"durandaru_0005\"\n@デュランダル\n日焼け止めを塗ったから平気なのです\nさ、泳ぎましょ～！\n\n# select \"素直になってなによりだ\" \"select_label_01\" \"しっかり塗った？\" \"select_label_02\" \"今日は運動するんだね\" \"select_label_03\"\n日焼け止めを塗ったから平気なのです\nさ、泳ぎましょ～！\n\n# label \"select_label_01\"\n# labeljump \"select_label_end\"\n# face 2100311 \"usual\"\n# textflame 1 1\n# textboxarrow 0 2\n@デュランダル\n素直？\nわたくしは元々素直でしてよ？\nだって\n\n# label \"select_label_02\"\n# labeljump \"select_label_end\"\n# face 2100311 \"usual\"\n# textflame 1 1\n# textboxarrow 0 2\n@デュランダル\nふっふっふ…\n日焼け対策は完璧なのです！\nでも、今日はそれもですが\n\n# label \"select_label_03\"\n# labeljump \"select_label_end\"\n# face 2100311 \"usual\"\n# textflame 1 1\n# textboxarrow 0 2\n@デュランダル\nえ？運動？\n今日は湖で泳ぐことが休暇でしてよ？\nそれはだって\n\n# label \"select_label_end\"\n@デュランダル\n淑女たるもの\n場に則した行動をしなくては！\n\n# textflame 0 0\n@\n先生ー！\n\n# face 2100311 \"smile\"\n# textflame 1 1\n@デュランダル\nはーい！\n今行くのです～っ！\n\n# textflame 0 0\n@\nデュランダルは\n助けた子供たちに\n泳ぎを教えていた\n\n# face 2100311 \"usual\"\n# textflame 1 1\n# voice 1003 \"durandaru_0004\"\n@デュランダル\nそれに…\n誰かの笑顔を見ることが\n自分も笑顔になれるのです！\n\n# eye 2100311 \"close\"\n@デュランダル\n悲しい顔を笑顔にする\nその笑顔に自分も嬉しくなる\nとても幸せな気分…\n\n# eye 2100311 \"normal\"\n@デュランダル\nだからわたくしは\n淑女としての覚悟を持って\n\n# face 2100311 \"smile\"\n@デュランダル\nみんなを笑顔にしてまいりますの！\n\n# se \"SE_0602\"\n# textflame 0 0\n@\n空のように晴れ、水面のように広い\n彼女自身の笑顔が新たなる奥義\n『ジャングル連合の絆』を授けた\n\n@\nその笑顔にマスターも笑顔で返すと\n彼女はもじもじしながら目をそらした\n\n# face 2100311 \"usual\"\n# textflame 1 1\n@デュランダル\nまっ、マスター…！\nあ、あと実は私…\n\n# textflame 0 0\n@\nん？\nと聞き返すマスター\n\n# textflame 1 1\n@デュランダル\n実は私…\n\n# voice 1003 \"durandaru_0004\"\n@デュランダル\n本当はずっと\n泳ぎたかったのです…\n\n# face 2100311 \"smile\"\n@デュランダル\n…\nと、とりあえず子供たちに\n泳ぎを教えてくるのです～～っ！！\n\n# imageset 0 \"c2100311\"\n# imagealpha 0 0 0\n# textflame 0 0\n@\n…まぁ、気付いてはいたけど\nと、マスターはデュランダル達を\n目で追うのだった\n\n;;【ボイス】\n;;「おやおや、マスター。私はあまり気にいたしませんが、見るならば…もっとこっそり見るべきですわ」\n# voice 1003 \"durandaru_event_0008\"\n# frameout 0 0.5\n# buttonsout 0 0.5\n# imagealpha 0 1 0\n# imagepos 0 0 0\n# fadein \"white\" 3\n# textwindow \"close\"\n"
	}
]