[
	{
		"ID": 210022203,
		"script": ";;-------------------------------------------\n;;●黒レーヴァテイン　水着シナリオ\n;;【EP2･戦闘後】8/30 13:00 更新\n;;背景：ビーチ\n;;-------------------------------------------\n# script \"lisp\"\n# background \"sea_resort_day\"\n# bgmfile \"bgm224\" \"BgmSeaEvent\" 0\n# body 2100221\n# pos 2100221 3\n# scale 2100221 0.8 0\n# alpha 2100221 1 0\n# mask 2100221 off\n# face 2100221 \"angry\"\n;;一枚絵\n# imageset 0 \"c2100221\"\n# imagelayer 0 3\n# imagealpha 0 0 0\n# textflame 0 0\n;;◆背景：ビーチ（昼）----------------------\n# textflame 1 1\n# textboxarrow 0 2\n# voice 210022 \"revatein_k_0029\"\n@レーヴァテイン\nはぁぁぁぁぁぁっ！！\n\n# textflame 0 0\n@\nさすがは元、ブラックキラーズ\n\n@\n圧倒的な強さで、敵を駆逐していく\n\n# textflame 1 1\n@レーヴァテイン\nどうしたの！そんなものなの！？\nもっと来てよ！！\n\n# textflame 0 0\n@\n狂気を孕んだ目で、\n敵を次々に斬り捨てる\n\n@\n…だが、次の瞬間、\n\n@\nレーヴァテイン！戻って来い！！\n戦場にマスターの叫びがこだました\n\n# textflame 1 1\n@レーヴァテイン\n！！\n\n# textflame 0 0\n@\n一瞬、我に返る彼女\n\n# face 2100221 \"usual\"\n# textflame 1 1\n# voice 210022 \"revatein_k_0001\"\n@レーヴァテイン\n…マスター\n\n# textflame 0 0\n@\n心配そうなマスターの目を見て、\n彼女の動きが止まる\n\n@\nそして、心の中でつぶやく\n\n# textflame 1 1\n# move 2100221 3 0\n# textwindow \"moya\"\n# textboxarrow 0 0\n;;モヤモヤ吹き出し\n@レーヴァテイン\nわかってるよ、マスター\n\n;;モヤモヤ吹き出し\n@レーヴァテイン\n私は…向こう側には行かない\n戦闘にのめり込み狂気に走ってしまう\n“あっち側の人種”には…　\n\n;;モヤモヤ吹き出し\n@レーヴァテイン\nだって…私のそばには…\nあなたがいてくれるから！！\n\n;;モヤモヤ吹き出し\n@レーヴァテイン\nだから……\n見て欲しかった！\n\n# face 2100221 \"angry\"\n# textwindow \"normal\"\n# textboxarrow 0 2\n@レーヴァテイン\n心配いらないってとこを！！\n\n# textflame 0 0\n@\n心優しいマスターの慈愛に、\n彼女のバイブスが共鳴\n\n@\n剣を持つ手が、光を放ち始める\n\n# textflame 1 1\n@レーヴァテイン\nくらえ！\nこれが私の新たなる力…\n\n# se \"SE_0602\"\n@レーヴァテイン\n『黒式・水面破ル黒鳥』よ！！\n\n# textflame 0 0\n@\n覚醒した力で敵を葬る彼女\n\n# face 2100221 \"normal\"\n# textflame 1 1\n@レーヴァテイン\nふう…、休日に戦闘は\n\n@レーヴァテイン\nやっぱりめんどくさいな\n\n# textflame 0 0\n@\nそして―\n\n@\n戦闘を終え、\nプールから帰る途中、\n彼女は語る\n\n# textflame 1 1\n# voice 210022 \"revatein_k_0003\"\n@レーヴァテイン\nまだ…心配してるの？\n\n@レーヴァテイン\n大丈夫だよ\n\n@レーヴァテイン\n私は怠惰だけど…\n堕落はしないから\n\n@レーヴァテイン\n“業”に飲まれ、\n自分を見失うようなことはしない\nだって…\n\n# move 2100221 3 0\n# textwindow \"moya\"\n# textboxarrow 0 0\n;;モヤモヤ吹き出し\n@レーヴァテイン\nあなたを悲しませたくないからね\n\n# textflame 0 0\n@\n「…え？　なに…？」と、\n聞き返すマスター\n\n# textflame 1 1\n# textwindow \"normal\"\n# textboxarrow 0 2\n@レーヴァテイン\n…なんでもないよ\n\n@レーヴァテイン\nでも…\n\n# move 2100221 3 0\n# textwindow \"moya\"\n# textboxarrow 0 0\n;;モヤモヤ吹き出し\n@レーヴァテイン\nしょうがない…\nたまには喜ばせてあげよっかな\n\n# textflame 0 0\n# textwindow \"normal\"\n@\nお気に入りの黒アヒルのパペット\n『フニル』を使って、\nマスターを遊びに誘おうとする彼女\n\n# textflame 1 1\n# textwindow \"normal\"\n# textboxarrow 0 2\n@レーヴァテイン\n……え……えっと…\n\n# textflame 0 0\n@\n…が、いざとなると\n恥ずかしくて何も言えず、\n口ごもる彼女\n\n@\nどうしたの？アヒルなんか持って…\nそうマスターに真顔で聞かれ、\n\n# textflame 1 1\n@レーヴァテイン\n………\n\n@レーヴァテイン\n……別に\n\n# textflame 0 0\n@\n頬を紅く染め、\nそっぽを向いて拗ねるのだった\n\n# textflame 0 0\n# imagealpha 0 1 0\n# imagepos 0 0 0\n# fadein \"white\" 3\n# buttonsout 0 0\n# textwindow \"close\"\n# voice 210022 \"revatein_k_kyara_0025\"\n\n# frameout 0 1\n# waitandnext 0.8\n\n# fadeout \"black\" 1.5\n# waitandnext 1.5\n;;■一枚絵指定\n;;★５\n;;背景：夜のプールサイド。プールサイドで、プールから少し離れた場所。遠目にプールが見えるようなイメージ\n;;表情：顔を逸らしつつの拗ねた顔。恥ずかしさもありつつなので、顔は少し赤い感じ。\n;;構図：手に黒フニル（黒アヒル）を持ち、それをマスターに向けている。\n;;：revatein_k_kyara_0025\n"
	}
]