[
	{
		"ID": 210270023,
		"script": ";;１話戦闘後\n# script \"lisp\"\n# background \"town\"\n# bgm \"bgm003\" 0\n# body 103621\n# pos 103621 3\n# scale 103621 0.9 0\n# mask 103621 off\n# textflame 1 1\n# textboxarrow 0 2\n# chara 103621\n# voice 1036 \"ragnarok_0002\"\n@ラグナロク\n…ねぇ、マスター\nどうして、異族は\n凧に近づいたんだろう？\n\n# textflame 0 0\n@\nうーん…仲間だと思ったのかな？\nそれとも見なれないものに\n興味を持ったとか？\n\n# textflame 0 0\n@\nラグナロクの操縦で空を舞い、\n見事に異族を誘導した凧は\n無傷でマスター達の手に戻った\n\n# textflame 1 1\n# textboxarrow 0 2\n# chara 103621\n# voice 1036 \"ragnarok_0028\"\n@ラグナロク\nそんな感じなのかなぁ…？\n\n# textflame 1 1\n# textboxarrow 0 2\n# chara 103621\n@ラグナロク\nそうだとしたら、\nこれからの戦いに\n役立つかもしれないね\n\n# textflame 0 0\n@\nラグナロクは真面目な顔で、\n凧の有用性を考えている\n\n# textflame 0 0\n@\nそうだ、\n着物で戦ったけど、大丈夫だった？\nと、マスターが声をかける\n\n# face 103621 \"sad\"\n# textflame 1 1\n# textboxarrow 0 2\n# chara 103621\n@ラグナロク\nそうだね、動きにくいし、\nいつもと同じではなかったかな\n\n# face 103621 \"normal\"\n# textflame 1 1\n# textboxarrow 0 2\n# chara 103621\n@ラグナロク\nでも、着物を汚したくないって\n集中していたせいか、\nいつもより力が湧いてきた感じ\n\n# face 103621 \"happy\"\n# textflame 1 1\n# textboxarrow 0 2\n# chara 103621\n# voice 1036 \"ragnarok_0005\"\n@ラグナロク\n着物って不思議かも！\n\n# textflame 0 0\n@\nそう言って\nラグナロクは微笑んだ"
	}
]