[
	{
		"ID": 210410031,
		"script": ";;-----------------------------------------\n;;ファントムオブキル　ハロウィンイベント2018\n;;【EP.2】おばあさんのお家に行こう！\n;;【EP2】戦闘前\n;;スクリプト最後の背景：森\n;;-----------------------------------------\n# script \"lisp\"\n# background \"101_city_night3\"\n# bgmfile \"bgm071_072\" \"BgmHalloween001\" 0\n;;-----------------------------------------\n;;ハロウィンモラルタ\n# body 3104071\n# pos 3104071 3\n# scale 3104071 0.8 0\n# alpha 3104071 0 0\n;;ハロウィンベガルタ\n# body 3104171\n# pos 3104171 3\n# scale 3104171 0.8 0\n# alpha 3104171 0 0\n;;トレイセーマ兵\n# body 3830001\n# pos 3830001 3\n# scale 3830001 0.8 0\n# alpha 3830001 0 0\n;;-----------------------------------------\n;;//背景：トレイセーマのどこか\n# textflame 0 0\n;;モノローグ\n@\n奴隷区から\nなんとか抜け出した\nマスター達\n\n@\n危機を脱して安堵の息をはく\nマスターに対して\n二人は楽しそうに笑っている\n\n# move 3104071 2 0\n# face 3104071 \"usual\"\n# alpha 3104071 1 0.5\n# mask 3104071 on\n# move 3104171 4 0\n# face 3104171 \"shy\"\n# alpha 3104171 1 0.5\n# mask 3104171 on\n# textflame 1 1\n# textboxarrow 0 3\n@ベガルタ\nが、がおー食べちゃうよ？\n…これで甘いもの貰えるかな\n\n# face 3104071 \"angry\"\n# textboxarrow 0 1\n@モラルタ\n駄目だよ、もっと、こう\nこわーい顔して、がおー！\n\n# voice 1041 \"beagallta_0025\"\n# textboxarrow 0 1\n# face 3104171 \"normal\"\n# textboxarrow 0 3\n@ベガルタ\nきゃーっ！\n\n# textflame 0 0\n@\nだが、ふと悲しそうな顔をして…\n\n# voice 1040 \"morallta_0013\"\n# face 3104071 \"sad\"\n# textflame 1 1\n# textboxarrow 0 1\n@モラルタ\n…子供達が準備してた衣装\nビリビリにされちゃったね\n\n# textboxarrow 0 3\n@ベガルタ\n衣装がないと\nハロウィンできなくなっちゃう？\n\n# voice 1041 \"beagallta_0015\"\n# textboxarrow 0 3\n@ベガルタ\n楽しみなことが、なくなっちゃう…\n\n# textboxarrow 0 1\n@モラルタ\nあの子達もきっと悲しいよね…\nあの子達が悲しいと、\nベガも私も悲しい\n\n# textflame 0 0\n@\nそう言う二人に、\nマスターは頷く\n\n@\nきっと今頃厳戒態勢が\n引かれているだろうと、\n悲しげに告げた\n\n# textflame 1 1\n# textboxarrow 0 1\n@モラルタ\nやっぱりそうなんだ\n楽しみなことができなくなるのは\n悲しいね…\n\n# voice 1041 \"beagallta_0003\"\n# textboxarrow 0 3\n@ベガルタ\nそうだね\nハロウィンができないのは\n悲しいね…\n\n# textflame 0 0\n@\nふたりの落胆ぶりに驚いたマスター\n何か解決策はないかと考える\n\n# emotionbody 1000 6 3104071 -50 200\n# effectpattern 1000 1 11\n# effectstart 1000\n# face 3104071 \"angry\"\n# textflame 1 1\n# textboxarrow 0 1\n@モラルタ\nトレイセーマ共和国を滅ぼす！\n\n# emotionbody 2000 9 3104171 50 200\n# effectpattern 2000 5 1\n# effectstart 2000\n# face 3104171 \"usual\"\n# textboxarrow 0 3\n@ベガルタ\nハロウィンをやらせてください\n…ってお願いしてみる？\n\n# effectskip 2000\n# textflame 0 0\n@\n二人の案に、マスターは\n現実的ではないと首を振る\n\n@\nせめて、あの地区から\n兵士を遠ざけることが\n出来たら…と告げるマスター\n\n# emotionbody 3000 5 3104071 -50 200\n# effectpattern 3000 1 1\n# effectstart 3000\n# emotionbody 4000 5 3104171 50 200\n# effectpattern 4000 1 1\n# effectstart 4000\n# face 3104071 \"normal\"\n# textflame 1 1\n# textboxarrow 0 0\n# face 3104171 \"happy\"\n@モラ＆ベガ\nわかった！\n\n# textflame 0 0\n@\nマスターの提案は最後まで\n告げられることはなく\n勝手に納得したふたりに遮られた\n\n# face 3104071 \"usual\"\n# textflame 1 1\n# textboxarrow 0 1\n@モラルタ\n滅ぼすのは無理でも\n奪われる前に奪っちゃえばいい\n\n# textboxarrow 0 3\n@ベガルタ\nお願いしても無理なら\n受け入れるしかなくしちゃえばいい\n\n# textflame 0 0\n@\n二人の言葉に首をかしげ、\n意味を聞こうとするマスター\n\n# face 3104071 \"normal\"\n@\nしかし、マスターの言葉が\n聞こえていないかのように\n二人はマスターを担いだ\n\n@\nわけもわからず\nなすがままのマスターを抱え\n二人は駆け出す\n\n# textflame 0 0\n@\nマスターの慌てた叫び声と\n楽しげなモラルタとベガルタの\n笑い声だけがあたりに響いていた…\n\n;;//演出：移動の暗転\n# textwindow \"close\"\n# fadeout \"black\" 1\n# waitandnext 1\n\n# background \"forest\"\n# move 3104071 2 0\n# face 3104071 \"usual\"\n# alpha 3104071 1 0\n# mask 3104071 on\n# move 3104171 4 0\n# face 3104171 \"surprise\"\n# alpha 3104171 1 0\n# mask 3104171 on\n# waitandnext 0.1\n\n# fadein \"black\" 1\n# waitandnext 1\n\n;;//背景：森\n# textwindow \"normal\"\n# textflame 1 1\n# textboxarrow 0 3\n@ベガルタ\n…森だ！\nここならきっと、あるよね？\n\n# textboxarrow 0 1\n@モラルタ\nたしかにこの森は怪しい…\nきっといるかもしれない\nあるかもしれない\n\n# textflame 0 0\n@\n二人の言うとおり、\n確かに深い森の中には\nなにかが隠れているのかもしれない\n\n@\nでも一体なにが？\nそう尋ねる\n\n# face 3104171 \"happy\"\n# textflame 1 1\n# textboxarrow 0 3\n@ベガルタ\nおばあさんのお家が！\n\n# se \"SE_0719\"\n;;//演出：トレイセーマ兵\n# alpha 3104071 0 0.5\n# alpha 3104171 0 0.5\n# move 3830001 3 0\n# face 3830001 \"normal\"\n# alpha 3830001 1 0.5\n# mask 3830001 off\n# textflame 1 1\n# textboxarrow 0 2\n@トレイセーマ兵\nなんだ、騒がしいな\n…誰かいるのか！\n\n# textflame 0 0\n@\n声を聞きつけて出てきたのだろう\nトレイセーマ兵が現れた\n\n@\nまさか、この森のどこかに\nトレイセーマの拠点が…？\n\n@\nそう思い、咄嗟に身を隠そうとする\nマスター\n\n@\nしかし、その行動より先に\nモラルタとベガルタが\n兵士に向かって駆け出した\n\n# alpha 3830001 0 0.5\n# move 3104071 2 0\n# face 3104071 \"surprise\"\n# alpha 3104071 1 0.5\n# mask 3104071 on\n# textflame 1 1\n# textboxarrow 0 1\n# move 3104171 4 0\n# face 3104171 \"usual\"\n# alpha 3104171 1 0.5\n# mask 3104171 on\n@モラルタ\nあっ、おばあさんだ！\n\n# textboxarrow 0 3\n@ベガルタ\nお、おばあさんはわたしが殺すの！\nモラは、お花を集めてきて\n\n# voice 1040 \"morallta_0003\"\n# face 3104071 \"usual\"\n# textboxarrow 0 1\n@モラルタ\nそうだね\nお花を集めないといけないね！\n\n# alpha 3104071 0 0.5\n# textboxarrow 0 1\n# alpha 3104171 0 0.5\n# move 3830001 3 0\n# face 3830001 \"normal\"\n# alpha 3830001 1 0.5\n# mask 3830001 off\n# textflame 1 1\n# textboxarrow 0 2\n@トレイセーマ兵\nな、なんなんだお前ら！？\n\n# textflame 0 0\n@\n臨戦態勢のトレイセーマ兵\nその困惑に少しだけ同意するマスター\nだが、その手をベガルタが掴む\n\n# alpha 3830001 0 0.5\n# move 3104171 3 0\n# face 3104171 \"angry\"\n# alpha 3104171 1 0.5\n# mask 3104171 off\n# textflame 1 1\n# textboxarrow 0 2\n@ベガルタ\nほら、マスター\nおばあさん、やっつけよ？\nいくよ…が、がおー！\n\n# alpha 3104171 0 0.5\n# textflame 0 0\n@\n状況もまったくわからないまま、\nモラルタとトレイセーマ兵の集団に\n突っ込むことになってしまった"
	}
]