[
	{
		"ID": 210410043,
		"script": ";;-----------------------------------------\n;;ファントムオブキル　ハロウィンイベント2018\n;;【EP.3】狩人さんは助けない！\n;;【EP3】戦闘後\n;;スクリプト最後の背景：森\n;;-----------------------------------------\n# script \"lisp\"\n# background \"forest\"\n# bgmfile \"bgm071\" \"BgmHalloween001\" 0\n;;-----------------------------------------\n;;ハロウィンモラルタ\n# body 3104071\n# pos 3104071 3\n# scale 3104071 0.8 0\n# alpha 3104071 0 0\n;;ハロウィンベガルタ\n# body 3104171\n# pos 3104171 3\n# scale 3104171 0.8 0\n# alpha 3104171 0 0\n;;-----------------------------------------\n# move 3104071 2 0\n# face 3104071 \"usual\"\n# alpha 3104071 1 0\n# mask 3104071 on\n# textflame 1 1\n# textboxarrow 0 1\n# move 3104171 4 0\n# face 3104171 \"usual\"\n# alpha 3104171 1 0\n# mask 3104171 on\n# voice 1040 \"morallta_0013\"\n@モラルタ\n狩人さん弱すぎ！\nこれじゃお話にならないよ！\n\n# face 3104171 \"happy\"\n# textboxarrow 0 3\n@ベガルタ\nわたしには好都合…かな\n邪魔者はいないほうがいいし\n\n# textflame 0 0\n;;モノローグ\n@\nふたりは引き続き\nお話にこだわっているようだ\nどうしてそこまで、と聞くマスター\n\n# textflame 1 1\n# textboxarrow 0 1\n@モラルタ\nハロウィンだからね\n赤ずきんはおばあさんに変装した\n狼のことを殺すんだよ？\n\n# face 3104171 \"usual\"\n# textboxarrow 0 3\n@ベガルタ\nハロウィンだから…\nおばあさんに変装した狼は\n赤ずきんをちゃんと殺さないと…\n\n# textflame 0 0\n@\n…どういうことだろう？と\nマスターは再度二人に尋ねる\n\n# face 3104071 \"normal\"\n# textflame 1 1\n# textboxarrow 0 1\n@モラルタ\nだってお話の赤ずきんは\n奪われてばかりなんだもん！\n\n# textboxarrow 0 1\n@モラルタ\n私だって狼のことを奪ってもいい\nベガのことを独り占めに\nしたっていいと思うでしょ！\n\n# face 3104171 \"normal\"\n# textboxarrow 0 3\n@ベガルタ\nお話の狼は最後には…\nだから、ハロウィンくらいは…\n\n# textboxarrow 0 3\n@ベガルタ\nわたしなら赤ずきんを独占できる\nモラをわたしだけのモノにできる\n\n# textflame 0 0\n@\nますます\n理解できなくなるマスター\nだが…\n\n# emotionbody 1000 3 3104071 -50 200\n# effectpattern 1000 1 1\n# effectstart 1000\n# voice 1040 \"morallta_0004\"\n# face 3104071 \"normal\"\n# textflame 1 1\n# textboxarrow 0 1\n@モラルタ\nハロウィンだから\nとびきりの甘いご褒美\nベガルタを手に入れるの\n\n# face 3104171 \"shy\"\n# textboxarrow 0 3\n@ベガルタ\nち、違うの、ハロウィンだから\nとびきりの甘いご褒美\nモラルタを手に入れるのはわたし…\n\n# textboxarrow 0 3\n@ベガルタ\nだから、出来る限りの\n精一杯のいたずらで\n\n# voice 1040 \"morallta_0007\"\n# face 3104071 \"usual\"\n# textboxarrow 0 1\n@モラルタ\n奪い取るんだよ！\n\n# textflame 0 0\n@\nそれはハロウィンではない気がする、\nといぶかしむマスター\n\n@\nそもそも、どうしてここに\n来たの？\nと気になって尋ねる\n\n# emotionbody 3000 1 3104071 0 250\n# emotionbody 4000 1 3104171 0 250\n# effectpattern 3000 1 1\n# effectpattern 4000 1 1\n# effectstart 3000\n# effectstart 4000\n# face 3104071 \"surprise\"\n# textflame 1 1\n# textboxarrow 0 0\n# face 3104171 \"surprise\"\n@モラ＆ベガ\n…あっ！\n\n# face 3104071 \"normal\"\n# textboxarrow 0 1\n@モラルタ\nそうだった！\nこれで敵は来なくなるよねっ\n\n# face 3104171 \"happy\"\n# textboxarrow 0 3\n@ベガルタ\nこ、これで…\n街から兵士がいなくなるはず\n\n# textflame 0 0\n@\nそう言われて、ようやく\nマスターは二人の意図に気がついた\n\n@\nきっと二人は\n子供達がハロウィンを楽しめるよう\n頑張っていたのだ\n\n@\nそう思い、\nマスターは笑顔でうなずいた"
	}
]