[
	{
		"ID": 220021104,
		"script": ";;【EP4】\n# script \"lisp\"\n# background \"sea_jungle_day\"\n# bgmfile \"bgm230\" \"BgmSeaEvent\" 0\n# body 2200211\n# pos 2200211 3\n# mask 2200211 off\n# eye 2200211 \"close\"\n# face 2200211 \"normal\"\n# alpha 2200211 0 0\n# textflame 0 0\n@\nジャングルでの戦いから数日後…\n\n# alpha 2200211 1 0.5\n# textflame 1 1\n# textboxarrow 0 2\n# chara 2200211\n@アイムール\n…………\n\n# textflame 0 0\n@\n密林特有のカラフルな花々の中で\nアイムールは鳥のさえずりに\n耳を澄ませていた\n\n# eye 2200211 \"normal\"\n# textflame 1 1\n# textboxarrow 0 2\n# chara 2200211\n# voice 2002 \"aimuru_0008\"\n@アイムール\nあの鳥は食べると\n中々に美味しいですよ…\nと言うのは、風情がないでしょうか\n\n# textflame 1 1\n# textboxarrow 0 2\n# chara 2200211\n@アイムール\n…冗談です\nサバイバルでもないのに\n野鳥に手をかけるなどしません\n\n# textflame 0 0\n@\nあの日からずっと\nアイムールはそわそわとしていた\n\n# textflame 0 0\n@\nそれこそ冗談を言うくらい\nどこか様子がおかしい…\n\n# textflame 1 1\n# textboxarrow 0 2\n# chara 2200211\n# voice 2002 \"aimuru_0030\"\n@アイムール\n今日…改めて遊びに連れてきてくれて\nありがとうございました、マスター\n\n# textflame 1 1\n# textboxarrow 0 2\n# chara 2200211\n@アイムール\nあの日は否定しましたが\nこうやって自然と触れ合うのは\n心の安らぎにつながります\n\n# textflame 0 0\n@\nアイムールは逡巡し、そして…\n\n# textflame 1 1\n# textboxarrow 0 2\n# chara 2200211\n@アイムール\n自然と触れ合う…いえ\n一人で触れ合っても、きっと\n安らぎには感じませんでした\n\n# face 2200211 \"sad\"\n# textflame 1 1\n# textboxarrow 0 2\n# chara 2200211\n@アイムール\nい、妹のヤグルシが\n言っていたのですが…\n\n# textflame 1 1\n# textboxarrow 0 2\n# chara 2200211\n# voice 2002 \"aimuru_0042\"\n@アイムール\nマスターと居たから…\n安らぎにつながるということは\n好意と同じことだと…\n\n# textflame 1 1\n# textboxarrow 0 2\n# chara 2200211\n@アイムール\nいままで私はそんなふうに\nマスターへの感情を認識したことが\n…正直ありませんでした\n\n# eye 2200211 \"close\"\n# face 2200211 \"normal\"\n# textflame 1 1\n# textboxarrow 0 2\n# chara 2200211\n@アイムール\n仲間…家族…\nさまざまな愛情や感情が\nありますが…\n\n# eye 2200211 \"normal\"\n# textflame 1 1\n# textboxarrow 0 2\n# chara 2200211\n@アイムール\nマスターへの感情を\n好意と認めることも必要だと…\n妹に教えられました\n\n# textflame 1 1\n# textboxarrow 0 2\n# chara 2200211\n@アイムール\n私は改めてこの好意を持って\nマスターを追いかけようと思います\n\n# textflame 1 1\n# textboxarrow 0 2\n# chara 2200211\n@アイムール\n私に足りない部分を\n教えてくれる\n大きな背中を追い…\n\n# textflame 1 1\n# textboxarrow 0 2\n# chara 2200211\n@アイムール\n平和を願うマスターの\n敵を殲滅するために\n走ります\n\n# eye 2200211 \"close\"\n# textflame 1 1\n# textboxarrow 0 2\n# chara 2200211\n# voice 2002 \"aimuru_0005\"\n@アイムール\nふふ…妹の言った通りでした\n\n# eye 2200211 \"normal\"\n# textflame 1 1\n# textboxarrow 0 2\n# chara 2200211\n@アイムール\n認識し、口にして伝えることは\n大切なんですね…\n\n# face 2200211 \"smile\"\n# se \"SE_0602\"\n# textflame 1 1\n# textboxarrow 0 2\n# chara 2200211\n# voice 2002 \"aimuru_0006\"\n@アイムール\n新スキル『ジャングル連合の絆』\nこんな力が湧いてきました\n\n# textflame 1 1\n# textboxarrow 0 2\n# chara 2200211\n# voice 2002 \"aimuru_0001\"\n@アイムール\nマスター…\n自覚するのが遅い私ですが\n好意から逃げずにいてください\n\n;;一枚絵仮\n# imageset 0 \"c2200211\"\n# imagealpha 0 0 0\n# textflame 1 1\n# textboxarrow 0 2\n# chara 2200211\n@アイムール\nいえ…\n逃げても…追い続けて\nそばにいますけれども…\n\n;;「…マスターとなら、作戦成功度が著しく向上します。ですので、傍においていただけると…」\n# voice 2002 \"aimuru_kyara_0017\"\n# frameout 0 0.5\n# buttonsout 0 0.5\n# imagealpha 0 1 0\n# imagepos 0 0 0\n# fadein \"white\" 3\n# textwindow \"close\"\n"
	}
]