[
	{
		"ID": 22001021,
		"script": ";;-----------------------------------------\n;;【ファントムオブキル_まどかコラボ】イベントシナリオ前編　修正稿\n;;【EP1】戦闘前\n;;EP1_1\n;;スクリプト最後の背景：室内\n;;-----------------------------------------\n# script \"lisp\"\n# background \"201_room\"\n# bgmfile \"bgm357\" \"BgmMMcollabo003\" 0\n;;-----------------------------------------\n;;アルマス\n# body 3103811\n# pos 3103811 3\n# scale 3103811 0.8 0\n# layer 3103811 2\n# alpha 3103811 0 0\n# mask 3103811 off\n;;ティターニア\n# body 139\n# pos 139 3\n# scale 139 0.8 0\n# layer 139 2\n# alpha 139 0 0\n# mask 139 off\n;;まどか\n# body 3401111\n# pos 3401111 3\n# scale 3401111 0.8 0\n# layer 3401111 2\n# alpha 3401111 0 0\n# mask 3401111 off\n;;-----------------------------------------\n;;【EP1】\n;;背景：室内\n# emotionbody 1001 2 3103811 10 290\n# effectpattern 1001 1 1\n# effectstart 1001\n# voice 1038 \"almace_0002\"\n# move 3103811 2 0\n# face 3103811 \"surprise\"\n# alpha 3103811 1 0\n# mask 3103811 on\n# textboxarrow 0 1\n# move 139 4 0\n# face 139 \"surprise\"\n# alpha 139 1 0\n# mask 139 on\n# textflame 1 1\n@アルマス\n一体どういうことなの？\n\n# voice 9967 \"titania_0035\"\n# textboxarrow 0 3\n@ティターニア\nわからないです…けど\nとんでもないことが\n起きたのは間違いないようです\n\n# emotionbody 1002 2 3401111 10 290\n# effectpattern 1002 1 1\n# effectstart 1002\n# voice 340111 \"madoka_0022\"\n# alpha 3103811 0 0.5\n# alpha 139 0 0.5\n# move 3401111 3 0\n# face 3401111 \"surprise\"\n# alpha 3401111 1 0.5\n# mask 3401111 off\n# textboxarrow 0 2\n@まどか\nえっと、どうかしたの？\nねぇ、みんな…って、あれ！？\n\n# voice 340111 \"madoka_0023\"\n# textboxarrow 0 2\n@まどか\nほむらちゃん達がいない！？\n\n;;モノローグ\n# textflame 0 0\n@\nマスター達のほうを見ていた\nまどかは事態をまだ把握\nできていないようだった\n\n# voice 340111 \"madoka_0015\"\n# face 3401111 \"sad\"\n# textflame 1 1\n# textboxarrow 0 2\n@まどか\nさっきまで一緒にいたのに…\nマミさんもさやかちゃんも\n杏子ちゃんもどこに行っちゃったの？\n\n# move 3103811 2 0\n# face 3103811 \"angry\"\n# alpha 3103811 1 0.5\n# mask 3103811 on\n# textboxarrow 0 1\n# move 3401111 4 0.5\n# mask 3401111 on\n@アルマス\n落ち着いて、まどか\nこういう時こそ\n落ち着いて対処しなきゃダメよ\n\n# voice 340111 \"madoka_0030\"\n# face 3401111 \"normal\"\n# textboxarrow 0 3\n@まどか\nう、うん…そうだよね\nありがとう、アルマスちゃん\n\n# voice 9967 \"titania_0006\"\n# alpha 3401111 0 0.5\n# move 139 4 0\n# face 139 \"normal\"\n# alpha 139 1 0.5\n# mask 139 on\n# textboxarrow 0 3\n@ティターニア\nアルマスが冷静に的確なことを\n言うなんて…きっとアルマスも\n動揺しているんですね\n\n# voice 1038 \"almace_0009\"\n# face 3103811 \"angry\"\n# textboxarrow 0 1\n@アルマス\n待ってよ、\nそれってどういう意味？\n\n# alpha 3103811 0 0.5\n# alpha 139 0 0.5\n# move 3401111 3 0\n# face 3401111 \"sad\"\n# alpha 3401111 1 0.5\n# mask 3401111 off\n# textboxarrow 0 2\n@まどか\n…………\n\n;;モノローグ\n# textflame 0 0\n@\n不安そうな表情のまどかに\nマスターは戻ってくるのを待つ？\nと問う\n\n# textflame 1 1\n# textboxarrow 0 2\n@まどか\n…みんなを探しに行きたい\n\n# alpha 3401111 0 0.5\n# move 3103811 3 0\n# face 3103811 \"normal\"\n# alpha 3103811 1 0.5\n# mask 3103811 off\n# textboxarrow 0 2\n@アルマス\nそうね、幸いにも私達は\n一緒にいるんだし、どこかへ\n行ったみんなを探したほうがいいわ\n\n;;モノローグ\n# textflame 0 0\n@\nマスターもそれに同意する\nだが、あてもないまま動くのは\n危険だとも思う\n\n# voice 340111 \"madoka_0028\"\n# move 3103811 2 0.5\n# mask 3103811 on\n# move 3401111 4 0\n# face 3401111 \"sad\"\n# alpha 3401111 1 0.5\n# mask 3401111 on\n# textflame 1 1\n# textboxarrow 0 3\n@まどか\n何か手掛かりがあればいいけど…\nアルマスちゃん、心当たりある？\n\n# textboxarrow 0 1\n@アルマス\nまったくないわ\nけどいなくなった４人のことは\nまどかのほうが詳しいんじゃない？\n\n# bgmfile \"bgm055\" \"BgmMMcollabo001\" 0\n# emotionbody 1003 1 3401111 10 310\n# effectpattern 1003 1 0\n# effectstart 1003\n# face 3401111 \"surprise\"\n# textboxarrow 0 3\n@まどか\nたしかに…\nでも何もわからなくて…あっ！\n\n# face 3103811 \"angry\"\n# textboxarrow 0 1\n@アルマス\n何か気付いた？\nなんでもいいわ、言ってみて？\n\n# voice 340111 \"madoka_0023\"\n# textboxarrow 0 3\n@まどか\n嘘…こんな時に！\n\n# voice 1038 \"almace_0022\"\n# face 3103811 \"surprise\"\n# textboxarrow 0 1\n@アルマス\nどうしたの、まどか\n\n# face 3401111 \"sad\"\n# textboxarrow 0 3\n@まどか\n魔女…魔女の気配がするの\n\n# face 3103811 \"angry\"\n# textboxarrow 0 1\n@アルマス\n魔女ってまどか達の敵、だっけ？\nもしかしてそいつが原因！？\n\n# textboxarrow 0 3\n@まどか\nかもしれない…\nでも、私ひとりで戦えるかな…\n\n# textboxarrow 0 1\n@アルマス\nまったく、私達が一緒にいるって\nそう言ったでしょ？\n私達も戦うわ、まどか！\n\n# se \"SE_6504\"\n# emotionbody 1004 3 3401111 10 290\n# effectpattern 1004 1 3\n# effectstart 1004\n# voice 340111 \"madoka_0030\"\n# face 3401111 \"normal\"\n# textboxarrow 0 3\n@まどか\n…っ！\nアルマスちゃん、ありがとう！\n\n;;モノローグ\n# textflame 0 0\n@\nそう言いながら身構えるまどか\nそこへ何かがうごめき\n近づいてくるのを感じる\n\n# voice 340111 \"madoka_0029\"\n# face 3401111 \"angry\"\n# textflame 1 1\n# textboxarrow 0 3\n@まどか\n行くよ、アルマスちゃん！\n\n# textboxarrow 0 1\n@アルマス\n絶任せて、まどか！"
	}
]