[
	{
		"ID": 220010071,
		"script": ";;-----------------------------------------\n;;【ファントムオブキル_まどマギコラボ】イベントシナリオ後編　修正稿\n;;【EP6】\n;;6-1\n;;スクリプト最後の背景：平原など\n;;-----------------------------------------\n# script \"lisp\"\n# background \"plain\"\n# bgmfile \"bgm059\" \"BgmMMcollabo001\" 0\n;;-----------------------------------------\n;;アルマス\n# body 3103811\n# pos 3103811 3\n# scale 3103811 0.8 0\n# layer 3103811 2\n# alpha 3103811 0 0\n# mask 3103811 off\n;;ティターニア\n# body 139\n# pos 139 3\n# scale 139 0.8 0\n# layer 139 2\n# alpha 139 0 0\n# mask 139 off\n;;まどか\n# body 3401111\n# pos 3401111 3\n# scale 3401111 0.8 0\n# layer 3401111 2\n# alpha 3401111 0 0\n# mask 3401111 off\n;;マミ\n# body 3501411\n# pos 3501411 3\n# scale 3501411 0.8 0\n# layer 3501411 2\n# alpha 3501411 0 0\n# mask 3501411 off\n;;さやか\n# body 3102011\n# pos 3102011 3\n# scale 3102011 0.8 0\n# layer 3102011 1\n# alpha 3102011 0 0\n# mask 3102011 off\n;;杏子\n# body 3301511\n# pos 3301511 3\n# scale 3301511 0.8 0\n# layer 3301511 2\n# alpha 3301511 0 0\n# mask 3301511 off\n;;ほむら\n# body 3501311\n# pos 3501311 3\n# scale 3501311 0.8 0\n# layer 3501311 2\n# alpha 3501311 0 0\n# mask 3501311 off\n;;薔薇園の魔女\n# body 809611\n# pos 809611 3\n# scale 809611 0.8 0\n# layer 809611 2\n# alpha 809611 0 0\n# mask 809611 off\n;;アンソニー\n# body 809711\n# pos 809711 3\n# scale 809711 0.8 0\n# layer 809711 2\n# alpha 809711 0 0\n# mask 809711 off\n;;ハルモニア兵\n# body 3810001\n# pos 3810001 3\n# scale 3810001 0.8 0\n# layer 3810001 2\n# alpha 3810001 0 0\n# mask 3810001 off\n;;ハルモニア兵（クローン1）\n# entry 938100011 3810001\n# pos 938100011 3\n# scale 938100011 0.8 0\n# layer 938100011 2\n# alpha 938100011 0 0\n# mask 938100011 off\n;;ハルモニア兵（クローン2）\n# entry 938100012 3810001\n# pos 938100012 3\n# scale 938100012 0.8 0\n# layer 938100012 2\n# alpha 938100012 0 0\n# mask 938100012 off\n;;-----------------------------------------\n;;背景の暗転\n# imageset 2 \"bg_black\"\n# imagelayer 2 3\n# imagealpha 2 0 0\n;;-----------------------------------------\n;;【EP6】\n;;背景：平原など\n# move 3102011 3 0\n# face 3102011 \"angry\"\n# alpha 3102011 1 0\n# mask 3102011 off\n# textflame 1 1\n# textboxarrow 0 2\n@さやか\nあんたらちょっと黙りなよ！\n\n;;演出：攻撃エフェクト、さやかに倒される兵士達\n# textwindow \"close\"\n# alpha 3102011 0 0.5\n# move 938100011 1 0\n# alpha 938100011 1 0.5\n# mask 938100011 on\n# move 3810001 3 0\n# alpha 3810001 1 0.5\n# mask 3810001 on\n# move 938100012 5 0\n# alpha 938100012 1 0.5\n# mask 938100012 on\n# waitandnext 0.8\n\n# se \"SE_4830\"\n# shake 0 0.5\n# fadein \"white\" 0.5\n# effectbody 1000 1 -200 0 0\n# effectstart 1000\n# waitandnext 0.5\n\n# se \"SE_4830\"\n# shake 0 0.5\n# fadein \"white\" 0.5\n# effectbody 2000 1 0 0 0\n# effectstart 2000\n# waitandnext 0.5\n\n# se \"SE_4830\"\n# shake 0 0.5\n# fadein \"white\" 0.5\n# effectbody 3000 1 200 0 0\n# effectstart 3000\n# waitandnext 0.5\n\n# se \"SE_3001\"\n# alpha 938100011 0 0.5\n# alpha 3810001 0 0.5\n# alpha 938100012 0 0.5\n# waitandnext 0.5\n\n# move 809711 3 0\n# alpha 809711 1 0.5\n# mask 809711 off\n# textboxarrow 0 2\n# textwindow \"normal\"\n@魔女の手下\n～♪\n\n;;演出：逃げていく魔女の手下\n# se \"SE_5339\"\n# textwindow \"close\"\n# leftout 809711 0.5\n# waitandnext 0.5\n\n# voice 350141 \"mami_0002\"\n# alpha 809711 0 0\n# move 3501411 2 0\n# face 3501411 \"angry\"\n# alpha 3501411 1 0.5\n# mask 3501411 on\n# textboxarrow 0 1\n# move 3301511 4 0\n# face 3301511 \"angry\"\n# alpha 3301511 1 0.5\n# mask 3301511 on\n# textwindow \"normal\"\n@マミ\nやっぱりあの魔女の手下は\n私達を誘導しているように見えるわ\n\n# voice 330151 \"kyoko_0037\"\n# textboxarrow 0 3\n@杏子\nとっ捕まえてやりたいけど\n兵士がうじゃうじゃいて\nそれどころじゃないっての！\n\n# emotionbody 1001 8 3401111 80 220\n# effectpattern 1001 1 0\n# effectstart 1001\n# voice 340111 \"madoka_0028\"\n# alpha 3501411 0 0.5\n# alpha 3301511 0 0.5\n# move 3501311 2 0\n# face 3501311 \"usual\"\n# alpha 3501311 1 0.5\n# mask 3501311 on\n# move 3401111 4 0\n# face 3401111 \"sad\"\n# alpha 3401111 1 0.5\n# mask 3401111 on\n# textboxarrow 0 3\n@まどか\nでも、邪魔をされてるって\n感じでもないのが不思議…\n\n# effectskip 1001\n# voice 350131 \"homura_0026\"\n# textboxarrow 0 1\n@ほむら\nこの兵士達もあの魔女の手下に\nついて行っているのかしらね\n\n;;モノローグ\n# textflame 0 0\n@\nたしかに、とマスターも思う\n妙な動きの兵士達だが\n好戦的という訳でもなさそうだが…\n\n# emotionbody 1002 1 3103811 10 310\n# effectpattern 1002 1 0\n# effectstart 1002\n# voice 1038 \"almace_0023\"\n# alpha 3501311 0 0.5\n# alpha 3401111 0 0.5\n# move 3103811 3 0\n# face 3103811 \"angry\"\n# alpha 3103811 1 0.5\n# mask 3103811 off\n# textflame 1 1\n# textboxarrow 0 2\n@アルマス\nあっ！\nやっぱいたわよ、アイツ！\n\n;;演出：薔薇園の魔女in\n;;演出：兵士と魔女の手下が魔女のもとに集っていく\n# se \"SE_7032\"\n# textwindow \"close\"\n# alpha 3103811 0 0.5\n# move 809611 3 0\n# alpha 809611 1 0.5\n# mask 809611 off\n# waitandnext 1.2\n\n# alpha 809611 0 0.5\n# move 3810001 3 0\n# alpha 3810001 1 0.5\n# mask 3810001 off\n# waitandnext 0.8\n\n# rightout 3810001 0.5\n# waitandnext 0.5\n\n# alpha 3810001 0 0\n# move 809711 3 0\n# alpha 809711 1 0.5\n# mask 809711 off\n# waitandnext 0.8\n\n# leftout 809711 0.5\n# waitandnext 0.5\n\n# alpha 809711 0 0\n# move 3401111 2 0\n# face 3401111 \"angry\"\n# alpha 3401111 1 0.5\n# mask 3401111 on\n# textboxarrow 0 1\n# move 3301511 4 0\n# face 3301511 \"angry\"\n# alpha 3301511 1 0.5\n# mask 3301511 on\n# textwindow \"normal\"\n@まどか\n集まっていってる…\nあの魔女が何かしようと\nしているのかな\n\n# voice 330151 \"kyoko_0007\"\n# textboxarrow 0 3\n@杏子\nそんなのなんだっていいさ\n倒しちまえば全部終わりだ\n\n# voice 1038 \"almace_battle_0005\"\n# alpha 3401111 0 0.5\n# move 3103811 2 0\n# face 3103811 \"angry\"\n# alpha 3103811 1 0.5\n# mask 3103811 on\n# textboxarrow 0 1\n@アルマス\nそう簡単なら\nそもそもこんな苦労してないわよ\n\n;;演出：マスター達を取り囲むような動きをする兵士達\n# textwindow \"close\"\n# alpha 3103811 0 0.5\n# alpha 3301511 0 0.5\n# waitandnext 0.5\n\n# se \"SE_0799\"\n# move 938100011 1 0\n# alpha 938100011 1 0\n# mask 938100011 on\n# move 3810001 3 0\n# alpha 3810001 1 0\n# mask 3810001 on\n# move 938100012 5 0\n# alpha 938100012 1 0\n# mask 938100012 on\n# leftin 938100012 0.3\n# leftin 3810001 0.3\n# leftin 938100011 0.3\n# waitandnext 1\n\n# voice 310201 \"sayaka_0037\"\n# alpha 938100011 0 0.5\n# alpha 3810001 0 0.5\n# alpha 938100012 0 0.5\n# move 3102011 3 0\n# face 3102011 \"angry\"\n# alpha 3102011 1 0.5\n# mask 3102011 off\n# textboxarrow 0 2\n# textwindow \"normal\"\n@さやか\n私達、見事なまでに\n囲まれてる訳だけど\n何か策のある人～？\n\n# voice 1038 \"almace_0007\"\n# move 3103811 2 0\n# face 3103811 \"angry\"\n# alpha 3103811 1 0.5\n# mask 3103811 on\n# textboxarrow 0 1\n# move 3102011 4 0.5\n# mask 3102011 on\n@アルマス\nあったらそもそも\nこんな敵陣の奥まで、のこのこと\n突っこんだりしないわよ\n\n# alpha 3102011 0 0.5\n# move 3401111 4 0\n# face 3401111 \"sad\"\n# alpha 3401111 1 0.5\n# mask 3401111 on\n# textboxarrow 0 3\n@まどか\nだよね…\n\n# alpha 3103811 0 0.5\n# move 3501411 2 0\n# face 3501411 \"angry\"\n# alpha 3501411 1 0.5\n# mask 3501411 on\n# textboxarrow 0 1\n@マミ\nやっぱり罠だった\nただそれだけのことよ\n\n# textboxarrow 0 1\n@マミ\nでも、この程度のこと\nなんてことないわ！\nだって、みんながいるんだもの！\n\n# emotionbody 1003 10 3301511 -80 220\n# effectpattern 1003 4 3\n# effectstart 1003\n# voice 330151 \"kyoko_0042\"\n# alpha 3401111 0 0.5\n# move 3301511 4 0\n# face 3301511 \"normal\"\n# alpha 3301511 1 0.5\n# mask 3301511 on\n# textboxarrow 0 3\n@杏子\nへへっ、その通り\n今度は負けないからな！\n\n# effectskip 1003\n# voice 310201 \"sayaka_0024\"\n# alpha 3501411 0 0.5\n# move 3102011 2 0\n# face 3102011 \"surprise\"\n# alpha 3102011 1 0.5\n# mask 3102011 on\n# textboxarrow 0 1\n@さやか\nうわ、やっぱりマミさんと\n倒した数競ってたの！？\n\n# se \"SE_6504\"\n# emotionbody 1004 3 3501411 10 260\n# effectpattern 1004 1 3\n# effectstart 1004\n# voice 350141 \"mami_0004\"\n# alpha 3102011 0 0.5\n# alpha 3301511 0 0.5\n# move 3501411 3 0\n# face 3501411 \"normal\"\n# alpha 3501411 1 0.5\n# mask 3501411 off\n# textboxarrow 0 2\n@マミ\nふふふ、そのほうが燃えるかもね\n\n;;演出：攻撃エフェクト、攻撃を仕掛けるマミ\n# se \"SE_4400\"\n# fadein \"white\" 0.5\n# waitandnext 0.5\n\n# alpha 3501411 0 0.5\n# move 3103811 3 0\n# face 3103811 \"angry\"\n# alpha 3103811 1 0.5\n# mask 3103811 off\n# textboxarrow 0 2\n@アルマス\nマミって結構激しいタイプね\nそういうの…嫌いじゃないわ！\n\n;;演出：攻撃エフェクト\n# se \"SE_4830\"\n# effectbody 4000 1 0 0 0\n# effectstart 4000\n# waitandnext 0.5\n\n;;モノローグ\n# textflame 0 0\n@\nマミの攻撃を皮切りに\nそれぞれが一斉に戦闘を始める\n\n# alpha 3103811 0 0.5\n# move 3501311 2 0\n# face 3501311 \"usual\"\n# alpha 3501311 1 0.5\n# mask 3501311 on\n# move 3401111 4 0\n# face 3401111 \"angry\"\n# alpha 3401111 1 0.5\n# mask 3401111 on\n# textflame 1 1\n# textboxarrow 0 3\n@まどか\n私達も！\n\n# voice 350131 \"homura_0022\"\n# face 3501311 \"surprise\"\n# textboxarrow 0 1\n@ほむら\nあの、兵士達の動き…\n\n# emotionbody 1005 2 3401111 10 260\n# effectpattern 1005 1 1\n# effectstart 1005\n# voice 340111 \"madoka_0022\"\n# face 3401111 \"surprise\"\n# textboxarrow 0 3\n@まどか\nほむらちゃん？\nどうかしたの？\n\n# face 3501311 \"angry\"\n# textboxarrow 0 1\n@ほむら\nいえ…\nそれより、一緒に\n兵士達を止めるわよ\n\n# voice 340111 \"madoka_0003\"\n# face 3401111 \"normal\"\n# textboxarrow 0 3\n@まどか\nうん！\n頑張ろう、ほむらちゃん！\n\n# voice 1038 \"almace_0029\"\n# alpha 3501311 0 0.5\n# alpha 3401111 0 0.5\n# move 3103811 3 0\n# face 3103811 \"angry\"\n# alpha 3103811 1 0.5\n# mask 3103811 off\n# textboxarrow 0 2\n@アルマス\nはあああああっ！\n\n;;演出：攻撃エフェクト\n# se \"SE_4830\"\n# effectbody 5000 1 0 0 0\n# effectstart 5000\n# waitandnext 0.5\n\n;;モノローグ\n# textflame 0 0\n@\nアルマスの激しい攻撃\nその動きにマスターが\n視線を移したその時だった――\n\n;;演出：薔薇園の魔女がマスターを襲う\n# bgm \"stop\"\n# textwindow \"close\"\n# alpha 3103811 0 0.5\n# move 809611 3 0\n# alpha 809611 1 0.5\n# mask 809611 off\n# waitandnext 0.8\n\n# se \"SE_7032\"\n# se \"SE_5394\"\n# shake 0 0.5\n# fadein \"white\" 0.5\n# waitandnext 0.5\n\n;;モノローグ\n# textwindow \"normal\"\n@\n突然のことに\nマスターは悲鳴すらあげられなかった\n\n;;演出：マスターが目を瞑ったイメージで暗転（以下のセリフは暗転状態のまま）\n# alpha 809611 0 0.5\n# imagepos 2 0 0\n# imagealpha 2 1 0.5\n# waitandnext 0.5\n\n;;モノローグ\n@\n…だが\n\n;;演出：暗転状態のまま、銃撃のエフェクト\n# se \"SE_4400\"\n# waitandnext 0.5\n\n;;演出：暗転明け\n# move 3501311 3 0\n# face 3501311 \"angry\"\n# alpha 3501311 1 0\n# mask 3501311 off\n# imagealpha 2 0 0.5\n# waitandnext 0.5\n\n# bgmfile \"bgm075_076\" \"BgmMMcollabo002\" 0\n# voice 350131 \"homura_battle_0005\"\n# textflame 1 1\n# textboxarrow 0 2\n@ほむら\n…目的はマスターだったのね\n\n# alpha 3501311 0 0.5\n# move 3103811 3 0\n# face 3103811 \"angry\"\n# alpha 3103811 1 0.5\n# mask 3103811 off\n# textboxarrow 0 2\n@アルマス\nほむら！\nマスターは無事！？\n\n# voice 350131 \"homura_0033\"\n# alpha 3103811 0 0.5\n# move 3501311 3 0\n# face 3501311 \"angry\"\n# alpha 3501311 1 0.5\n# mask 3501311 off\n# textboxarrow 0 2\n@ほむら\n…………\n無事よ\n\n;;モノローグ\n# textflame 0 0\n@\n展開の速さについていけなかったが\nほむらが兵士の動きを察知し、\n助けてくれたのだ\n\n;;モノローグ\n@\nそのことに\n感謝を述べるマスター\n\n# se \"SE_6504\"\n# emotionbody 1006 3 3401111 10 260\n# effectpattern 1006 1 3\n# effectstart 1006\n# move 3501311 2 0.5\n# mask 3501311 on\n# move 3401111 4 0\n# face 3401111 \"normal\"\n# alpha 3401111 1 0.5\n# mask 3401111 on\n# textflame 1 1\n# textboxarrow 0 3\n@まどか\nマスターが無事でよかった…\nほむらちゃんのおかげだね！\n\n# face 3501311 \"usual\"\n# textboxarrow 0 1\n@ほむら\n手下や兵士がやられてるのに\nこの魔女が動かないのが\n変だと思っただけよ\n\n;;モノローグ\n# textflame 0 0\n@\nほむらは魔女について\n何か知っているのだろうか\n\n;;モノローグ\n@\n理由はわからないが\n少なくともほむらの\n知識のおかげで命拾いをした\n\n;;モノローグ\n@\nほむらの持つその知識があれば\nきっとこの魔女は倒せる\nそう確信するマスター\n\n# alpha 3501311 0 0.5\n# alpha 3401111 0 0.5\n# move 3501411 3 0\n# face 3501411 \"angry\"\n# alpha 3501411 1 0.5\n# mask 3501411 off\n# textflame 1 1\n# textboxarrow 0 2\n@マミ\nみんな、マスターのところへ！\n\n# alpha 3501411 0 0.5\n# move 3301511 3 0\n# face 3301511 \"angry\"\n# alpha 3301511 1 0.5\n# mask 3301511 off\n# textboxarrow 0 2\n@杏子\n狙いがわかったんならやりやすいな！\n\n;;モノローグ\n# textflame 0 0\n@\nみんながマスターの周りに集う\nありがとう、とマスター\n\n# se \"SE_6504\"\n# emotionbody 1007 3 3401111 10 260\n# effectpattern 1007 1 3\n# effectstart 1007\n# voice 340111 \"madoka_0004\"\n# alpha 3301511 0 0.5\n# move 3401111 3 0\n# face 3401111 \"happy\"\n# alpha 3401111 1 0.5\n# mask 3401111 off\n# textflame 1 1\n# textboxarrow 0 2\n@まどか\nえへへ、お礼なんていらないよ\n\n# alpha 3401111 0 0.5\n# move 3103811 3 0\n# face 3103811 \"shy1\"\n# alpha 3103811 1 0.5\n# mask 3103811 off\n# textboxarrow 0 2\n@アルマス\nマスターを守るのは\n当たり前のことだし…\n\n# voice 9967 \"titania_0006\"\n# move 3103811 2 0.5\n# mask 3103811 on\n# move 139 4 0\n# face 139 \"normal\"\n# alpha 139 1 0.5\n# mask 139 on\n# textboxarrow 0 3\n@ティターニア\n随分と素直ですね、アルマス\n\n# move 3103811 1 0.5\n# move 3102011 3 0\n# face 3102011 \"angry\"\n# alpha 3102011 1 0.5\n# mask 3102011 on\n# textboxarrow 0 2\n# move 139 5 0.5\n@さやか\nこんな時までからかったら\nかわいそうだよ？\nアルマス、真っ赤になってるし\n\n# emotionbody 1008 9 3103811 -30 220\n# effectpattern 1008 6 0\n# effectstart 1008\n# voice 1038 \"almace_0042\"\n# face 3103811 \"shy2\"\n# textboxarrow 0 1\n@アルマス\nああ、もう！\nそういうこと言わないでいいから！\n\n;;モノローグ\n# effectskip 1008\n# textflame 0 0\n@\n多数の敵に囲まれようとも\n軽口を投げ合うアルマス達\n\n;;モノローグ\n@\nその様子に思わず\n頼もしいな、と漏らすマスター\n\n# face 3103811 \"shy1\"\n# textboxarrow 0 1\n# textflame 1 1\n@アルマス\n…まぁ、マスターは\n絶安心して私達の後ろに\nいてくれればいいから！\n\n# alpha 3103811 0 0.5\n# alpha 3102011 0 0.5\n# alpha 139 0 0.5\n# move 3401111 3 0\n# face 3401111 \"normal\"\n# alpha 3401111 1 0.5\n# mask 3401111 off\n# textboxarrow 0 2\n@まどか\n私達が絶対に魔女を倒すから、ね！\n\n;;モノローグ\n# alpha 3401111 0 0.5\n# textflame 0 0\n@\n魔女との決戦の時――"
	}
]