[
	{
		"ID": 220101102,
		"script": ";;【EP2】\n;;背景　砂浜（リゾート）\n# script \"lisp\"\n# background \"sea_beach_day\"\n# bgmfile \"bgm227\" \"BgmSeaEvent\" 0\n# body 2201011\n# pos 2201011 3\n# mask 2201011 off\n# textboxarrow 0 2\n# chara 2201011\n# textflame 1 1\n# face 2201011 \"smile\"\n# voice 2010 \"ukonbasara_0001\"\n@ウコンバサラ\nわ～！マスター！\n海の水が冷たくて気持ちいいね～♪\n\n# textflame 1 1\n# voice 2010 \"ukonbasara_0005\"\n@ウコンバサラ\n見てみて！\n水がすごく透き通ってる！\nあ、貝殻発見～♪\n\n# textflame 0 0\n@\n最初は、マスターのことを\n心配していたウコンバサラだったが\n次第に海水浴を楽しむように\n\n;;SE　波音\n# se \"SE_5580\"\n# textflame 1 1\n# voice 2010 \"ukonbasara_0004\"\n@ウコンバサラ\nきゃ～♪\nお腹に波が当たるとくすぐったい\n\n# voice 2010 \"ukonbasara_0001\"\n# textflame 1 1\n@ウコンバサラ\nねえ、マスター！\nあの岩の所まで競争しよう！\n\n# textflame 0 0\n@\nその時だった―\n\n;;SE　大きな波の音\n;;シェイク（画面振動）\n# se \"SE_9366\"\n# shake 0 1\n# face 2201011 \"sad\"\n# textflame 1 1\n@ウコンバサラ\n――っ！\nマスター！\n\n# textflame 0 0\n@\nマスターは突然押し寄せた大きな波に\n体勢を崩し、海の中に沈んでしまう\n\n# textflame 1 1\n@ウコンバサラ\nマスター！マスター！\n\n# textflame 0 0\n@\n慌てふためくウコンバサラが\nマスターを抱き上げた\n\n# textflame 1 1\n# voice 2010 \"ukonbasara_0001\"\n@ウコンバサラ\nマスター！大丈夫！？\n\n# textflame 1 1\n@ウコンバサラ\n―っ、良かった\n気が付いた！？\n\n# textflame 1 1\n# voice 2010 \"ukonbasara_0031\"\n@ウコンバサラ\n…ごめんなさい\n私がいながらマスターが危険な目に\n\n# textflame 1 1\n@ウコンバサラ\n私はキミを守るって\n誓っていたはずなのに\n\n# textflame 1 1\n# voice 2010 \"ukonbasara_0015\"\n@ウコンバサラ\nまさかこんなことになるなんて…\n\n# select \"大丈夫だよ\" \"select_label_01\" \"少し驚いただけ\" \"select_label_02\" \"気にしないで\" \"select_label_03\"\nまさかこんなことになるなんて…\n\n# label \"select_label_01\"\n# labeljump \"select_label_end\"\n# textflame 1 1\n# textboxarrow 0 2\n@ウコンバサラ\nでも、私のせいで…\n\n# label \"select_label_02\"\n# labeljump \"select_label_end\"\n# textflame 1 1\n# textboxarrow 0 2\n@ウコンバサラ\n驚くだけじゃ済まされないよ\n\n# label \"select_label_03\"\n# labeljump \"select_label_end\"\n# textflame 1 1\n# textboxarrow 0 2\n@ウコンバサラ\n気にしないなんて無理だよ\n\n# label \"select_label_end\"\n\n# textflame 1 1\n# voice 2010 \"ukonbasara_0001\"\n@ウコンバサラ\nマスター\n私が悪かったんだよ…\n\n# textflame 1 1\n@ウコンバサラ\n私、浮かれすぎてた\n一緒に遊ぶべきじゃなかったんだ\n\n# textflame 1 1\n@ウコンバサラ\nもう上がろう\nこれ以上海の中にいるのは危ないよ\n\n# textflame 0 0\n@\nウコンバサラは、有無を言わさず\nマスターを砂浜に連れ戻す\n\n# textflame 1 1\n@ウコンバサラ\nマスター…\n\n# textflame 1 1\n# voice 2010 \"ukonbasara_0005\"\n@ウコンバサラ\nこれからは絶対\n何があってもキミを守るから\n\n# textflame 0 0\n@\nその思い詰めた表情に\nマスターはさらに心配になるのだった\n"
	}
]