[
	{
		"ID": 221051261,
		"script": ";;-----------------------------------------\n;;賀正5-1\n;;-----------------------------------------\n# script \"lisp\"\n# background \"400_angel_town_night\"\n# bgmfile \"bgm271\" \"BgmLostRagnarokEvent\" 0\n;;-----------------------------------------\n# body 3503221\n# pos 3503221 3\n# scale 3503221 0.8 0\n# layer 3503221 3\n# mask 3503221 off\n# alpha 3503221 1 0\n# body 3100611\n# pos 3100611 4\n# scale 3100611 0.8 0\n# layer 3100611 3\n# alpha 3100611 0 0\n# body 3200511\n# pos 3200511 2\n# scale 3200511 0.8 0\n# layer 3200511 3\n# alpha 3200511 0 0\n# body 3810001\n# pos 3810001 2\n# scale 3810001 0.8 0\n# mask 3810001 off\n# alpha 3810001 0 0\n# entry 3810099 3810001\n# pos 3810099 4\n# scale 3810099 0.8 0\n# mask 3810099 off\n# alpha 3810099 0 0\n# reversal 3810099 0\n;;-----------------------------------------\n;;背景：ハルモニア市街地（夜）\n# textflame 0 0\n@\n紆余曲折の末\nハルモニアまで到着した\nマスターとティファレト\n\n# textflame 1 1\n# textboxarrow 0 2\n# face 3503221 \"sad\"\n# voice 350322 \"tiphereth_t_0027\"\n@ティファレト\nやっと辿り着きましたね…\nしかし、もう時間が…\n\n;;演出：ハルモニア兵（複数）を一瞬表示\n# textwindow \"close\"\n# alpha 3503221 0 0.5\n# waitandnext 0.5\n\n# alpha 3810001 1 0.5\n# waitandnext 0.7\n\n# move 3810001 5 1.1\n# alpha 3810001 0 1\n# waitandnext 1.5\n\n# alpha 3810099 1 0.5\n# waitandnext 0.5\n\n# move 3810099 2 1.5\n# alpha 3810099 0 1.4\n# waitandnext 2\n\n# textwindow \"nomal\"\n# textflame 0 0\n@\n日の出まで時間がない\nしかし、この警備を抜けるのは\n相当時間がかかりそうだ…\n\n# bgmfile \"bgm273\" \"BgmLostRagnarokEvent\" 0\n# alpha 3503221 1 0.5\n# textflame 1 1\n# textboxarrow 0 2\n# face 3503221 \"normal\"\n# voice 350322 \"tiphereth_t_0001\"\n@ティファレト\n…もう結構ですよ、主様\n\n# textflame 1 1\n# textboxarrow 0 2\n@ティファレト\n私は主様とともに\nここまで来ることができた\n\n# textflame 1 1\n# textboxarrow 0 2\n# face 3503221 \"happy\"\n# voice 350322 \"tiphereth_t_0004\"\n@ティファレト\nその思い出だけでも十分に\n素晴らしい新年を迎えられたと\nそう、思えますから…\n\n# textflame 0 0\n@\nそう言って明るくなってきた\n夜空を眺めながら話すティファレト\n\n# textflame 0 0\n@\n「…諦めたくない」\n思わず言ってしまうマスター\n\n# textflame 1 1\n# textboxarrow 0 2\n# face 3503221 \"surprise\"\n# voice 350322 \"tiphereth_t_0001\"\n@ティファレト\n主様…主様はどうして\n私にそこまでしてくださるのですか…\n\n# textflame 0 0\n@\n玉座からひとりで見た初日の出\nその話をするティファレトが\n寂しそうだったからと話すマスター\n\n# emotionbody 10005 1 3503221 60 260\n# effectpattern 10005 1 0\n# effectstart 10005\n# textflame 1 1\n# textboxarrow 0 2\n# voice 350322 \"tiphereth_t_0022\"\n@ティファレト\n私が…寂しそう？\n\n# textflame 0 0\n@\nひとりで見た初日の出を\n一緒に見ることで何かが変わる…\n\n# textflame 0 0\n@\nティファレトが玉座に残してきた\n寂しい思い出を解放することができる\nそう思うんだ、とマスター\n\n# textflame 1 1\n# textboxarrow 0 2\n@ティファレト\n…主様は本当の意味で\n私を解放してくださろうと\nしていらっしゃるのですね\n\n# textflame 1 1\n# textboxarrow 0 2\n# face 3503221 \"sad\"\n@ティファレト\n私も主様に導かれる者…\nいえ、ともに歩むものとして\nその思いを成就したいのですが…\n\n# textflame 1 1\n# textboxarrow 0 2\n# voice 350322 \"tiphereth_t_0028\"\n@ティファレト\nしかし、この警備を抜けるのは\n現実的ではありませんから…\n\n# bgm \"stop\"\n;;（ミトゥム）※セリフのみ\n# textflame 1 1\n# textwindow \"toge\"\n# textboxarrow 0 0\n# voice 320051 \"mitwumu_t_0010\"\n@？？？\nさっきも言ったけど、\nふたりの邪魔をする奴は\nわたしが許さねえ！\n\n;;演出：ミトゥム、ナーゲルリングin\n# alpha 3503221 0 0.5\n# alpha 3100611 1 0.5\n# alpha 3200511 1 0.5\n# face 3100611 \"angry\"\n# face 3200511 \"angry\"\n# waitandnext 0.5\n\n# bgmfile \"bgm309_310\" \"BgmLostRagnarokBattle004\" 0\n# textwindow \"nomal\"\n# textflame 1 1\n# textboxarrow 0 1\n@ミトゥム\nあっ、えっと…あの\nここはミトゥムたちに\n任せてください…\n\n# textboxarrow 0 3\n@ナーゲルリング\n私の役目は…\nまだ終わっていなかったようですね\n\n# textflame 0 0\n@\n颯爽と現れたミトゥム\nそしてナーゲルリング\n\n# emotionbody 10003 1 3503221 60 260\n# effectpattern 10003 2 0\n# effectstart 10003\n# alpha 3503221 1 0.5\n# alpha 3100611 0 0.5\n# alpha 3200511 0 0.5\n# textflame 1 1\n# textboxarrow 0 2\n# face 3503221 \"surprise\"\n# voice 350322 \"tiphereth_t_0022\"\n@ティファレト\n…ふたりとも！\nどうしてここに！\n\n# alpha 3503221 0 0.5\n# alpha 3100611 1 0.5\n# alpha 3200511 1 0.5\n# textflame 1 1\n# textboxarrow 0 3\n# face 3100611 \"normal\"\n@ナーゲルリング\nどうしても何も\nただ、成すべきことを成すだけ\n\n# textflame 1 1\n# textboxarrow 0 1\n# voice 320051 \"mitwumu_t_0032\"\n@ミトゥム\nその通りです\n困難は乗り越えてこそ、ですから！\n\n# alpha 3503221 1 0.5\n# alpha 3100611 0 0.5\n# alpha 3200511 0 0.5\n# textflame 1 1\n# textboxarrow 0 2\n# face 3503221 \"happy\"\n@ティファレト\n…ありがとう、ふたりとも\n\n# alpha 3503221 0 0.5\n# alpha 3100611 1 0.5\n# alpha 3200511 1 0.5\n# textflame 1 1\n# textboxarrow 0 3\n# face 3100611 \"happy\"\n# voice 310061 \"nageruring_t_0005\"\n@ナーゲルリング\nふふ、あなたにこういう形で\n礼を言われるのはなんとも\n不思議な気持ちになりますね\n\n# emotionbody 20004 2 3200511 80 200\n# effectpattern 20004 1 0\n# effectstart 20004\n# textflame 1 1\n# textboxarrow 0 1\n# face 3200511 \"normal\"\n@ミトゥム\n？\n私はマスターとティファレトさんの\n味方…仲間ですから！\n\n# alpha 3503221 1 0.5\n# alpha 3100611 0 0.5\n# alpha 3200511 0 0.5\n# textflame 1 1\n# textboxarrow 0 2\n# face 3503221 \"normal\"\n@ティファレト\n主様の思い\nそしてあなた達ふたりの優しさ\n\n# move 3810001 2 0\n# move 3810099 4 0\n# textflame 1 1\n# textboxarrow 0 2\n# face 3503221 \"angry\"\n@ティファレト\nそれを受けた私が\n諦める訳にはいきませんね…\n\n# alpha 3503221 0 0.5\n# alpha 3810001 1 0.5\n# alpha 3810099 1 0.5\n# textflame 1 1\n# textboxarrow 0 3\n@ハルモニア部隊長\nこれより先に進ませる\nわけにはいきません\n全員、神敵を裁きなさい\n\n# se \"SE_0799\"\n# textflame 1 1\n# textboxarrow 0 1\n@ハルモニア兵\n裁きを受け入れなさいっ！\n\n# textflame 0 0\n@\n倒すそばからどんどんやってくる\nハルモニアの兵達\n\n# se \"SE_5208\"\n# alpha 3810001 0 0.5\n# alpha 3810099 0 0.5\n# alpha 3503221 1 0.5\n# textflame 0 0\n@\n彼らを睨みながら、\nティファレトは銃を\n改めて構える\n\n# textflame 1 1\n# textboxarrow 0 2\n# voice 350322 \"tiphereth_t_0001\"\n@ティファレト\n主様…このティファレトの\nわがままに、あと少しだけ\nお付き合いくださいませ…っ！"
	}
]