[
	{
		"ID": 221041563,
		"script": ";;-----------------------------------------\n;;ファンキル2019ウェディングイベントシナリオ\n;;タイトル：契約と計画のブライダル\n;;【EP.5】両手に花嫁\n;;5_3\n;;-----------------------------------------\n# script \"lisp\"\n# background \"004_outland\"\n# bgmfile \"bgm334\" \"BgmWedding001\" 0\n;;-----------------------------------------\n;;グラウ\n# body 164\n# pos 164 3\n# scale 164 0.6 0\n# layer 164 2\n# alpha 164 0 0\n# mask 164 off\n;;ソロモンウェディング\n# body 3503131\n# pos 3503131 3\n# scale 3503131 0.8 0\n# layer 3503131 2\n# alpha 3503131 0 0\n# mask 3503131 off\n;;ロンギヌスウェディング\n# body 3300121\n# pos 3300121 3\n# scale 3300121 0.8 0\n# layer 3300121 2\n# alpha 3300121 0 0\n# mask 3300121 off\n;;-----------------------------------------\n# move 3300121 2 0\n# face 3300121 \"usual\"\n# alpha 3300121 1 0\n# mask 3300121 on\n# textflame 1 1\n# textboxarrow 0 1\n# move 3503131 4 0\n# face 3503131 \"usual\"\n# alpha 3503131 1 0\n# mask 3503131 on\n# voice 330012 \"ronginusu_t_0002\"\n@ロンギヌス\n巡回の兵の数が増えた気がします\nそろそろ、この国を\n出る頃合いでしょうか…\n\n# face 3503131 \"happy\"\n# textboxarrow 0 3\n# voice 350313 \"solomon_t_0002\"\n@ソロモン\nグラウ、契約の儀式は完了したわね\n私たちとマスターの信頼は深まった？\n\n# alpha 3300121 0 0.5\n# move 164 2 0\n# alpha 164 1 0.5\n# mask 164 on\n# waitandnext 0.5\n\n# textboxarrow 0 1\n# voice 9950 \"glau_0034\"\n@グラウ\nその問いは、私ではなく\nマスターにするべきです\n\n# textboxarrow 0 1\n@グラウ\nマスターの返事が\n保留状態になっています\n\n;;モノローグ\n# alpha 164 0 0.5\n# emotionbody 1000 1 3300121 10 260\n# effectpattern 1000 1 0\n# effectstart 1000\n# emotionbody 1001 1 3503131 10 310\n# effectpattern 1001 1 0\n# effectstart 1001\n# textflame 0 0\n# move 3300121 2 0\n# face 3300121 \"surprise\"\n# alpha 3300121 1 0.5\n# mask 3300121 on\n# face 3503131 \"surprise\"\n@\nグラウがそういうと、\n二人はハッとして目を合わせ\n同じタイミングでマスターを振り返る\n\n;;モノローグ\n# textflame 0 0\n@\nすっかり仲良くなった二人の様子が\n微笑ましく、\n思わず笑顔になるマスター\n\n;;モノローグ\n# textflame 0 0\n@\n緊張が和らいだマスターは、\n本当にプロポーズされたみたいだった\nと、照れ笑いしながら話す\n\n;;ソロモン（照）\n# face 3300121 \"shy\"\n# face 3503131 \"shy\"\n# textflame 1 1\n# textboxarrow 0 3\n# voice 350313 \"solomon_t_0042\"\n@ソロモン\nそそそそれはそうなんだけど、\nいえ、そうじゃなくて！\n\n;;ソロモン（照）\n# textboxarrow 0 3\n@ソロモン\nあくまで儀式を通じて、\n信頼関係を深めようと…\nとにかく、そういうことなの！\n\n;;モノローグ\n# textflame 0 0\n@\nマスターはやさしく微笑みながら、\n二人に向けて、その手を差し出した\n\n;;モノローグ\n# textflame 0 0\n@\n頼りないとは思うけど、今も…\nこれからも、ついてきてくれる？\nと、二人に問いかける\n\n;;ソロモン（笑顔）\n# face 3503131 \"happy\"\n# textflame 1 1\n# textboxarrow 0 3\n# voice 350313 \"solomon_t_0032\"\n@ソロモン\nええ！\n\n;;ロンギヌス（笑顔）\n# face 3300121 \"normal\"\n# textboxarrow 0 1\n# voice 330012 \"ronginusu_t_0005\"\n@ロンギヌス\nはい！\n\n;;モノローグ\n# se \"SE_5563\"\n# sedelay \"SE_5563\" 0.2\n# sedelay \"SE_5563\" 0.3\n# textflame 0 0\n# alpha 3300121 0 0.5\n# alpha 3503131 0 0.5\n@\nマスターは、頷いた二人の手を取り、\n花畑を後にしながら\n笑顔でヴァージンロードを走り去る\n\n;;モノローグ\n# textflame 0 0\n@\n3人が走り抜けたあとには、\n6月の花嫁たちを祝福するように\nたくさんの花びらが舞っていた"
	}
]