[
	{
		"ID": 221041063,
		"script": ";;-----------------------------------------\n;;【ファンキル　クリスマスイベント2018　FB修正版2018.11.26\n;;【EP5】君の願いは？\n;;5_1\n;;スクリプト最後の背景：ハルモニア擬人区\n;;-----------------------------------------\n# script \"lisp\"\n# background \"town_night_snow\"\n# bgmfile \"bgm290\" \"BgmLostRagnarokEvent\" 0\n;;-----------------------------------------\n;;カリス（クリスマス用のボイスを鳴らすための呼び出し）\n# body 3602511\n# alpha 3602511 0 0\n;;フォルカス（クリスマス用のボイスを鳴らすための呼び出し）\n# body 3301811\n# alpha 3301811 0 0\n;;カリス（クリスマス）\n# body 3602521\n# pos 3602521 3\n# scale 3602521 0.8 0\n# layer 3602521 2\n# alpha 3602521 0 0\n# mask 3602521 off\n;;フォルカス（クリスマス）\n# body 3301821\n# pos 3301821 3\n# scale 3301821 0.8 0\n# layer 3301821 2\n# alpha 3301821 0 0\n# mask 3301821 off\n;;キプル\n# body 163\n# pos 163 3\n# scale 163 0.6 0\n# layer 163 2\n# alpha 163 0 0\n# mask 163 off\n;;-----------------------------------------\n# move 3602521 3 0\n# face 3602521 \"normal\"\n# alpha 3602521 1 0\n# mask 3602521 off\n# textflame 1 1\n# textboxarrow 0 2\n# voice 360252 \"chalice_t_0032\"\n@カリス\nこれで…おっけい！\nみんな、ケガは治してあげたけど\n追いかけてこないでね～\n\n# alpha 3602521 0 0.5\n# textflame 0 0\n;;モノローグ\n@\nいつも通り、倒した兵の治療を\n終えると、マスター達はハルモニアを\n出るために外周へと向かった\n\n;;モノローグ\n@\nそういえば、フォルカスには\nカリスに聞きたいことがあったはず\nと、マスターは思い出した\n\n# move 3602521 2 0\n# face 3602521 \"normal\"\n# alpha 3602521 1 0.5\n# mask 3602521 on\n# move 3301821 4 0\n# face 3301821 \"usual\"\n# alpha 3301821 1 0.5\n# mask 3301821 on\n# textflame 1 1\n# textboxarrow 0 3\n# voice 330182 \"forcas_t_0003\"\n@フォルカス\n…はい\nどうしてカリスは…そんなに\n前向きでいられるのでしょうか？\n\n# emotionbody 60251 11 3602521 -100 250\n# effectpattern 60251 2 0\n# effectstart 60251\n# face 3602521 \"surprise\"\n# textboxarrow 0 1\n# voice 360252 \"chalice_t_0022\"\n@カリス\nえ！？フォルカスは後ろ向きなの？\nなにか、悩みごとでもあるの？\nちゃんと聞くから、話してみて？\n\n# emotionbody 30181 9 3301821 80 220\n# effectpattern 30181 3 0\n# effectstart 30181\n# face 3301821 \"surprise\"\n# textboxarrow 0 3\n# voice 330182 \"forcas_t_0023\"\n@フォルカス\nえっ！\nいえ、そういうわけでは…\n\n# face 3602521 \"normal\"\n# textboxarrow 0 1\n# voice 360252 \"chalice_t_0004\"\n@カリス\nそっか、それならいいんだ～！\nで、なんだっけ？\n\n# face 3301821 \"usual\"\n# textboxarrow 0 3\n# voice 330182 \"forcas_t_0002\"\n@フォルカス\n私は、カリスがいつも明るく、\n失敗を恐れずにいられるのは\nどうしてか、それを知りたいのです\n\n# textboxarrow 0 3\n@フォルカス\nだれかを助けたいというあなたの\n気持ちは立派ですが、必ずしも\nいい結果が出るとは限りません\n\n# textboxarrow 0 3\n# voice 330182 \"forcas_t_0015\"\n@フォルカス\nもし失敗したら…\nそう考えると怖くはありませんか？\n\n# face 3602521 \"sad\"\n# textboxarrow 0 1\n# voice 360252 \"chalice_t_0026\"\n@カリス\nむー…\n…失敗するのはわたしも怖いよ？\n\n# face 3602521 \"normal\"\n# textboxarrow 0 1\n# voice 360252 \"chalice_t_0004\"\n@カリス\nでも、だからってなんにもしないのは\nもっと怖いし、助けたいって思ったら\n我慢できないんだよね～！\n\n# textboxarrow 0 1\n# voice 360252 \"chalice_t_0033\"\n@カリス\nあと、必ずミラクルを起こすって\n決めているからかな？\n願えば叶うって、わたしは信じてる！\n\n# face 3301821 \"surprise\"\n# textboxarrow 0 3\n@フォルカス\nカリス…\n私は、あなたは自由奔放で手のかかる\n問題児だと、そう思っていましたが…\n\n# face 3301821 \"usual\"\n# textboxarrow 0 3\n# voice 330182 \"forcas_t_0028\"\n@フォルカス\nですが、あなたは私よりも\nずっと強い心を持っていたのですね、\n私は考えを改めなくてはなりません\n\n# se \"SE_6500\"\n# emotionbody 1000 1 3602521 10 310\n# effectpattern 1000 1 0\n# effectstart 1000\n# face 3602521 \"surprise\"\n# textboxarrow 0 1\n# voice 360252 \"chalice_t_0022\"\n@カリス\nわたしが、フォルカスより強いなんて\nそんなことないよー！\n\n# emotionbody 60252 10 3602521 -70 200\n# effectpattern 60252 4 0\n# effectstart 60252\n# face 3602521 \"happy\"\n# textboxarrow 0 1\n# voice 360252 \"chalice_t_0005\"\n@カリス\nフォルカスは、かっこよくて強くて、\n優しくて綺麗で、それからそれから…\n天使で賢くて、すごいんだよ！\n\n# effectskip 60252\n# face 3602521 \"normal\"\n# textboxarrow 0 1\n# voice 360252 \"chalice_t_0001\"\n@カリス\nマスターさんも、そう思うでしょ？\n\n# textflame 0 0\n;;モノローグ\n@\nマスターも、その通りだ、と頷く\n\n# emotionbody 30182 9 3301821 80 220\n# effectpattern 30182 5 0\n# effectstart 30182\n# face 3301821 \"shy\"\n# textflame 1 1\n# textboxarrow 0 3\n;;フォルカス（照れ）\n# voice 330182 \"forcas_t_0004\"\n@フォルカス\nマスターまで…やめてください\nは、恥ずかしい…\n\n# face 3602521 \"happy\"\n# textboxarrow 0 1\n# voice 360252 \"chalice_t_0005\"\n@カリス\n照れ屋なところは、新しい発見かな！\n真っ赤になっちゃって可愛い～！\n\n# effectskip 30182\n# textboxarrow 0 3\n;;フォルカス（照れ）\n# voice 330182 \"forcas_t_0042\"\n@フォルカス\nカリス…\n本当にもう…やめてください\n\n# face 3602521 \"surprise\"\n# textboxarrow 0 1\n# voice 360252 \"chalice_t_0002\"\n@カリス\nえ～？\n照れるフォルカス、もっと見たい～！\nこっち向いてよ、ねぇねぇ！\n\n# emotionbody 30183 6 3301821 80 220\n# effectpattern 30183 1 0\n# effectstart 30183\n# face 3301821 \"angry\"\n# textboxarrow 0 3\n;;フォルカス（すごむ）\n# brightness 3301821 0.9 0.2\n# voice 330182 \"forcas_t_0009\"\n@フォルカス\nカリス…\nそれくらいにしないと…\nわたしも怒りますよ？\n\n# emotionbody 1631 9 163 60 100\n# effectpattern 1631 5 0\n# effectstart 1631\n# move 3602521 1 0.5\n# mask 3602521 on\n# move 163 3 0\n# alpha 163 1 0.5\n# mask 163 on\n# textboxarrow 0 2\n# move 3301821 5 0.5\n# brightness 3301821 1 0.2\n# voice 9951 \"kipuru_0023\"\n@キプル\nあわわわわ…フォルカス様！\nカリスが失礼を！\nすみませんすみませんすみません！\n\n# effectskip 1631\n# face 3602521 \"normal\"\n# textboxarrow 0 1\n# voice 360252 \"chalice_t_0061\"\n@カリス\nキプル、謝る必要はないよ？\nだって本当のことだもん！\n\n# face 3301821 \"usual\"\n# textboxarrow 0 3\n# voice 330182 \"forcas_t_0028\"\n@フォルカス\nカリス…\nあなたって人は、本当に…\n\n# bgm \"bgm032\" 0\n# face 3301821 \"smile\"\n# textboxarrow 0 3\n# voice 330182 \"forcas_t_0004\"\n@フォルカス\n…ふふふっ、私の負けですね\n\n# textflame 0 0\n;;モノローグ\n@\nそうだね、笑ったら負けだね、と\nマスターも笑う\n\n# emotionbody 60253 3 3602521 0 270\n# effectpattern 60253 2 0\n# effectstart 60253\n# face 3602521 \"happy\"\n# textflame 1 1\n# textboxarrow 0 1\n# voice 360252 \"chalice_t_0005\"\n@カリス\nミラクルは起こせなかったけど、\nフォルカスとも仲良くなれたし、\n今日は楽しかったな～！\n\n# textboxarrow 0 3\n;;フォルカス（笑顔）\n# voice 330182 \"forcas_t_0030\"\n@フォルカス\n私もお役に立てて、嬉しかったです\n人々の笑顔を見せてくれた\nカリスとマスターに感謝します…\n\n# effectskip 60253\n# alpha 3602521 0 0.5\n# alpha 163 0 0.5\n# alpha 3301821 0 0.5\n# textflame 0 0\n;;モノローグ\n@\nハルモニアのクリスマスには\n天使が舞い降りるという\n言い伝えがある\n\n;;モノローグ\n@\n願いは叶えるもの…\n奇跡は起こすもの…\n\n;;モノローグ\n@\n天使は、いつでもあなたのそばにー"
	}
]