[
	{
		"ID": 230012204,
		"script": ";;-----------------------------------------\n;;■水着ロンギヌスキャラクエシナリオ\n;;スキル効果　EP3：デュエル EP4：バフ\n;;【ＥＰ３】\n;;スクリプト最後の背景：sea_resort_night\n;;背景：夜のプール\n;;-----------------------------------------\n# script \"lisp\"\n# background \"sea_resort_night\"\n# bgmfile \"bgm226_story\" \"BgmSeaEvent\" 0\n;;水着ロンギヌス\n# body 2300121\n# pos 2300121 3\n# scale 2300121 0.8 0\n# layer 2300121 4\n# mask 2300121 off\n# alpha 2300121 1 0\n;;-----------------------------------------\n;;水着ロンギヌス一枚絵\n# imageset 0 \"c2300121\"\n# imagelayer 0 3\n# imagealpha 0 0 0\n;;-------------------\n;;【ＥＰ３】\n;;-------------------\n;;モノローグ\n# textflame 0 0\n# face 2300121 \"normal\"\n@\nあれから数日後─\n\n;;モノローグ\n@\nまたプールサイドに\n腰掛けているロンギヌス\n\n# textflame 1 1\n# textboxarrow 0 2\n# face 2300121 \"normal\"\n@ロンギヌス\n………\n\n;;モノローグ\n# textflame 0 0\n@\nそして、今日も\nプールで遊ぶマスターと\n隊の姫たち\n\n# textflame 1 1\n@ロンギヌス\n………\n\n;;モノローグ\n# textflame 0 0\n@\nその様子を彼女がじっと見ている\n\n;;モノローグ\n@\n─と、\n\n# textflame 1 1\n# face 2300121 \"sad\"\n# voice 230012 \"ronginusu_k_0022\"\n@ロンギヌス\n…！\n\n;;モノローグ\n# textflame 0 0\n@\nロンギヌスの元に、\nまたビーチボールが飛んでくる\n\n;;モノローグ\n@\nロンギヌス～、取って～\nと、手を振るマスター\n\n# textflame 1 1\n# face 2300121 \"normal\"\n@ロンギヌス\n………\n\n;;モノローグ\n# textflame 0 0\n@\nその楽しそうな顔に、\n彼女は…\n\n# textflame 1 1\n# voice 230012 \"ronginusu_k_0027\"\n@ロンギヌス\n…やれやれ\n\n;;モノローグ\n# textflame 0 0\n@\nビーチボールを手に取り、\nマスターの元に歩き出す\n\n;;モノローグ\n@\nそしてプールサイドから、\nプールにいるマスターに向かって、\n己の心の内を語り出す\n\n# textflame 1 1\n@ロンギヌス\nやっぱり、\nそんなすぐには\n変われないから…\n\n@ロンギヌス\n隊の姫たちに対して、\n今も嫉妬の心はあります\n\n# face 2300121 \"usual\"\n@ロンギヌス\nでも…\n\n@ロンギヌス\nブラックキラーズだった\n私を受け入れてくれるみんなを…\n愛し始めている私もいるんです\n\n@ロンギヌス\nこの隊は…\n\n@ロンギヌス\n姫たちみんな、マスターが大好きです\n\n# face 2300121 \"smile\"\n# voice 230012 \"ronginusu_k_0005\"\n@ロンギヌス\nそしてマスターも、\n私たちを分け隔てなく\n愛してくれている\n\n@ロンギヌス\nこの不思議な関係が…\nすごく心地いい\n\n;;モノローグ\n# textflame 0 0\n@\n微笑むロンギヌス\n仲間に力をもらい、そして\n彼女もまたみんなに力を与える\n\n;;モノローグ\n# se \"SE_0602\"\n@\nそんな関係性が、\n彼女に新たなるスキル\n『黒式・常夏ノ冷視線』を授けていた\n;;↑スキル名が入りきらない場合は次のモノローグを使用\n;;\n;;;;モノローグ\n;;@\n;;そんな関係性が、\n;;彼女に新たなるスキル\n;;\n;;;;モノローグ\n;;@\n;;『ここにスキル名』\n;;を授けていた　\n\n# textflame 1 1\n# face 2300121 \"usual\"\n@ロンギヌス\nあの時、マスターは私に\n「信頼している」と…\n\n@ロンギヌス\n「これからも一緒に戦って欲しい」と\n言って下さった\n\n@ロンギヌス\nすごく…嬉しかったです\n\n@ロンギヌス\nこれからはマスターを信頼して…\nずっと一緒に戦っていきたい\n\n# face 2300121 \"smile\"\n# voice 230012 \"ronginusu_k_0036\"\n@ロンギヌス\nだから、よろしくお願いしますね\n\n;;モノローグ\n# textflame 0 0\n@\nそう言って、マスターに\n優しくビーチボールを渡す彼女\n\n;;モノローグ\n@\nそして、\nマスターにそっと顔を近づけ…\n\n# textflame 1 1\n# face 2300121 \"usual\"\n@ロンギヌス\nでも、できることなら…\n\n@ロンギヌス\nその優しさは、\n私だけに向けてくださいね\n\n# face 2300121 \"smile\"\n# voice 230012 \"ronginusu_k_0020\"\n@ロンギヌス\nうふふ、これは私の…\nささやかな願いです\n\n;;モノローグ\n# textflame 0 0\n@\nそう言った後、\n彼女は初めてプールに\n入ろうとするのだった\n\n# textflame 0 0\n# imagealpha 0 1 0\n# imagepos 0 0 0\n# fadein \"white\" 3\n# buttonsout 0 0\n# textwindow \"close\"\n# voice 230012 \"ronginusu_k_kyara_0026\"\n;;★６（一枚絵同じ）\n;;一枚絵ボイス：ロンギヌス　「…その優しさは私だけに向けてくださいね」\n;;：ronginusu_k_kyara_0026"
	}
]