[
	{
		"ID": 230031101,
		"script": ";;●方天画戟　海上編シナリオ\n;;【EP1】//背景　プール\n# script \"lisp\"\n# background \"sea_resort_day\"\n# bgmfile \"bgm224\" \"BgmSeaEvent\" 0\n# body 2300311\n# pos 2300311 3\n# mask 2300311 off\n# textflame 1 1\n# textboxarrow 0 2\n# chara 2300311\n# voice 3003 \"hotengageki_0010\"\n# face 2300311 \"angry\"\n@方天画戟\nあ～…もう暑い！！\nくそっ！こんなんやってらんないぜ\n\n# textflame 0 0\n@\nそう言う方天画戟に引きずられ\nマスターはプールへと連行されてきた\n\n# textflame 0 0\n@\n…しかし\n\n# textflame 1 1\n# textboxarrow 0 2\n# chara 2300311\n# voice 3003 \"hotengageki_0024\"\n# face 2300311 \"sad\"\n@方天画戟\nなんだと…？\n\n# textflame 0 0\n@\n…プール到着から数分後\n方天画戟は絶望に満ちた顔をしていた\n\n# bgmfile \"bgm234\" \"BgmSeaEventBattle\" 0\n# textflame 1 1\n# textboxarrow 0 2\n# chara 2300311\n# face 2300311 \"angry\"\n# voice 3003 \"hotengageki_0023\"\n@方天画戟\n「調整中」ってなんだよ！！\n\n@方天画戟\nわざわざオレが\nプールまで来てやったのに\nなんだよこれは！？\n\n# textflame 0 0\n@\nあっちの小さいプールなら\nつかえるみたいだから…\n必死になだめるマスター\n\n# textflame 1 1\n# textboxarrow 0 2\n# chara 2300311\n# voice 3003 \"hotengageki_0028\"\n# face 2300311 \"sad\"\n@方天画戟\n…小さくても暑いよりはましか\n\n# textflame 0 0\n@\nしかし、ふたりが向かった先には―\n\n# textflame 1 1\n# textboxarrow 0 2\n# chara 2300311\n# voice 3003 \"hotengageki_0009\"\n# face 2300311 \"angry\"\n@方天画戟\nなんだよコレ…\n浅すぎるだろ！\n膝下までしかつかれないぜ\n\n# textflame 0 0\n@\n文句を言いながらも暑さには勝てず\n足を水につける方天画戟\n\n# textflame 1 1\n# textboxarrow 0 2\n# chara 2300311\n@方天画戟\n…ちっ、こんな小せえプール\n浸かった気にならないぜ\n\n# face 2300311 \"sad\"\n# voice 3003 \"hotengageki_0026\"\n@方天画戟\n…オレは足だけじゃなくて\nもっとこう全身で水に浸かって\nプールを満喫したかったんだ…\n\n# textflame 0 0\n@\nまあまあ…今できることを楽しもう\nというマスターの説得もむなしく…\n\n# textflame 1 1\n# textboxarrow 0 2\n# chara 2300311\n# face 2300311 \"angry\"\n# voice 3003 \"hotengageki_0014\"\n@方天画戟\nあ～…！！\nイライラする……ふんっ！！\n\n# se \"SE_9141\"\n# textflame 0 0\n@\n乱暴に足をばたつかせる方天画戟\n水しぶきがマスターにかかってしまう\n\n# textflame 1 1\n# textboxarrow 0 2\n# chara 2300311\n# face 2300311 \"normal\"\n# voice 3003 \"hotengageki_0003\"\n@方天画戟\n…お、主君\nビショビショじゃねぇか\nずいぶんイイ面構えになったな\n\n# face 2300311 \"smile\"\n# voice 3003 \"hotengageki_0004\"\n@方天画戟\nクク…\nまぁ、主君の言うことは一理あるな\nせっかくだから、今を楽しむとしよう\n\n# se \"SE_9140\"\n# face 2300311 \"normal\"\n@方天画戟\nそぉれ！！\n\n# textflame 0 0\n@\n方天画戟は足をばたつかせ\nマスターに向かって水をかけはじめる\n\n# textflame 1 1\n# textboxarrow 0 2\n# chara 2300311\n# voice 3003 \"hotengageki_0005\"\n@方天画戟\nはっはっは！ほらほら主君も\nもっと楽しもうじゃないか！\n\n# se \"SE_9130\"\n# face 2300311 \"smile\"\n@方天画戟\nそれそれっ！\n\n# bgm \"stop\"\n# face 2300311 \"sad\"\n@方天画戟\n…っ！？\n\n# textflame 0 0\n@\n急に方天画戟が動きをとめた"
	}
]