[
	{
		"ID": 230101101,
		"script": ";;【ＥＰ１】\n;;モノローグ\n# script \"lisp\"\n# background \"sea_jungle_day\"\n# bgmfile \"bgm230\" \"BgmSeaEvent\" 0\n# body 2301011\n# pos 2301011 3\n# mask 2301011 off\n# scale 2301011 0.8 0\n# alpha 2301011 0 0\n# textflame 0 0\n# textboxarrow 0 2\n@\nロンゴミアントとマスターは\nジャングルの中を散策していた\n\n# alpha 2301011 1 0.5\n# textflame 1 1\n@ロンゴミアント\n…ふぅ、けっこう歩きましたね\nマスター、大丈夫ですか？\n疲れていませんか？\n\n# textflame 1 1\n@ロンゴミアント\n無理は禁物です\n一休みしましょう\n向こうに涼めそうな場所があります\n\n;;モノローグ\n# textflame 0 0\n@\nロンゴミアントは\nマスターの手を取ると\n木陰へと案内していく\n\n# face 2301011 \"sad\"\n# textflame 1 1\n@ロンゴミアント\nきゃっ！\n\n# textflame 0 0\n;;モノローグ\n@\nそのとき突然\nロンゴミアントは体勢を崩すと\nマスターへともたれかかった\n\n# textflame 1 1\n# voice 3010 \"rhongomiant_0031\"\n@ロンゴミアント\nす、すいません\nここは足場が悪いようですね\nあなたも気を付けて…はわっ！\n\n;;モノローグ\n# textflame 0 0\n@\n注意したそばから\nロンゴミアントはまた転び\n隣を流れていた小川に浸かってしまう\n\n# face 2301011 \"normal\"\n# textflame 1 1\n# voice 3010 \"rhongomiant_0008\"\n@ロンゴミアント\nあ、あはは…水着でよかったです\n\n;;モノローグ\n# textflame 0 0\n@\n全身ずぶ濡れになりながら\nロンゴミアントは立ち上がる\n\n# select \"大丈夫？ケガはない？\" \"select_label_01\" \"調子悪そうだね、なにかあった？\" \"select_label_02\" \"黙って手を差し伸べる\" \"select_label_03\"\n全身ずぶ濡れになりながら\nロンゴミアントは立ち上がる\n\n# label \"select_label_01\"\n# labeljump \"select_label_end\"\n# textflame 1 1\n# textboxarrow 0 2\n# voice 3010 \"rhongomiant_0030\"\n@ロンゴミアント\nご心配、ありがとうございます\nケガとかはありません、けど…\n\n# label \"select_label_02\"\n# labeljump \"select_label_end\"\n# face 2301011 \"sad\"\n# textflame 1 1\n# textboxarrow 0 2\n# voice 3010 \"rhongomiant_0031\"\n@ロンゴミアント\nいえ、なにもないと思うんですが…\n私ったら、すみません\n\n# label \"select_label_03\"\n# labeljump \"select_label_end\"\n# face 2301011 \"sad\"\n# textflame 1 1\n# textboxarrow 0 2\n# voice 3010 \"rhongomiant_0031\"\n@ロンゴミアント\nすみません、ご迷惑をおかけして…\n\n# label \"select_label_end\"\n# face 2301011 \"sad\"\n# textflame 0 0\n@\nロンゴミアントは川から上がると\nなにかに気付いたように\n目を丸くした\n\n# textflame 1 1\n# voice 3010 \"rhongomiant_0015\"\n@ロンゴミアント\nマ、マスター\nあの、ちょっといいですか…\n\n;;モノローグ\n# textflame 0 0\n@\nロンゴミアントがマスターを見つめる\nその瞳は艶やかに潤んでおり\n頬は紅く染まっていた\n\n;;モノローグ\n# textflame 0 0\n@\nもしかして体調が悪いんじゃ？\nすごく熱がありそうな顔色だよ\nとマスター\n\n# textflame 1 1\n@ロンゴミアント\n私…その…\n\n# textflame 1 1\n@ロンゴミアント\nもしかすると\nジャングル特有の熱病に\nかかってしまったかもしれません…\n\n;;モノローグ\n# textflame 0 0\n@\nロンゴミアントは持ってきていた\n散策用のガイドブックを開き\nマスターに渡す\n\n;;モノローグ\n# textflame 0 0\n@\nこの熱病にかかると\n数日間、高熱を引き起こされてしまう\nそこにはそう書いてあった\n\n# textflame 1 1\n# voice 3010 \"rhongomiant_0013\"\n@ロンゴミアント\nあなたにそういうことがないよう\n集中していたのですが…\nまさか私自身が…\n\n;;モノローグ\n# textflame 0 0\n@\nマスターは\nしばらくガイドブックを読み進める\n\n# textflame 1 1\n@ロンゴミアント\n熱病に効く薬草…ですか\nこのジャングルの奥に\n群生している、と\n\n;;モノローグ\n# textflame 0 0\n@\n薬草を採ってくるから休んでいるよう\nマスターはロンゴミアントに伝える\n\n;;モノローグ\n# textflame 0 0\n@\nだが、ロンゴミアントは\n首を振ってそれを否定したのだった\n\n# face 2301011 \"angry\"\n# textflame 1 1\n# voice 3010 \"rhongomiant_0034\"\n@ロンゴミアント\nあなたを一人でジャングルの奥地に\n向かわせるわけにはいきません！\n\n# textflame 1 1\n@ロンゴミアント\nそれに\nまだ熱病にかかっていると\n決まっているわけでは…\n\n;;モノローグ\n# textflame 0 0\n@\nいいながらロンゴミアントの顔には\n汗が滲んでいる\n\n# textflame 1 1\n@ロンゴミアント\nどうしてもというのなら\n私もついていきます！\nあなたを一人にはさせません！\n\n# textflame 0 0\n@\nここでやり取りしている時間が\n惜しいと思ったマスターは\nしぶしぶ二人で向かうことにした\n"
	}
]