[
	{
		"ID": 230211101,
		"script": ";;【ガ・ボー】海上編シナリオ\n;;【EP1】//背景　砂浜（リゾート）\n# script \"lisp\"\n# background \"sea_beach_day\"\n# bgmfile \"bgm226\" \"BgmSeaEvent\" 0\n# body 2302111\n# pos 2302111 3\n# mask 2302111 off\n# textflame 0 0\n@\nマスターは、ガ・ボーを連れて\n海へとやってきていた\n\n# textflame 1 1\n# textboxarrow 0 2\n# chara 2302111\n# face 2302111 \"sad\"\n# voice 3021 \"gaebuide_0001\"\n@ガ・ボー\nあの…本当に\nボーでいいのですか…？\n\n@ガ・ボー\nマスターと一緒に海に来るのが\nボーなんかじゃ…\n\n# textflame 0 0\n@\nもちろん君と来たかったんだよ\nと、マスターは答える\n\n# textflame 1 1\n# textboxarrow 0 2\n# chara 2302111\n# voice 3021 \"gaebuide_0027\"\n@ガ・ボー\nで、でも…\nボーが一緒では、足手まといに\nなってしまいます…\n\n@ガ・ボー\nその、今からでも\n他の姫を誘ったほうが…\n\n# textflame 0 0\n@\n今日は、君と一緒に来たんだから、\nと根気強く誘うマスター\n\n# textflame 1 1\n# textboxarrow 0 2\n# chara 2302111\n# voice 3021 \"gaebuide_0032\"\n@ガ・ボー\nう、うう…わかり、ました…\n\n@ガ・ボー\nそれなら…マスターと一緒に…\n海に入ります\n\n# textflame 0 0\n@\nマスターの誘いに小さく頷き\n彼女は海へと向かった\n\n;;//暗転（時間経過）\n# fadeout \"black\" 2\n# waitandnext 2.5\n\n# fadein \"black\" 1\n# textflame 1 1\n# textboxarrow 0 2\n# chara 2302111\n# face 2302111 \"normal\"\n@ガ・ボー\nマスター、待ってください\nいまそちらへ…\n\n# se \"SE_9130\"\n# face 2302111 \"sad\"\n# voice 3021 \"gaebuide_0023\"\n@ガ・ボー\n…ひゃっ！？\n\n# textflame 0 0\n@\n大丈夫か、と手を差し伸べて\n転びかけた彼女の体を支える\n\n# textflame 1 1\n# textboxarrow 0 2\n# chara 2302111\n# voice 3021 \"gaebuide_0031\"\n@ガ・ボー\nす、すみませんっ…！\n\n@ガ・ボー\nうう…やはりボーがいては\n邪魔になってしまいます\n\n@ガ・ボー\n先に、ビーチに戻りますね…\n\n# voice 3021 \"gaebuide_0022\"\n@ガ・ボー\nえ？もう一度海に入ろう、って…\nでも、ボーはマスターの\n邪魔しかできませんし\n\n# face 2302111 \"normal\"\n@ガ・ボー\nボーのことはお気になさらず、\nどうぞおひとりで…\n\n;;//暗転（時間経過）\n# fadeout \"black\" 2\n# waitandnext 2.5\n\n# fadein \"black\" 1\n# textflame 0 0\n@\nひとり、海岸にたたずむ彼女が\n気になるマスター\n\n# textflame 0 0\n@\n海からあがって彼女のそばに座り\n穏やかに揺れる海を眺める\n\n# textflame 1 1\n# textboxarrow 0 2\n# chara 2302111\n@ガ・ボー\n…………\n\n# textflame 0 0\n@\nそっと彼女の様子を伺うと\nぼーっと空を見ていた\n\n# textflame 1 1\n# textboxarrow 0 2\n# chara 2302111\n# voice 3021 \"gaebuide_0001\"\n@ガ・ボー\nなにを見ているのか、ですか…？\n\n@ガ・ボー\nあちらを…\n\n# se \"SE_5580\"\n# textflame 0 0\n@\n彼女の指さす先には、\n二羽のカモメが\n寄り添うように飛んでいた\n\n# textflame 1 1\n# textboxarrow 0 2\n# chara 2302111\n@ガ・ボー\n家族、でしょうか…\n\n@ガ・ボー\nもしかしたら…\n姉妹なのかも、しれませんね…\n\n# face 2302111 \"smile\"\n# voice 3021 \"gaebuide_0004\"\n@ガ・ボー\n仲良く一緒に飛べるのは\nとても…いいことです…\n\n# fadein \"black\" 1\n# bgmfile \"bgm234\" \"BgmSeaEventBattle\" 0\n# textflame 0 0\n@\nその時、空を切り裂くように\n空から異族が突如現れた\n\n# textflame 1 1\n# textboxarrow 0 2\n# chara 2302111\n# face 2302111 \"sad\"\n# voice 3021 \"gaebuide_0009\"\n@ガ・ボー\nあっ…！\n\n# textflame 0 0\n@\n二羽のカモメは異族に蹴散らされ\n離れ離れに飛んで行ってしまった\n\n# textflame 1 1\n# textboxarrow 0 2\n# chara 2302111\n# face 2302111 \"angry\"\n# voice 3021 \"gaebuide_0037\"\n@ガ・ボー\n…ボーが…\n\n@ガ・ボー\nボーが…倒します…！"
	}
]