[
	{
		"ID": 230311211,
		"script": ";;-----------------------------------------\n;;海上編カシウス1-1\n;;-----------------------------------------\n# script \"lisp\"\n# background \"sea_beach_day\"\n# bgmfile \"bgm224\" \"BgmSeaEvent\" 0\n;;-----------------------------------------\n;;カシウス\n# body 2303111\n# pos 2303111 3\n# scale 2303111 0.8 0\n# layer 2303111 3\n# alpha 2303111 0 0\n# mask 2303111 off\n;;-----------------------------------------\n# textflame 0 0\n@\nビーチに、若い女性の\n黄色い声が行き交う\n\n# textflame 0 0\n@\n今日は久しぶりの休暇\n\n# textflame 0 0\n@\nマスターの隊の姫はみんな、\n海に飛び込んだり、\n泳いだりしてはしゃいでいた\n\n# textflame 0 0\n@\nしかし、それを傍観している姫が一人\n\n# alpha 2303111 1 0.5\n# face 2303111 \"normal\"\n# textflame 1 1\n# textboxarrow 0 2\n@カシウス\n………\n\n# textflame 0 0\n@\nカシウスだ\n\n# textflame 1 1\n# textboxarrow 0 2\n@カシウス\n………\n\n# textflame 0 0\n@\n彼女は飽きることなく、\nじっと姫たちの様子を見ている\n\n# textflame 0 0\n@\n…と、そこにマスターが現れ、\n彼女に尋ねた\nまた、みんなを観察しているの？\n\n# voice 230311 \"cassius_ge_0001\"\n# textflame 1 1\n# textboxarrow 0 2\n@カシウス\n…御館様\n\n# textflame 0 0\n@\n人を観察するのが好きだもんね？\nそう言ったマスターに彼女は答える\n\n# textflame 1 1\n# textboxarrow 0 2\n@カシウス\nいいえ、違うわ\n\n# textflame 1 1\n# textboxarrow 0 2\n@カシウス\nみんなじゃなくて…\n\n# textflame 1 1\n# textboxarrow 0 2\n@カシウス\n海を見ていたの\n\n# textflame 0 0\n@\n海？\n聞き返すマスター\n\n# textflame 1 1\n# textboxarrow 0 2\n@カシウス\n………\n\n# textflame 0 0\n@\nだが彼女は何も答えない\n\n# textflame 0 0\n@\n海が好きなの？\nさらなる問い掛けに、\n彼女はこう答えた\n\n# voice 230311 \"cassius_ge_0003\"\n# textflame 1 1\n# textboxarrow 0 2\n@カシウス\nこの世のすべては円環の因子\n\n# textflame 1 1\n# textboxarrow 0 2\n@カシウス\nそれは海も例外じゃない\n\n# textflame 1 1\n# textboxarrow 0 2\n@カシウス\n波は永遠に、\n押しては返しを繰り返す\nそれはまさに時の円環\n\n# textflame 1 1\n# textboxarrow 0 2\n@カシウス\nだから見ていて飽きないの\n\n# textflame 0 0\n@\n…と、彼女特有の\n不思議な答えが返ってきた\n\n# voice 230311 \"cassius_ge_0002\"\n# textflame 1 1\n# textboxarrow 0 2\n@カシウス\n御館様もそう思わない？\n\n# textflame 0 0\n@\n…と同意を求められるも、\nよくわからないと思った\nマスターは、\n\n# textflame 0 0\n@\nじゃ、じゃあ楽しんでね…\nとだけ声を掛け、\nその場を去ろうとした\n\n# textflame 1 1\n# textboxarrow 0 2\n@カシウス\n………\n\n# textflame 0 0\n@\n特に気に留める様子もなく、\nまた海に向き直る彼女\n\n# textflame 0 0\n@\n――と、\nマスターが去る間際、\nこんなことを言った\n\n# textflame 1 1\n# textboxarrow 0 2\n@カシウス\nそれに…\n\n# textflame 1 1\n# textboxarrow 0 2\n@カシウス\n海はなくならないから\n\n# textflame 0 0\n@\n…え？\nその言葉が妙に\n心に引っ掛かったマスター\n\n# textflame 1 1\n# textboxarrow 0 2\n@カシウス\n………\n\n# textflame 0 0\n@\nそれ以上はもう\n喋らなくなった彼女の\n手を引き、\n\n# textflame 0 0\n@\nやっぱり一緒に泳ごう、\n仲間の輪に連れて行くのだった\n\n# voice 230311 \"cassius_ge_0009\"\n# textflame 1 1\n# textboxarrow 0 2\n@カシウス\n………御館様\n\n# textflame 0 0\n@\nみんながいる所まで、\n彼女を引っ張って来るマスター\n\n# textflame 1 1\n# textboxarrow 0 2\n@カシウス\n………\n\n# textflame 0 0\n@\nしかし彼女は誰とも遊ぼうとせず、\n一人でぼ～っと海面に浮かんでいる\n\n;;モヤモヤ吹き出し\n# move 2303111 3 0\n# textflame 1 1\n# textwindow \"moya\"\n# textboxarrow 0 0\n@カシウス\n楽しい…\nただ、こうしているのが\n\n# move 2303111 3 0\n# textflame 1 1\n# textwindow \"moya\"\n# textboxarrow 0 0\n@カシウス\n泳ぐでも、潜るでもなく、\nただ浮かんでいるだけ…\n\n# move 2303111 3 0\n# textflame 1 1\n# textwindow \"moya\"\n# textboxarrow 0 0\n@カシウス\nでも、それだけで…\nわたしは楽しいの\n\n# textwindow \"nomal\"\n# textflame 0 0\n@\nそんなことを考えていた\nカシウスは波に押され、\nどんどん沖に流されてしまった\n\n# face 2303111 \"smile\"\n# voice 230311 \"cassius_ge_0004\"\n# textflame 1 1\n# textboxarrow 0 2\n@カシウス\nふふっ…\n\n# textflame 0 0\n@\nしかし、\nそれが心地いいと感じる彼女\n\n# textflame 0 0\n@\n押しては返すという時の『円環』\n\n# textflame 0 0\n@\nその波に身を委ねるのが、\nとても心地いいように思える\n\n# textflame 0 0\n@\n環状となった\nウロボロスを内包している\n彼女が好きなもの…\n\n# textflame 0 0\n@\nそれは知恵の輪などの、\n同じく環状のもの\n\n# textflame 1 1\n# textboxarrow 0 2\n@カシウス\n……ドーナツ、\n食べたいな…\n\n# textflame 0 0\n@\nそんなことを考えながら、\n波に身を委ね、\nどんどん沖に流されていく\n\n# face 2303111 \"normal\"\n# textflame 1 1\n# textboxarrow 0 2\n@カシウス\n…！\n\n# voice 230311 \"cassius_ge_0022\"\n# textflame 1 1\n# textboxarrow 0 2\n@カシウス\n…え？\n……ドーナツ？\n\n# textflame 0 0\n@\n太陽の逆光で、\n黒い輪が目に飛び込んでくる\n\n# textflame 0 0\n@\nだが、\nそれはドーナツではなく、\nマスターが投げた…\n\n# voice 230311 \"cassius_ge_0009\"\n# textflame 1 1\n# textboxarrow 0 2\n@カシウス\nなんだ、浮き輪か\n\n# textflame 0 0\n@\n彼女が溺れたと思い、\n必死の思いで投げたのだ\n\n# textflame 1 1\n# textboxarrow 0 2\n@カシウス\n……\n\n# textflame 0 0\n@\nその浮き輪は、彼女を\n海という円環の世界から\n現実へと引き戻す\n\n# textflame 0 0\n@\n心配したよ！！\n焦るマスターの言葉を\n聞きながら\n\n# face 2303111 \"sad\"\n# voice 230311 \"cassius_ge_0028\"\n# textflame 1 1\n# textboxarrow 0 2\n@カシウス\nせっかく…\n心地よかったのに…\n\n# textflame 0 0\n@\nと、残念に思うカシウスだった"
	}
]