[
	{
		"ID": 230321212,
		"script": ";;-----------------------------------------\n;;■水着ガジャルグ【ＥＰ２前】\n;;-----------------------------------------\n# script \"lisp\"\n# background \"sea_beach_day\"\n# bgmfile \"bgm224\" \"BgmSeaEvent\" 0\n;;-----------------------------------------\n;;水着ガジャルグ\n# body 2303211\n# pos 2303211 3\n# scale 2303211 0.8 0\n# layer 2303211 2\n# mask 2303211 off\n# alpha 2303211 1 0\n;;-----------------------------------------\n# face 2303211 \"angry\"\n# voice 230321 \"gaedearg_ge_0002\"\n# textflame 1 1\n# textboxarrow 0 2\n@ガ・ジャルグ\nさあ！今よ！\n至極の波に乗るチャンスは！！\n\n# alpha 2303211 0 0.5\n# textflame 0 0\n@\nマスターに\nサーフィンの技術を\n教えるガ・ジャルグ\n\n# textflame 0 0\n@\nだが…\n\n# shake 0 1\n# textflame 0 0\n@\n『どぼ～～～ん！』\n\n# textflame 0 0\n@\n上手くボードに立てず、\n海に落ちるマスター\n\n# alpha 2303211 1 0.5\n# voice 230321 \"gaedearg_ge_0009\"\n# textflame 1 1\n# textboxarrow 0 2\n@ガ・ジャルグ\nもう！どうして出来ないの！？\n\n# voice 230321 \"gaedearg_ge_0013\"\n# textflame 1 1\n# textboxarrow 0 2\n@ガ・ジャルグ\nほら、もっと肩の力を抜いて！\n\n# textflame 0 0\n@\n体にガチガチに力が入り、\nまったく上達しないマスターに\nイライラするガ・ジャルグ\n\n# textflame 1 1\n# textboxarrow 0 2\n@ガ・ジャルグ\nちょっと、なに？\nその顔は\n\n# textflame 0 0\n@\n彼女は、失敗しても\n笑顔のマスターに尋ねる\n\n# textflame 1 1\n# textboxarrow 0 2\n@ガ・ジャルグ\nどうして、そんなに\nヘラヘラしていられるの？\n自分に負けて悔しくはないの？\n\n# textflame 0 0\n@\n…が、マスターは答える\n悔しい？僕はただただ\n楽しいけど…と\n\n# textflame 1 1\n# textboxarrow 0 2\n@ガ・ジャルグ\n………\n\n# textflame 0 0\n@\nマスターの\nその言葉を聞いた彼女は…\n\n# face 2303211 \"sad\"\n# voice 230321 \"gaedearg_ge_0027\"\n# textflame 1 1\n# textboxarrow 0 2\n@ガ・ジャルグ\n…残念ね\n\n# textflame 1 1\n# textboxarrow 0 2\n@ガ・ジャルグ\n上を目指そうとしない\n人間は弱者よ\n\n# face 2303211 \"angry\"\n# voice 230321 \"gaedearg_ge_0007\"\n# textflame 1 1\n# textboxarrow 0 2\n@ガ・ジャルグ\nわたしはイヤ\n\n# textflame 1 1\n# textboxarrow 0 2\n@ガ・ジャルグ\n勝利を重ねて、上に行くことが…\nつまり『至高』でいることが\n\n# textflame 1 1\n# textboxarrow 0 2\n@ガ・ジャルグ\n人生において、\n最も重要なことだと\n思ってるわ\n\n# textflame 0 0\n@\nそんな彼女に対し、\nマスターは尋ねる\nそれって…楽しいの？\n\n# face 2303211 \"sad\"\n# voice 230321 \"gaedearg_ge_0022\"\n# textflame 1 1\n# textboxarrow 0 2\n@ガ・ジャルグ\n………え？\n\n# textflame 0 0\n@\n上を目指すのは素晴らしいけど、\nそればかりだと\n息が詰まらないかなって…と\n\n# face 2303211 \"usual\"\n# textflame 1 1\n# textboxarrow 0 2\n@ガ・ジャルグ\n………\n\n# textflame 0 0\n@\n一瞬、考える彼女\n\n# voice 230321 \"gaedearg_ge_0028\"\n# textflame 1 1\n# textboxarrow 0 2\n@ガ・ジャルグ\nわたしは――\n\n# textflame 0 0\n@\n何かを言い掛けた時、\n\n# bgmfile \"bgm271\" \"BgmLostRagnarokEvent\" 0\n# face 2303211 \"angry\"\n# voice 230321 \"gaedearg_ge_0026\"\n# textflame 1 1\n# textboxarrow 0 2\n@ガ・ジャルグ\n…！\n\n# textflame 0 0\n@\nビーチに異族の大群が現れた\n\n# voice 230321 \"gaedearg_ge_0007\"\n# textflame 1 1\n# textboxarrow 0 2\n@ガ・ジャルグ\nふん…\n七色の輝き…\nとくと味わうがいいわ！\n\n# textflame 0 0\n@\n武器を構えるガ・ジャルグ\n\n# face 2303211 \"usual\"\n# textflame 1 1\n# textboxarrow 0 2\n@ガ・ジャルグ\nマスター、さっきの答えだけど\n\n# textflame 1 1\n# textboxarrow 0 2\n@ガ・ジャルグ\nわたしは、息は詰まらない\n\n# face 2303211 \"angry\"\n# textflame 1 1\n# textboxarrow 0 2\n@ガ・ジャルグ\n一番じゃなきゃ\n気が済まないの！\nサーフィンでも…戦闘でもね！\n\n# alpha 2303211 0 0.5\n# textflame 0 0\n@\nそう叫び、槍を片手に、\n敵陣に突っ込んで行くのだった"
	}
]