[
	{
		"ID": 231000031,
		"script": ";;-----------------------------------------\n;;リサナウト武具クエスト\n;;タイトル：アンノウン・イベント\n;;【EP3】暗闇の中の会話\n;;背景：ケイオスリオン\n;;-----------------------------------------\n# script \"lisp\"\n# background \"devil_world\"\n# bgmfile \"bgm271\" \"BgmLostRagnarokEvent\" 0\n;;-----------------------------------------\n# body 3203011\n# pos 3203011 3\n# scale 3203011 0.8 0\n# layer 3203011 3\n# alpha 3203011 0 0\n# mask 3203011 off\n# body 3401911\n# pos 3401911 3\n# scale 3401911 0.8 0\n# layer 3401911 3\n# alpha 3401911 0 0\n# mask 3401911 off\n# body 3200411\n# pos 3200411 3\n# scale 3200411 0.8 0\n# layer 3200411 3\n# alpha 3200411 0 0\n# mask 3200411 off\n;;-----------------------------------------\n# textflame 0 0\n@\nケイオスリオン―そこは\n悪魔人が支配する国\n\n# textflame 0 0\n@\nそれぞれの土地を、\n領主が支配する\n独自性の強い場所だ\n\n# alpha 3203011 1 0.5\n# textflame 1 1\n# textboxarrow 0 2\n# face 3203011 \"smile\"\n# voice 2030 \"risanautr_l_0003\"\n@リサナウト\nさてと、それじゃあ\n行きましょうか\n\n# textflame 1 1\n# textboxarrow 0 2\n@リサナウト\nあとはあの子にも\n会ってみようかしら\n\n# se \"SE_0719\"\n# textflame 0 0\n@\n気負った様子もないリサナウトは\nスタスタと通りを進んでいく\n\n# textflame 0 0\n@\nそんな彼女の横を歩きつつ、\nマスターは尋ねる\n\n# textflame 1 1\n# textboxarrow 0 2\n# face 3203011 \"surprise\"\n# voice 2030 \"risanautr_l_0022\"\n@リサナウト\nあの子って誰、\nですって？\n\n# textflame 1 1\n# textboxarrow 0 2\n# face 3203011 \"happy\"\n# voice 2030 \"risanautr_l_0004\"\n@リサナウト\nふふっ、会ってみてからの\nお楽しみよ\n\n# textflame 1 1\n# textboxarrow 0 2\n# face 3203011 \"smile\"\n@リサナウト\nでも安心しなさい、\n大事にはならないから\n\n# textflame 1 1\n# textboxarrow 0 2\n@リサナウト\nクロノスの力を持ってすれば、\n数多ある事象の中から\n一つを選ぶことなど造作もないわ\n\n# imageset 0 \"black\"\n# imagealpha 0 0 0\n# imagelayer 0 1\n# textflame 0 0\n@\n不敵な笑みを浮かべる彼女に\n促され、マスターは\nケイオスリオンの大通りを進んだ\n\n;;暗転挟む\n# imagealpha 0 1 0\n# imagepos 0 0 30\n# imageleftin 0 0.5\n# textwindow \"close\"\n# waitandnext 0.5\n\n;;背景：ケイオスリオン貴族領\n# background \"300_devil_daytime02\"\n# waitandnext 0.2\n\n# imagealpha 0 0 0.5\n# imagerightout 0 0.5\n# waitandnext 0.5\n\n# textwindow \"nomal\"\n# textflame 0 0\n@\nおかしい、マスターが\nそう思ったのは\n歩き出して少ししてからだった\n\n# textflame 1 1\n# textboxarrow 0 2\n# face 3203011 \"happy\"\n# voice 2030 \"risanautr_l_0039\"\n@リサナウト\nいいわね、\nその洞察力はすばらしいわ\nおまけして40ポイント\n\n# textflame 0 0\n@\nこうして2人で街中を\n歩いていても、\n人に一切出会わない\n\n# textflame 1 1\n# textboxarrow 0 2\n# face 3203011 \"smile\"\n@リサナウト\n因果、という言葉があるわ\n原因、そして結果ね\n\n# textflame 1 1\n# textboxarrow 0 2\n# face 3203011 \"usual\"\n@リサナウト\nたとえば、\n家に食料がなかったから\n買い物に出かけた\n\n# textflame 1 1\n# textboxarrow 0 2\n@リサナウト\nこの場合、家に食料があれば、\n買い物には出かけない\n\n# textflame 1 1\n# textboxarrow 0 2\n@リサナウト\nこの時間帯にここにいる\n可能性がある人物の原因を\n取り除く\n\n# textflame 1 1\n# textboxarrow 0 2\n@リサナウト\nそうすれば、\nここには誰もいない\nという結果が生まれる\n\n# textflame 1 1\n# textboxarrow 0 2\n# face 3203011 \"smile\"\n# voice 2030 \"risanautr_l_0004\"\n@リサナウト\nただ一人だけは\nそうしなかったけれど\n\n# bgm \"stop\"\n# alpha 3203011 0 0.5\n# textflame 1 1\n# textboxarrow 0 0\n@？？？\nふぅん、やはり目的は私？\nいい度胸ね\n\n;;ここから立ち絵あり\n# bgmfile \"bgm293\" \"BgmLostRagnarokSideStory\" 0\n# alpha 3401911 1 0.5\n# textflame 1 1\n# textboxarrow 0 2\n# face 3401911 \"normal\"\n# voice 4019 \"failnaught_a_0039\"\n@フェイルノート\nこの私を欺こうとする者を\n見てやろうと思ったけれど、\n興味が沸いたわ\n\n# textflame 1 1\n# textboxarrow 0 2\n# face 3401911 \"angry\"\n@フェイルノート\nあなた、一体何？\n\n# move 3401911 4 0.5\n# move 3203011 2 0\n# alpha 3203011 1 0.5\n# mask 3203011 on\n# textflame 1 1\n# textboxarrow 0 1\n# face 3203011 \"happy\"\n# voice 2030 \"risanautr_l_0005\"\n@リサナウト\nふふっ…何者か？\nそれはお互い様ということに\nしておきましょう？\n\n# textflame 1 1\n# textboxarrow 0 3\n# face 3401911 \"normal\"\n# voice 4019 \"failnaught_a_0007\"\n@フェイルノート\n……そう、なるほど\nそれならそうして\nおきましょう\n\n# textflame 1 1\n# textboxarrow 0 3\n@フェイルノート\nその方が、\nお互い利点がある\nそういうことね\n\n# textflame 1 1\n# textboxarrow 0 1\n# face 3203011 \"smile\"\n# voice 2030 \"risanautr_l_0003\"\n@リサナウト\nそうしてもらえると助かるわ\n私も今回の努力を\n無駄にしたくないもの\n\n# textflame 0 0\n@\n2人の会話はどこか抽象的で\nわかりにくい\n\n# textflame 0 0\n@\nただ、リサナウトにとっては\nこの会話こそが目的だと、\nマスターはふと納得した\n\n# textflame 1 1\n# textboxarrow 0 1\n@リサナウト\nああ、ただ、一つだけ\n\n# textflame 1 1\n# textboxarrow 0 3\n# voice 4019 \"failnaught_a_0032\"\n@フェイルノート\n…いいわ、\n今の私は気分がいいから\n\n# textflame 1 1\n# textboxarrow 0 1\n# voice 2030 \"risanautr_l_0007\"\n@リサナウト\n今はまだ雌伏の時間、\n時間の針が回りだすのは\nもう少し先よ\n\n# textflame 1 1\n# textboxarrow 0 1\n@リサナウト\n三国が地下に向かうタイミングを\n間違えないことね\n\n# textflame 1 1\n# textboxarrow 0 3\n# voice 4019 \"failnaught_a_0030\"\n@フェイルノート\n忠告、感謝するわ\n\n;;フェイルノート退場\n# se \"SE_0740\"\n# alpha 3401911 0 0.7\n# textboxarrow 0 0\n# waitandnext 1\n\n# move 3203011 3 0.5\n# mask 320301 off\n# waitandnext 0.8\n\n# textflame 1 1\n# textboxarrow 0 2\n# face 3203011 \"happy\"\n# voice 2030 \"risanautr_l_0002\"\n@リサナウト\nそれじゃあ、私達も\n移動しましょうか、当主様\n\n# textflame 0 0\n@\nあっさりと踵を返すリサナウトに\n武器は？　と尋ねるマスター\n\n# textflame 1 1\n# textboxarrow 0 2\n# face 3203011 \"smile\"\n# voice 2030 \"risanautr_l_0003\"\n@リサナウト\nここにはなかったみたい\n\n;;暗転挟む\n# imagealpha 0 1 0\n# imagepos 0 0 30\n# imageleftin 0 0.5\n# textwindow \"close\"\n# waitandnext 0.5\n\n;;背景：ケイオスリオン\n# bgmfile \"bgm295_296\" \"BgmLostRagnarokBattle003\" 0\n# background \"300_devil_daytime01\"\n# waitandnext 0.2\n\n# imagealpha 0 0 0.5\n# imagerightout 0 0.5\n# waitandnext 0.5\n\n# textwindow \"nomal\"\n# textflame 1 1\n# textboxarrow 0 2\n# face 3203011 \"angry\"\n# voice 2030 \"risanautr_l_0013\"\n@リサナウト\n見逃してくれると\n思っていたけれど、\nあなたはそうではないと？\n\n# textflame 0 0\n@\nケイオスリオンから脱出する\n寸前、2人を阻むように\n兵士達が集まっていた\n\n# alpha 3203011 0 0.5\n# alpha 3200411 1 0.5\n# textflame 1 1\n# textboxarrow 0 2\n# face 3200411 \"normal\"\n# voice 320041 \"parashu_a_0003\"\n@パラシュ\nあの方があなたに会う前に\nすでにここを封鎖するよう\n命を受けていてね\n\n# textflame 1 1\n# textboxarrow 0 2\n@パラシュ\n見逃すよう確かに言われたけど、\n明らかにキミは危険だ\n\n# textflame 1 1\n# textboxarrow 0 2\n# face 3200411 \"angry\"\n@パラシュ\nここで排除しておいた方がいい\n\n# se \"SE_5206\"\n# alpha 3203011 1 0.5\n# alpha 3200411 0 0.5\n# textflame 1 1\n# textboxarrow 0 2\n# face 3203011 \"usual\"\n# voice 2030 \"risanautr_l_0040\"\n@リサナウト\nなるほど\nただ命令に忠実という\nわけではなかったようね\n\n# textflame 1 1\n# textboxarrow 0 2\n@リサナウト\nあの頃と比べると成長を\n感じるわ\n\n# alpha 3203011 0 0.5\n# alpha 3200411 1 0.5\n# textflame 1 1\n# textboxarrow 0 2\n# face 3200411 \"angry\"\n@パラシュ\n……何を言っているんだい？\n\n# alpha 3203011 1 0.5\n# alpha 3200411 0 0.5\n# textflame 1 1\n# textboxarrow 0 2\n# face 3203011 \"happy\"\n# voice 2030 \"risanautr_l_0004\"\n@リサナウト\nふふっ…あなた達は数分後、\n大地に臥しているわ\n\n# alpha 3203011 0 0.5\n# alpha 3200411 1 0.5\n# textflame 1 1\n# textboxarrow 0 2\n# face 3200411 \"normal\"\n# voice 320041 \"parashu_a_0007\"\n@パラシュ\nふん、予言だなんてくだらない\n\n# se \"SE_5206\"\n# alpha 3203011 1 0.5\n# alpha 3200411 0 0.5\n# textflame 1 1\n# textboxarrow 0 2\n# face 3203011 \"uaual\"\n@リサナウト\nいいえ、これは予言ではないわ\n確定された事象の\n報告にすぎない"
	}
]