[
	{
		"ID": 240012203,
		"script": ";;-----------------------------------------\n;;水着　黒アルテミス・キャラクエ　シナリオ【ＥＰ２】後半\n;;スクリプト最後の背景：sea_resort_night\n;;スクリプトID:240012203\n;;-----------------------------------------\n# script \"lisp\"\n# background \"sea_resort_night\"\n# bgm \"bgm023\" 0\n;;■水着　黒アルテミス\n# body 2400121\n# pos 2400121 3\n# scale 2400121 0.8 0\n# layer 2400121 4\n# mask 2400121 off\n# alpha 2400121 1 0\n;;-----------------------------------------\n;;アルテミス一枚絵\n# imageset 0 \"c2400121\"\n# imagelayer 0 3\n# imagealpha 0 0 0\n;;◆背景：プール（夜）-------------------------------------\n;;【ＥＰ２】後半\n# textflame 1 1\n# textboxarrow 0 2\n# face 2400121 \"angry\"\n# voice 240012 \"arutemisu_k_0029\"\n@アルテミス\nはぁぁぁぁっ！！\n\n;;モノローグ\n# textflame 0 0\n@\nそれは、いつものクールな\n彼女らしからぬ戦い方だった\n\n;;モヤモヤ吹き出し\n# textflame 1 1\n# move 2400121 3 0\n# textwindow \"moya\"\n# textboxarrow 0 0\n@アルテミス\n“色欲”の業を背負った私が…\n欲に負け、想いを爆発させるなど、\nあってはならぬこと\n\n;;モヤモヤ吹き出し\n@アルテミス\n……でも…\nでも、私は……！\n\n;;モノローグ\n# textflame 0 0\n@\n弓を放つ彼女\n\n;;モノローグ\n@\nだが、いつもの冷静さがないため\n矢は敵を逸れていく\n\n# textflame 1 1\n# textwindow \"normal\"\n# textboxarrow 0 2\n# voice 240012 \"arutemisu_k_0037\"\n@アルテミス\n…くっ！\n\n@アルテミス\n私は…\n一体どうすれば……\n\n;;モノローグ\n# textflame 0 0\n@\nその時、\nマスターの叫び声が\nこだました\n\n;;モノローグ\n@\nきみの熱情を！\n想いを矢に乗せて放て！\n\n# textflame 1 1\n# face 2400121 \"sad\"\n@アルテミス\n…！\n\n@アルテミス\n想いを…矢に…\n\n# face 2400121 \"angry\"\n@アルテミス\n私の…心の内にある…\n熱い想い…\nそれは…！\n\n;;ギザギザ吹き出し大きく\n# textwindow \"toge\"\n# voice 240012 \"arutemisu_k_0029\"\n@アルテミス\nはぁぁぁぁっ！！\n\n# textwindow \"normal\"\n# se \"SE_0602\"\n@アルテミス\n行けっ！\n『黒式・紅月下ノ暴風』！！\n\n# fadeout \"white\" 0.5\n# waitandnext 0.5\n\n# fadein \"white\" 0.5\n# waitandnext 1\n\n;;モノローグ\n# textflame 0 0\n@\n光と共に放たれる矢\n\n;;モノローグ\n@\nそれはとてつもない速度で\nプールの水を切り裂き、\n敵に命中する！\n\n;;モノローグ\n@\n新たな力を手に入れた彼女は、\nそのまま敵を一掃するのだった\n\n# bgmfile \"bgm226\" \"BgmSeaEvent\" 0\n# textflame 1 1\n@アルテミス\nはぁ…はぁ…\n\n@アルテミス\n私の中にもありました…\n心に燃える…\n熱き想いが……\n\n@アルテミス\nそれは…あなたと同じ\n世界を光に導きたいという気持ち\n\n@アルテミス\nそれだったら私も…\n爆発させられるような気がします\n\n@アルテミス\n黒奏官時代は無理だったけど…\nあなたの元でなら、\n熱く燃やせそうな気がするのです\n\n;;モノローグ\n# textflame 0 0\n@\n興奮しているなんて、めずらしいね？\n笑って尋ねるマスター\n\n# textflame 1 1\n# face 2400121 \"sad\"\n# voice 240012 \"arutemisu_k_0022\"\n@アルテミス\n…！\n\n@アルテミス\n確かに…\n\n# face 2400121 \"smile\"\n# voice 240012 \"arutemisu_k_0005\"\n@アルテミス\nこんなことをペラペラ話すなんて…\n夏という季節が、\nそうさせているのでしょうか\n\n;;モノローグ\n# textflame 0 0\n@\n彼女が微笑む\n\n;;モノローグ\n@\n…と、\n\n# textflame 1 1\n# face 2400121 \"sad\"\n# voice 240012 \"arutemisu_k_0038\"\n@アルテミス\nひゃっ！\n\n;;モノローグ\n# textflame 0 0\n@\nマスターが彼女の頬に、\n冷えたドリンクを当てた\n\n# textflame 1 1\n# face 2400121 \"angry\"\n@アルテミス\nな、なにをするんです！？\n\n;;モノローグ\n# textflame 0 0\n@\nま、難しいことはいいから飲んだら？\nきみの言う通り…\n\n;;モノローグ\n@\n夏なんだし\n\n# textflame 1 1\n# face 2400121 \"sad\"\n@アルテミス\n…！\n\n;;モノローグ\n# textflame 0 0\n@\nアルコール入りのドリンクを見て、\n心が揺れる彼女\n\n# textflame 1 1\n# face 2400121 \"usual\"\n@アルテミス\nわ、私は……\n\n;;モノローグ\n# textflame 0 0\n@\nしばらく考え、\n彼女が出した答えは…\n\n# textflame 1 1\n# face 2400121 \"angry\"\n# voice 240012 \"arutemisu_k_0011\"\n@アルテミス\n…い、いけません！\n\n@アルテミス\nそのような優しさは…\n私には不要です！\n\n;;モヤモヤ吹き出し\n# move 2400121 3 0\n# textwindow \"moya\"\n# textboxarrow 0 0\n# face 2400121 \"usual\"\n@アルテミス\nだって、一度受け入れてしまうと…\n自分がどうなってしまうのか怖くて…\n\n;;モノローグ\n# textflame 0 0\n@\nまるで煩悩を振り払うかのように、\nバッと黒い髪をなびかせ、\n彼女が空を見上げる\n\n# textflame 1 1\n# textwindow \"normal\"\n# textboxarrow 0 2\n# face 2400121 \"sad\"\n@アルテミス\n…！…あ\n\n;;モノローグ\n# textflame 0 0\n@\nさっきまでの曇天からは一変\nそこには…\n\n# textflame 1 1\n# face 2400121 \"normal\"\n@アルテミス\n満月……\n\n;;モノローグ\n# textflame 0 0\n@\n夜空を見つめる彼女の瞳は、\n満月のようにキラキラと輝き…\n\n;;モノローグ\n@\nまた、その奥には\n\n;;モノローグ\n@\n夏の夜のような熱情が\n潜んでいるようで、\nとても艶めかしく見えた\n\n# textflame 0 0\n# imagealpha 0 1 0\n# imagepos 0 0 0\n# fadein \"white\" 3\n# buttonsout 0 0\n# textwindow \"close\"\n# voice 240012 \"arutemisu_k_kyara_0025\"\n;;■一枚絵指定\n;;★５\n;;背景：夜のプール。水の中ではなくプールサイドのテーブル席に座っているイメージ。\n;;表情：冷たさにビックリしつつ、ちょっと恥ずかしそうな表情\n;;構図：テーブルに座ったアルテミスの頬に横からマスターがドリンクを当てて、アルテミスを驚かせています。\n;;　　　構図としては驚いて振り返った後のイメージで、マスターの手とドリンクは一枚絵の中には入れない形で\nお願いいたします。\n;;一枚絵ボイス：黒アルテミス　「…!!　いけません。そのような優しさなど私には不要です！」\n;;：arutemisu_k_kyara_0025\n\n# frameout 0 1\n# waitandnext 0.8\n\n# fadeout \"black\" 1.5\n# waitandnext 1.5\n"
	}
]