[
	{
		"ID": 240061103,
		"script": ";;■EP3\n# script \"lisp\"\n# background \"sea_beach_day\"\n# bgmfile \"bgm234\" \"BgmSeaEventBattle\" 0\n# body 2400611\n# pos 2400611 3\n# mask 2400611 off\n# face 2400611 \"sad\"\n# textflame 0 0\n@\n梓弓の目に映るのは\n緩い砂地を掴み\n必死に抵抗するマスター\n\n# textflame 1 1\n# textboxarrow 0 2\n# chara 2400611\n@梓弓\nマスター！\n今、アズサが…\nアズサがお救いします！\n\n# face 2400611 \"angry\"\n@梓弓\nマスターをそこからお助けします！\n\n# textflame 0 0\n@\nその瞬間\nマスターを強く想う梓弓の想いが\n新たな力を生み出した\n\n# se \"SE_0602\"\n# textflame 1 1\n# textboxarrow 0 2\n# chara 2400611\n# voice 4006 \"azusa_0029\"\n@梓弓\nはぁぁ…行きます！\n『吹き抜ける波風の弓』！\n\n;;背景：暗転\n;;背景：砂浜（夕）\n# fadeout \"black\" 2\n# waitandnext 2.5\n\n# fadein \"black\" 1\n# bgmfile \"bgm229\" \"BgmSeaEvent\" 0\n# background \"sea_beach_evening\"\n# textflame 1 1\n# textboxarrow 0 2\n# chara 2400611\n# face 2400611 \"sad\"\n@梓弓\nマスター！\nご無事ですか、マスター！\n\n# textflame 0 0\n@\nマスターがふと目を開けると\n上から梓弓が心配そうに\nのぞき込んでいた\n\n# textflame 1 1\n# textboxarrow 0 2\n# chara 2400611\n# face 2400611 \"normal\"\n# voice 4006 \"azusa_0039\"\n@梓弓\nマスター！\n気がつかれたんですね！\nよかったです…\n\n# textflame 0 0\n@\nマスターは、気を失う直前に\n一本の弓が異族を射たことを\n思い出す\n\n# textflame 0 0\n@\nそして、あれは梓弓が？\nと尋ねる\n\n# textflame 1 1\n# textboxarrow 0 2\n# chara 2400611\n# face 2400611 \"sad\"\n@梓弓\nはい…マスターを\nどうにかお救いしなくては…\nという一心で…\n\n# textflame 0 0\n@\nマスターはやっぱり、とうなずき\n梓弓にお礼を言う\n\n# textflame 1 1\n# textboxarrow 0 2\n# chara 2400611\n@梓弓\nいえ…\n\n# textflame 0 0\n@\nなぜか、浮かない顔の梓弓に\n理由を尋ねるマスター\n\n# textflame 1 1\n# textboxarrow 0 2\n# chara 2400611\n# voice 4006 \"azusa_0031\"\n@梓弓\nわたくしの運が悪いばかりに\nマスターを危険な目に…\n\n# textflame 0 0\n@\nマスターは、梓弓の運が悪いなんて\nそんなことはない、と首を振る\n\n# textflame 1 1\n# textboxarrow 0 2\n# chara 2400611\n@梓弓\nマスター、でも\n\n# textflame 0 0\n@\n納得していない様子の梓弓に\nマスターはビーチを見てと促す\nするとそこは…\n\n# textflame 1 1\n# textboxarrow 0 2\n# chara 2400611\n@梓弓\nさっきの異族騒ぎで\n誰もいなくなってしまいましたね…\n\n# textflame 0 0\n@\nこれはもうプライベートビーチだね\nとマスター\n\n# textflame 0 0\n@\n存分に二人きりの時間を楽しめる\nむしろ運がよかったんじゃないかな\nと笑ってみせる\n\n# textflame 1 1\n# textboxarrow 0 2\n# chara 2400611\n# face 2400611 \"normal\"\n# voice 4006 \"azusa_0001\"\n@梓弓\nマスター…\n\n# textflame 0 0\n@\nさ、遊びの続きをしようと\nマスターが弓の手を取る\n\n# textflame 1 1\n# textboxarrow 0 2\n# chara 2400611\n# face 2400611 \"smile\"\n# voice 4006 \"azusa_0032\"\n@梓弓\nは、はいっ！\n\n# imageset 0 \"c2400611\"\n# imagealpha 0 0 0\n# textflame 0 0\n@\n二人だけのビーチは\n笑い声に包まれるのだった\n\n;;【ボイス】\n;;「わたくしなどにもマスターは優しいので…\n;;時々勘違いしてしまいそうになります…」\n# frameout 0 0.5\n# buttonsout 0 0.5\n# voice 4006 \"azusa_kyara_0018\"\n# imagealpha 0 1 0\n# imagepos 0 0 0\n# fadein \"white\" 3\n# textwindow \"close\"\n"
	}
]