[
	{
		"ID": 240101103,
		"script": ";;【EP3】/背景：プールサイド\n# script \"lisp\"\n# background \"sea_resort_day\"\n# bgmfile \"bgm234\" \"BgmSeaEventBattle\" 0\n# body 2401011\n# pos 2401011 3\n# mask 2401011 off\n# textflame 0 0\n# alpha 2401011 0 0\n@\nプールの監視中に溺れている\n子どもを見つけたアバリス\n\n# alpha 2401011 1 0.5\n# voice 4010 \"Abaris_0024\"\n# textflame 1 1\n# textboxarrow 0 2\n# chara 2401011\n# face 2401011 \"angry\"\n@アバリス\n子どもが溺れていますっ！\n誰か助けてあげてください！！\n\n# textflame 0 0\n@\nアバリスは必死に叫ぶが、\nその声は誰にも届かなかった\n\n# textflame 1 1\n# textboxarrow 0 2\n# chara 2401011\n# voice 4010 \"Abaris_0028\"\n# face 2401011 \"sad\"\n@アバリス\n嘘…\nこれでも気付いてもらえないの…？\n\n# face 2401011 \"angry\"\n@アバリス\n…ううん、諦めちゃだめ！\nやればできるって\nマスターは言ってくれたもの…！\n\n# textflame 0 0\n@\nアバリスは大きく息を吸い\nグッと下腹部に力を入れた\n\n;;演出：大文字\n# textflame 1 1\n# textboxarrow 0 2\n# chara 2401011\n# textsize 28\n@アバリス\n誰かっ、あの子を！\nあの子を助けてあげてくださーい！\n\n# textsize 24\n# textflame 0 0\n@\nそれはプール中に響き渡るような\nとても大きなアバリスの叫びだった\n\n@\nアバリスの声が輝く光の矢となって\n四方に広がるように飛んでいく\n\n# se \"SE_0602\"\n@\nそれこそはアバリスの新しいスキル\n『ハートトゥアクア』だった\n\n@\n皆が声に振り向くなか\n彼女の声に、誰よりも早く\n気付いたのはマスターだった\n\n@\nマスターは子どもへ駆け出し、\n腕を掴んで\nプールサイドに引き上げる\n\n@\n子どもはケホケホとむせていたが、\nやがては落ち着き、\n元気な姿を取り戻した\n\n@\nそんなマスターの元ヘ\nアバリスが駆け寄っていく\n\n# textflame 1 1\n# textboxarrow 0 2\n# chara 2401011\n# voice 4010 \"Abaris_0001\"\n# face 2401011 \"normal\"\n@アバリス\nマスター、ありがとうございます！\n私の声に気付いてくれるなんて…\n\n@アバリス\n私、新しい技を覚えたんです\nこれで私の声も\nみんなに届けられます\n\n# textflame 0 0\n@\nちゃんと届いたよ、と\nマスターはアバリスを褒める\n\n# textflame 1 1\n# textboxarrow 0 2\n# chara 2401011\n# face 2401011 \"smile\"\n@アバリス\n全部マスターのおかげです！\n\n# eye 2401011 \"close\"\n# voice 4010 \"Abaris_0030\"\n@アバリス\nやればできるかもって\nマスターが言ってくれたおかげで\n自信が持てたんですよ！\n\n# textflame 0 0\n@\nアバリスは、\nありがとうございますと\n照れたように頬を赤らめて微笑んだ\n\n# eye 2401011 \"normal\"\n# face 2401011 \"smile\"\n# textflame 1 1\n# textboxarrow 0 2\n# chara 2401011\n# voice 4010 \"Abaris_0033\"\n@アバリス\n私、監視員の仕事、\nもっともっと続けてみます！\n\n@アバリス\n存在感のある\n監視員さんになれるよう\n精一杯、がんばりますね！\n\n# imageset 0 \"c2401011\"\n# imagealpha 0 0 0\n# textflame 0 0\n@\nそう言い放つアバリスの笑顔は\nとても輝いて眩しいものだった\n\n# voice 4010 \"Abaris_kyara_0011\"\n# frameout 0 0.5\n# buttonsout 0 0.5\n# imagealpha 0 1 0\n# imagepos 0 0 0\n# fadein \"white\" 3\n# textwindow \"close\"\n;;「いかがなさいましたか？　調子が悪かったら言ってくださいね」"
	}
]