[
	{
		"ID": 240171201,
		"script": ";;-----------------------------------------\n;;●スイハ　水着シナリオ\n;;・キャラクエ\n;;【EP1】\n;;スクリプト最後の背景：sea_beach_day\n;;背景：ビーチ\n;;-----------------------------------------\n# script \"lisp\"\n# background \"sea_beach_day\"\n# bgmfile \"bgm227\" \"BgmSeaEvent\" 0\n;;水着スイハ\n# body 2401711\n# pos 2401711 3\n# scale 2401711 0.8 0\n# layer 2401711 4\n# mask 2401711 off\n# alpha 2401711 0 0\n;;【EP1】\n;;背景：ビーチ\n# textflame 0 0\n;;モノローグ\n@\n心地よい波の音をバックに\n華やかな笑い声が響く\n\n;;モノローグ\n@\nキル姫達は仲良し同士で輪を作り、\nビーチでのバカンスを\n思い思いに楽しんでいた\n\n;;モノローグ\n@\nそんな賑やかな光景の中\n凛と立つ一人のキル姫の姿があった\n\n# textflame 1 1\n# textboxarrow 0 2\n# face 2401711 \"usual\"\n# alpha 2401711 1 0.5\n# voice 4017 \"suiha_0021\"\n@スイハ\n…なんと美しい海でしょう\n己と向き合うには\nうってつけの場所ですね\n\n;;モノローグ\n# textflame 0 0\n@\n重々しく、思慮深げなつぶやきだが\nそれを口にした本人の目は…\n落ち着きなく周囲をうかがっていた\n\n;;モヤモヤ\n# textflame 1 1\n# move 2401711 3 0\n# textwindow \"moya\"\n# textboxarrow 0 0\n# face 2401711 \"sad\"\n@スイハ\n…皆は楽しそうなのに\n私だけ輪に加われない…\nいいなあ、いいなあ…\n\n;;モヤモヤ\n# face 2401711 \"usual\"\n# voice 4017 \"suiha_0006\"\n@スイハ\nと、とにかく\n皆に声をかけてみよう…\n自然に…自然に\n\n# textwindow \"normal\"\n# textboxarrow 0 2\n# face 2401711 \"angry\"\n@スイハ\nコホン…皆、楽しそうだけど\n羽目は外しすぎないようにね\nキル姫として節度を保つこと\n\n;;モノローグ\n# textflame 0 0\n@\nそう語りかけられた姫達は\nなるほど、と姿勢を正し\nありがとうございますと頭を下げる\n\n;;モヤモヤ\n# textflame 1 1\n# move 2401711 3 0\n# textwindow \"moya\"\n# textboxarrow 0 0\n# face 2401711 \"sad\"\n@スイハ\n…ち、ちがうの\n注意したかったわけじゃなくて\nただ…他に話題がなかっただけ\n\n;;モヤモヤ\n@スイハ\n皆と仲良くしたいだけなのに\nなんで、こうなっちゃうの…？\n\n;;モノローグ\n# textflame 0 0\n@\n思ったことを言えないもどかしさに\n視線をそらすと、そこには\n楽しげなマスターの姿があった\n\n;;モヤモヤ\n# textflame 1 1\n# face 2401711 \"normal\"\n@スイハ\n…あ、むこうでマスターが\n皆に囲まれている…楽しそう\n\n;;モノローグ\n# textflame 0 0\n@\nそうやって一人でいたからこそ\n彼女は真っ先に異変に気づいた\n\n;;モヤモヤ\n# textflame 1 1\n# face 2401711 \"sad\"\n# voice 4017 \"suiha_0022\"\n@スイハ\nあれは…異族！？\n\n;;モヤモヤ\n# face 2401711 \"angry\"\n@スイハ\n皆を守らなきゃっ！！\nこれが私の役目だものっ！\n\n# voice 4017 \"suiha_0029\"\n# waitandnext 0.2\n\n;;モノローグ\n# textflame 0 0\n# leftout 2401711 0.5\n@\n楽しそうにしている皆を守るため、\nスイハは異族に向かって\n走り出した"
	}
]