[
	{
		"ID": 241017211,
		"script": ";;-----------------------------------------\n;;punkこのすばコラボイベント2018後編\n;;タイトル：『この常夏の島で冒険を！』\n;;EP6戦闘前\n;;背景：森林（昼）\n;;※直前のスクリプトにあわせてジャングルに変更\n;;スクリプト最後の背景:sea_jungle_day\n;;スクリプトID:\n;;-----------------------------------------\n# script \"lisp\"\n# background \"sea_jungle_day\"\n# bgmfile \"bgm208\" \"BgmKScollabo001\" 0\n;;海上編ティルフィング\n# body 2101411\n# pos 2101411 3\n# scale 2101411 0.8 0\n# alpha 2101411 0 0\n# mask 2101411 off\n;;デュリン\n# body 0\n# pos 0 2\n# scale 0 0.8 0\n# alpha 0 0 0\n# layer 0 3\n# mask 0 off\n# face 0 \"angry\"\n;;水着アスクレピオス\n# body 2600111\n# pos 2600111 3\n# scale 2600111 0.8 0\n# alpha 2600111 0 0\n# mask 2600111 off\n# face 2600111 \"sad\"\n;;水着シタ\n# body 2201611\n# pos 2201611 3\n# scale 2201611 0.8 0\n# alpha 2201611 1 0\n# mask 2201611 off\n# face 2201611 \"angry\"\n;;水着めぐみん\n# body 2502511\n# pos 2502511 2\n# scale 2502511 0.8 0\n# alpha 2502511 0 0\n# face 2502511 \"angry\"\n;;水着ダクネス\n# body 2103411\n# pos 2103411 4\n# scale 2103411 0.8 0\n# alpha 2103411 0 0\n# face 2103411 \"sad\"\n;;アクア（通常）\n# body 601711\n# mask 601711 off\n# pos 601711 3\n# scale 601711 0.8 0\n# alpha 601711 0 0\n# face 601711 \"sad\"\n;;異族\n# body 810004\n# pos 810004 3\n# scale 810004 0.8 0\n# alpha 810004 0 0\n# mask 810004 off\n;;◆背景：密林（昼）-----------------------\n# textflame 1 1\n# textboxarrow 0 2\n# voice 2016 \"shita_battle_0003\"\n@シタ\nてやっ！ \n\n# se \"SE_0706\"\n# se \"SE_4732\"\n# shake 0 0.5\n# textflame 0 0\n@\nシタが一撃を浴びせると\nぐえっ！という声とともに大ガエルは\n口から謎の人物を吐き出した\n\n# alpha 2201611 0 0.5\n# alpha 601711 1 0.5\n# textflame 1 1\n# voice 260171 \"akua_0057\"\n;;通常アクア\n@謎の人物\nぐすっ、うええええ…\n気持ち悪いよぅ、生臭いよぅ…\n\n# alpha 601711 0 0.5\n# alpha 2502511 1 0.5\n# alpha 2103411 1 0.5\n# voice 250251 \"megumin_0001\"\n# emotionbody 1006 1 2502511 0 270\n# effectpattern 1006 1 0\n# effectstart 1006\n# textboxarrow 0 1\n@めぐみん\nアクア！\nアクアじゃないですか！\n\n# voice 210341 \"dakunesu_0009\"\n# textboxarrow 0 3\n@ダクネス\nアクア！\nお前、なぜこんなところに…\nともかく無事か？\n\n# alpha 2502511 0 0.5\n# alpha 2103411 0 0.5\n# alpha 601711 1 0.5\n# face 601711\"angry\"\n# textboxarrow 0 2\n@アクア\n無事じゃないわ！\n大変だったのよ、カエルが\nちっとも言うこと聞かなくて…\n\n# alpha 601711 0 0.5\n# alpha 2600111 1 0.5\n# voice 6001 \"asukurepiosu_0028\"\n@アスクレピオス\nその大ガエルなら昏倒して\nしばらく起き上がらないと思うけど\n…ところであなた達、知り合い？\n\n# alpha 2600111 0 0.5\n# move 2502511 1 0\n# alpha 2502511 1 0.5\n# move 2103411 5 0\n# alpha 2103411 1 0.5\n# alpha 601711 1 0.5\n# mask 601711 on\n# face 2502511 \"normal\"\n# face 2103411 \"usual\"\n# face 601711 \"normal\"\n# textboxarrow 0 3\n@ダクネス\n私達のパーティーメンバーだ\n\n# emotionbody 1004 3 601711 0 230\n# effectpattern 1004 1 0\n# effectstart 1004 1 0\n# voice 260171 \"akua_0046\"\n# textboxarrow 0 2\n@アクア\nはじめまして！\n私はアークプリーストのアクア\nそして水の女神でもあります！\n\n# face 2502511 \"irregular\"\n# textboxarrow 0 1\n@めぐみん\nと、自称している\nそういう設定の人です\n\n# face 601711 \"surprise\"\n# textboxarrow 0 2\n@アクア\nちょっ！？\n私はアクシズ教の御神体にして、\n水を司る女神！ほんとなんだから！！\n\n# textflame 0 0\n@\n「とりあえず\n元気そうで良かった」\nと、マスター\n\n# alpha 2502511 0 0.5\n# alpha 2103411 0 0.5\n# alpha 601711 0 0.5\n# alpha 2101411 1 0.5\n# textflame 1 1\n# voice 1014 \"tyrufing_0002\"\n@ティルフィング\nアクアさん、本当におけがなど\nありませんか？カエル軍団に\n囚われていたそうですが…\n\n# alpha 2101411 0 0.5\n# move 601711 2 0\n# alpha 601711 1 0.5\n# alpha 2103411 1 0.5\n# face 2103411 \"sad\"\n# textboxarrow 0 1\n@アクア\nへ？\nカエルに囚われ…？\nなにそれ？\n\n# textboxarrow 0 3\n@ダクネス\n私達はカエルに\n囚われた女性がいると聞いて\n助けに来たのだが…違うのか？\n\n# voice 260171 \"akua_0050\"\n# textboxarrow 0 1\n@アクア\nんー、口の中に囚われてたって\n言えなくもないかしら…\n\n@アクア\nそもそもジャイアントトードを\nこっちの世界に呼び出してみたは\nいいけど全然言うこときかな…はっ！\n\n# face 601711 \"angry\"\n@アクア\nななな、なんでもないわ！\n\n# alpha 2103411 0 0.5\n# alpha 601711 0 0.5\n# move 2101411 4 0\n# alpha 2101411 1 0.5\n# alpha 0 1 0.5\n# face 2101411 \"angry\"\n# voice 9999 \"durin_0010\"\n# textboxarrow 0 1\n@デュリン\nはあ？\n今、アンタ…\n\n# bgm \"stop\" \n# textboxarrow 0 3\n@ティルフィング\nみんな、危ない！\n\n# alpha 2101411 0 0.5\n# alpha 0 0 0.5\n# alpha 810004 1 0.5\n# textboxarrow 0 2\n# bgm \"bgm029_030\" 0\n# se \"SE_0618\"\n;;異族いきなり出てきて\n@異族\nグギャーッ！！\n\n# alpha 810004 0 0.5\n# alpha 2103411 1 0.5\n# alpha 601711 1 0.5\n# face 601711 \"sad\"\n# face 2103411 \"angry\"\n# voice 260171 \"akua_0056\"\n# emotionbody 1007 1 601711 0 270\n# effectpattern 1007 1 0\n# effectstart 1007 1 0\n# textboxarrow 0 1\n@アクア\nえ？ちょっ！？\nねえ！あの異族とかいうの\n私に向かってくるんですけど！！\n\n@アクア\nわあああ！たすけてええええ！\n\n# se \"SE_5205\"\n# voice 210341 \"dakunesu_0021\"\n# textboxarrow 0 3\n@ダクネス\n私に任せておけ！\n異族ども！こっちだ！\n"
	}
]