[
	{
		"ID": 241402653,
		"script": ";;-----------------------------------------\n;;モラベガサイド『オーディトリアを抜け』 \n;;【EP2『嘘偽りのない演技』】\n;;背景：深奥\n;;-----------------------------------------\n# script \"lisp\"\n# background \"profound_nolight\"\n# bgmfile \"bgm266\" \"BgmLostRagnarokBattle001\" 0\n;;-----------------------------------------\n;;シストルム\n# body 3601311\n# pos 3601311 4\n# scale 3601311 0.8 0\n# layer 3601311 3\n# alpha 3601311 1 0\n;;アイムール\n# body 3200211\n# pos 3200211 3\n# scale 3200211 0.8 0\n# layer 3200211 3\n# mask 3200211 off\n# alpha 3200211 0 0\n;;リサナウト\n# body 3203011\n# pos 3203011 3\n# scale 3203011 0.8 0\n# layer 3203011 3\n# mask 3203011 off\n# alpha 3203011 0 0\n;;モラベガ\n# body 3104211\n# pos 3104211 2\n# scale 3104211 0.8 0\n# layer 3104211 3\n# alpha 3104211 1 0\n;;-----------------------------------------\n# face 3104211 \"angry\"\n# face 3601311 \"angry\"\n# voice 310421 \"morabeaga_l_0013\"\n# textflame 1 1\n# textboxarrow 0 1\n@モラベガ\n子供達のところに\n帰ってあげて\n\n# voice 360131 \"sistrum_ge_0010\"\n# textboxarrow 0 3\n@シストルム\nお仕事は終わってないにゃ…！！\n\n;;モノローグ\n# textflame 0 0\n@\n大穴深奥周辺\n\n;;モノローグ\n# textflame 0 0\n@\n素早く逃げ回るシストルムを追いかけ\n戦闘を続けたモラベガ達は\n大穴の奥底まで辿り着いていた\n\n# face 3104211 \"sad\"\n# textflame 1 1\n# textboxarrow 0 1\n@モラベガ\nきっと寂しがってる\n親がいないと…\nとっても辛いよ\n\n# face 3601311 \"sad\"\n# voice 360131 \"sistrum_ge_0014\"\n# textboxarrow 0 3\n@シストルム\n報酬がないと\n食べさせてあげられないにゃ\n\n# textboxarrow 0 1\n@モラベガ\n神令は\n子供達を笑顔にはしてくれない\n\n# textboxarrow 0 3\n@シストルム\n…\n\n# textboxarrow 0 1\n@モラベガ\n私達は\nアルマス達に笑顔をもらったから\n\n# face 3104211 \"angry\"\n# textboxarrow 0 1\n@モラベガ\nお願い\n進ませて\n\n# textboxarrow 0 3\n@シストルム\n…\n\n# alpha 3601311 0 0.5\n# alpha 3104211 0 0.5\n# alpha 3203011 1 0.5\n# face 3203011 \"normal\"\n# voice 2030 \"risanautr_l_0039\"\n# textboxarrow 0 2\n@リサナウト\n武器が力を発揮したわね\nまだ少しだけだけど\n\n# alpha 3104211 1 0.5\n# move 3203011 4 0.5\n# mask 3203011 on\n# face 3104211 \"sad\"\n# voice 310421 \"morabeaga_l_0028\"\n# textboxarrow 0 1\n@モラベガ\nちょっと、力が繋がった感じがする…\nどうして…\n\n# voice 2030 \"risanautr_l_0003\"\n# textboxarrow 0 3\n@リサナウト\n私のおかげね\n\n# face 3104211 \"surprise\"\n# voice 310421 \"morabeaga_l_0022\"\n# textboxarrow 0 1\n@モラベガ\nお姉さんは全然戦ってなかったよ\n\n# face 3203011 \"happy\"\n# voice 2030 \"risanautr_l_0004\"\n# textboxarrow 0 3\n@リサナウト\nよく見てたわね\n5ポイントあげるわ\n\n# textboxarrow 0 1\n@モラベガ\nなんのポイント？\n\n# textboxarrow 0 3\n@リサナウト\n10ポイント貯まると\n特典と交換できます\n\n# textboxarrow 0 1\n@モラベガ\nなんの特典？\n\n# face 3203011 \"shy\"\n# voice 2030 \"risanautr_l_0042\"\n# textboxarrow 0 3\n@リサナウト\nそれは、ホラ、アレよ\nなんていうか、そうそう\n自分で考えなさい\n\n# face 3104211 \"angry\"\n# voice 310421 \"morabeaga_l_0013\"\n# textboxarrow 0 1\n@モラベガ\nええ～\n\n# alpha 3203011 0 0.5\n# alpha 3104211 0 0.5\n# move 3601311 3 0\n# mask 3601311 off\n# alpha 3601311 1 0.5\n# textboxarrow 0 2\n@シストルム\n………すすむがいいにゃ\n\n# alpha 3601311 0 0.5\n# alpha 3203011 1 0.5\n# alpha 3104211 1 0.5\n# face 3104211 \"sad\"\n# textboxarrow 0 1\n@モラベガ\nシストルム…\n\n# alpha 3203011 0 0.5\n# alpha 3104211 0 0.5\n# alpha 3601311 1 0.5\n# voice 360131 \"sistrum_ge_0032\"\n# textboxarrow 0 2\n@シストルム\nボクは門番だからね\n\n# alpha 3601311 0 0.5\n# alpha 3203011 1 0.5\n# alpha 3104211 1 0.5\n# face 3104211 \"normal\"\n# textboxarrow 0 1\n@モラベガ\n…\nありがとう\n\n# face 3203011 \"normal\"\n# textboxarrow 0 3\n@リサナウト\nさ、行きましょう\n\n# se \"SE_0719\"\n# alpha 3203011 0 0.5\n# alpha 3104211 0 0.5\n# textwindow \"close\"\n;;シストルムの前をモラベガとリサナウトが通過する\n# waitandnext 0.7\n\n# alpha 3203011 0 0.5\n# alpha 3104211 0 0.5\n# alpha 3601311 1 0.5\n# textwindow \"nomal\"\n# textboxarrow 0 2\n@シストルム\n…\n\n# voice 360131 \"sistrum_ge_0002\"\n@シストルム\nどうして諜報部員のボクが\nキミ達の前に現れたと思う？\n\n# alpha 3601311 0 0.5\n# alpha 3203011 1 0.5\n# alpha 3104211 1 0.5\n# face 3104211 \"surprise\"\n# voice 310421 \"morabeaga_l_0022\"\n# textboxarrow 0 1\n@モラベガ\n…え？\n\n# face 3203011 \"usual\"\n# textboxarrow 0 3\n@リサナウト\n人手不足なんでしょ？\n\n# alpha 3203011 0 0.5\n# alpha 3104211 0 0.5\n# alpha 3601311 1 0.5\n# face 3601311 \"normal\"\n# textboxarrow 0 2\n@シストルム\n言ったよね？\n\n# face 3601311 \"angry\"\n# textboxarrow 0 2\n@シストルム\n子供達を守る為なら\nボクはなんだってやる\nって\n\n# alpha 3601311 0 0.5\n# alpha 3203011 1 0.5\n# alpha 3104211 1 0.5\n# textboxarrow 0 1\n@モラベガ\nと、通してくれるんじゃ…\n\n# alpha 3203011 0 0.5\n# alpha 3104211 0 0.5\n# alpha 3601311 1 0.5\n# voice 360131 \"sistrum_ge_0032\"\n# textboxarrow 0 2\n@シストルム\nうん\n\n# alpha 3601311 0 0.5\n# alpha 3203011 1 0.5\n# alpha 3104211 1 0.5\n# textboxarrow 0 3\n@リサナウト\n…？\n\n# alpha 3203011 0 0.5\n# alpha 3104211 0 0.5\n# alpha 3601311 1 0.5\n# textboxarrow 0 2\n@シストルム\n門に通したよ\n\n# bgm \"stop\"\n# alpha 3601311 0 0.5\n;;※アイムール、立ち絵なし\n# textboxarrow 0 0\n# voice 320021 \"aimuru_a_unit_0010\"\n@？？？\n捕食対象を確認\nこれより戦闘を開始します\n\n;;グワッとモラベガ・リサナウトの周囲に闇炎の門が広がる（※イメージ）\n# se \"SE_4820\"\n# fadeout \"red\" 0.5\n# waitandnext 0.7\n\n# bgmfile \"bgm276\" \"BgmLostRagnarokEvent\" 0\n# se \"SE_0753\"\n# fadein \"red\" 0.5\n# waitandnext 0.5\n\n;;モノローグ\n# textflame 0 0\n@\n瞬間、モラベガとリサナウトの周りに\n闇炎が立ち昇り、門を形作る\n\n# alpha 3203011 1 0.5\n# alpha 3104211 1 0.5\n# face 3104211 \"angry\"\n# voice 310421 \"morabeaga_l_battle_0006\"\n# textflame 1 1\n# textboxarrow 0 1\n@モラベガ\nなに、これ…！？\n\n# se \"SE_0754\"\n# textboxarrow 0 0\n@？？？\nこの身は死へ繋がる冥府の門\n行き着く先には癒えぬ渇き\n\n# face 3203011 \"angry\"\n# voice 2030 \"risanautr_l_battle_0006\"\n# textboxarrow 0 3\n@リサナウト\nモラベガ！！！\n\n;;リサナウト、モラベガを突き飛ばす\n# se \"SE_0648\"\n# textwindow \"close\"\n# move 3203011 3 0.3\n# waitandnext 0.2\n\n# leftout 3104211 0.3\n# waitandnext 0.3\n\n# alpha 3104211 0 0\n# waitandnext 0.2\n\n# alpha 3203011 0 0.5\n# move 3104211 3 0\n# mask 3104211 off\n# alpha 3104211 1 0.5\n# face 3104211 \"surprise\"\n# textwindow \"nomal\"\n# textboxarrow 0 2\n@モラベガ\nえ…！？\n\n# alpha 3104211 0 0.5\n# alpha 3203011 1 0.5\n# voice 320021 \"aimuru_a_0007\"\n# textboxarrow 0 0\n@？？？\n巻き込まれないよう\nご注意を\n\n;;リサナウト、轟音とともに炎に飲まれ、消える\n# se \"SE_5596\"\n# mask 3203011 off\n# fadeout \"red\" 0.5\n# waitandnext 0.5\n\n# alpha 3203011 0 0\n# textwindow \"close\"\n# waitandnext 0.2\n\n# fadein \"red\" 0.5\n# waitandnext 0.5\n\n;;炎が燃え続ける周囲\n;;モノローグ\n# textwindow \"nomal\"\n# textflame 0 0\n@\n業炎の門はリサナウトを呑み込み\nその姿を消し去る\n\n# move 3104211 3 0\n# mask 3104211 off\n# alpha 3104211 1 0.5\n# textwindow \"nomal\"\n# textflame 1 1\n# textboxarrow 0 2\n@モラベガ\nあ、あ…？\n\n# alpha 3104211 0 0.5\n# textwindow \"close\"\n# waitandnext 0.5\n\n;;アイムール、姿を現す\n# se \"SE_0539\"\n# alpha 3200211 1 0.5\n# waitandnext 0.5\n\n# face 3200211 \"normal\"\n# textwindow \"nomal\"\n# textboxarrow 0 2\n@？？？\n標的を撃破\n冥界へ力を還元しました\n\n# alpha 3200211 0 0.5\n# alpha 3104211 1 0.5\n# textboxarrow 0 2\n@モラベガ\nめい、かい…！？\n\n# alpha 3200211 1 0.5\n# alpha 3104211 0 0.5\n# voice 320021 \"aimuru_a_0003\"\n# textboxarrow 0 2\n@？？？\n私の身体は冥界、この口は冥府への門\n門番が対象を通したのなら\n死へ案内するのが役目\n\n# voice 320021 \"aimuru_a_0027\"\n# textboxarrow 0 2\n@？？？\n待ちくたびれました\nシストルム\n\n# move 3200211 4 0.5\n# mask 3200211 on\n# move 3601311 2 0\n# mask 3601311 on\n# alpha 3601311 1 0.5\n# face 3601311 \"smile\"\n# voice 360131 \"sistrum_ge_0005\"\n# textboxarrow 0 1\n@シストルム\nお腹すかせたほうが\n食事は美味しいにゃ\n\n# textboxarrow 0 3\n@アイムール\nアイムール・D. plug・モート\n捕食漏れを確認\n制限を解除\n\n# alpha 3200211 0 0.5\n# alpha 3601311 0 0.5\n# alpha 3104211 1 0.5\n# face 3104211 \"angry\"\n# voice 310421 \"morabeaga_l_0009\"\n# textboxarrow 0 2\n@モラベガ\nお、お姉さんを返してっ！！\n\n# alpha 3104211 0 0.5\n# move 3601311 3 0\n# mask 3601311 off\n# alpha 3601311 1 0.5\n# face 3601311 \"normal\"\n# voice 360131 \"sistrum_ge_0006\"\n# textboxarrow 0 2\n@シストルム\nもう食べちゃったんだよ\n\n# alpha 3601311 0 0.5\n# alpha 3104211 1 0.5\n# textboxarrow 0 2\n@モラベガ\n…！！\n\n# alpha 3104211 0 0.5\n# move 3200211 3 0\n# mask 3200211 off\n# alpha 3200211 1 0.5\n# textboxarrow 0 2\n@アイムール\n待機時間の超過…\n罠を伏せたエネルギーの浪費に対し\n摂取量が足りない\n\n# voice 320021 \"aimuru_a_0007\"\n# textboxarrow 0 2\n@アイムール\nさあ、\n食事の続きといきましょう"
	}
]