[
	{
		"ID": 250061103,
		"script": ";;メギド_海上編_EP3\n;;背景：プール\n# script \"lisp\"\n# background \"sea_resort_day\"\n# bgmfile \"bgm226\" \"BgmSeaEvent\" 0\n# body 2500611\n# pos 2500611 3\n# mask 2500611 off\n# textflame 1 1\n# textboxarrow 0 2\n# chara 2500611\n# face 2500611 \"sad\"\n# voice 5006 \"megido_0022\"\n@メギド\nあら、どうしたの？\n\n# textflame 0 0\n@\n手持無沙汰のメギドは\n泣きながら歩く子供に\n声をかけた\n\n# textflame 1 1\n# textboxarrow 0 2\n# chara 2500611\n@メギド\nそう、喉が渇いたの…私と同じね\nこれでよければあげるわ\n口はつけてないから、気にしないで\n\n# textflame 0 0\n@\nだが、子供はドリンクを受け取らない\n飲みたいものはこれではない、と\n駄々をこね始める\n\n# textflame 1 1\n# textboxarrow 0 2\n# chara 2500611\n# voice 5006 \"megido_0028\"\n@メギド\n泣かれても困るのよ\n不機嫌になったって、物事が解決する\nわけではないわ\n\n@メギド\nきちんと気持ちを訴えもしないで\n相手に理解してもらおうだなんて\n横暴なのよ…あ\n\n# voice 5006 \"megido_0007\"\n@メギド\n私も、同じね…\n私も今、同じことをしてしまったわ\n\n# se \"SE_5575\"\n# textflame 0 0\n@\nそこに、戻ってくるマスター\n手にはメギドが飲みたかった\nドリンクがあった\n\n# textflame 1 1\n# textboxarrow 0 2\n# chara 2500611\n# voice 5006 \"megido_0031\"\n@メギド\nおかえりなさい\n私、貴方に酷いことを言って\nしまったみたい\n\n@メギド\n貴方は私のためにドリンクを\n選んで買ってきてくれたというのに\n私ときたら子供のようなことを…\n\n# textflame 0 0\n@\nいいんだ、と笑うマスター\n\n# textflame 0 0\n@\nマスターは、この休息をもっと\nメギドと楽しみたい、と\nはっきり口にする\n\n# textflame 1 1\n# textboxarrow 0 2\n# chara 2500611\n# face 2500611 \"normal\"\n# voice 5006 \"megido_0039\"\n@メギド\nそれもいいかもね…\n無意味だと思っていた今日が\n有意義になるかもしれない\n\n@メギド\n実際、貴方と無為に過ごしただけで\n私は新しい発見をすることが\nできたわけだもの\n\n# textflame 0 0\n@\n見つめるメギドの瞳から\nマスターの存在が大きかったことが\n伝わってくる\n\n# fadein \"white\" 2\n# textflame 0 0\n@\nやがてメギドへ\n光が集まっていくのを\nマスターは目の当たりにする\n\n# textflame 0 0\n# se \"SE_0602\"\n@\nそれは新スキル\n『炎熱の微笑』を取得した瞬間だった\n\n# bgmfile \"bgm256\" \"BgmSeaDate\" 0\n# textflame 0 0\n@\nメギドはプールサイドまで歩いて行く\n\n# textflame 1 1\n# textboxarrow 0 2\n# chara 2500611\n# face 2500611 \"smile\"\n@メギド\nそう気づけば、悪いものではないわ\n嫌いじゃないわよ…\n貴方と過ごす些末な時間\n\n# voice 5006 \"megido_0032\"\n@メギド\n貴方が欲しいと言うなら\n今日だけ特別に、貴方にあげるわ\n私の些末な時間をね\n\n# face 2500611 \"sad\"\n# voice 5006 \"megido_0042\"\n@メギド\nなんだか少し、悔しいわね\n揺るがないと思っていた私の\n考えが、貴方に塗り替えられた\n\n# face 2500611 \"normal\"\n# imageset 0 \"c2500611\"\n# imagealpha 0 0 0\n# textflame 0 0\n@\nメギドは恨めしそうに振り返ったが\nすぐに、ふふ、と笑う\n\n;;「嫌いじゃないわよ……」\n# frameout 0 0.5\n# buttonsout 0 0.5\n# voice 5006 \"megido_0021\"\n# imagealpha 0 1 0\n# imagepos 0 0 0\n# fadein \"white\" 3\n# textwindow \"close\""
	}
]