[
	{
		"ID": 250161101,
		"script": ";;フラベルム_海上編_EP1\n;;背景:リゾートビーチ\n# script \"lisp\"\n# background \"sea_beach_day\"\n# bgmfile \"bgm226\" \"BgmSeaEvent\" 0\n# body 2501611\n# pos 2501611 3\n# mask 2501611 off\n# textflame 0 0\n@\n砂浜にやってきたマスター\n集合の約束通り\nフラベルムはここにいた\n\n# textflame 1 1\n# textboxarrow 0 2\n# chara 2501611\n# voice 5016 \"Flabellum_0001\"\n@フラベルム\nあら、遅かったですね？\nこのまま来ないのかと\n思っていましたわ\n\n# textflame 0 0\n@\n待たせてしまったことを謝り\n彼女を泳ぎに誘うマスター\n\n# textflame 1 1\n# textboxarrow 0 2\n# chara 2501611\n# face 2501611 \"sad\"\n# voice 5016 \"Flabellum_0009\"\n@フラベルム\nあの海の中へですか…\n\n# face 2501611 \"angry\"\n@フラベルム\n…悪いのですけれど\nそのお誘いは断らせていただきます\n\n# textflame 0 0\n@\n予想外の答えに\n固まってしまうマスター\n\n# textflame 1 1\n# textboxarrow 0 2\n# chara 2501611\n# voice 5016 \"Flabellum_0007\"\n@フラベルム\n海で遊ぶあの者達を見てください\n恥ずかしげもなく肌を露出し\nあられもない姿で水に濡れる…\n\n@フラベルム\n…下品ですわ\n淑女のすることとは思えません\n\n# face 2501611 \"sad\"\n# voice 5016 \"Flabellum_0019\"\n@フラベルム\nそれに…わたくしの水着も\n不本意ながらあの者達と\n同じようなデザインなのです\n\n# face 2501611 \"angry\"\n@フラベルム\nあそこに入っていったら\nわたくしも同じ類いの下品な女だと\n思われてしまいますわ！\n\n# voice 5016 \"Flabellum_0035\"\n@フラベルム\nこのわたくしが下品だなんて…\n想像するだけでおぞましい…\n万死に値しますわ\n\n# textflame 0 0\n@\nそう言って\n海から目を逸らす彼女\n\n# textflame 1 1\n# textboxarrow 0 2\n# chara 2501611\n# voice 5016 \"Flabellum_0001\"\n@フラベルム\nそういうことですから\nあなたが行きたいのならば\nお独りでどうぞ\n\n# voice 5016 \"Flabellum_0007\"\n@フラベルム\nあの下品で恥じらいのない海中は\nあなたのような身分の者にこそ\nお似合いの場所ですわ\n\n# textflame 0 0\n@\nそんな突き放すような言葉を並べ\n砂浜の上に座り込むので\nマスターは隣に腰を下ろす\n\n# textflame 0 0\n@\nそして、自分もここにいるから\nと、マスター\n\n# textflame 1 1\n# textboxarrow 0 2\n# chara 2501611\n# face 2501611 \"sad\"\n# voice 5016 \"Flabellum_0022\"\n@フラベルム\nな、なんなのですか、あなたは…\n\n@フラベルム\n海に行こうと言ったかと思えば\n今度は一緒にいるなどと…\n\n# face 2501611 \"angry\"\n# voice 5016 \"Flabellum_0013\"\n@フラベルム\nころころと意見を変えて\nあなたは自分の意志というものを\n持ち合わせていないのですか？\n\n# voice 5016 \"Flabellum_0014\"\n@フラベルム\nもう、勝手になさってください…\n\n# textflame 0 0\n@\n機嫌を悪くしたように\nそっぽを向いてしまう彼女\n\n# textflame 0 0\n@\nしかし、なんとなくフラベルムの\n頬が赤く染まっているように見えた\nマスターであった"
	}
]