[
	{
		"ID": 250171101,
		"script": ";;■EP1\n;;//背景　砂浜（リゾート）\n# script \"lisp\"\n# background \"sea_beach_day\"\n# bgmfile \"bgm255\" \"BgmSeaDate\" 0\n# body 2501711\n# pos 2501711 3\n# mask 2501711 off\n# textflame 1 1\n# textboxarrow 0 2\n# chara 2501711\n# voice 5017 \"grimoire_0002\"\n@グリモワール\nなかなかいいビーチじゃない\nワタシを誘ったこと、ほめてあげるわ\n\n# face 2501711 \"angry\"\n# voice 5017 \"grimoire_0001\"\n@グリモワール\n…と、ところで、マスター\nなにか言うことがあるんじゃない？\n\n@グリモワール\n…ワタシの服装を見なさいよ！\nいつもと違って水着なのよ！\n\n# voice 5017 \"grimoire_0013\"\n@グリモワール\nワタシに言うべきことがあるでしょ？\n\n# textflame 0 0\n@\nかわいいね、と\nマスターは素直に感想を伝えた\n\n# textflame 1 1\n# textboxarrow 0 2\n# chara 2501711\n# face 2501711 \"normal\"\n# voice 5017 \"grimoire_0007\"\n@グリモワール\nふ、ふん、あたり前でしょ！\nでも、まぁ…悪い気はしないわね\n\n# face 2501711 \"smile\"\n# voice 5017 \"grimoire_0004\"\n@グリモワール\n気分がいいから遊んであげるわ\nせっかくのビーチを楽しみましょう！\n\n# textflame 0 0\n@\nそれにしても、すごく人が多いね\nとマスターは周囲を見回す\n\n# textflame 1 1\n# textboxarrow 0 2\n# chara 2501711\n# face 2501711 \"sad\"\n# voice 5017 \"grimoire_0028\"\n@グリモワール\n確かに海水浴に来た人がたくさん…\nそれに、やけにスタイルのいい人が\n多いような…\n\n# face 2501711 \"angry\"\n# voice 5017 \"grimoire_0015\"\n@グリモワール\nっていうか気にしてないし！\nぜんぜん気にしてないから！\n\n# textflame 0 0\n@\nグリモワールは不機嫌そうに\n浮き輪を胸のあたりまで持ち上げた\n\n# textflame 0 0\n@\n浮き輪持ち上げて…どうしたの？\nマスターは不思議に思い、尋ねる\n\n# textflame 1 1\n# textboxarrow 0 2\n# chara 2501711\n# voice 5017 \"grimoire_0009\"\n@グリモワール\nな、なんでもいいでしょ！\n胸ばっか見ないで！\nこのヘンタイマスター！\n\n# textflame 0 0\n@\nはぁ…ごめん\nマスターはよくわからないまま\n謝罪した\n\n# textflame 0 0\n@\nそれでも彼女が機嫌を直さないので\nおわびにアイスクリームを\nごちそうするよ、と告げる\n\n# textflame 1 1\n# textboxarrow 0 2\n# chara 2501711\n@グリモワール\nアイスなんて…\nそんなものに誤魔化されるわけ\nないじゃない！\n\n# textflame 0 0\n@\nマスターは屋台を指さして\nあのアイス、クロピヨに似てるよ\nと、機転を利かせる\n\n# textflame 1 1\n# textboxarrow 0 2\n# chara 2501711\n# face 2501711 \"sad\"\n# voice 5017 \"grimoire_0022\"\n@グリモワール\nはぁ、どこがよ？\n…え？\n丸っこい形とか、色とかが…？\n\n# voice 5017 \"grimoire_0028\"\n@グリモワール\nうーん…言われてみれば\n確かに似てるような…？\n\n# textflame 0 0\n@\nグリモワールもアイスに\n興味が出てきた様子だ\n\n# textflame 0 0\n@\nすかさずマスターは\nアイスを買いに走った"
	}
]