[
	{
		"ID": 250321212,
		"script": ";;-----------------------------------------\n;;水着ティファレト2-1\n;;背景：ビーチ\n;;-----------------------------------------\n# script \"lisp\"\n# background \"sea_beach_day\"\n# bgmfile \"bgm224\" \"BgmSeaEvent\" 0\n;;-----------------------------------------\n# body 2503211\n# pos 2503211 3\n# scale 2503211 0.8 0\n# layer 2503211 3\n# alpha 2503211 1 0\n# mask 2503211 off\n;;-----------------------------------------\n# textflame 1 1\n# textboxarrow 0 2\n# face 2503211 \"sad\"\n# voice 250321 \"tiphereth_t_0028\"\n@ティファレト\n私がやりたいこと\nそ、それは…\n\n# textflame 0 0\n@\n自分のやりたいことをやっていい\n\n# textflame 0 0\n@\nそうマスターに言われ、\n戸惑いながらも、\nそれを告げようとする彼女\n\n# textflame 1 1\n# textboxarrow 0 2\n@ティファレト\nひ……\n\n# textflame 0 0\n@\n…と、言い掛けた時、\n\n# textflame 1 1\n# textboxarrow 0 2\n# face 2503211 \"angry\"\n# voice 250321 \"tiphereth_t_0022\"\n@ティファレト\n…！\n\n# textflame 1 1\n# textboxarrow 0 2\n@ティファレト\nた、大変…！\n\n# textflame 0 0\n@\n姫の一人が、\nビーチで倒れてしまった\n\n# textflame 0 0\n@\nすぐさま駆け付ける彼女\n\n# textflame 1 1\n# textboxarrow 0 2\n@ティファレト\n強い日差しにやられたんですね\nどうやら熱射病みたいです\n\n# textflame 0 0\n@\nど、どうしよう…！？\n…と、慌てる姫たち\n\n# textflame 1 1\n# textboxarrow 0 2\n# face 2503211 \"usual\"\n# voice 250321 \"tiphereth_t_0003\"\n@ティファレト\n大丈夫、落ち着いて下さい\n\n# textflame 1 1\n# textboxarrow 0 2\n@ティファレト\nまずは日陰に移しましょう\n\n# textflame 1 1\n# textboxarrow 0 2\nさあ、私につかまって\n\n# textflame 0 0\n@\nぐったりとする姫を背負い、\n運ぶティファレト\n\n# textflame 1 1\n# textboxarrow 0 2\n# face 2503211 \"angry\"\n@ティファレト\n氷かなにか、\n体を冷やせるものを\n貰ってきてください\n\n# textflame 0 0\n@\n姫たちは、\n彼女の指示に従い、\n売店に走る\n\n# textflame 1 1\n# textboxarrow 0 2\n# face 2503211 \"usual\"\n@ティファレト\n大丈夫ですか？\n楽になるから、\n少し緩めますね\n\n# textflame 0 0\n@\nそう言って、\n水着の紐を少し\n緩めてあげる彼女\n\n# textflame 1 1\n# textboxarrow 0 2\n@ティファレト\nどう？飲めますか？\n\n# textflame 0 0\n@\nと、姫の口に水を運んであげる\n\n# textflame 0 0\n@\nそして、別の姫が貰ってきた氷を\n首の両脇や脇の下に当てる\n\n# textflame 1 1\n# textboxarrow 0 2\n# voice 250321 \"tiphereth_t_0004\"\n@ティファレト\nこうやって太い血管を冷やせば、\nじきに楽になりますからね\n\n# textflame 0 0\n@\nと言いながら、\nうちわで姫の体を扇いであげる\n\n# textflame 0 0\n@\n彼女の適切な処置のおかげで、\n姫は事なきを得たのだった\n\n# textflame 0 0\n@\nた、助かったよ\nと彼女にお礼を言うマスター\n\n# textflame 0 0\n@\nそれに対し彼女は、\n少し寂し気な目で告げた\n\n# textflame 1 1\n# textboxarrow 0 2\n# voice 250321 \"tiphereth_t_0001\"\n@ティファレト\n…分かったでしょ、主様？\n\n# textflame 1 1\n# textboxarrow 0 2\n@ティファレト\nキラーズの影響もあって、\n今の私は自分のことより…\n\n# textflame 1 1\n# textboxarrow 0 2\n# face 2503211 \"sad\"\n@ティファレト\n人を導くことに、\n力を注がなければいけないように\n宿命づけられているのです\n\n# textflame 1 1\n# textboxarrow 0 2\n# voice 250321 \"tiphereth_t_0028\"\n@ティファレト\n自分のやりたいことより…\n誰かのために…\n\n# textflame 0 0\n@\nそんなことはない、きみは…\nと、マスターが言い掛けた時、\n\n# textflame 1 1\n# textboxarrow 0 2\n# face 2503211 \"angry\"\n# voice 250321 \"tiphereth_t_0024\"\n@ティファレト\n…！\n\n# textflame 1 1\n# textboxarrow 0 2\n# face 2503211 \"sad\"\n@ティファレト\nね？こういう宿命なのです\n\n# textflame 0 0\n@\n今度は異族の群れがビーチに出現した\n\n# textflame 1 1\n# textboxarrow 0 2\n# face 2503211 \"angry\"\n@ティファレト\nお任せください\n必ず…\n\n# textflame 1 1\n# textboxarrow 0 2\n@ティファレト\n勝利に導いてみせますから！\n\n# textflame 1 1\n# textboxarrow 0 2\n# voice 250321 \"tiphereth_t_battle_0001\"\n@ティファレト\n行きますよ、みなさん！！\n主様のため、\n今こそ力を示すときですっ！\n\n# textflame 0 0\n@\nティファレトは\n姫たちを導き、\n戦闘に赴くのだった"
	}
]