[
	{
		"ID": 251217003,
		"script": ";;-----------------------------------------\n;;ファントムオブキル　この素晴らしい世界に祝福を！コラボ2019水着　シナリオ後半\n;;【EP.10】\n;;10_3\n;;スクリプト最後の背景：ビーチ\n;;-----------------------------------------\n# script \"lisp\"\n# background \"sea_beach_day\"\n# bgmfile \"bgm351\" \"BgmKScollabo002\" 0\n;;-----------------------------------------\n;;アクア\n# body 2601711\n# pos 2601711 3\n# scale 2601711 0.8 0\n# layer 2601711 3\n# alpha 2601711 0 0\n# mask 2601711 off\n;;ダクネス\n# body 2103411\n# pos 2103411 3\n# scale 2103411 0.8 0\n# layer 2103411 2\n# alpha 2103411 0 0\n# mask 2103411 off\n;;水着ティルフィング\n# body 2101411\n# pos 2101411 3\n# scale 2101411 0.8 0\n# layer 2101411 2\n# alpha 2101411 0 0\n# mask 2101411 off\n;;めぐみん\n# body 2502511\n# pos 2502511 3\n# scale 2502511 0.8 0\n# layer 2502511 2\n# alpha 2502511 0 0\n# mask 2502511 off\n;;ゆんゆん\n# body 2502611\n# pos 2502611 3\n# scale 2502611 0.8 0\n# layer 2502611 2\n# alpha 2502611 0 0\n# mask 2502611 off\n;;ウィズ\n# body 2601811\n# pos 2601811 3\n# scale 2601811 0.8 0\n# layer 2601811 2\n# alpha 2601811 0 0\n# mask 2601811 off\n;;ベルディア\n# body 809411\n# pos 809411 3\n# scale 809411 1.4 0\n# layer 809411 2\n# alpha 809411 0 0\n# mask 809411 off\n;;-----------------------------------------\n;;背景：ビーチ\n# emotionbody 1002 3 2601711 0 200\n# effectpattern 1002 2 0\n# effectstart 1002\n# move 2601711 3 0\n# face 2601711 \"smile\"\n# alpha 2601711 1 0\n# mask 2601711 off\n# textflame 1 1\n# textboxarrow 0 2\n# voice 260171 \"akua_0047\"\n@アクア\nあはははははははは！\nちょーウケるんですけどー！\n\n# effectskip 1002\n# textwindow \"close\"\n# alpha 2601711 0 0.5\n# move 809411 3 0\n# alpha 809411 1 0.5\n# mask 809411 off\n# waitandnext 0.5\n\n# se \"SE_9089\"\n# shake 0 1\n# fadein \"white\" 1\n# waitandnext 1\n\n# textboxarrow 0 2\n# textwindow \"normal\"\n# voice 8094 \"verdia_0038\"\n@ベルディア\nぎゃあああああああっ！\n\n# alpha 809411 0 0.5\n# move 2601711 3 0\n# face 2601711 \"normal\"\n# alpha 2601711 1 0.5\n# mask 2601711 off\n# textboxarrow 0 2\n# voice 260171 \"akua_0046\"\n@アクア\nはい、ターンアンデッド！\n\n# textwindow \"close\"\n# alpha 2601711 0 0.5\n# move 809411 3 0\n# alpha 809411 1 0.5\n# mask 809411 off\n# waitandnext 0.5\n\n# se \"SE_9089\"\n# shake 0 1\n# fadein \"white\" 1\n# waitandnext 1\n\n# textboxarrow 0 2\n# textwindow \"normal\"\n# voice 8094 \"verdia_0018\"\n@ベルディア\nおあああああああああっ！\n\n;;モノローグ\n# textflame 0 0\n@\n大量の異族\nそしてデュラハンとの戦いは\n熾烈なものだったはずなのだが…\n\n# alpha 809411 0 0.5\n# move 2103411 3 0\n# face 2103411 \"normal\"\n# alpha 2103411 1 0.5\n# mask 2103411 off\n# textflame 1 1\n# textboxarrow 0 2\n# voice 210341 \"dakunesu_0003\"\n@ダクネス\nアクアの魔法がここまで効くとはな\n\n# alpha 2103411 0 0.5\n# move 2601711 3 0\n# face 2601711 \"normal\"\n# alpha 2601711 1 0.5\n# mask 2601711 off\n# textboxarrow 0 2\n@アクア\nあ、マスターもやっと\n私の実力に気付いてくれたかしら？\nもっと頼ってくれてもいいのよ？\n\n# alpha 2601711 0 0.5\n# move 809411 3 0\n# alpha 809411 1 0.5\n# mask 809411 off\n# textboxarrow 0 2\n# voice 8094 \"verdia_battle_0007\"\n@ベルディア\nはぁ、はぁ…\nなぜこの力がありながら\n直接乗り込んで来なかったのだ…\n\n# alpha 809411 0 0.5\n# move 2601711 3 0\n# face 2601711 \"usual\"\n# alpha 2601711 1 0.5\n# mask 2601711 off\n# textboxarrow 0 2\n# voice 260171 \"akua_0070\"\n@アクア\nいや、忘れてたっていうか\n興味がなかったっていうか…\n\n# alpha 2601711 0 0.5\n# move 809411 3 0\n# alpha 809411 1 0.5\n# mask 809411 off\n# textboxarrow 0 2\n@ベルディア\nその割に俺の居城へ\n毎日のように魔法を撃ちこんで\n来ていたではないか！\n\n;;モノローグ\n# textflame 0 0\n@\nアクアがクエスト以外で\nそんなことをするとも思えないし\nどういうことだろうと考えるマスター\n\n# textflame 1 1\n# textboxarrow 0 2\n# voice 8094 \"verdia_0028\"\n@ベルディア\nその魔法が\n追ってきた合図なのかと\n外に出てみても誰もいないし…\n\n# textboxarrow 0 2\n@ベルディア\nだが、あの魔法は\n貴様らの仲間の小娘が使う魔法と\n同じ…紅魔族のものではないのか？\n\n# alpha 809411 0 0.5\n# move 2601711 3 0\n# face 2601711 \"normal\"\n# alpha 2601711 1 0.5\n# mask 2601711 off\n# textboxarrow 0 2\n@アクア\nそう思ったから\nゆんゆんばかり狙ってたのね\n\n;;モノローグ\n# textflame 0 0\n@\nゆんゆんがそんな大それたことを\nするようにも思えない…\nというところでマスターは気付く\n\n# alpha 2601711 0 0.5\n# move 2103411 3 0\n# face 2103411 \"usual\"\n# alpha 2103411 1 0.5\n# mask 2103411 off\n# textflame 1 1\n# textboxarrow 0 2\n@ダクネス\n…その、貴様の居城というのは\nどこにあるのだ？\n\n# alpha 2103411 0 0.5\n# move 809411 3 0\n# alpha 809411 1 0.5\n# mask 809411 off\n# textboxarrow 0 2\n@ベルディア\nこのビーチの先の森を抜けて…\n\n# alpha 809411 0 0.5\n# move 2103411 3 0\n# face 2103411 \"normal\"\n# alpha 2103411 1 0.5\n# mask 2103411 off\n# textboxarrow 0 2\n# voice 210341 \"dakunesu_0008\"\n@ダクネス\nいや、聞くまでもなかったな\nうん、なんというか、その\n本当にすまん\n\n;;モノローグ\n# alpha 2103411 0 0.5\n# textflame 0 0\n@\n紅魔族のものと思われる魔法\n毎日ダクネスに背負われて\n帰ってくるめぐみん\n\n;;モノローグ\n@\nすべては繋がった\n\n# move 2601811 3 0\n# face 2601811 \"usual\"\n# alpha 2601811 1 0.5\n# mask 2601811 off\n# textflame 1 1\n# textboxarrow 0 2\n@ウィズ\nベルディア…\n\n# alpha 2601811 0 0.5\n# move 809411 3 0\n# alpha 809411 1 0.5\n# mask 809411 off\n# textboxarrow 0 2\n# voice 8094 \"verdia_0013\"\n@ベルディア\nえ、あれ、あっれぇ～！？\nなんでそっちに…\n\n;;モノローグ\n# textflame 0 0\n@\n困惑の表情を浮かべるデュラハン\nそこへ異族を引き連れた\nゆんゆん達が向かってくる\n\n# alpha 809411 0 0.5\n# move 2101411 3 0\n# face 2101411 \"angry\"\n# alpha 2101411 1 0.5\n# mask 2101411 off\n# textflame 1 1\n# textboxarrow 0 2\n# voice 1014 \"tyrufing_0001\"\n@ティルフィング\nマスター！\nこのままひとまとめに\nめぐみんさんの爆裂魔法で！\n\n# alpha 2101411 0 0.5\n# move 2502611 3 0\n# face 2502611 \"sad\"\n# alpha 2502611 1 0.5\n# mask 2502611 off\n# textboxarrow 0 2\n# voice 250261 \"yunyun_0027\"\n@ゆんゆん\nも、もう、限界…\nこれ以上走れない…\n\n# alpha 2502611 0 0.5\n# move 809411 3 0\n# alpha 809411 1 0.5\n# mask 809411 off\n# textboxarrow 0 2\n# voice 8094 \"verdia_0023\"\n@ベルディア\nお、お前達！\n俺がいるんだぞ、止まれ！\n\n;;モノローグ\n# textflame 0 0\n@\nアクアの魔法を散々浴びたせいか\n異族はデュラハンの言うことを\n聞かなくなっているようだ\n\n# se \"SE_9173\"\n# alpha 809411 0 0.5\n# move 2502511 3 0\n# face 2502511 \"angry\"\n# alpha 2502511 1 0.5\n# mask 2502511 off\n# textflame 1 1\n# textboxarrow 0 2\n# voice 250251 \"megumin_0029\"\n@めぐみん\nいきますよ…っ！\n\n# se \"SE_10666\"\n# sedelay \"SE_10667\" 0.4\n# textboxarrow 0 2\n# voice 250251 \"megumin_dgcollabo_0001\"\n@めぐみん\n我が極めし至高の破壊\n異なる者どもすべてを灰に帰さん…\n“エクスプロージョン”！！！\n\n# se \"SE_8015\"\n# shake 0 1\n# fadein \"white\" 1\n# waitandnext 2\n\n# bgm \"stop\"\n# alpha 2502511 0 0.5\n# move 809411 3 0\n# alpha 809411 1 0.5\n# mask 809411 off\n# textboxarrow 0 2\n# voice 8094 \"verdia_0038\"\n@ベルディア\nぎゃああああああああああ！\n\n# bgmfile \"bgm208\" \"BgmKScollabo001\" 0\n# alpha 809411 0 0.5\n# move 2103411 3 0\n# face 2103411 \"sad\"\n# alpha 2103411 1 0.5\n# mask 2103411 off\n# textboxarrow 0 2\n# voice 210341 \"dakunesu_0028\"\n@ダクネス\nデュラハン…\n不憫なヤツだったな…\n\n# alpha 2103411 0 0.5\n# move 2502511 3 0\n# face 2502511 \"sad\"\n# alpha 2502511 1 0.5\n# mask 2502511 off\n# textboxarrow 0 2\n@めぐみん\nえ、なんのことですか？\n\n;;モノローグ\n# textflame 0 0\n@\nなんでもないよ、とマスターは\n多くを語らず魔法を撃って倒れた\nめぐみんを介抱するのだった…\n\n# emotionbody 1003 3 2101411 0 200\n# effectpattern 1003 2 0\n# effectstart 1003\n# alpha 2502511 0 0.5\n# move 2101411 3 0\n# face 2101411 \"smile\"\n# alpha 2101411 1 0.5\n# mask 2101411 off\n# textflame 1 1\n# textboxarrow 0 2\n# voice 1014 \"tyrufing_0005\"\n@ティルフィング\n全部、終わりましたね\nマスター！\n\n;;モノローグ\n# textflame 0 0\n@\n事情を知らない\nティルフィングの笑顔を\n眩しく感じるマスターだった"
	}
]