[
	{
		"ID": 260061102,
		"script": ";;EP2\n# script \"lisp\"\n# background \"sea_jungle_day\"\n# bgmfile \"bgm230\" \"BgmSeaEvent\" 0\n# body 2600611\n# pos 2600611 3\n# mask 2600611 off\n# scale 2600611 0.8 0\n# eye 2600611 \"close\"\n# textflame 1 1\n# textboxarrow 0 2\n# voice 6006 \"misutoru_0013\"\n@ミストルティン\n…………\nはぁ～…\n\n@ミストルティン\nご一緒…したかったな…\n\n# eye 2600611 \"normal\"\n@ミストルティン\n行きたいですって、\n素直に言えばよかった…\n\n# face 2600611 \"sad\"\n@ミストルティン\n…ううん、だめだよ\n\n@ミストルティン\nトラブルメイカーの私と\n一緒にいたら、マスターに\n迷惑かかっちゃう…\n\n@ミストルティン\nその方が、ずっとイヤ…\n\n# textflame 0 0\n@\n悲しそうにたたずむ\nミストルティンに、\nマスターが話しかける\n\n# face 2600611 \"normal\"\n# textflame 1 1\n# voice 6006 \"misutoru_0022\"\n@ミストルティン\nえっ、マスター？\n帰ったんじゃなかったんですか？\n\n# select \"一緒に遊びたいから帰らない\" \"select_label_01\" \"あれくらいじゃ諦めない\" \"select_label_02\" \"一人で寂しそうだったから\" \"select_label_03\"\nえっ、マスター？\n帰ったんじゃなかったんですか？\n\n# label \"select_label_01\"\n# labeljump \"select_label_end\"\n# face 2600611 \"sad\"\n# textflame 1 1\n# textboxarrow 0 2\n# voice 6006 \"misutoru_0013\"\n@ミストルティン\nそんなこと言ってもらう資格、\n私には…\n\n# label \"select_label_02\"\n# labeljump \"select_label_end\"\n# face 2600611 \"sad\"\n# textflame 1 1\n# textboxarrow 0 2\n# voice 6006 \"misutoru_0013\"\n@ミストルティン\nでも私、プールは…\n\n# label \"select_label_03\"\n# labeljump \"select_label_end\"\n# face 2600611 \"sad\"\n# textflame 1 1\n# textboxarrow 0 2\n# voice 6006 \"misutoru_0013\"\n@ミストルティン\nさ、寂しくなんて…\n\n# label \"select_label_end\"\n# textflame 0 0\n@\nうつむくミストルティンに、\n勝負しよう、と誘うマスター\n\n# face 2600611 \"normal\"\n# textflame 1 1\n@ミストルティン\n…私は日陰の中だけ移動できて、\nマスターは\n陽のあたる場所だけ移動できる？\n\n@ミストルティン\nマスターが私の手をつかまえたら\nマスターの勝ちで…\n\n# textflame 0 0\n@\nそうしたら一緒に\nプールに遊びに行こう、\nとマスターは笑う\n\n# face 2600611 \"sad\"\n# textflame 1 1\n@ミストルティン\nちょっと待ってください\nそんな急に…\n\n# voice 6006 \"misutoru_0024\"\n@ミストルティン\nえ！\nもう始めるんですか！\n\n# textflame 0 0\n@\n絶対勝つ、と\nマスターは気合い十分。\n\n# face 2600611 \"angry\"\n# textflame 1 1\n@ミストルティン\nわ、私も\n負けられませんから…！\n\n;;//暗転（時間経過）\n# fadeout \"black\" 1.5\n# waitandnext 2\n\n# face 2600611 \"sad\"\n# waitandnext 0.1\n\n# fadein \"black\" 1\n# voice 6006 \"misutoru_0009\"\n@ミストルティン\nあ、あの…\n大丈夫ですか、マスター\n\n@ミストルティン\nもう30分も\n走りっぱなしだから…\n\n@ミストルティン\nジャングルは日陰が多いから\nマスターが不利なんじゃ…\n\n# textflame 0 0\n@\n不利でも関係ない。\n諦めないから…\nと、立ち上がるマスター\n\n# textflame 1 1\n@ミストルティン\nどうして私なんかに\nそこまでしてくれるんですか…\n\n@ミストルティン\nへとへとじゃないですか\n\n# face 2600611 \"normal\"\n# voice 6006 \"misutoru_0011\"\n@ミストルティン\n…もう、いいんです\n\n# face 2600611 \"sad\"\n# voice 6006 \"misutoru_0023\"\n@ミストルティン\n…！\nあれは…\n\n# face 2600611 \"angry\"\n@ミストルティン\n毒の鱗粉をもった蝶が\nマスターの上に…！\n"
	}
]