[
	{
		"ID": 2740007,
		"script": "# script \"lisp\"\n# body 103311\n# mask 103311 off\n# pos 103311 3\n# scale 103311 0.8 0\n# textflame 1 1\n# textboxarrow 0 2\n# chara 103311\n# face 103311 \"angry\"\n@クロエ\n信念に従い、\n悪しきを挫く優しき剣に！\n\n# chara 103311\n# voice 1033 \"chloe_0029\"\n# face 103311 \"normal\"\n@クロエ\nどんな敵でも、\nこの剣で薙ぎ払って見せます！\n"
	}
]