[
	{
		"ID": 2760013,
		"script": ";;▼７話//背景　街（town）\n;;指定　bgm023\n# script \"lisp\"\n# background \"town\"\n# bgm \"bgm023\" 0\n# body 0\n# pos 0 3\n# scale 0 0.8 0\n# mask 0 off\n# face 0 \"usual2\"\n# body 601711\n# pos 601711 3\n# scale 601711 0.8 0\n# body 601811\n# pos 601811 3\n# alpha 601811 0 0\n# body 502611\n# pos 502611 3\n# alpha 502611 0 0\n# body 101411\n# pos 101411 3\n# alpha 101411 0 0\n# body 24\n# pos 24 2\n# scale 24 0.8 0\n# alpha 601711 0 0\n# layer 0 2\n# layer 24 1\n# textflame 0 0\n@\nその大事件は、突然に起こった…\n\n;;指定　SE_0709\n# se \"SE_0709\"\n# effectbody 200 27 0 0\n# effectstart 200\n# emotionbody 5001 1 24 10 310\n# effectpattern 5001 1 0\n# effectstart 5001\n# emotionbody 5011 1 0 40 200\n# effectpattern 5011 1 0\n# effectstart 5011\n# face 0 \"worry\"\n# face 24 \"surprise\"\n# serif 1\n# textboxarrow 1 3\n@ルナ\n緊急クエスト！\n緊急クエスト！！\n\n# effectskip 5011\n# effectskip 5001\n# serif 1\n# textboxarrow 1 3\n@ルナ\nキラープリンセス並びに\nマスターの皆さんは、\n大至急、ギルドに集合して下さい！\n\n# jump 0\n# serif 0\n# textflame 1 1\n# textboxarrow 0 2\n# chara 0\n# voice 9999 \"durin_0022\"\n# face 0 \"serious\"\n@デュリン\nなに？\nいったいなにがあったの！？\n\n# serif 1\n# textboxarrow 1 3\n@ルナ\n説明している暇はありません！\nもうすぐこの街は戦場となります！\n\n# serif 1\n# textboxarrow 1 3\n@ルナ\n手の空いているかたは\n今すぐ戦いに備えて下さい！\n\n;;//場面転換　ワイプ等\n# se \"SE_0700\"\n# bgm \"stop\"\n# effectbody 600 21 0 0\n# effectstart 600\n# serif 0\n# textwindow \"close\"\n# serif 1\n# textwindow \"close\"\n# waitandnext 2\n\n;;指定　SE_0638\n# effectskip 200\n# effectskip 600\n# bgm \"bgm023\" 0\n# se \"SE_0638\"\n# shakeloop 0\n# move 0 4 0\n# face 24 \"sad\"\n# face 0 \"worry\"\n# serif 0\n# textwindow \"nomal\"\n# textflame 1 1\n# textboxarrow 0 3\n# chara 0\n@デュリン\n…なにあれ…竜巻？\nこの街に迫ってきてるの…？\n\n;;指定　SE_0637\n# se \"SE_0637\"\n# textboxarrow 0 1\n# chara 101411\n# voice 1014 \"tyrufing_0025\"\n@ティルフィング\nあんな巨大な緑の竜巻など\n見たことがありません！\nもはや、この世の終わりとしか…\n\n# move 24 1 0.5\n# move 0 5 0.5\n# alpha 601711 1 0.5\n# textboxarrow 0 2\n# chara 601711\n# voice 6017 \"akua_0026\"\n# face 601711 \"surprise\"\n@アクア\nなになに？\nなにが来たの？\n\n# shakestop\n# textboxarrow 0 2\n# chara 601711\n# face 601711 \"happy1\"\n@アクア\n…って、なんだ、\nキャベツじゃない\n\n# textboxarrow 0 1\n# chara 101411\n@ティルフィング\nキャベツ？\n…それがあの竜巻の名前なのですか…\n\n;;指定　bgm006\n# bgm \"bgm006\" 0\n# emotionbody 5200 3 601711 50 260\n# effectpattern 5200 1 3\n# effectstart 5200\n# textboxarrow 0 2\n# chara 601711\n# face 601711 \"normal\"\n@アクア\n竜巻っていうか、野菜ね\nシャキシャキしておいしいわよ？\n新キャベは特に\n\n# effectskip 5200\n# body 501711\n# pos 501711 2\n# scale 501711 0.8 0\n# body 502521\n# pos 502521 4\n# scale 502521 0.8 0\n# alpha 502521 0 0\n# alpha 501711 0 0\n# textboxarrow 0 3\n# chara 0\n# voice 9999 \"durin_0008\"\n@デュリン\nごめん、なにを言ってるのか\nちょっとわかんないんだけど…\n\n# emotionbody 5816 9 501711 -50 150\n# effectpattern 5816 6 0\n# effectstart 5816\n# alpha 501711 1 0.5\n# alpha 502521 1 0.5\n# alpha 24 0 0.3\n# alpha 0 0 0.3\n# alpha 601711 0 0.3\n# face 502521 \"usual2\"\n# textboxarrow 0 1\n# chara 501711\n# voice 5017 \"grimoire_0014\"\n@グリモワール\n…な、なんなのよあれ！\n街が危ないとかいうから\n走ってきたら…\n\n# effectskip 5816\n# emotionbody 5100 2 502521 10 280\n# effectpattern 5100 1 1\n# effectstart 5100\n# textboxarrow 0 3\n# chara 502511\n# face 502521 \"usual1\"\n@めぐみん\nキャベツを知らないのですか？\n\n# body 106\n# pos 106 3\n# scale 106 0.8 0\n# alpha 106 0 0\n# textboxarrow 0 3\n# chara 502511\n# voice 5025 \"megumin_0004\"\n# face 502521 \"irregular\"\n@めぐみん\n…いいでしょう、この私が\nキャベツの丸焼きを\nごちそうしてさしあげます！！\n\n# emotionbody 5111 1 106 0 290\n# effectpattern 5111 2 0\n# effectstart 5111\n# alpha 106 1 0.5\n# move 501711 1 0.5\n# move 502521 5 0.5\n# layer 501711 3\n# layer 106 2\n# layer 502521 1\n# textboxarrow 0 2\n# chara 106\n# voice 5026 \"yunyun_0009\"\n# face 106 \"surprise\"\n@ゆんゆん\nめぐみん！\nめぐみんじゃない！！\nこの世界に来てたの！？\n\n# effectskip 5111\n# body 103421\n# pos 103421 2\n# scale 103421 0.8 0\n# alpha 103421 0 0\n# body 107\n# pos 107 4\n# scale 107 0.8 0\n# alpha 107 0 0\n# textboxarrow 0 2\n# chara 106\n# face 106 \"angry\"\n@ゆんゆん\nって、今はキャベツ狩りが先ね\n…めぐみんの爆裂魔法じゃ\n丸焼きどころか全部丸焦げじゃない！\n\n# alpha 106 0 0.3\n# alpha 501711 0 0.3\n# alpha 502521 0 0.3\n# alpha 103421 1 0.5\n# alpha 107 1 0.5\n# face 107 \"usual\"\n# textboxarrow 0 1\n# chara 103421\n# face 103421 \"usual\"\n@ダクネス\n…いや、表面は焦げるが\nいい具合に中に火が通ったものも\nあってな、あれは絶品だぞ\n\n# textboxarrow 0 3\n# chara 601811\n# face 107 \"angry\"\n@ウィズ\n爆裂魔法の圧倒的な火力が\nあってこその調理法ですね\nキャベツとの間合いが難しいですが…\n\n# emotionbody 5400 5 0 50 200\n# effectpattern 5400 1 0\n# effectstart 5400\n# pos 0 3\n# alpha 0 1 0.5\n# move 107 5 0.5\n# move 103421 1 0.5\n# layer 0 3\n# layer 107 2\n# layer 103421 1\n# textboxarrow 0 2\n# chara 0\n# voice 9999 \"durin_0002\"\n# face 0 \"occur\"\n@デュリン\n…アンタ達がアクアの仲間ね！？\n言ってることはワケわかんないけど\nそれだけはよくわかったわ！\n\n# effectskip 5400\n# pos 601711 1\n# leftin 601711 0.5\n# alpha 601711 1 0\n# alpha 103421 0 0.3\n# textboxarrow 0 1\n# chara 601711\n# voice 6017 \"akua_0003\"\n# face 601711 \"happy1\"\n@アクア\nとりあえず、あの竜巻が\n緑の野菜の群れで、倒せば\n食べられるってわかってれば充分よ\n\n# imageset 1 \"e170301_2\"\n# imagealpha 1 0 0\n# imagescale 1 0.95 0\n# imagelayer 1 1\n# textboxarrow 0 1\n# chara 601711\n# face 601711 \"happy2\"\n@アクア\nそれじゃ、みんな、準備はいい？\n張り切って収穫するわよ！\nキャベツ食べ放題が待ってるわ！！\n\n# bgmfile \"bgm211\" \"BgmKScollabo001\" 0\n# textwindow \"close\"\n# fadein \"white\" 1\n# imagealpha 1 1 0\n# imagepos 1 0 0\n# waitandnext 5\n\n\n"
	}
]