[
	{
		"ID": 2764005,
		"script": ";;-----------------------------------------\n;;【このすばEP3･戦闘前】\n;;スクリプトID:2345678901234567\n;;スクリプト最後の背景：sea_beach_day\n;;背景：ビーチ\n;;-----------------------------------------\n# script \"lisp\"\n# bgmfile \"bgm208\" \"BgmKScollabo001\" 0\n# background \"sea_beach_day\"\n;;海上編ティルフィング\n# body 2101411\n# pos 2101411 4\n# scale 2101411 0.8 0\n# alpha 2101411 0 0\n;;デュリン\n# body 0\n# pos 0 3\n# scale 0 0.8 0\n# alpha 0 0 0\n# layer 0 3\n# mask 0 off\n;;水着アスクレピオス\n# body 2600111\n# pos 2600111 3\n# scale 2600111 0.8 0\n# alpha 2600111 0 0\n# mask 2600111 off\n;;水着シタ\n# body 2201611\n# pos 2201611 2\n# scale 2201611 0.8 0\n# alpha 2201611 0 0\n;;水着めぐみん\n# body 2502511\n# pos 2502511 2\n# scale 2502511 0.8 0\n# alpha 2502511 0 0\n;;水着ダクネス\n# body 2103411\n# pos 2103411 4\n# scale 2103411 0.8 0\n# alpha 2103411 0 0\n# layer 2103411 4\n# face 2103411 \"shy\"\n;;◆背景：ビーチ（昼）---------------------\n# textflame 0 0\n# textboxarrow 0 2\n@\n討伐クエストのため\nさらなる異族の姿を探し\nビーチを移動するマスター達\n\n@\n「…僕達の護衛を？どうして？」\nアスクレピオスにたずねるマスター\n\n# alpha 2600111 1 0.5\n# textflame 1 1\n# textboxarrow 0 2\n# voice 6001 \"asukurepiosu_0003\"\n@アスクレピオス\n実は“海の家”による討伐クエストを\n順調に進めているパーティーが\n少ないみたいで…だから護衛に…\n\n# emotionbody 1001 1 2600111 0 300\n# effectpattern 1001 1 0\n# effectstart 1001\n@アスクレピオス\nあ！勘違いしないでよマスター\nこれって巡回警備のついでだし\nクエストの円滑な進行のためだから\n\n# alpha 2600111 0 0.5\n# alpha 2201611 1 0.5\n# alpha 2101411 1 0.5\n# textboxarrow 0 1\n# voice 2016 \"shita_0004\"\n@シタ\nふーん…だったらわたしも\n異族の監視のついでに\nマスターのお供をしますね\n\n# emotionbody 1002 2 2101411 0 300\n# effectpattern 1002 1 0\n# effectstart 1002\n# voice 1014 \"tyrufing_0003\"\n# textboxarrow 0 3\n@ティルフィング\nこれって私達のことを\n気遣ってもらっている…\nということでしょうか？\n\n# emotionbody 1003 8 0 0 220\n# effectpattern 1003 1 0\n# effectstart 1003\n# alpha 2201611 0 0.5\n# alpha 2101411 0 0.5\n# alpha 0 1 0.5\n# textboxarrow 0 2\n# voice 9999 \"durin_0027\"\n@デュリン\nいいえ\nアタシ達きっと\n危険集団だと思われてるのよ\n\n# effectskip 1003\n# alpha 0 0 0.5\n# alpha 2600111 1 0.5\n# move 2600111 2 0\n# mask 2600111 on\n# alpha 2103411 1 0.5\n# textboxarrow 0 3\n# voice 210341 \"dakunesu_0003\"\n@ダクネス\nなあ、アスクレピオス\n次なる敵に出会う前に\nそろそろ私を全回復してくれないか\n\n# face 2600111 \"angry\"\n# textboxarrow 0 1\n# voice 6001 \"asukurepiosu_0007\"\n@アスクレピオス\nいやよ\n\n# emotionbody 1004 4 2103411 0 260\n# effectpattern 1004 1 0\n# effectstart 1004\n# textboxarrow 0 3\n@ダクネス\nはうぅ！\nその冷たい目と\n即断すぎる断り方…\n\n# bgm \"stop\"\n# alpha 2103411 0 0.5\n# move 2201611 4 0\n# alpha 2201611 1 0.5\n# face 2201611 \"angry\"\n# textboxarrow 0 3\n@シタ\nしっ！静かに…\n向こうにあらたな異族の\n集団を発見しました\n\n# textflame 0 0\n@\n異族の群れが\nひと気のないビーチの一角に\n溜まって、ざわざわと揺れている\n\n# bgm \"bgm023_024\" 0\n# textflame 1 1\n# textboxarrow 0 1\n@アスクレピオス\nこんなところに\n異族が集まってるなんて\n\n# alpha 2600111 0 0.5\n# alpha 2502511 1 0.5\n# face 2502511 \"angry\"\n@めぐみん\nああっ、あんなにたくさんの敵\n爆裂魔法でまとめて一掃したい…\nそして、一気にレベルを…うぅ\n\n# face 2201611 \"sad\"\n# textboxarrow 0 3\n# voice 2016 \"shita_0012\"\n@シタ\nめぐみん\n無理はいけませんよ\n\n# alpha 2201611 0 0.5\n# alpha 2502511 0 0.5\n# alpha 2101411 1 0.5\n# move 2101411 5 0\n# alpha 0 1 0.5\n# alpha 2103411 1 0.5\n# move 2103411 1 0\n# face 2103411 \"angry\"\n# face 2101411 \"sad\"\n# face 0 \"serious2\"\n# textboxarrow 0 1\n@ダクネス\nだいたい爆裂魔法は一日一回しか\n使えないではないか\nここは私に任せろ！\n\n# emotionbody 1005 2 2101411 0 260\n# effectpattern 1005 1 0\n# effectstart 1005\n# textboxarrow 0 3\n@ティルフィング\nあれ…皆さん\nあの異族達、少し様子が\nおかしくないですか？\n\n# textboxarrow 0 2\n@デュリン\n…ほんとだ\nなにか不自然…\n見える？マスター？\n\n# textflame 0 0\n@\n異族はなにかを取り囲むように\n輪になってうごめいていた…\nその中心には…\n\n;;//ジャイアントトードの姿みせる？\n# se \"SE_0706\"\n@\n「カエルだ…！」\nマスターも目を凝らし、\n異族の中にいるそれに気づいた\n\n# emotionbody 1006 2 2600111 0 300\n# effectpattern 1006 1 0\n# effectstart 1006\n# alpha 2101411 0 0.5\n# alpha 0 0 0.5\n# alpha 2103411 0 0.5\n# move 2600111 3 0\n# alpha 2600111 1 0.5\n# mask 2600111 off\n# textflame 1 1\n# textboxarrow 0 2\n@アスクレピオス\nカエル？この島の浜辺には\nいるはずもない生き物だわ\nしかもあんなに大きな…どうして？\n\n# alpha 2600111 0 0.5\n# alpha 2502511 1 0.5\n# move 2502511 2 0\n# face 2502511 \"worry\"\n# alpha 2103411 1 0.5\n# move 2103411 4 0\n# face 2103411 \"sad\"\n# textboxarrow 0 1\n# voice 250251 \"megumin_0026\"\n@めぐみん\nあれ\nどこかで見たようなカエルですね\n\n# textboxarrow 0 3\n@ダクネス\nああ、どこかで見たような\nカエルだな\n\n# face 2502511 \"angry\"\n# face 2103411 \"angry\"\n# textflame 0 0\n@\nすると、異族とカエル（？）は\nいきなり、一斉にマスターのほうに\n振り向いた…！\n\n# emotionbody 1007 1 2502511 0 260\n# effectpattern 1007 2 0\n# effectstart 1007\n# textflame 1 1\n# textboxarrow 0 1\n@めぐみん\nな、なんと…！？\n\n# emotionbody 1008 4 2103411 0 300\n# effectpattern 1008 1 0\n# effectstart 1008\n# face 2103411 \"shy\"\n# textboxarrow 0 3\n@ダクネス\nいいぞ！来い！\nカエルのぬるぬるにまみれるなど\n…どんなご褒美だ！"
	}
]