[
	{
		"ID": 2764006,
		"script": ";;-----------------------------------------\n;;【このすばEP3･戦闘後】7/12 19:40 更新\n;;スクリプト最後の背景：seahouse\n;;背景：ビーチ\n;;-----------------------------------------\n# script \"lisp\"\n# background \"sea_beach_day\"\n# bgmfile \"bgm208\" \"BgmKScollabo001\" 0\n;;海上編ティルフィング\n# body 2101411\n# pos 2101411 3\n# scale 2101411 0.8 0\n# alpha 2101411 1 0\n# mask 2101411 off\n# face 2101411 \"sad\"\n;;デュリン\n# body 0\n# pos 0 2\n# scale 0 0.8 0\n# alpha 0 0 0\n# layer 0 3\n# mask 0 off\n;;水着アスクレピオス\n# body 2600111\n# pos 2600111 4\n# scale 2600111 0.8 0\n# alpha 2600111 0 0\n;;水着シタ\n# body 2201611\n# pos 2201611 2\n# scale 2201611 0.8 0\n# alpha 2201611 0 0\n;;水着めぐみん\n# body 2502511\n# pos 2502511 2\n# scale 2502511 0.8 0\n# alpha 2502511 0 0\n# face 2502511 \"sad\"\n;;水着ダクネス\n# body 2103411\n# pos 2103411 4\n# scale 2103411 0.8 0\n# alpha 2103411 0 0\n# face 2103411 \"shy\"\n;;◆背景：ビーチ（昼）---------------------\n# textflame 1 1\n# textboxarrow 0 2\n# voice 1014 \"tyrufing_0005\"\n@ティルフィング\nなんとか撃退できましたね\n\n# emotionbody 1001 8 2502511 0 260\n# effectpattern 1001 1 0\n# effectstart 1001\n# alpha 2101411 0 0.5\n# alpha 2103411 1 0.5\n# alpha 2502511 1 0.5\n# voice 250251 \"megumin_0003\"\n# textboxarrow 0 1\n@めぐみん\nはうぅ…\n爆裂魔法を放てなかったことが\n心残りでなりません…\n\n# effectskip 1001\n# textboxarrow 0 3\n@ダクネス\n唐突で驚いたが…\n悪くない戦闘だった\n\n# emotionbody 1002 1 0 0 260\n# effectpattern 1002 2 0\n# effectstart 1002\n# alpha 2103411 0 0.5\n# alpha 2502511 0 0.5\n# alpha 0  1 0.5\n# alpha 2600111 1 0.5\n# face 0 \"angry2\"\n# face 2600111 \"sad\"\n# textboxarrow 0 1\n# voice 9999 \"durin_0010\"\n@デュリン\nねえ！？異族はともかく\nなんであんな変な大きなカエルが\nビーチにいるのよ！？\n\n# voice 6001 \"asukurepiosu_0003\"\n# textboxarrow 0 3\n@アスクレピオス\n分からないわね…\n一度“海の家”に\n問い合わせてみましょう\n\n;;//海の家に移動\n;;//ビーチ背景\n# se \"SE_0700\"\n# bgm \"stop\"\n# effectbody 600 21 0 0\n# effectstart 600\n# serif 0\n# textwindow \"close\"\n# serif 1\n# textwindow \"close\"\n# waitandnext 2\n\n;;◆背景：海の家-------------------------------\n# effectskip 600\n# background \"seahouse\"\n# bgmfile \"bgm208\" \"BgmKScollabo001\" 0\n# alpha 2600111 0 0\n# move 2101411 4 0\n# alpha 2101411 1 0\n# waitandnext 0.1\n\n# textwindow \"normal\"\n# textboxarrow 0 1\n@デュリン\nふーむ…\n\n# voice 1014 \"tyrufing_0003\"\n# textboxarrow 0 3\n@ティルフィング\n見たことのない大きなカエルが\nいるって、少し前から島で噂に\nなってたみたいです\n\n@ティルフィング\n異族がおかしな様子で\n暴れ始めたのも、そのカエルの\n噂と同じ頃からだとか\n\n# alpha 2101411 0 0.5\n# alpha 0 0 0.5\n# alpha 2201611 1 0.5\n# alpha 2600111 1 0.5\n# textboxarrow 0 1\n# voice 2016 \"shita_0009\"\n@シタ\n本当にいたんですね、噂のカエル\n今までのビーチの巡回では\nわたし、見たことなくて\n\n# emotionbody 1003 8 2600111 0 300\n# effectpattern 1003 1 0\n# effectstart 1003\n# face 2600111 \"normal\"\n# textboxarrow 0 3\n@アスクレピオス\n私はジャングル近くのプールで\n二度ほどカエルっぽいものを見たわ\nでも、ビーチにまで…\n\n# effectskip 1003\n# alpha 2201611 0 0.5\n# alpha 2600111 0 0.5\n# alpha 2101411 1 0.5\n# alpha 0 1 0.5\n@ティルフィング\nもしかしたらカエルが\n増えてるのではないでしょうか？\n\n# textboxarrow 0 1\n@デュリン\n島の奥にしかいなかったカエルが\n繁殖して、棲息範囲を広げてる…\nってこと？\n\n# alpha 2101411 0 0.5\n# alpha 0 0 0.5\n# alpha 2600111 1 0.5\n# move 2103411 2 0\n# alpha 2103411 1 0.5\n# face 2103411 \"usual\"\n# textboxarrow 0 3\n@アスクレピオス\nその可能性はあるわ\nさらなる調査が必要そうね\n\n# textboxarrow 0 1\n@ダクネス\nふむ、この“海の家”にも、浜辺の\n近隣住民からカエルに関する\n苦情が続々と集まっているようだ\n\n# face 2103411 \"sad\"\n@ダクネス\nカエルの鳴き声がうるさい！\nぬるぬるする！大きすぎる！\nキモい！などなど\n\n# alpha 2103411 0 0.5\n# alpha 2502511 1 0.5\n# face 2502511 \"worry\"\n# textboxarrow 0 1\n@めぐみん\nあんなカエルが増えれば\nそうなるでしょうね\n\n# alpha 2600111 0 0.5\n# alpha 2502511 0 0.5\n# alpha 2101411 1 0.5\n# alpha 2201611 1 0.5\n# mask 2101411 on\n# face 2101411 \"normal\"\n@シタ\nということは…？\n\n# textboxarrow 0 3\n# voice 1014 \"tyrufing_0001\"\n@ティルフィング\nどうでしょう、マスター\n島の皆さんのためにも\nカエル問題を解決しませんか？\n\n;;select（選択肢）\n# select \"賛成だ、ティルフィング\" \"select_label_01\" \"ああ、そうしよう\" \"select_label_01\" \nどうでしょう、マスター\n島の皆さんのためにも\nカエル問題を解決しませんか？\n\n# label \"select_label_01\"\n# bgmfile \"bgm211\" \"BgmKScollabo001\" 0\n# textflame 0 0\n@\nマスターは“海の家”から\n異族討伐に加えて、カエル討伐の\nクエストも受けることにする\n\n# eye 2201611 \"close\"\n# face 2101411 \"smile\"\n# se \"SE_0602\"\n@\nこれがマスターのクエストリストに\n『カエル討伐』の追加が決まった\nその瞬間だった\n\n# emotionbody 1004 1 0 40 260\n# effectpattern 1004 1 0\n# effectstart 1004\n# alpha 2201611 0 0.5\n# alpha 2101411 0 0.5\n# move 0 3 0\n# alpha 0 1 0.5\n# textflame 1 1\n# textboxarrow 0 2\n@デュリン\n…ってどうして新スキル獲得\nみたいなノリになってるのよ！\n\n# voice 9999 \"durin_0027\"\n@デュリン\nああ、もう\nやることが増えたじゃないの…"
	}
]