[
	{
		"ID": 277000321,
		"script": ";;-----------------------------------------\n;;◆2019 海上編 3章（8月月初）シナリオ\n;;【タイトル：パラディーゾ幻想襲来編Ⅲ】\n;;EP3_1\n;;スクリプト最後の背景：ジャングル（昼）\n;;-----------------------------------------\n# script \"lisp\"\n# background \"sea_jungle_day\"\n# bgmfile \"bgm271\" \"BgmLostRagnarokEvent\" 0\n;;-----------------------------------------\n;;水着アルマス\n# body 2103811\n# pos 2103811 3\n# scale 2103811 0.8 0\n# layer 2103811 2\n# alpha 2103811 0 0\n# mask 2103811 off\n;;水着ティファレト\n# body 2503211\n# pos 2503211 3\n# scale 2503211 0.8 0\n# layer 2503211 2\n# alpha 2503211 0 0\n# mask 2503211 off\n;;水着フェイルノート\n# body 2401911\n# pos 2401911 3\n# scale 2401911 0.8 0\n# layer 2401911 2\n# alpha 2401911 0 0\n# mask 2401911 off\n;;水着ヘレナ\n# body 2302811\n# pos 2302811 3\n# scale 2302811 0.8 0\n# layer 2302811 2\n# alpha 2302811 0 0\n# mask 2302811 off\n;;ニール\n# body 162\n# pos 162 3\n# scale 162 0.6 0\n# layer 162 2\n# alpha 162 0 0\n# mask 162 off\n;;-----------------------------------------\n;;【EP3】相対する魔の王と天の神\n;;//背景：ジャングル（昼）\n;;//フェイルノートがアルマスに攻撃\n# textwindow \"close\"\n# move 2401911 2 0\n# face 2401911 \"normal\"\n# alpha 2401911 1 0\n# mask 2401911 on\n# move 2103811 4 0\n# face 2103811 \"angry\"\n# alpha 2103811 1 0\n# mask 2103811 on\n# waitandnext 0.5\n\n# se \"SE_6777\"\n# shake 0 0.5\n# fadein \"white\" 0.5\n# waitandnext 0.5\n\n;;できればもやもやフレームで\n# voice 210381 \"almace_battle_0006\"\n# move 2103811 4 0\n# textflame 1 1\n# textwindow \"moya\"\n@アルマス\nぐっ…！\nやっぱり、強い…\n\n# voice 240191 \"failnaught_a_0007\"\n# textwindow \"normal\"\n@フェイルノート\nふん…\n口ほどにもないわね…\n\n;;ナレーション\n# textflame 0 0\n@\n二人の力の差は歴然だが、\nフェイルノートはアルマスを\n試しているようにも見えた\n\n# textflame 1 1\n@フェイルノート\n…これで、わかったわね？\n魔を統べる存在たる、この私に\n支配されることを受け入れなさい\n\n# voice 210381 \"almace_0029\"\n@アルマス\nくっ…\nまだ、負けてないっ！\nはぁあああ！\n\n# se \"SE_4000\"\n# waitandnext 0.5\n\n;;ナレーション\n# textflame 0 0\n@\n残された力を振り絞って、\nアルマスはフェイルノートに\n切りかかるが…\n\n# textflame 1 1\n@フェイルノート\n愚かな…\n\n# se \"SE_5339\"\n# waitandnext 0.5\n\n;;ナレーション\n# textflame 0 0\n@\nフェイルノートは\nわずかに動いただけで\nその剣先を軽やかにかわす\n\n# textflame 1 1\n@アルマス\nはぁはぁ…\nまだ…まだよっ！\n\n# se \"SE_5205\"\n# waitandnext 0.5\n\n;;ナレーション\n# textflame 0 0\n@\nアルマスが再び攻撃をしようと\n剣を握り直すが、\nフェイルノートがそれを手で制す\n\n# textflame 1 1\n@アルマス\n…なによ！\n\n@フェイルノート\n…来るわ\n\n;;ナレーション\n# alpha 2401911 0 0.5\n# alpha 2103811 0 0.5\n# textflame 0 0\n@\nフェイルノートは森の奥を\nじっと見つめる\nその視線の先に、全員が注目した\n\n;;//画面の揺らぎ\n# se \"SE_5735\"\n# textwindow \"close\"\n# shake 0 1\n# waitandnext 1\n\n;;//異族の群れが現れる\n# se \"SE_0617\"\n# serif 1\n@異族\nグギャッ！グギャギャッ！\n\n# voice 210381 \"almace_0023\"\n# serif 1\n# textwindow \"close\"\n# serif 0\n# textwindow \"normal\"\n# move 2103811 3 0\n# face 2103811 \"surprise\"\n# alpha 2103811 1 0.5\n# mask 2103811 off\n# textflame 1 1\n@アルマス\n異族の群れ！\nあんなにたくさん…\n\n# voice 240191 \"failnaught_a_0007\"\n# alpha 2103811 0 0.5\n# move 2401911 3 0\n# face 2401911 \"normal\"\n# alpha 2401911 1 0.5\n# mask 2401911 off\n@フェイルノート\nふん…\n結界が揺らいだ影響ね\n\n;;ナレーション\n# textflame 0 0\n@\n彼女はそうつぶやくと、\nマスターに視線を向けた\n\n# face 2401911 \"angry\"\n# textflame 1 1\n@フェイルノート\n不安定な力は、\nこういう想定外の出来事に弱い…\n\n@フェイルノート\nやはり、何者にも左右されない\n強大な力が必要ね…\n\n;;ナレーション\n# se \"SE_9118\"\n# alpha 2401911 0 0.5\n# textflame 0 0\n@\nマスターを睨みながら\nそう言い放つと、フェイルノートは\n異族の群れに向けて飛び立った\n\n# move 2103811 3 0\n# face 2103811 \"angry\"\n# alpha 2103811 1 0.5\n# mask 2103811 off\n# textflame 1 1\n@アルマス\nあ！\nフェイルノート、待ちなさいっ！！\n\n;;ナレーション\n# se \"SE_5575\"\n# alpha 2103811 0 0.5\n# textflame 0 0\n@\nフェイルノートを追うアルマスに\n続いて、マスターも走り出す\n\n# move 2302811 2 0\n# face 2302811 \"sad\"\n# alpha 2302811 1 0.5\n# mask 2302811 on\n# textflame 1 1\n# move 162 4 0\n# alpha 162 1 0.5\n# mask 162 on\n@ヘレナ\nあ〜あ、行っちゃった…\n\n# voice 9952 \"nir_0043\"\n@ニール\nヘレナは行かないの？\n\n# face 2302811 \"usual\"\n@ヘレナ\n焦ることはないさ、\nゆっくり行こう…\n\n;;できればもやもやフレームで\n# move 2302811 2 0\n# textwindow \"moya\"\n@ヘレナ\nティファレトとフェイルノートの\nおかげで、ゴッドキラーズの狙いが\nわかってきたぞ…\n\n;;できればもやもやフレームで\n@ヘレナ\n彼女達が固執する結界とバイブス…\nそれに、あの島のこと…\n\n# voice 230281 \"herena_a_0004\"\n# face 2302811 \"happy\"\n# textwindow \"normal\"\n@ヘレナ\n面白くなってきたじゃないか…\nふふっ…\n\n@ニール\nあら、ヘレナったら何がおかしいの？\nアタチにも教えなさいよ！\n\n# face 2302811 \"usual\"\n@ヘレナ\nまだまだ、謎解きはこれからだよ\nニールは賢いから、すぐにわかるよ…\n\n# voice 230281 \"herena_a_0004\"\n# face 2302811 \"happy\"\n@ヘレナ\n…くふっ\n\n;;//暗転（場所移動の演出）\n# textwindow \"close\"\n# fadeout \"black\" 1\n# waitandnext 1.2\n\n# alpha 2302811 0 0\n# alpha 162 0 0\n# waitandnext 0.2\n\n# fadein \"black\" 1\n# waitandnext 1\n\n;;ナレーション\n# bgmfile \"bgm276\" \"BgmLostRagnarokEvent\" 0\n# textflame 0 0\n# textwindow \"normal\"\n@\nフェイルノートを追って、\nジャングルの奥地に着いたマスター達\n\n;;ナレーション\n@\nそこでは、フェイルノートと\nティファレトが圧倒的な力で\n異族を殲滅に追い込んでいた\n\n;;ナレーション\n@\n目の前の光景に圧倒され、\n立ち尽くすマスター達に、\n遅れて到着したヘレナが話しかける\n\n# move 2302811 3 0\n# face 2302811 \"usual\"\n# alpha 2302811 1 0.5\n# mask 2302811 off\n# textflame 1 1\n@ヘレナ\nゴッドキラーズが二人もいれば、\n戦場はこうなるだろうね\n異族の群れも可哀想だね…\n\n# voice 230281 \"herena_a_0004\"\n# face 2302811 \"happy\"\n@ヘレナ\n…くふっ\n\n# alpha 2302811 0 0.5\n# move 2103811 3 0\n# face 2103811 \"angry\"\n# alpha 2103811 1 0.5\n# mask 2103811 off\n@アルマス\nだけど、あの二人…\n共闘している雰囲気じゃないわ\nむしろ、不穏な空気を感じる…\n\n# voice 240191 \"failnaught_a_0068\"\n# alpha 2103811 0 0.5\n# move 2503211 2 0\n# face 2503211 \"angry\"\n# alpha 2503211 1 0.5\n# mask 2503211 on\n# move 2401911 4 0\n# face 2401911 \"angry\"\n# alpha 2401911 1 0.5\n# mask 2401911 on\n@フェイルノート\nティファレト！\n私の邪魔をするのなら、\n下がっていなさい！\n\n# voice 250321 \"tiphereth_t_0069\"\n@ティファレト\nフェイルノート…\nそれはこちらの台詞です\n私の方が先に到着したのですよ？\n\n# voice 210381 \"almace_0022\"\n# alpha 2503211 0 0.5\n# alpha 2401911 0 0.5\n# move 2103811 3 0\n# face 2103811 \"surprise\"\n# alpha 2103811 1 0.5\n# mask 2103811 off\n@アルマス\n…どういうこと？\nあの子達は、同じ目的を持った\n仲間同士なんだと思ってたのに…\n\n# voice 210381 \"almace_0028\"\n# face 2103811 \"sad\"\n@アルマス\n…わからない\nなぜ、あの子達が争っているの？\n本当に…変わってしまったの？\n\n;;ナレーション\n# textflame 0 0\n@\nアルマスはそう言ってうつむき、\n顔を手で覆う\n\n;;ナレーション\n@\n驚きと悲しみで混乱した様子の\nアルマスに、大丈夫？\nと、マスターは声をかける\n\n# bgm \"stop\"\n# textflame 1 1\n@アルマス\n…めない\n\n;;ナレーション\n# textflame 0 0\n@\nマスターがそっと近づくと、\nアルマスは小さな声で\nなにかをつぶやいた\n\n;;ナレーション\n@\n…アルマス？\nと、マスターが声をかけると、\n彼女は勢いよく顔をあげた\n\n# bgmfile \"bgm348_349\" \"BgmSeaEventBattle003\" 0\n# face 2103811 \"angry\"\n# textflame 1 1\n@アルマス\n…私は、絶対にあきらめないっ！\n二人とも、\n私が目を覚まさせてあげるわ！\n\n# se \"SE_10585\"\n# waitandnext 0.5\n\n# voice 210381 \"almace_0029\"\n@アルマス\n覚悟しなさいっ！\nやああああっ！"
	}
]