[
	{
		"ID": 2770010,
		"script": ";;【EP1】/背景：砂浜\n# script \"lisp\"\n# background \"beach\"\n# bgm \"bgm002\" 0\n# se \"SE_5580\"\n# subfillrect 0 \"black\" 0 0 0.2\n# body 100261\n# pos 100261 3\n# scale 100261 0.8 0\n# mask 100261 off\n# textflame 1 1\n# textboxarrow 0 2\n# chara 100261\n# voice 1002 \"revatein_0028\"\n@レーヴァテイン\nふぁ…ねむ…\nんん～…海風は気持ちいいけど…\nちょっと日差しが弱い…かな\n\n# voice 1002 \"revatein_0003\"\n# textboxarrow 0 2\n# chara 100261\n@レーヴァテイン\nせっかくの休暇も曇ってちゃね…\nそれに肌寒いし\nん？あれは…？\n\n# se \"SE_0738\"\n# fadein \"white\" 0.5\n# waitandnext 1\n\n# voice 1002 \"revatein_0023\"\n# textboxarrow 0 2\n# chara 100261\n# face 100261 \"worry2\"\n@レーヴァテイン\nなにか光ってる…\n…金色の…鍵？\nなんでこんなに光って…っ！？\n\n;;演出：白い光が鍵から放たれ辺りを一面ホワイトアウトに\n;;少しの時間経過\n;;背景：白\n# bgm \"stop\" 0\n# se \"SE_5517\"\n# imageset 1 \"bg_white\"\n# imagealpha 1 0 0\n# imagescale 1 3 0\n# textwindow \"close\"\n# fadeout \"white\" 2.3\n# waitandnext 2.3\n\n# imagepos 1 0 0\n# imagealpha 1 1 0\n# fadein \"white\" 1\n# waitandnext 1\n\n# serif 1\n# textwindow \"nomal\"\n# voice 3027 \"amaterasu_0001\"\n@？？？\n誰か…助けて……\nこのままでは…太陽が……\n光が消えてしまう……！\n\n# serif 1\n# voice 3027 \"amaterasu_0007\"\n@？？？\nどうか、その前に……\n全ての『太陽の鍵』を……\nどうか……！\n\n;;背景：次元の狭間\n# se \"SE_0050\"\n# serif 1\n# textwindow \"close\"\n# fadeout \"white\" 2.3\n# waitandnext 2.3\n\n# subfillrect 0 \"black\" 0 0.2 0\n# mask 100261 on\n# fadein \"white\" 1.1\n# imagealpha 1 0 1.1\n# background \"dimensions\"\n# waitandnext 1.2\n\n# serif 0\n# textwindow \"nomal\"\n# textflame 0 0\n@\n見渡す限り、見知らぬ空間が\n広がっている\n\n# bgm \"bgm003\" 0\n# textflame 1 1\n# textboxarrow 0 2\n# chara 100261\n# face 100261 \"worry1\"\n# voice 1002 \"revatein_0024\"\n# textboxarrow 0 2\n# chara 100261\n@レーヴァテイン\nここは…どこ？\n…あなたは？\n\n# textflame 0 0\n@\n少女がこちらに気づき声をかけてきた\n素直に自分の名を名乗る\nそして状況を把握しようとする\n\n# textflame 1 1\n# textboxarrow 0 2\n# chara 100261\n# face 100261 \"worry2\"\n# voice 1002 \"revatein_0017\"\n@レーヴァテイン\nそうだ…鍵…\n砂浜で『鍵』を見つけて…\n\n@レーヴァテイン\nそうしたら光に包まれて…\n誰かの声を聞いた\n確か…『太陽の鍵』がどうとか…\n\n# body 602111\n# pos 602111 1\n# scale 602111 0.8 0\n# alpha 602111 0 0\n# body 125\n# pos 125 3\n# scale 125 0.8 0\n# alpha 125 0 0\n# body 401511\n# pos 401511 5\n# alpha 401511 0 0\n# textflame 0 0\n@\nその時初めて、この空間にいるのは\n二人だけではないことに気がついた\n\n# textflame 1 1\n# textboxarrow 0 1\n# chara 602111\n# move 100261 5 0.5\n# layer 125 1\n# alpha 125 1 0.8\n# alpha 602111 1 0.8\n# face 125 \"usual\"\n# face 602111 \"sad\"\n# voice 6021 \"lizbeth_0002\"\n@？？？\nあなたも“ここではないどこか”から\n来たんだね\n…ここにいるのは４人だけみたい\n\n# textboxarrow 0 2\n# chara 125\n# face 125 \"worry\"\n# voice 4015 \"yuri_0007\"\n@？？？\nみなさんの格好からすると、\n夏の休暇中にここに来てしまった\nということでしょうか\n\n# textboxarrow 0 3\n# chara 100261\n# voice 1002 \"revatein_0022\"\n@レーヴァテイン\n…あなた達、誰？\n\n# textboxarrow 0 1\n# chara 602111\n# face 602111 \"normal\"\n# voice 6021 \"lizbeth_0004\"\n@リズベット\nえっと、わたしはリズベットです\nビーナス魔法学校に通う、魔法使い\n\n# textboxarrow 0 2\n# chara 125\n# face 125 \"usual\"\n# voice 4015 \"yuri_0001\"\n@ユリ\nわたくしの名はユリ\n忍びの里のクノイチですわ\n\n# textboxarrow 0 3\n# chara 100261\n# voice 1002 \"revatein_0036\"\n@レーヴァテイン\nレーヴァテイン…\nキラープリンセスよ\n\n# textflame 0 0\n@\n話をしているうちに、４人とも\n金色の『鍵』をみつけ、その後\n不思議な声を聞いていたことがわかる\n\n@\n…しかし、見つけたはずの鍵は\n気づくと見当たらない\n\n# textflame 1 1\n# textboxarrow 0 1\n# chara 602111\n# face 602111 \"surprise\"\n# voice 6021 \"lizbeth_0022\"\n@リズベット\nあっ！？\nそういえば、どこにもない！！\n\n# textboxarrow 0 2\n# chara 125\n# face 125 \"worry\"\n# voice 4015 \"yuri_0013\"\n@ユリ\nわたくし達をここに送り込んだけど\n『鍵』は見つけた場所に残ったまま…\nということかもしれませんわ\n\n# textboxarrow 0 3\n# chara 100261\n# voice 1002 \"revatein_0003\"\n@レーヴァテイン\n…あれ、私、『鍵』持ってるみたい\nあの声が言ってた『太陽の鍵』って…\n\n# textflame 0 0\n@\nレーヴァテインの持っている『鍵』を\n見る限り、自分が見つけた鍵と\n同じものであるようだった\n\n# textflame 1 1\n# textboxarrow 0 1\n# chara 602111\n@リズベット\n%(userName)sさんも？\n\n# textboxarrow 0 2\n# chara 125\n# voice 4015 \"yuri_0028\"\n@ユリ\n…ということはこれが『太陽の鍵』と\nいうことに間違いなさそうですわね\n\n# textboxarrow 0 1\n# chara 602111\n# face 602111 \"sad\"\n# voice 6021 \"lizbeth_0021\"\n@リズベット\n太陽の光が消えちゃうとかって…\n怖いよね、本当に\nそんなことになっちゃったら！\n\n# textboxarrow 0 1\n# chara 602111\n@リズベット\nでも、確かに『鍵』を見つける前、\nなんだか、いつもより\n太陽が暗いなあって…思ってた\n\n# textboxarrow 0 2\n# chara 125\n# face 125 \"sad\"\n# voice 4015 \"yuri_0003\"\n@ユリ\nはい、私もそう思いましたわ…\nせっかくの夏の海でしたのに、\n太陽の光がどこか弱々しくて…\n\n# textboxarrow 0 3\n# chara 100261\n# face 100261 \"worry1\"\n@レーヴァテイン\n私のいた場所もそうだった…\n黒い雲に覆われて…\n夏なのに少し寒くて…\n\n# textboxarrow 0 3\n# chara 100261\n# voice 1002 \"revatein_0024\"\n@レーヴァテイン\n…なにか、大変なことが\n起こってる…のかな…\nでも、これだけじゃ…\n\n# textflame 0 0\n@\nそう言いながら、レーヴァテインは\n手がかりを求めるように\n『太陽の鍵』をまじまじと見つめた\n\n# textflame 1 1\n# textboxarrow 0 3\n# chara 100261\n# face 100261 \"worry2\"\n@レーヴァテイン\n…ねえ\n私達…どうすればいいの？\n\n;;【指定】BGM停止\n# bgm \"stop\" 0\n# textflame 0 0\n@\n…その時だった\n\n# serif 0\n# textwindow \"close\"\n# serif 1\n# textwindow \"nomal\"\n# voice 3027 \"amaterasu_0004\"\n@？？？\nああ！…私の声、\nちゃんと届いてたのね…\n良かった…\n\n# serif 1\n# textwindow \"close\"\n# serif 0\n# textflame 1 1\n# textwindow \"toge\"\n# textboxarrow 0 0\n# face 100261 \"angry\"\n# face 125 \"surprise\"\n# face 602111 \"surprise\"\n@レーヴァテイン・リズベット・ユリ\n！！\n\n# serif 0\n# textwindow \"nomal\"\n# voice 6021 \"lizbeth_0022\"\n# textflame 1 1\n# textboxarrow 0 1\n# chara 602111\n@リズベット\nまた、あの声だ！\n\n;;レヴァが持つ『太陽の鍵』の力により、アマテラスの姿が見える（立ち絵が表示される）展開に変更\n;;演出：光ってから、アマテラス登場\n# mask 302711 off\n# body 302711\n# pos 302711 3\n# scale 302711 0.8 0\n# alpha 302711 0 0\n# face 302711 \"usual\"\n# se \"SE_5623\"\n# bgm \"bgm004\" 0\n# fadeout \"white\" 1\n# textwindow \"close\"\n# waitandnext 1\n\n# alpha 100261 0 0\n# alpha 602111 0 0\n# alpha 125 0 0\n# alpha 302711 1 0\n# fadein \"white\" 0.5\n# waitandnext 1\n\n# serif 0\n# textwindow \"nomal\"\n# alpha 302711 0 0.5\n# alpha 100261 1 0.5\n# alpha 602111 1 0.5\n# alpha 125 1 0.5\n# layer 302711 2\n# voice 1002 \"revatein_0023\"\n# textflame 1 1\n# textboxarrow 0 3\n# chara 100261\n# face 100261 \"worry1\"\n@レーヴァテイン\nっ！？\n鍵から光があふれて…\n女の子の姿が…！？\n\n# mask 302711 on\n# textboxarrow 0 2\n# chara 125\n# face 125 \"usual\"\n# voice 4015 \"yuri_0008\"\n@ユリ\n…私達に呼びかけたのは\nあなたなのですか？\n\n# move 125 1 0.5\n# move 302711 3 0\n# alpha 302711 1 0.5\n# alpha 602111 0 0.5\n# voice 3027 \"amaterasu_0003\"\n# textboxarrow 0 2\n# chara 302711\n# face 302711 \"usual\"\n@？？？\nはい！助けてほしいって\nお願いしたのは、私です\n\n# face 302711 \"shy\"\n# voice 3027 \"amaterasu_0005\"\n@アマテラス\n…あっ、すみません！\n自己紹介が遅れてしまって…\n私、アマテラスと言います\n\n# face 302711 \"usual\"\n@アマテラス\n『太陽を司る者』なんて\n呼ばれることもあるんだけど…\n\n# textboxarrow 0 3\n# chara 100261\n# face 100261 \"normal\"\n# voice 1002 \"revatein_0009\"\n@レーヴァテイン\nそんなのは後回しでいいから…\n助けてほしいんでしょ？\n私達はなにをすればいいわけ？\n\n# textboxarrow 0 2\n# chara 302711\n# face 302711 \"surprise\"\n# voice 3027 \"amaterasu_0003\"\n@アマテラス\nそ、そうだった！\n…『太陽の鍵』を取り戻す\n手伝いをしてほしいの\n\n# face 302711 \"usual\"\n# voice 3027 \"amaterasu_0019\"\n@アマテラス\nこのままじゃ、太陽の光が\nなくなってしまうから…\n\n# textboxarrow 0 1\n# chara 125\n# face 125 \"worry\"\n# voice 4015 \"yuri_0028\"\n@ユリ\nそういえばこのところ、\n太陽の光が前より\n弱くなったような気がしますわ\n\n# textboxarrow 0 1\n# chara 602111\n# alpha 125 0 0.3\n# alpha 602111 1 0.5\n# voice 6021 \"lizbeth_0021\"\n@リズベット\nそれって『太陽の鍵』が\n取られちゃったせいだったの！？\n…どうしよう、大変だよ！！\n\n# textboxarrow 0 1\n# chara 125\n# alpha 125 1 0.5\n# alpha 602111 0 0.5\n# face 125 \"usual\"\n# voice 4015 \"yuri_0002\"\n@ユリ\nその、『太陽の鍵』とは\n一体なんなんですの…？\n\n# textboxarrow 0 2\n# chara 302711\n# voice 3027 \"amaterasu_0003\"\n@アマテラス\nあ…そうだよね\nそこから言わないと\nわからないですよね\n\n@アマテラス\n『太陽の鍵』は世界の昼と夜を\nコントロールするために\n必要な道具なの\n\n# face 302711 \"sad\"\n# voice 3027 \"amaterasu_0019\"\n@アマテラス\n世界ごとに１本ずつあるんだけど\nそれがまとめて奪われてしまって…\n\n# textboxarrow 0 3\n# chara 100261\n# face 100261 \"worry1\"\n@レーヴァテイン\n奪われた…\nって、そんな大事なものが？\n\n# voice 1002 \"revatein_0007\"\n@レーヴァテイン\n…あなたの話が本当なら、\n簡単に奪われるようなものだとは\nとても思えないんだけど\n\n# textboxarrow 0 2\n# chara 302711\n# face 302711 \"usual\"\n@アマテラス\n私だって、\nまさかこんなことになるなんて\n思ってもみなかったんだから…！\n\n@アマテラス\n『鍵』のある『宵の間』には\n強力な太陽の加護があって\n私以外には入れないはずだったし\n\n@アマテラス\nそれなのに『宵の間』を\n負のエネルギーで包み込んで\n太陽の加護をなくしてしまうだなんて\n\n# voice 3027 \"amaterasu_0019\"\n@アマテラス\nそんなことができる者がいるとは\n思ったこともなくて…\n\n# textboxarrow 0 1\n# chara 602111\n# alpha 125 0 0.3\n# face 602111 \"sad\"\n# alpha 602111 1 0.5\n# voice 6021 \"lizbeth_0028\"\n@リズベット\nんん～、よくわからないけど\n要するに油断してたってことですか？\n\n# textboxarrow 0 2\n# chara 302711\n# face 302711 \"sad\"\n# voice 3027 \"amaterasu_0015\"\n@アマテラス\nううっ！\n…で、でも、それだけじゃないの！\n\n# face 302711 \"usual\"\n@アマテラス\n昼と夜を入れ替える黄昏の時間は\n作業に集中しなきゃいけないから、\nそこを狙われるとどうしようもなくて\n\n# textboxarrow 0 1\n# chara 125\n# alpha 125 1 0.5\n# alpha 602111 0 0.3\n# voice 4015 \"yuri_0040\"\n@ユリ\nやっぱり油断してた\nって、ことですわね？\n\n# textboxarrow 0 2\n# chara 302711\n# face 302711 \"sad\"\n@アマテラス\nうううっ…\nそんなつもりはなかったんだけど…\n\n# textboxarrow 0 3\n# chara 100261\n# voice 1002 \"revatein_0027\"\n# face 100261 \"worry2\"\n@レーヴァテイン\n油断していたかどうかはともかく…\n…相手が一枚上手だったというのは\nよくわかったわ\n\n# textflame 0 0\n@\nその…\n『太陽の鍵』を奪った相手は\nなにが目的なのか…\n\n# textflame 1 1\n# textboxarrow 0 2\n# chara 302711\n# face 302711 \"usual\"\n# voice 3027 \"amaterasu_0019\"\n@アマテラス\n…それは、さっきも言った通りです\n太陽の光をなくすこと…\n\n@アマテラス\n全ての世界を、光の射さない\n闇の世界にしてしまうこと、だって…\n\n# textboxarrow 0 3\n# chara 100261\n# voice 1002 \"revatein_0007\"\n@レーヴァテイン\n…闇の世界になると、\n具体的にどんな問題があるの？\n\n# alpha 125 0 0.3\n# alpha 602111 1 0.5\n# textboxarrow 0 1\n# chara 602111\n# face 602111 \"angry\"\n# voice 6021 \"lizbeth_0035\"\n@リズベット\n暗いってだけで大問題だよ！\n\n# textboxarrow 0 2\n# chara 302711\n@アマテラス\nそれはもちろん…\nでも、それだけじゃないの\n\n@アマテラス\n光の射さない世界では、\n人々の心も\nどんどん闇に染まっていきます\n\n# voice 3027 \"amaterasu_0019\"\n@アマテラス\n希望を抱かず、\n悲観的なことばかり考え\nただ不幸を嘆き続けるように…\n\n# textflame 0 0\n@\n想像しただけでも恐ろしい、\n光が射さない世界…\n\n# textflame 1 1\n# textboxarrow 0 3\n# chara 100261\n# face 100261 \"angry\"\n# voice 1002 \"revatein_0010\"\n@レーヴァテイン\n…そんなこと、させない\n日向ぼっこしながらの昼寝が\nできなくなるもの…\n\n# emotionbody 5841 9 602111 -30 165\n# effectpattern 5841 1 0\n# effectstart 5841\n# textboxarrow 0 1\n# chara 602111\n# face 602111 \"surprise\"\n# voice 6021 \"lizbeth_0026\"\n@リズベット\nそんな理由！？\n\n# textboxarrow 0 3\n# chara 100261\n# face 100261 \"worry2\"\n@レーヴァテイン\n…この鍵にも\n…それだけの力が秘められてるの？\n\n# textflame 0 0\n@\nその場の全員が、レーヴァテインが\n持つ『太陽の鍵』に目を向けた\nその瞬間…\n\n;;演出：画面揺らしか効果音等で追手が来た風に\n# textflame 1 1\n# fadein \"black\" 1\n# se \"SE_5739\"\n# bgmfile \"bgm259\" \"Bgm3Tcollabo003\" 0\n# shake 1 1.2\n# textboxarrow 0 2\n# chara 302711\n# face 302711 \"sad\"\n# voice 3027 \"amaterasu_0024\"\n@アマテラス\n………ひゃあっ！？\n追っ手が…！！\n\n;;アマテラス立ち絵OUT\n# textboxarrow 0 0\n# alpha 302711 0 0.3\n# textwindow \"close\"\n# waitandnext 0.3\n\n# textwindow \"toge\"\n# move 125 3 0\n# alpha 125 1 0.5\n# face 100261 \"angry\"\n# face 125 \"surprise\"\n# face 602111 \"surprise\"\n# textboxarrow 0 0\n@レーヴァテイン・リズベット・ユリ\n！！\n\n# textwindow \"nomal\"\n# textflame 0 0\n@\n突然の異変に\n彼女が窮地に陥ったことを\n全員が理解した\n\n@\nしかし、助けに行こうにも\nアマテラスがどこにいるかも\nわからない状況である\n\n# serif 0\n# textwindow \"close\"\n# serif 1\n# textwindow \"nomal\"\n@アマテラス\nか、『鍵』を使って下さい！\n\n# serif 1\n@アマテラス\n太陽の力を持つ『太陽の鍵』なら、\n同じ太陽を司る私のところに\nきっと導いてくれるはず…\n\n# serif 1\n# textwindow \"close\"\n# serif 0\n# textwindow \"nomal\"\n# voice 1002 \"revatein_0003\"\n# textflame 1 1\n# textboxarrow 0 3\n# chara 100261\n# face 100261 \"angry\"\n@レーヴァテイン\n…わかった\n…『太陽の鍵』、私達を\nアマテラスの下へ…！\n\n# fadein \"white\" 1.5\n# se \"SE_5517\"\n# imageset 4 \"bg_white_circle\"\n# imagealpha 4 0 0\n# imagescale 4 1.2 0\n# imagealpha 1 1 1.5\n# textflame 0 0\n@\nレーヴァテインの声に反応し\n『太陽の鍵』が光を放つ\n\n;;演出　ラグナ大陸がうっすら見える扉が現れる\n# se \"SE_4822\"\n# alpha 100261 0 0\n# alpha 125 0 0\n# alpha 602111 0 0\n# imagealpha 4 1 2\n# imagepos 4 0 0\n# imagealpha 1 0 2\n# background \"mypage_heaven\"\n@\n放たれた光が空間をなぞり、\n黄金の扉が\nにじみ出るようにして現れた\n\n# layer 602111 5\n# layer 100261 6\n# layer 125 7\n# scale 100261 0.6 0\n# scale 125 0.6 0\n# scale 602111 0.6 0\n# alpha 100261 1 0.5\n# alpha 125 1 0.5\n# alpha 602111 1 0.5\n# face 125 \"surprise\"\n# face 100261 \"worry2\"\n# textflame 1 1\n# textboxarrow 0 1\n# chara 602111\n# voice 6021 \"lizbeth_0022\"\n@リズベット\nあれは…？\n\n# textboxarrow 0 3\n# chara 100261\n# voice 1002 \"revatein_0024\"\n@レーヴァテイン\n…あれは、ラグナ大陸\n\n# textboxarrow 0 2\n# chara 125\n# face 125 \"usual\"\n# voice 4015 \"yuri_0024\"\n@ユリ\nあなたの住む世界ですの？\n\n# textboxarrow 0 3\n# chara 100261\n# voice 1002 \"revatein_0003\"\n@レーヴァテイン\n…そう\nアマテラスは、ラグナ大陸にいる\n\n# textboxarrow 0 1\n# chara 602111\n# face 602111 \"angry\"\n# voice 6021 \"lizbeth_0003\"\n@リズベット\nじゃあ行こう、ラグナ大陸へ！！\n…どういうとこかはわからないけど\n\n# textboxarrow 0 2\n# chara 125\n# face 125 \"smile\"\n# voice 4015 \"yuri_0004\"\n@ユリ\n元々助けるつもりで来たのですもの\nどこへ行こうと問題ありませんわ\n\n# textflame 0 0\n@\n二人の意見に同意し、\nレーヴァテインへと視線を送る\n\n# textflame 1 1\n# textboxarrow 0 3\n# chara 100261\n@レーヴァテイン\n…この扉の向こうにアマテラスが\n…いくわよ\n\n# se \"SE_0624\"\n# alpha 100261 0 0.5\n# alpha 602111 0 0.5\n# alpha 125 0 0.5\n# textflame 0 0\n@\nアマテラスを助けるため、\n勢いよく扉の向こうの世界に\n全員で飛び込む\n\n# body 122\n# pos 122 3\n# scale 122 0.8 0\n# mask 122 off\n# alpha 122 0 0\n# textflame 0 0\n@\nしかし、この先に大きな陰謀が\n待ち構えていることはまだ誰も\n知る由がなかった\n\n;;演出：ひょこっと現れる狛犬\n# rightin 122 0.5\n# alpha 122 1 0\n# bgm \"stop\"\n# se \"SE_5756\"\n# sedelay \"SE_5757\" 0.3\n# textflame 1 1\n# textboxarrow 0 2\n# chara 122\n@狛犬\n…さて、どっちに転ぶのか\n見届けるとしようか\n\n;;演出：フラッシュ\n# se \"SE_4822\"\n# imagealpha 1 0 0\n# imagescale 1 10 0\n# textwindow \"close\"\n# fillrect \"white\" 2.3 0 1\n# waitandnext 2.7\n\n# alpha 122 0 0\n# imagepos 1 0 0\n# imagealpha 1 1 0\n# fillrect \"white\" 1 1 0\n# waitandnext 0.1\n\n# alpha 100261 1 0\n# alpha 602111 1 0\n# alpha 125 1 0\n# scale 100261 0.8 0\n# scale 125 0.8 0\n# scale 602111 0.8 0\n# imagealpha 4 0 0\n# imagealpha 1 0 1\n# fadein \"white\" 1.1\n# background \"beach\"\n# face 602111 \"normal\"\n# face 100261 \"worry2\"\n# waitandnext 1.1\n\n;;背景：砂浜\n# se \"SE_9366\"\n# textwindow \"nomal\"\n# textflame 1 1\n# textboxarrow 0 3\n# chara 100261\n@レーヴァテイン\nここは…海辺ね\n私が昼寝に来ていたところとは\n違うみたいだけど…\n\n# textboxarrow 0 1\n# chara 602111\n# face 602111 \"sad\"\n@リズベット\nアマテラスさんはどこでしょうか？\nすぐに助けにいかないと…\n\n# body 810004\n# pos 810004 3\n# scale 810004 0.8 0\n# mask 810004 off\n# alpha 810004 0 0\n# voice 4015 \"yuri_0019\"\n# textboxarrow 0 2\n# chara 125\n# face 125 \"angry\"\n@ユリ\n…あの船の上を見てください！\n…どうやらすぐに助けるってわけにも\nいかないみたいですわね\n\n# alpha 100261 0 0.3\n# alpha 602111 0 0.3\n# alpha 125 0 0.3\n# alpha 810004 1 0.5\n# bgm \"bgm011\" 0\n# se \"SE_0618\"\n# serif 0\n# textwindow \"close\"\n# serif 1\n# textwindow \"toge\"\n@異族\nグギギギギギギギギ！\n\n# emotionbody 6022 11 602111 -125 220\n# effectpattern 6022 2 0\n# effectstart 6022\n# serif 1\n# textwindow \"close\"\n# serif 0\n# textwindow \"nomal\"\n# alpha 100261 1 0.5\n# alpha 602111 1 0.5\n# alpha 125 1 0.5\n# alpha 810004 0 0.3\n# voice 6021 \"lizbeth_0006\"\n# textflame 1 1\n# textboxarrow 0 1\n# chara 602111\n# face 602111 \"surprise\"\n@リズベット\nわ、なんか邪魔しに来た！？\n\n# textboxarrow 0 3\n# chara 100261\n# face 100261 \"angry\"\n@レーヴァテイン\n…下がってて\nすぐに終わらせる\n\n# se \"SE_5582\"\n# textflame 0 0\n@\nレーヴァテインはそう言うと、\n手に持っていた剣を構える\n\n# textflame 1 1\n# textboxarrow 0 2\n# chara 125\n# voice 4015 \"yuri_0033\"\n@ユリ\n加勢しますわ！！\n\n# textboxarrow 0 1\n# chara 602111\n# face 602111 \"angry\"\n@リズ\nふたりとも待ってよ～！\nわたしもがんばるんだから！！\n\n# textboxarrow 0 3\n# chara 100261\n# voice 1002 \"revatein_0029\"\n@レーヴァテイン\nはあああああっ！\n\n# se \"SE_5575\"\n# alpha 100261 0 0.3\n# alpha 602111 0 0.3\n# alpha 125 0 0.3\n# textflame 0 0\n@\nそれぞれの武器を構え、\n彼女達が駆け出していった\n\n"
	}
]