[
	{
		"ID": 277000421,
		"script": ";;【EP3】妖精の架け橋\n# script \"lisp\"\n# bgmfile \"bgm348\" \"BgmSeaEventBattle003\" 0\n# background \"sea_landmark_day\"\n# body 2104211\n# pos 2104211 4 0\n# scale 2104211 0.8 0\n# mask 2104211 off\n# layer 2104211 3\n# body 162\n# pos 162 5 0\n# scale 162 0.6 0\n# mask 162 off\n# layer 162 5\n# body 161\n# pos 161 5 0\n# scale 161 0.6 0\n# mask 161 off\n# layer 161 4\n# body 2303111\n# pos 2303111 3 0\n# scale 2303111 0.8 0\n# mask 2303111 off\n# layer 2303111 3\n# body 2302811\n# pos 2302811 3 0\n# scale 2302811 0.8 0\n# mask 2302811 off\n# layer 2302811 3\n# body 164\n# pos 164 5 0\n# scale 164 0.6 0\n# mask 164 off\n# layer 164 3\n# body 2103811\n# pos 2103811 3 0\n# scale 2103811 0.8 0\n# mask 2103811 off\n# layer 2103811 3\n# body 2303211\n# pos 2303211 3 0\n# scale 2303211 0.8 0\n# mask 2303211 off\n# layer 2303211 3\n# body 2503111\n# pos 2503111 3 0\n# scale 2503111 0.8 0\n# mask 2503111 off\n# layer 2503111 3\n# body 2100231\n# pos 2100231 3 0\n# scale 2100231 0.8 0\n# mask 2100231 off\n# layer 2100231 3\n# alpha 2100231 0 0\n# alpha 2103811 0 0\n# alpha 2303211 0 0\n# alpha 2503111 0 0\n# alpha 2302811 0 0\n# alpha 164 0 0\n# alpha 2303111 0 0\n# alpha 162 0 0\n# alpha 161 0 0\n# alpha 2104211 0 0\n# textflame 1 1\n# chara 2103811\n# voice 210381 \"almace_0004\"\n# face 2103811 \"usual\"\n# alpha 2103811 1 0\n@アルマス\nふぅ…\nまともに動けるぐらいには\n回復したみたいね…\n\n# textflame 1 1\n# move 2103811 3 0.3\n# alpha 2104211 1 0.5\n# rightin 2104211 0.5\n# mask 2103811 on\n# mask 2104211 on\n;;# chara 2104211\n# voice 210421 \"morabeaga_l_0021\"\n# face 2104211 \"smile\"\n@モラベガ\nわぁ！\nアルマス、よかったねっ！\n\n# textflame 0 0\n@\nプールからあがったアルマスに\nモラベガが大喜びしながら\n抱きついた\n\n# se \"SE_0683\"\n# move 2103811 2 0.5\n# textflame 1 1\n# chara 2103811\n# voice 210381 \"almace_0023\"\n# face 2103811 \"surprise\"\n@アルマス\nふわぁっ！\nもう、モラベガったら\n驚かさないでよ\n\n# textflame 1 1\n;;# chara 2104211\n# voice 210421 \"morabeaga_l_0042\"\n@モラベガ\nだって、嬉しいんだもん！\nビーチでもジャングルでも\n会えなくて寂しかったんだよっ！\n\n# textflame 1 1\n# chara 2103811\n# voice 210381 \"almace_0028\"\n# face 2103811 \"sad\"\n@アルマス\nえ、ええと…\nその気持ちは嬉しいんだけど…\n\n# textflame 1 1\n# chara 2103811\n@アルマス\n急に抱きつかれるのは、\nちょっと…\n\n# textflame 0 0\n@\nマスターはアルマス達に、\n二人は仲良しなんだね\nと、笑いかける\n\n# textflame 1 1\n;;# chara 2104211\n# voice 210421 \"morabeaga_l_0003\"\n# face 2104211 \"normal\"\n@モラベガ\nそうだよ！\n私達とアルマスは仲良しなんだっ！\n\n# textflame 0 0\n@\nそういって笑っていたモラベガが\n不意にマスターの存在に気づき、\nスゥッと表情を曇らせる\n\n# textflame 1 1\n;;# chara 2104211\n# face 2104211 \"sad\"\n@モラベガ\nこの人、知らないね…\nだれだろう？\n悪い人かな？\n\n# textflame 1 1\n;;# chara 2104211\n# face 2104211 \"normal\"\n@モラベガ\nでも、アルマスと一緒にいたよ？\nじゃあ、いい人かな？\n\n# textflame 1 1\n;;# chara 2104211\n# face 2104211 \"angry\"\n@モラベガ\nだけど、悪い人なら\nやっつけなくちゃ！\nう～ん、どっちかな？\n\n# textflame 1 1\n# chara 2103811\n# voice 210381 \"almace_0004\"\n# face 2103811 \"normal\"\n@アルマス\nふふっ\n悪い人じゃないわよ、多分ね\n\n# textflame 1 1\n# chara 2103811\n@アルマス\n私はマスターって呼んでるの\n別の島から来たんだって\n\n# textflame 0 0\n@\nビーチでアルマスに助けてもらって、\nそれから一緒に島をまわっているんだ\nと、マスターもモラベガに話しかける\n\n# textflame 0 0\n@\nアルマスの力になりたくて、\n仲間を集めているんだ\nと、続けた\n\n# textflame 1 1\n;;# chara 2104211\n# voice 210421 \"morabeaga_l_0004\"\n# face 2104211 \"smile\"\n@モラベガ\n…アルマスの味方なの？\nじゃあ、私達と一緒だねっ！\n\n# textflame 0 0\n@\nモラベガは、再び笑顔を見せる\n\n# textflame 1 1\n# chara 2103811\n# face 2103811 \"usual\"\n@アルマス\n私は、あの子達…\nゴッドキラーズに、\n島の支配なんてやめさせたいの\n\n# textflame 1 1\n# chara 2103811\n@アルマス\nそのために、私達の強さを\n証明しなくちゃいけない…\n\n# textflame 1 1\n# chara 2103811\n@アルマス\nだから、モラベガも\n私達と一緒に来てくれる？\n\n# textflame 0 0\n@\nアルマスの申し出に、\nモラベガは満面の笑顔で答える\n\n# textflame 1 1\n;;# chara 2104211\n# voice 210421 \"morabeaga_l_0033\"\n@モラベガ\nもちろんだよっ！\n\n# textflame 0 0\n@\nそういって、モラベガは再び\nアルマスに強く抱きつく\n\n# se \"SE_0683\"\n# move 2104211 3 0.3\n# shake 0 0.5\n# textflame 1 1\n# chara 2103811\n# voice 210381 \"almace_0023\"\n# face 2103811 \"surprise\"\n@アルマス\nきゃっ！\n\n# textflame 1 1\n;;# chara 2104211\n# voice 210421 \"morabeaga_l_0004\"\n@モラベガ\nこれからはずっと一緒だよっ！\n私達が、アルマスを守ってあげる！\n\n# textflame 1 1\n# chara 2103811\n# voice 210381 \"almace_0030\"\n# face 2103811 \"shy\"\n@アルマス\nあ、ありがと…\n\n# textflame 0 0\n@\n頼りにしているよ、よろしくね\nと、マスターがモラベガに\n笑いかけると…\n\n# move 2104211 4 1\n# textflame 1 1\n;;# chara 2104211\n# face 2104211 \"normal\"\n@モラベガ\n…………\n\n# textflame 0 0\n@\nモラベガはマスターを\n不思議そうな顔で見つめ返した\n\n# textflame 0 0\n@\nどうかしたの？\nと、マスターが尋ねると…\n\n# textflame 1 1\n;;# chara 2104211\n# voice 210421 \"morabeaga_l_0042\"\n@モラベガ\n頼りにしてるって言われたらね\n胸のあたりがふわぁっとして、\n急に力が湧いてきたんだぁ…\n\n# textflame 1 1\n;;# chara 2104211\n@モラベガ\nこんな風に思うの\nアルマス以外だと初めてかも\n\n# textflame 1 1\n;;# chara 2104211\n@モラベガ\n他の子に言われても\nなんとも思わなかったのに…\n\n# textflame 1 1\n;;# chara 2104211\n# voice 210421 \"morabeaga_l_0002\"\n@モラベガ\nねぇねぇ、どうしてかな？\n\n# textflame 1 1\n# chara 2103811\n# voice 210381 \"almace_0003\"\n# face 2103811 \"usual\"\n@アルマス\n心配いらないわ\nマスターと繋がったってことよ\n\n# textflame 1 1\n# chara 2103811\n@アルマス\nさて、ヘレナ達の話も\nそろそろ終わったんじゃない？\n\n;;場面転換\n# imageset 0 \"black\"\n# imagealpha 0 0 0\n# imagelayer 0 1\n# imagescale 0 1.2 0\n# waitandnext 0.1\n\n;;暗転挟む\n# bgmfile \"bgm271\" \"BgmLostRagnarokEvent\" 0\n# imagealpha 0 1 0\n# imagepos 0 0 30\n# imageleftin 0 0.5\n# serif 0\n# textwindow \"close\"\n# serif 1\n# textwindow \"close\"\n# waitandnext 1\n\n# imagealpha 0 0 0.5\n# imagerightout 0 0.5\n# serif 0\n# textwindow \"nomal\"\n# textflame 1 1\n# chara 2100231\n# voice 210023 \"revatein_ge_0028\"\n# face 2100231 \"usual\"\n# alpha 2100231 1 0\n# alpha 2104211 0 0\n# alpha 2103811 0 0\n@レーヴァテイン\n…話はだいたい分かったわ\n\n# textflame 1 1\n# chara 2100231\n@レーヴァテイン\nあなた達は、アルマスやマスターと\n行動を共にするべきだというのね？\n\n# textflame 1 1\n# chara 2302811\n# voice 230281 \"herena_a_0003\"\n# face 2302811 \"usual\"\n# alpha 2302811 1 0.5\n# alpha 2100231 0 0.5\n@ヘレナ\nレーヴァも話せばわかるさ…\n先輩は特別なんだ\n\n# textflame 1 1\n# chara 2503111\n# voice 250311 \"solomon_t_0003\"\n# face 2503111 \"usual\"\n# alpha 2503111 1 0.5\n# alpha 2302811 0 0.5\n@ソロモン\nマスターの近くにいると、\n不思議な力が湧いてくるの\n体験する価値はあるはずよ\n\n# textflame 1 1\n# chara 2100231\n# alpha 2100231 1 0.5\n# alpha 2503111 0 0.5\n@レーヴァテイン\n私には、\nあのマスターとかいう存在が\nそこまで重要とは思えないけど…\n\n# textflame 1 1\n# chara 2302811\n# voice 230281 \"herena_a_0028\"\n# alpha 2302811 1 0.5\n# alpha 2100231 0 0.5\n@ヘレナ\nそうかな…\nゴッドキラーズの方は、\n先輩を重要視しているけどね…\n\n# textflame 1 1\n# chara 2503111\n# voice 250311 \"solomon_t_0028\"\n# alpha 2503111 1 0.5\n# alpha 2302811 0 0.5\n@ソロモン\nフェイルノートは、マスターを\nあの島の王とも言っていたわ\n\n# textflame 1 1\n# chara 2100231\n# voice 210023 \"revatein_ge_0034\"\n# alpha 2100231 1 0.5\n# alpha 2503111 0 0.5\n@レーヴァテイン\nそもそも、あの島のことは\n私達には関係ない…\nそうでしょ？\n\n# textflame 1 1\n# chara 2100231\n@レーヴァテイン\n今までと同じように、\n私達だけでやるわ\nアルマス達と組む必要はない…\n\n# textflame 1 1\n# chara 2100231\n@レーヴァテイン\n私はカシウスを追う\nあなた達も一緒に来てくれるわね？\n\n;;場面転換\n# imagealpha 0 1 0\n# imagepos 0 0 30\n# imageleftin 0 0.5\n# serif 0\n# textwindow \"close\"\n# serif 1\n# textwindow \"close\"\n# waitandnext 1\n\n# imagealpha 0 0 0.5\n# imagerightout 0 0.5\n# serif 0\n# textwindow \"nomal\"\n# textflame 1 1\n# chara 2303211\n# voice 230321 \"gaedearg_ge_0002\"\n# face 2303211 \"usual\"\n# alpha 2303211 1 0\n# alpha 2100231 0 0\n@ガ・ジャルグ\nねぇ、マスター…\nディスラプターズは\nあなたと一緒に行かないみたいよ？\n\n# textflame 1 1\n# chara 2103811\n# voice 210381 \"almace_0022\"\n# face 2103811 \"surprise\"\n# mask 2103811 off\n# move 2103811 3 0\n# alpha 2103811 1 0.5\n# alpha 2303211 0 0.5\n@アルマス\nえ？\nそれって…どういうこと？\n\n# textflame 1 1\n# chara 2303211\n# voice 230321 \"gaedearg_ge_0003\"\n# alpha 2303211 1 0.5\n# alpha 2103811 0 0.5\n@ガ・ジャルグ\n話が聞こえてきたの\nレーヴァテインは\n今までと同じやり方でやるって\n\n# textflame 1 1\n# chara 2303211\n# voice 230321 \"gaedearg_ge_0004\"\n# face 2303211 \"normal\"\n@ガ・ジャルグ\nまぁ、この私さえいればいいじゃない\n誰がいなくなっても\n心配することはないわよ\n\n# textflame 0 0\n@\nディスラプターズの方を見ると、\nヘレナとソロモンがレーヴァテインを\n説得しようとしている様子が見えた\n\n# textflame 1 1\n# chara 2103811\n# voice 210381 \"almace_battle_0005\"\n# face 2103811 \"angry\"\n# alpha 2303211 0 0.5\n# alpha 2103811 1 0.5\n@アルマス\nくっ…\n私も、彼女と話をしてくるわ！\n\n# se \"SE_5575\"\n# alpha 2103811 0 0.5\n# textflame 0 0\n@\nマスターとモラベガも、\nあわててアルマスの後を追う\n\n;;場面転換\n# se \"SE_5575\"\n# imagealpha 0 1 0\n# imagepos 0 0 30\n# imageleftin 0 0.5\n# serif 0\n# textwindow \"close\"\n# serif 1\n# textwindow \"close\"\n# waitandnext 1\n\n# imagealpha 0 0 0.5\n# imagerightout 0 0.5\n# serif 0\n# textwindow \"nomal\"\n# textflame 1 1\n# chara 2103811\n@アルマス\nレーヴァテイン！\n私の話も聞いて！\n\n# textflame 1 1\n# chara 2100231\n# voice 210023 \"revatein_ge_0013\"\n# face 2100231 \"usual\"\n# alpha 2100231 1 0.5\n# alpha 2103811 0 0.5\n@レーヴァテイン\nはぁ…\nまためんどくさいのが来たわね…\n\n# textflame 1 1\n# chara 2103811\n# alpha 2100231 0 0.5\n# alpha 2103811 1 0.5\n@アルマス\n私がゴッドキラーズの\n目を覚まさせるわ！\nだから、力を貸して欲しいの\n\n# textflame 1 1\n# chara 2100231\n# alpha 2100231 1 0.5\n# alpha 2103811 0 0.5\n@レーヴァテイン\n…………\n\n# textflame 1 1\n;;# chara 161\n# voice 9953 \"mwu_0001\"\n# alpha 161 1 0.5\n@ムー\nよう、アルマス！\nレヴァはご機嫌ナナメなんだよ！\n仲間を取られて寂しいんだろうなぁ\n\n# move 2100231 4 0.3\n# textflame 1 1\n;;# chara 161\n@ムー\n仕方ねえから、\n俺が代わりに聞いてやってもいいぜ！\n…ムググッ\n\n# textflame 0 0\n@\nおしゃべりなムーの口を、\nレーヴァテインの手が塞ぐ\n\n# textflame 1 1\n# chara 2100231\n# voice 210023 \"revatein_ge_0014\"\n@レーヴァテイン\nムー…\nあなたは黙ってて\n\n# textflame 1 1\n;;# chara 161\n# voice 9953 \"mwu_0004\"\n@ムー\n仕方ねえから、\n俺が代わりに聞いてやってもいいぜ！\n\n# textflame 1 1\n# chara 2100231\n# voice 210023 \"revatein_ge_0085\"\n# face 2100231 \"angry\"\n@レーヴァテイン\n黙って\n\n# se \"SE_0694\"\n# textflame 1 1\n;;# chara 161\n# jump 161\n@ムー\nムギュギュギュギュギュー!?\n\n# textflame 1 1\n# chara 2103811\n# face 2103811 \"sad\"\n# alpha 2100231 0 0.5\n# alpha 161 0 0.5\n# alpha 2103811 1 0.5\n@アルマス\nレーヴァテイン…\n\n# textflame 1 1\n# chara 2100231\n# voice 210023 \"revatein_ge_0027\"\n# face 2100231 \"usual\"\n# move 2100231 3 0\n# alpha 2100231 1 0.5\n# alpha 161 0 0.5\n# alpha 2103811 0 0.5\n@レーヴァテイン\nそういうんじゃないから…\nあなたは、私達とは違う\nだから協力なんて考えられないだけ\n\n# textflame 1 1\n# chara 2103811\n# face 2103811 \"angry\"\n# alpha 2100231 0 0.5\n# alpha 2103811 1 0.5\n@アルマス\nでも、ヘレナやソロモンは\nわかってくれたわ！\n\n# textflame 1 1\n# chara 2103811\n@アルマス\nあなただって、きっと…\n\n# textflame 1 1\n# chara 2100231\n# alpha 2100231 1 0.5\n# alpha 2103811 0 0.5\n@レーヴァテイン\nゴッドキラーズを排除すれば\n支配を受けることもないし、\nこの島も元の場所に戻る…\n\n# textflame 1 1\n# chara 2100231\n@レーヴァテイン\nそれに…\n協力したとして\nその後はどうするつもり？\n\n# textflame 1 1\n# chara 2103811\n# face 2103811 \"surprise\"\n# alpha 2100231 0 0.5\n# alpha 2103811 1 0.5\n@アルマス\nその後…？\n\n# textflame 1 1\n# chara 2100231\n# alpha 2100231 1 0.5\n# alpha 2103811 0 0.5\n@レーヴァテイン\nゴッドキラーズを排除したい私達と…\nただ止めたいだけのあなた達で\n争うことになると思うけど\n\n# textflame 1 1\n# chara 2103811\n# face 2103811 \"angry\"\n# alpha 2100231 0 0.5\n# alpha 2103811 1 0.5\n@アルマス\nそれは…\nそんなことっ…！\n\n# textflame 1 1\n# chara 2100231\n# alpha 2100231 1 0.5\n# alpha 2103811 0 0.5\n@レーヴァテイン\nほら、否定できない\nそれなら、最初から協力しない方が、\nお互いに納得するでしょ\n\n# alpha 2100231 0 0.5\n# textflame 0 0\n@\nレーヴァテインはそう言うと、\nカシウスの去った方角に向かって\n出発する\n\n# se \"SE_0719\"\n# textflame 1 1\n# chara 2103811\n# voice 210381 \"almace_0009\"\n# move 2104211 3 0\n# alpha 2103811 1 0.5\n@アルマス\nあ、レーヴァテイン！\n待ちなさいったら！\n\n# se \"SE_5575\"\n# textflame 1 1\n;;# chara 2104211\n# face 2104211 \"sad\"\n# rightin 2104211 0.5\n# alpha 2104211 1 0.5\n# alpha 2103811 0 0.5\n@モラベガ\nあ、アルマス！\n待ってよ～！\n\n# se \"SE_5575\"\n# alpha 2104211 0 0.5\n# textflame 0 0\n@\nレーヴァテインを追ってアルマスが、\nアルマスを追ってモラベガが走り出す\n\n# textflame 0 0\n@\nマスターも後を追おうとするが、\nガ・ジャルグがそれを引き止めた\n\n# textflame 1 1\n# chara 2303211\n# face 2303211 \"angry\"\n# alpha 2303211 1 0.5\n@ガ・ジャルグ\n待ちなさい！\nまた、あいつらが現れたわよ\n危ないから、下がってて！\n\n# se \"SE_0617\"\n# serif 1\n# textwindow \"nomal\"\n@異族\nグギャァアア!!\n\n# serif 1\n# textwindow \"close\"\n# serif 0\n# textwindow \"nomal\"\n# textflame 0 0\n@\nいつの間にか、マスター達は\n周囲を異族に取り囲まれていた\n\n# textflame 1 1\n# chara 2303211\n# voice 230321 \"gaedearg_ge_0007\"\n@ガ・ジャルグ\n安心なさい、\nこの私にかかれば、\nこれぐらいの数、敵じゃないわ！"
	}
]