[
	{
		"ID": 28000040,
		"script": ";;第4幕　タイトル：策略のプール/背景：プール\n# script \"lisp\"\n# background \"sea_resort_day\"\n# bgm \"bgm005\" 0\n# voice 1023 \"ascalon_0040\"\n# body 2102311\n# pos 2102311 2\n# scale 2102311 0.8 0\n# body 2100111\n# pos 2100111 4\n# scale 2100111 0.8 0\n# face 2102311 \"usual\"\n# textflame 1 1\n# setname \"アスカロン\" 1\n守備が手薄になっている帝国を\n私達、王国軍が攻めることで\n\n# eye 2102311 \"close\"\n# setname \"アスカロン\" 1\n帝国軍は退かざるを得なくなり\n連合は窮地を脱する…\n\n# eye 2102311 \"normal\"\n# setname \"アスカロン\" 1\nマサムネさんの狙いはそういう\nことですよね？\n\n# eye 2100111 \"close\"\n# voice 1001 \"masamune_0004\"\n# setname \"マサムネ\" 3\nご慧眼、恐れ入る\n\n# voice 1023 \"ascalon_0002\"\n# setname \"アスカロン\" 1\n…マサムネさん、\n一つだけ約束して下さい\n\n# eye 2100111 \"normal\"\n# voice 1001 \"masamune_0003\"\n# setname \"マサムネ\" 3\nうむ、なんであろう？\n\n# voice 1023 \"ascalon_0036\"\n# setname \"アスカロン\" 1\n私達には私達の戦い方があります\nどのように帝国を攻めるのかは\n全て任せて下さい\n\n# voice 1001 \"masamune_0032\"\n# setname \"マサムネ\" 3\n…それは当然のこと\n拙者は一切口を挟まぬ\n\n# body 2500611\n# pos 2500611 4\n# scale 2500611 0.8 0\n# alpha 2500611 0 0.5\n# face 2102311 \"angry\"\n# voice 1023 \"ascalon_0003\"\n# setname \"アスカロン\" 1\nそれを聞いて安心しました\n皆さん、戦支度をお願いします！\n\n;;マサムネが出ていく\n# se \"SE_0719\"\n# alpha 2100111 0 0.5\n# waitandnext 1\n\n# face 2500611 \"sad\"\n# alpha 2500611 1 0.5\n# voice 5006 \"megido_0028\"\n# setname \"メギド\" 1\nよろしいのですか、陛下？\nマサムネの腹には\n一物ありそうですわ\n\n# body 2601311\n# pos 2601311 3\n# scale 2601311 0.8 0\n# alpha 2601311 0 0\n# face 2601311 \"usual\"\n# face 2102311 \"usual\"\n# voice 1023 \"ascalon_0003\"\n# setname \"アスカロン\" 1\nはい…\nですから、急いで呼んできて\n欲しい方がいるんです\n\n# move 2102311 1 0.5\n# move 2500611 5 0.5\n# alpha 2601311 1 0.5\n# layer 2601311 1\n# voice 6013 \"sistrum_0002\"\n# setname \"シストルム\" 1\nそういうことなら、\nボクがお役に立てると思うのにゃ！\n\n# face 2102311 \"sad\"\n# voice 1023 \"ascalon_0007\"\n# setname \"アスカロン\" 1\nシストルム！？\nどうしてここに…？\n\n# face 2601311 \"smile\"\n# voice 6013 \"sistrum_0005\"\n# setname \"シストルム\" 1\nにゃはは～！\nご主人様は\nなんでもお見通しなのにゃ\n\n# face 2102311 \"usual\"\n# setname \"アスカロン\" 1\n助かります\nそれでは伝言を\n\n;;背景：ビーチ\n# body 2300811\n# pos 2300811 3\n# scale 2300811 0.8 0\n# alpha 2300811 0 0\n# body 2102711\n# pos 2102711 5\n# scale 2102711 0.8 0\n# alpha 2102711 0 0\n# fadeout \"black\" 2\n# waitandnext 2\n\n# background \"sea_beach_day\"\n# face 2300811 \"usual\"\n# face 2500611 \"normal\"\n# pos 2500611 1\n# alpha 2102311 0 0\n# alpha 2102711 1 0\n# alpha 2601311 0 0\n# alpha 2300811 1 0\n# fadein \"black\" 1\n# bgmfile \"bgm234_235\" \"BgmSeaEventBattle\" 0\n# voice 3008 \"gunguniru_0002\"\n# setname \"グングニル\" 1\n敵の様子を調べてきた\n手薄になっているどころか\n厳重に守りを固めていたぞ\n\n# face 2102711 \"sad\"\n# voice 1027 \"solais_0007\"\n# setname \"クラウ・ソラス\" 1\nやはり、帝国もバカではないか\n守備隊はどこの部隊だ？\n\n# face 2300811 \"sad\"\n# voice 3008 \"gunguniru_0013\"\n# setname \"グングニル\" 1\nシェキナー隊だ\n…戦いにくい者もいそうだな\n\n# face 2500611 \"angry\"\n# voice 5006 \"megido_0033\"\n# setname \"メギド\" 1\nロンギヌス様のためですから…\n容赦は致しません\n\n# move 2102311 3 0\n# alpha 2102311 1 0.5\n# alpha 2300811 0 0.5\n# layer 2102311 3\n# voice 1023 \"ascalon_0022\"\n# setname \"アスカロン\" 1\nメギドさんはシェキナー隊と\n縁があるんですか？\n\n# voice 5006 \"megido_0008\"\n# setname \"メギド\" 1\nシェキナー隊にいるセファーと\nフラベルムは同門です…\nそれだけのことですから…\n\n# body 2100811\n# pos 2100811 1\n# scale 2100811 0.8 0\n# alpha 2100811 0 0\n# body 2101111\n# pos 2101111 1\n# scale 2101111 0.8 0\n# alpha 2101111 0 0\n# face 2102311 \"sad\"\n# face 2100811 \"sad\"\n# face 2101111 \"usual\"\n# voice 1023 \"ascalon_0015\"\n# setname \"アスカロン\" 1\nお知り合いと戦うことになる\nだなんて…\n\n# alpha 2100811 1 0.5\n# alpha 2500611 0 0.5\n# setname \"グラム\" 1\nそれが乱世の常だよ、アスカロン\n\n# alpha 2100811 0 0.5\n# alpha 2101111 1 0.5\n# voice 1011 \"excalibur_0027\"\n# setname \"エクスカリバー\" 1\nたとえそうであっても、\n簡単に割り切れないのが\n人の心というものです\n\n# face 2102311 \"smile\"\n# voice 1023 \"ascalon_0004\"\n# setname \"アスカロン\" 1\nエクスカリバーさん！\n来てくれたんですねっ\n\n# face 2102311 \"usual\"\n# setname \"エクスカリバー\" 1\nシストルムから一通り聞いています\n私の指揮に従っていただけますね？\n\n# face 2102711 \"normal\"\n# voice 1027 \"solais_0027\"\n# setname \"クラウ・ソラス\" 1\nエクスカリバー…\nあなたがアスカロンの\n後ろにいたのだな…\n\n# setname \"クラウ・ソラス\" 1\n隠棲するなどと謀りおって\n\n# eye 2101111 \"close\"\n# setname \"エクスカリバー\" 1\nその話は後ほどゆっくりと\nそれでは皆さん、存分に\nシェキナー隊を挑発して下さい\n\n# eye 2101111 \"normal\"\n# face 2101111 \"angry\"\n# setname \"エクスカリバー\" 1\nしかる後、全力で逃げましょう\n\n# emotionbody 5001 1 2102311 10 260\n# effectpattern 5001 1 0\n# effectstart 5001\n# emotionbody 5000 1 2102711 10 260\n# effectpattern 5000 1 0\n# effectstart 5000\n# face 2102711 \"sad\"\n# face 2102311 \"sad\"\n@一同\nええっ？\n"
	}
]