[
	{
		"ID": 28002023,
		"script": ";;-----------------------------------------\n;;【第2幕】警衛のブラック2話･戦闘後\n;;//背景：ビーチ 07/18 18;50 更新\n;;スクリプトID:28002023\n;;スクリプト最後の背景:sea_jungle_day\n;;-----------------------------------------\n# script \"lisp\"\n# background \"sea_jungle_day\"\n# bgm \"bgm023\" 0\n;;水着グリード（ティルフィング）\n# body 2101421\n# pos 2101421 5\n# scale 2101421 0.8 0\n# alpha 2101421 1 0\n# face 2101421 \"usual\"\n;;水着グラトニー（パラシュ）\n# body 2200421\n# pos 2200421 3\n# scale 2200421 0.8 0\n# alpha 2200421 1 0\n;;水着ラスト（アルテミス）\n# body 2400121\n# pos 2400121 1\n# scale 2400121 0.8 0\n# alpha 2400121 1 0\n;;水着ミネルヴァ\n# body 2302511\n# pos 2302511 3\n# scale 2302511 0.8 0\n# alpha 2302511 0 0\n# mask 2302511 off\n;;◆背景：ジャングル（昼）-------------------------------\n# textflame 0 0\n# textboxarrow 0 2\n@\n3人とは少し離れた場所に立つ\nマスターは、簡単に異族を排除する\n姿に目を丸くしていた\n\n# textflame 1 1\n# textboxarrow 0 1\n# voice 240012 \"arutemisu_k_0007\"\n@ラスト\nなんとも歯ごたえのない相手ですね\n\n# voice 220042 \"parashu_k_0009\"\n# textboxarrow 0 2\n@グラトニー\nもう終わり？\nまだまだ全然足りないよ\n\n# face 2101421 \"angry\"\n# textboxarrow 0 3\n# voice 210142 \"tyrufing_k_0004\"\n@グリード\nそれよりあなたたち、\n早くどこかに行ってくれませんか？\nこれからマスターと…\n\n# se \"SE_0617\"\n# serif 0\n# textwindow \"close\"\n# brightness 2101421 0.5 0.2\n# brightness 2200421 0.5 0.2\n# brightness 2400121 0.5 0.2\n# serif 1\n@異族\nグアアア！\n\n# serif 1\n# textwindow \"close\"\n# serif 0\n# textwindow \"normal\"\n# textflame 1 1\n# brightness 2101421 1 0.2\n# brightness 2200421 1 0.2\n# brightness 2400121 1 0.2\n# face 2200421 \"angry\"\n# face 2400121 \"angry\"\n# textboxarrow 0 2\n@グラトニー\nくっ！\nあいつマスターを狙ってる！\n\n# textboxarrow 0 3\n@グリード\nしまった！\nマスターと距離がっ！\n\n# textboxarrow 0 1\n@ラスト\n…っ！\n間に合わない！\n\n# se \"SE_0617\"\n# serif 0\n# textwindow \"close\"\n# brightness 2101421 0.5 0.2\n# brightness 2200421 0.5 0.2\n# brightness 2400121 0.5 0.2\n# serif 1\n@異族\nグウウウウゥ！\n\n# bgm \"stop\" \n# serif 1\n@？？？\nいきますっ！！\n\n;;//演出：画面白\n# fadein \"white\" 0.5\n# se \"SE_5723\"\n\n# se \"SE_0669\"\n# serif 1\n@異族\nグ…\n\n;;//効果音：異族倒れる\n# bgm \"bgm005\" 0\n# serif 1\n# textwindow \"close\"\n# serif 0\n# textwindow \"normal\"\n# textflame 1 1\n# brightness 2101421 1 0.2\n# brightness 2200421 1 0.2\n# brightness 2400121 1 0.2\n# alpha 2101421 0 0.5\n# alpha 2200421 0 0.5\n# alpha 2400121 0 0.5\n# alpha 2302511 1 0.5\n# face 2302511 \"smile\"\n# textboxarrow 0 2\n# voice 3025 \"minerva_0004\"\n@ミネルヴァ\nよかった、間に合いました\nあなたがマスターですね？\n\n# face 2302511 \"normal\"\n@ミネルヴァ\n私はミネルヴァと申します\nフライシュッツが\nお世話になっているようで…\n\n# alpha 2302511 0 0.5\n# alpha 2101421 1 0.5\n# alpha 2200421 1 0.5\n# alpha 2400121 1 0.5\n# textboxarrow 0 3\n# voice 210142 \"tyrufing_k_0007\"\n@グリード\nあなた…\nエンシェントですか！\n\n# voice 220042 \"parashu_k_0007\"\n# textboxarrow 0 2\n@グラトニー\n君もボクたちと\n戦おうっていうのかい？\n\n# alpha 2101421 0 0.5\n# alpha 2200421 0 0.5\n# alpha 2400121 0 0.5\n# alpha 2302511 1 0.5\n# face 2302511 \"sad\"\n# textboxarrow 0 2\n@ミネルヴァ\nお待ちください\nあなた方に敵意はありません\n\n# alpha 2302511 0 0.5\n# alpha 2101421 1 0.5\n# alpha 2200421 1 0.5\n# alpha 2400121 1 0.5\n# face 2400121 \"usual\"\n# textboxarrow 0 1\n# voice 240012 \"arutemisu_k_0009\"\n@ラスト\nあなたの目的は？\nどうして、ここに？\n\n# alpha 2101421 0 0.5\n# alpha 2200421 0 0.5\n# alpha 2400121 0 0.5\n# alpha 2302511 1 0.5\n# face 2302511 \"normal\"\n# textboxarrow 0 2\n# voice 3025 \"minerva_0003\"\n@ミネルヴァ\n島内の異変を調査していましたら\n異族の群れを見かけたので、\n追ってきたのです\n\n@ミネルヴァ\nこのラグーナ島で\n新たな異変が起きつつあります\n島に危機がせまっているのです\n\n@ミネルヴァ\nこの島を救うために\nご協力いただけないでしょうか？\n\n# textflame 0 0\n@\nいつになく真剣な表情で、\nミネルヴァはそう切り出した\n"
	}
]