[
	{
		"ID": 28001031,
		"script": ";;-----------------------------------------\n;;【3話戦闘前】6/29 11:00 更新\n;;スクリプトID:28001031\n;;スクリプト最後の背景：sea_jungle_night\n;;第1幕　タイトル：③\n;;//背景：密林\n;;-----------------------------------------\n# script \"lisp\"\n# background \"sea_jungle_day\"\n# bgm \"bgm005\" 0\n;;水着グリード（ティルフィング）\n# body 2101421\n# pos 2101421 2\n# scale 2101421 0.8 0\n# alpha 2101421 1 0\n# face 2101421 \"usual\"\n;;水着グラトニー（パラシュ）\n# body 2200421\n# pos 2200421 4\n# scale 2200421 0.8 0\n# alpha 2200421 1 0\n# face 2200421 \"usual\"\n;;--------------------------------------\n;;カーテンフェード\n# imageset 0 \"black\"\n# imagealpha 0 0 0\n# imagelayer 0 1\n;;◆背景：密林--------------------------\n# textflame 1 1\n# textwindow \"normal\"\n# textboxarrow 0 3\n# voice 220042 \"parashu_k_0003\"\n@グラトニー\n落ち着いて考えるために、ここまで\n連れ去ってきたけれど…\nどうしようか、グリード？\n\n# textboxarrow 0 1\n# voice 210142 \"tyrufing_k_0006\"\n@グリード\nアナタが私に尋ねるなんて珍しいこと\nもあるものね…\nまあ、気持ちは分かるわ\n\n# textboxarrow 0 3\n@グラトニー\nフライシュッツが言っていたことは\n本当なのかな？\n\n# textboxarrow 0 1\n@グリード\nそれを確かめる術は一つしかない\n実際に試してみるのよ\n\n# face 2200421 \"shy\"\n# textboxarrow 0 3\n# voice 220042 \"parashu_k_0020\"\n@グラトニー\nマスターの気持ちをボク自身に\n向けさせるわけだね\n\n# face 2101421 \"angry\"\n# textboxarrow 0 1\n# voice 210142 \"tyrufing_k_0010\"\n@グリード\n私自身に向けさせるのよ\n私のものを横取りしようとしないで\n\n# face 2200421 \"angry\"\n# textboxarrow 0 3\n# voice 220042 \"parashu_k_0035\"\n@グラトニー\nおかしいな\nマスターを支配する者の指定なんて\n命令にはなかったはずだよ\n\n# textboxarrow 0 1\n# voice 210142 \"tyrufing_k_0009\"\n@グリード\n何が言いたいの、グラトニー\n\n# textboxarrow 0 3\n# voice 220042 \"parashu_k_0027\"\n@グラトニー\nボクが全て平らげても良いはず\nだってことだよ\n\n# face 2101421 \"usual\"\n# textboxarrow 0 1\n# voice 210142 \"tyrufing_k_0007\"\n@グリード\n…いいわ\nお互い、好きにしましょう\n\n# face 2200421 \"usual\"\n# textboxarrow 0 3\n# voice 220042 \"parashu_k_0020\"\n@グラトニー\nボクは理想のために全力を尽くすよ\n君よりもずっと上手くやれるからね\n\n# face 2101421 \"normal\"\n# textboxarrow 0 1\n# voice 210142 \"tyrufing_k_0005\"\n@グリード\nその自信が潰れてしまわなければ\n良いけれど\n\n# face 2200421 \"shy\"\n@グリード\nそんなわけだから、マスター\n楽しみにしていて下さいね\n\n# textboxarrow 0 3\n@グラトニー\n君の心、必ず支配してみせるよ\n\n# textflame 0 0\n@\n二人の鬼気迫る表情に、ただ黙って\n頷くことしかできなかった\n\n# imagepos 0 0 30\n# imagescale 0 1.2 0\n# imagealpha 0 1 0\n# imageleftin 0 0.5\n# textwindow \"close\"\n# waitandnext 0.5\n\n;;◆背景：ビーチ（昼） BGM255-------------------------------\n# background \"sea_beach_day\"\n# bgmfile \"bgm255\" \"BgmSeaDate\" 0\n# alpha 2101421 0 0\n# move 2101421 3 0\n# move 2200421 3 0\n# mask 2200421 off\n# face 2200421 \"shy\"\n# waitandnext 0.1\n\n# imagealpha 0 0 0.5\n# imagerightout 0 0.5\n# waitandnext 0.5\n\n# textwindow \"normal\"\n# textflame 1 1\n# textboxarrow 0 2\n# voice 220042 \"parashu_k_0001\"\n@グラトニー\nここなら誰もいないね\nそれじゃあ始めようか、マスター\nボクは勉強熱心なんだ\n\n@グラトニー\n君の心を掴む方法なんて\n少し調べれば簡単に分かるんだよ\nつまり恋人になれば良いんだろう？\n\n# textflame 0 0\n@\nどこから取り出したのか、\nグラトニーは一冊の本を手にしている\nとても嫌な予感がした\n\n# face 2200421 \"usual\"\n# textflame 1 1\n@グラトニー\nええと、まずは…\n砂浜で追いかけっこだね\n\n# face 2200421 \"shy\"\n# voice 220042 \"parashu_k_0036\"\n@グラトニー\nマスター、本気で逃げると良いよ\nボクが全力で追いかけるから\n捕まったら君の負けだ\n\n@グラトニー\nさあ、楽しい狩りの時間だ！\n\n# se \"SE_5206\"\n# textflame 0 0\n@\nグラトニーが斧を振り上げる\n\n@\n捕まったら殺されると思い、\n本気で逃げ回った\n\n;;//暗転挟む\n# imagepos 0 0 30\n# imagescale 0 1.2 0\n# imagealpha 0 1 0\n# imageleftin 0 0.5\n# textwindow \"close\"\n# waitandnext 0.5\n\n# face 2200421 \"usual\"\n# waitandnext 0.1\n\n# imagealpha 0 0 0.5\n# imagerightout 0 0.5\n# waitandnext 0.5\n\n# textwindow \"normal\"\n# textflame 1 1\n# voice 220042 \"parashu_k_0040\"\n@グラトニー\n追いかけっこはこんなものかな\n次は…ビーチバレーか\n悪くないね\n\n@グラトニー\nいくよマスター\nまずは軽く千本レシーブだ\nきちんと受けるように\n\n# se \"SE_0715\"\n# fadein \"white\" 0.8\n# shake 0 0.8\n# textflame 0 0\n@\nグラトニーがビーチボールを\n思い切りスパイクする\n\n@\nビーチボールとは思えない威力で\n襲い掛かってくるボールを懸命に\n弾き返した\n\n;;//暗転挟む\n# imagepos 0 0 30\n# imagescale 0 1.2 0\n# imagealpha 0 1 0\n# imageleftin 0 0.5\n# textwindow \"close\"\n# waitandnext 0.5\n\n;;◆背景・BGM：ビーチ（夜）・229-------------------------------\n# background \"sea_beach_night\"\n# bgmfile \"bgm229\" \"BgmSeaEvent\" 0\n# face 2200421 \"shy\"\n# waitandnext 0.1\n\n# imagealpha 0 0 0.5\n# imagerightout 0 0.5\n# waitandnext 0.5\n\n# textwindow \"normal\"\n# textflame 1 1\n# voice 220042 \"parashu_k_0041\"\n@グラトニー\n何だ…恋人になるなんて、\nやってみると意外と簡単じゃないか\nこれでマスターの心はボクのものだね\n\n# se \"SE_3001\"\n# textflame 0 0\n@\nグラトニーは満足そうだが、\nぼろぼろになった体で砂浜に倒れ、\nそんなわけがないとぼやく\n\n# textflame 1 1\n# face 2200421 \"usual\"\n@グラトニー\nん？何か言ったかい、マスター？\nああ、そうだ\n\n# voice 220042 \"parashu_k_0005\"\n@グラトニー\nほら、アイスを一本あげるよ\nボクが物を分け与えるなんて\n滅多にないことなんだからね\n\n# imagepos 0 0 30\n# imagealpha 0 1 0\n# imageleftin 0 0.5\n# textwindow \"close\"\n# waitandnext 0.5\n\n;;◆背景：花火-------------------------------\n# background \"sea_fireworks\"\n# alpha 2200421 0 0\n# waitandnext 0.1\n\n# imagealpha 0 0 0.5\n# imagerightout 0 0.5\n# waitandnext 0.5\n\n# textwindow \"normal\"\n# textflame 0 0\n@\nありがとうと言って受け取ったとき\n夜空にパッと花が開いた\n\n# fadein \"white\" 0.5\n# se \"SE_0605\"\n@\n少し遅れてドーンと大きな音がする\n\n# imagepos 0 0 30\n# imagealpha 0 1 0\n# imageleftin 0 0.5\n# textwindow \"close\"\n# waitandnext 0.5\n\n;;◆背景：夜のビーチ-------------------------------\n# background \"sea_beach_night\"\n# alpha 2200421 1 0\n# face 2200421 \"angry\"\n# waitandnext 0.1\n\n# imagealpha 0 0 0.5\n# imagerightout 0 0.5\n# waitandnext 0.5\n\n# textwindow \"normal\"\n# textflame 1 1\n# voice 220042 \"parashu_k_0037\"\n@グラトニー\nあれは何だ！？\n敵の攻撃っ…？\n\n# textflame 0 0\n@\n身構えるグラトニーに、\nあれは花火だと教える\n\n# face 2200421 \"shy\"\n# textflame 1 1\n# voice 220042 \"parashu_k_0039\"\n@グラトニー\n花火…？\nふぅん…きれいじゃないか\n\n@グラトニー\nでもボクはもっときれいな花を知って\nいるけどね\n\n# textflame 0 0\n@\nそう言いながら花火を見上げて\n目を細める彼女\n\n@\nそれならジャングルに行ってみる？\nとマスターは尋ねる\n\n# face 2200421 \"usual\"\n# textflame 1 1\n# voice 220042 \"parashu_k_0008\"\n@グラトニー\nさらわれたというのに余裕だね\nでも、ジャングルか…\nたしかに面白そうだ\n\n# textflame 0 0\n@\n不敵に笑いながらも\nグラトニーはマスターを抱え上げる\n\n# textflame 1 1\n@グラトニー\nキミの足じゃあ、\n明日になっても着かない\nだろうからね\n\n# textflame 0 0\n@\n軽やかに、\nそれでいて凄まじい速度で\n二人はジャングルへと突き進んだ\n\n;;//場面転換\n;;//背景：ジャングル（夜）\n# se \"SE_5785\"\n# imagepos 0 0 30\n# imagescale 0 1.2 0\n# imagealpha 0 1 0\n# imageleftin 0 0.5\n# textwindow \"close\"\n# waitandnext 0.5\n\n;;◆背景：ジャングル（夜） BGM231-----------------\n# background \"sea_jungle_night\"\n# bgmfile \"bgm231\" \"BgmSeaEvent\" 0\n# face 2200421 \"shy\"\n# waitandnext 0.1\n\n# imagealpha 0 0 0.5\n# imagerightout 0 0.5\n# waitandnext 0.5\n\n# textwindow \"normal\"\n# textflame 1 1\n# voice 220042 \"parashu_k_0005\"\n@グラトニー\nさすが神から離れた地ラグーナ島\n花が咲き誇ってるじゃないか…\n\n# textflame 0 0\n@\n先ほどまでの凶暴な姿が噓のように\nグラトニーは花が咲いたような笑みで\nジャングルを見渡している\n\n@\nやっぱりキミも\n優しい女の子なんだね\n\n# face 2200421 \"usual\"\n# textflame 1 1\n@グラトニー\nふんっ…\n何を言うかと思えば\nくだらない…\n\n# textflame 0 0\n@\nそう言う彼女だが、\nその顔は赤く染まっていた\n\n# face 2200421 \"sad\"\n# textflame 1 1\n# voice 220042 \"parashu_k_0015\"\n@グラトニー\n…おかしいな\n激しい運動をしたわけじゃないのに\n何だか胸が苦しい\n\n@グラトニー\n君…ボクに何をしたんだっ？\nまさか…この薔薇に毒を…\n\n# textflame 0 0\n@\nそんなことはしていないと\n慌てて首を振る\n\n# face 2200421 \"angry\"\n# textflame 1 1\n@グラトニー\nだったらどうしてボクの胸はこんなに\n高鳴っているんだ！？\n君が何かしたに決まってるよ！\n\n@グラトニー\nさあ、正直に言うんだ！\nボクに一体何をしたっ？\n\n# textflame 0 0\n@\n詰め寄る彼女を懸命に抑える\n\n# textflame 1 1\n@グラトニー\n正直に言わないと――\n\n# alpha 2200421 0 0.5\n# alpha 2101421 1 0.5\n# face 2101421 \"usual\"\n# voice 210142 \"tyrufing_k_0027\"\n@グリード\nそこまでよ、グラトニー！\n\n# move 2101421 2 0.6\n# alpha 2200421 1 0.5\n# move 2200421 4 0\n# mask 2200421 on\n# textboxarrow 0 3\n# voice 220042 \"parashu_k_0012\"\n@グラトニー\nグリード！\nボクの邪魔をするな！！\n\n# voice 210142 \"tyrufing_k_0035\"\n# textboxarrow 0 1\n@グリード\nアナタはマスターを\n支配できなかった\nだったら次は私の番よっ！"
	}
]