[
	{
		"ID": 290302111,
		"script": ";;-----------------------------------------\n;;3_2_11_1\n;;-----------------------------------------\n# script \"lisp\"\n# background \"in_ragnarok_institution\"\n# bgmfile \"bgm421\" \"BgmIntegralNoahEvent002\" 0\n;;-----------------------------------------\n;;カミト\n# body 210\n# pos 210 2\n# scale 210 0.8 0\n# layer 210 5\n# mask 210 off\n# alpha 210 0 0\n;;アスカロン\n# body 3102311\n# pos 3102311 3\n# scale 3102311 0.8 0\n# mask 3102311 off\n# alpha 3102311 1 0\n;;グリモワール\n# body 3501711\n# pos 3501711 4\n# scale 3501711 0.8 0\n# alpha 3501711 0 0\n;;巨大デーモン\n# body 5810301\n# pos 5810301 3\n# scale 5810301 0.8 0\n# mask 5810301 off\n# alpha 5810301 0 0\n;;魔獣化マサムネ\n# body 1100111\n# pos 1100111 3\n# scale 1100111 0.8 0\n# layer 1100111 4\n# mask 1100111 off\n# alpha 1100111 0 0\n;;-----------------------------------------\n;;暗転\n# imageset 0 \"black\"\n# imagealpha 0 0 0\n# imagelayer 0 5\n;;霧\n# imageset 1 \"kiri_03\"\n# imagescale 1 2.5 0\n# imagealpha 1 0 0\n# imagelayer 1 4\n;;-----------------------------------------\n# face 3102311 \"happy\"\n# voice 310231 \"ascalon_a_0006\"\n# textboxarrow 0 2\n@アスカロン\nやったあ！\nやりましたね、マスター\n\n# face 3102311 \"surprise\"\n# textboxarrow 0 2\n@アスカロン\nあっ…\n右腕、大丈夫ですかっ？\n急いで手当てしないとっ\n\n# alpha 3102311 0 0.5\n# alpha 3501711 1 0.5\n# alpha 210 1 0.5\n# face 3501711 \"angry\"\n# voice 350171 \"grimoire_ge_0009\"\n# textboxarrow 0 3\n@グリモワール\nワタシが診るわ！\nあんな思い切ったことするなんて…\nどういう心境の変化なのっ？\n\n# face 210 \"sad\"\n# voice 9936 \"kamito_0008\"\n# textboxarrow 0 1\n@カミト\nあはは…\nちょっと無理したかな…\n\n# face 3501711 \"normal\"\n# voice 350171 \"grimoire_ge_0004\"\n# textboxarrow 0 3\n@グリモワール\n…良い顔してるじゃない\nところで…\n\n# face 3501711 \"angry\"\n# textboxarrow 0 3\n@グリモワール\nその義手、どうなってるの！？\n何をしたのよっ？\n\n# face 210 \"normal\"\n# voice 9936 \"kamito_0030\"\n# textboxarrow 0 1\n@カミト\n僕も具体的なところは\nよく分からないんだけど――\n\n# bgm \"stop\"\n;;画面揺れ\n# shake 1 2\n;;巨大な足音\n# se \"SE_0864\"\n# sedelay \"SE_0864\" 1\n# textwindow \"close\"\n# waitandnext 2.5\n\n# move 3102311 2 0\n# mask 3102311 on\n# alpha 3102311 1 0.5\n# alpha 3501711 0 0.5\n# move 210 4 0.5\n# face 3102311 \"surprise\"\n# textwindow \"nomal\"\n# textboxarrow 0 1\n@アスカロン\nマスター！\n外を見て下さいっ\n\n# face 210 \"surprise\"\n# voice 9936 \"kamito_0023\"\n# textboxarrow 0 3\n@カミト\nえっ…\nあああっ…！\n\n;;暗転挟む\n# imagealpha 0 1 0\n# imagepos 0 0 30\n# imageleftin 0 0.5\n# textwindow \"close\"\n# waitandnext 0.5\n\n# alpha 3102311 0 0\n# alpha 210 0 0\n;;背景：遺跡\n# background \"201_border\"\n# bgmfile \"bgm419\" \"BgmIntegralNoahBattle003\" 0\n# imagealpha 1 0.5 0\n# imagepos 1 0 0\n# waitandnext 0.2\n\n# imagealpha 0 0 0.5\n# imagerightout 0 0.5\n# waitandnext 0.5\n\n# alpha 5810301 1 0.5\n# waitandnext 0.5\n\n# se \"SE_0854\"\n# textwindow \"toge\"\n# textboxarrow 0 0\n@？？？\nBYAAAAAAAAAAAAAAA\nAAAAAAAAAAAAAAAAA\nAAAAAAAAAAAAAA！！\n\n;;暗転挟む\n# imagealpha 0 1 0\n# imagepos 0 0 30\n# imageleftin 0 0.5\n# textwindow \"close\"\n# waitandnext 0.5\n\n# alpha 5810301 0 0\n;;背景：ラグナロク機関\n# background \"in_ragnarok_institution\"\n# imagealpha 1 0 0\n# imagepos 1 0 0\n# waitandnext 0.2\n\n# imagealpha 0 0 0.5\n# imagerightout 0 0.5\n# waitandnext 0.5\n\n# move 3501711 5 0\n# mask 3501711 on\n# alpha 3501711 1 0.5\n# move 3102311 1 0\n# mask 3102311 on\n# alpha 3102311 1 0.5\n# move 210 3 0\n# mask 210 on\n# alpha 210 1 0.5\n# face 210 \"sad\"\n# textwindow \"nomal\"\n# textboxarrow 0 2\n@カミト\nすっかり忘れてた…\nこんな近くまで迫ってたんだ\n\n# face 3501711 \"normal\"\n# voice 350171 \"grimoire_ge_0027\"\n# textboxarrow 0 3\n@グリモワール\n今から逃げても間に合わないわね\n…アスカロン\n\n# face 3102311 \"angry\"\n# voice 310231 \"ascalon_a_0032\"\n# textboxarrow 0 1\n@アスカロン\nはい！\nマスターのためならっ\n\n# textboxarrow 0 3\n@グリモワール\n今回ばかりはワタシもキミと\n同じ考えよ\n\n# face 3501711 \"angry\"\n# textboxarrow 0 3\n@グリモワール\nマスター！\n急いで逃げなさいっ\n\n# textboxarrow 0 1\n@アスカロン\n私達があの巨大な化け物を\n引きつけて足止めします！\n\n# textboxarrow 0 3\n@グリモワール\nキミを一人にしてしまうけど、\nまず生き存えて、それから――\n\n# face 210 \"angry\"\n# voice 9936 \"kamito_0066\"\n# textboxarrow 0 2\n@カミト\n嫌だ\n\n# voice 350171 \"grimoire_ge_0022\"\n# textboxarrow 0 3\n@グリモワール\nマスターっ？\nちょっと…\nこんなときに意地張らないで！\n\n# textboxarrow 0 2\n@カミト\nこんなときだから意地を張るんだよ\n僕はグリモワールもアスカロンも\n失いたくないんだ\n\n# face 210 \"irregular\"\n# textboxarrow 0 2\n@カミト\n生き延びるなら、みんな一緒だよ\n\n# face 3102311 \"normal\"\n# voice 310231 \"ascalon_a_0004\"\n# textboxarrow 0 1\n@アスカロン\nマスター…\nこんな窮地でも希望を失ってない\nなんて…羨ましい\n\n# face 3102311 \"angry\"\n# textboxarrow 0 1\n@アスカロン\nあ、そのっ、なんでもないです！\nみんなで生き延びましょう！\n\n# textboxarrow 0 3\n@グリモワール\nでぇ？\nあんなデカブツ相手にどうしようって\nいうのよ！？\n\n# face 210 \"normal\"\n# voice 9936 \"kamito_0036\"\n# textboxarrow 0 2\n@カミト\nそれは…\n今から考えるよっ\n\n# voice 350171 \"grimoire_ge_0014\"\n# textboxarrow 0 3\n@グリモワール\nいい加減にしなさい！\nこの状況でどうやって――\n\n# voice 11001 \"masamunem_0013\"\n# textboxarrow 0 0\n@？？？\nうるさいな…\n少し静かにしてくれ\n頭に響く\n# waitandnext 1\n\n# alpha 3501711 0 0.5\n# alpha 3102311 0 0.5\n# alpha 210 0 0.5\n# alpha 1100111 1 1\n;;魔獣化の解けたマサムネが起き上がる\n# se \"SE_0648\"\n\n# alpha 3501711 1 0.5\n# alpha 3102311 1 0.5\n# alpha 210 1 0.5\n# alpha 1100111 0 0.5\n# face 3102311 \"surprise\"\n# voice 310231 \"ascalon_a_0018\"\n# textboxarrow 0 1\n@アスカロン\nそんな…\n倒せていなかったなんて…\n\n# face 210 \"surprise\"\n# voice 9936 \"kamito_0033\"\n# textboxarrow 0 2\n@カミト\nごめん…！\n僕がちゃんと確認しなかったから…\n\n# textboxarrow 0 3\n@グリモワール\n悔やむのは後よ！\nもう一度、焼き払ってやるわ！！\n\n# fadein \"white\" 0.5\n# envbody 1001 7 14\n# effectpattern 1001 1 0\n# effectstart 1001\n# se \"SE_4716\"\n# waitandnext 1\n\n# alpha 3501711 0 0.5\n# alpha 3102311 0 0.5\n# alpha 210 0 0.5\n# alpha 1100111 1 0.5\n# voice 11001 \"masamunem_0022\"\n# textboxarrow 0 2\n@？？？\n！！\n\n;;グリモワールの攻撃をマサムネが受け流す\n# fadein \"white\" 0.3\n# se \"SE_4000\"\n# effectskip 1001\n# waitandnext 0.8\n\n# move 3501711 4 0.5\n# alpha 3501711 1 0.5\n# move 1100111 2 0.5\n# mask 1100111 on\n# face 1100111 \"angry\"\n# textboxarrow 0 1\n@？？？\nいきなり何をするんだ？\n\n# face 3501711 \"surprise\"\n# voice 350171 \"grimoire_ge_0023\"\n# textboxarrow 0 3\n@グリモワール\nえぇぇっ！？\nワタシの炎を剣で捌いたの！？\n\n# face 1100111 \"normal\"\n# textboxarrow 0 1\n@？？？\nお前、キラープリンセスだな\n…見た目が少し違う気もするが\n\n# face 3501711 \"normal\"\n# textboxarrow 0 3\n@グリモワール\nキラープリンセス？\n随分、古い呼び方するじゃないの！\nキミこそ何者なのっ？\n\n# voice 11001 \"masamunem_0003\"\n# textboxarrow 0 1\n@マサムネ\n俺は…マサムネ\nキラーメイルのマサムネだ\n…っつう\n\n# face 1100111 \"sad\"\n# voice 11001 \"masamunem_0037\"\n# textboxarrow 0 1\n@マサムネ\nくそっ…\nまだ頭痛が治まらないな\n記憶も曖昧だ…\n\n# alpha 3501711 0 0.5\n# alpha 1100111 0 0.5\n# alpha 210 1 0.5\n# face 210 \"surprise\"\n# move 210 3 0\n# textwindow \"moya\"\n# textboxarrow 0 0\n@カミト\nさっきまで言葉なんか通じそうに\nなかったのに…\nこれが“ディスラプター”の力？\n\n# move 3102311 4 0\n# alpha 3102311 1 0.5\n# alpha 1100111 1 0.5\n# alpha 210 0 0.5\n# face 3102311 \"sad\"\n# voice 310231 \"ascalon_a_0002\"\n# textboxarrow 0 3\n# textwindow \"normal\"\n@アスカロン\nあの…\n大丈夫ですか？\n辛そうですけど…\n\n# face 1100111 \"normal\"\n# voice 11001 \"masamunem_0023\"\n# textboxarrow 0 1\n@マサムネ\nああ、じきに治まる\n…お前！？\nシオリ…\n\n# face 3102311 \"surprise\"\n# voice 310231 \"ascalon_a_0022\"\n# textboxarrow 0 3\n@アスカロン\nえっ？\n私はアスカロンです\n\n# face 1100111 \"sad\"\n# voice 11001 \"masamunem_0031\"\n# textboxarrow 0 1\n@マサムネ\nああ、そうだな…\nすまない\n何でもない\n\n# face 1100111 \"normal\"\n# textboxarrow 0 1\n@マサムネ\nさてと…\n気分は最悪だが、\nまずはあれを何とかしないとな\n\n;;暗転挟む\n# imagealpha 0 1 0\n# imagepos 0 0 30\n# imageleftin 0 0.5\n# textwindow \"close\"\n# waitandnext 0.5\n\n# alpha 3102311 0 0\n# alpha 1100111 0 0\n;;巨大死霊が窓から顔を覗かせる\n;;演出が無理なようなら背景変えで←むりだったので背景かえます。さいとう\n;;背景：遺跡\n# background \"201_border\"\n# bgmfile \"bgm419\" \"BgmIntegralNoahBattle003\" 0\n# imagealpha 1 0.5 0\n# imagepos 1 0 0\n# waitandnext 0.2\n\n# imagealpha 0 0 0.5\n# imagerightout 0 0.5\n# waitandnext 0.5\n\n# alpha 5810301 1 0.5\n# waitandnext 0.5\n\n# se \"SE_0865\"\n# textwindow \"toge\"\n# textboxarrow 0 0\n@？？？\nSYAAAAAAAAAAAAAA\nAAAAAAAAAAAAAAAA\nAAAAAAAAAAAAA！！\n\n;;暗転挟む\n# imagealpha 0 1 0\n# imagepos 0 0 30\n# imageleftin 0 0.5\n# textwindow \"close\"\n# waitandnext 0.5\n\n# alpha 5810301 0 0\n;;背景：ラグナロク機関\n# background \"in_ragnarok_institution\"\n# imagealpha 1 0 0\n# imagepos 1 0 0\n# waitandnext 0.2\n\n# imagealpha 0 0 0.5\n# imagerightout 0 0.5\n# waitandnext 0.5\n\n# move 3501711 4 0\n# alpha 3501711 1 0.5\n# move 3102311 2 0\n# alpha 3102311 1 0.5\n# face 3102311 \"normal\"\n# face 3501711 \"angry\"\n# textwindow \"nomal\"\n# textboxarrow 0 3\n@グリモワール\nそうよ！\nキミなんかに構ってる場合じゃ\nなかったわ\n\n# textboxarrow 0 1\n@アスカロン\nマスター！\nなるべく安全なところに\nいて下さいねっ\n\n# face 3102311 \"angry\"\n# textboxarrow 0 1\n@アスカロン\nあの化け物は私が命に代えても――\n\n# bgmfile \"bgm154_155\" \"BgmPJZero001\" 0\n# alpha 3501711 0 0.5\n# alpha 3102311 0 0.5\n# move 1100111 3 0\n# mask 1100111 off\n# alpha 1100111 1 0.5\n# voice 11001 \"masamunem_0002\"\n# textboxarrow 0 2\n@マサムネ\nお前も下がってろ\nああいうのは、俺の領分だ\n# se \"SE_10585\"\n\n# alpha 1100111 0 0.5\n# alpha 3501711 1 0.5\n# alpha 3102311 1 0.5\n# face 3501711 \"surprise\"\n# face 3102311 \"surprise\"\n# voice 310231 \"ascalon_a_0022\"\n# textboxarrow 0 1\n@アスカロン\nえっ…？\n\n# voice 350171 \"grimoire_ge_0002\"\n# textboxarrow 0 3\n@グリモワール\nちょっと、キミ…！\n\n# alpha 1100111 1 0.5\n# alpha 3501711 0 0.5\n# alpha 3102311 0 0.5\n# voice 11001 \"masamunem_0007\"\n# textboxarrow 0 2\n@マサムネ\n起き抜けで体も温まっていないが、\nまあ、いけるだろ！"
	}
]