[
	{
		"ID": 30017204,
		"script": ";;【EP4】\n# script \"lisp\"\n# background \"highland_snow\"\n# bgm \"bgm032\" 0\n# body 300171\n# mask 300171 off\n# pos 300171 3\n# alpha 300171 0 0\n# textflame 0 0\n@\n次の日─\n\n@\n再び教会を訪れるマスター\n\n# alpha 300171 1 0.5\n@\n彼女は今日も、\n祈りを捧げていた\n\n# textflame 1 1\n# textboxarrow 0 2\n# chara 300171\n# face 300171 \"happy\"\n# voice 3001 \"ronginusu_0030\"\n@ロンギヌス\n昨日はありがとうございました、\nマスター\n\n@ロンギヌス\nなんだか少し…\n気持ちが晴れやかになりました\n\n# face 300171 \"normal\"\n# voice 3001 \"ronginusu_kyara_1004\"\n@ロンギヌス\n私達は…いえ、少なくとも私は…\n戦いの人生の中でずっと葛藤を\n抱えていくのかも知れません\n\n@ロンギヌス\nでも…\n\n@ロンギヌス\nマスターがそばにいれくれるなら…\n\n# face 300171 \"happy\"\n# voice 3001 \"ronginusu_0005\"\n@ロンギヌス\nなんとか…\nがんばれそうな気がします\n\n# face 300171 \"normal\"\n@ロンギヌス\nあれから考えたんです\n\n# voice 3001 \"ronginusu_0004\"\n@ロンギヌス\nせっかくクリスマスだし\n私からも\nなにかプレゼントしたいなって…\n\n# face 300171 \"sad\"\n# voice 3001 \"ronginusu_unit_1006\"\n@ロンギヌス\nでも…ごめんなさい…\nなにも思い浮かばなくて…\n\n# face 300171 \"normal\"\n# voice 3001 \"ronginusu_kyara_1004\"\n@ロンギヌス\nだから私は…戦いの中で\n少しずつ恩返ししていこうと\n思います\n\n@ロンギヌス\nそう思ったら…\n\n# textflame 0 0\n@\n教会内のローソクの炎が\n大きく揺らめく\n\n# textflame 1 1\n# textboxarrow 0 2\n# face 300171 \"happy\"\n# chara 300171\n@ロンギヌス\nまた…少し強くなれたみたいです！\n\n# textflame 0 0\n# se \"SE_0602\"\n@\nそれは新たなるスキル\n『ホーリーキャンドル』\n誕生の瞬間だった\n\n# textflame 1 1\n# textboxarrow 0 2\n# chara 300171\n# face 300171 \"sad\"\n# voice 3001 \"ronginusu_unit_1006\"\n@ロンギヌス\nなんだか…普通の女の子みたいな\nクリスマスにならなくて\nごめんなさい\n\n# face 300171 \"happy\"\n# voice 3001 \"ronginusu_0005\"\n@ロンギヌス\nでも一年の中で今日が一番…\n聖なる気持ちでいっぱいです！\n\n# select \"僕もだよ、ロンギヌス\" \"select_label_01\" \"君は…もっと強くなれる\" \"select_label_02\" \"いつも助けてくれて、ありがとう\" \"select_label_03\"\nでも一年の中で今日が一番…\n聖なる気持ちでいっぱいです！\n\n# label \"select_label_01\"\n# labeljump \"select_label_end\"\n# textflame 1 1\n# textboxarrow 0 2\n# face 300171 \"surprise\"\n# chara 300171\n@ロンギヌス\n本当ですか！？\n\n# label \"select_label_02\"\n# labeljump \"select_label_end\"\n# textflame 1 1\n# textboxarrow 0 2\n# chara 300171\n@ロンギヌス\n…はい、がんばります！\n\n# label \"select_label_03\"\n# labeljump \"select_label_end\"\n# textflame 1 1\n# textboxarrow 0 2\n# face 300171 \"shy\"\n# chara 300171\n@ロンギヌス\nそ…そんな事ないです…でも…\n\n# label \"select_label_end\"\n# textflame 1 1\n# textboxarrow 0 2\n# face 300171 \"happy\"\n# chara 300171\n# voice 3001 \"ronginusu_0030\"\n@ロンギヌス\nありがとう、マスター\nそして…\n\n# voice 3001 \"ronginusu_0005\"\n@ロンギヌス\nメリー・クリスマス\n\n# imageset 0 \"c300171\"\n# imagealpha 0 0 0\n# imagepos 0 0 0\n# textflame 0 0\n@\n穏やかな笑みをこぼすロンギヌス\n彼女といると、清く凛とした気持ちに\nなれるマスターだった\n\n;;★６（一枚絵同じ）\n;;■一枚絵音声：ただ、なにも考えず笑える場所が欲しいだけ…。それがここなら、いいのにな…。\n;;音声ID：ronginusu_unit_3004\n# voice 3001 \"ronginusu_unit_3004\"\n# imagealpha 0 1 0\n# imagepos 0 0 0\n# fadein \"white\" 3\n# textwindow \"close\""
	}
]