[
	{
		"ID": 30033302,
		"script": "# script \"lisp\"\n# background \"foot_mountain_village\"\n# bgm \"bgm005\" 0\n# body 300331\n# mask 300331 off\n# pos 300331 3\n# textboxarrow 0 2\n# textflame 0 0\n# chara 300331\n@\n穏やかな休日─\n街へと買い物へ向かう\nマスターと方天画戟\n\n# face 300331 \"usual\"\n# textflame 1 1\n# textboxarrow 0 0\n# textwindow \"moya\"\n# chara 300331\n@方天画戟\n…主君、\nお前を討ち取り…\nオレが隊の頭になる…！\n\n# textflame 0 0\n@\n彼女の心には、\n穏やかな空とは真逆の\n激情が渦巻いていた\n\n# face 300331 \"sad\"\n# textflame 1 1\n# chara 300331\n@方天画戟\n主君よ…気を許し、このオレと\n２人きりになるなんて…\nこの乱世を生き抜いていくには…\n\n# textflame 1 1\n# chara 300331\n@方天画戟\nお前はヌル過ぎる…！\n\n# textflame 0 0\n@\n誰もいない、のどかな田舎道…\nマスターの背後で、\n彼女が手から槍を出す\n\n# face 300331 \"amazed\"\n# textflame 1 1\n# chara 300331\n@方天画戟\n安心しろ…苦しまぬよう…\n一瞬でカタを付けてやるから\n\n# face 300331 \"mad\"\n# textflame 1 1\n# chara 300331\n@方天画戟\n最強への道のため…\nオレの槍の錆びとなれェッッ！！\n\n# textflame 0 0\n@\n思い切り振りかぶり、\n後ろから斬り付けようとした、\n正にその瞬間…！\n\n# textflame 0 0\n@\nそう言えば、きみはどうして\n最強になりたいの？\nマスターが振り返った\n\n# voice 3003 \"hotengageki_0024\"\n# face 300331 \"amazed\"\n# textflame 1 1\n# textwindow \"nomal\"\n# textboxarrow 0 2\n# chara 300331\n@方天画戟\n！！\n\n# textflame 0 0\n@\n目にも止まらぬ速さで、\n瞬時に槍を収める彼女\n\n# textflame 1 1\n# chara 300331\n@方天画戟\n…あ？\nあぁ…？\n最強になりたい理由…？\n\n# face 300331 \"usual\"\n# textflame 1 1\n# textboxarrow 0 0\n# textwindow \"moya\"\n# chara 300331\n@方天画戟\nチッ…あと一歩のところで…\nまぁ、いい…\n適当に答えて、後で…\n\n# face 300331 \"normal\"\n# voice 3003 \"hotengageki_0007\"\n# textflame 1 1\n# textboxarrow 0 2\n# textwindow \"nomal\"\n# chara 300331\n@方天画戟\nそりゃ、お前…\n\n# textflame 1 1\n# chara 300331\n@方天画戟\nその方が…楽しいからだろ\n\n# select \"確かにね、仲間を守れるもんね\" \"select_label_01\" \"強い方が…人を助けられるもんね\" \"select_label_02\" \"強いほど…平和に導けるもんね\" \"select_label_03\"\nその方が…楽しいからだろ\n\n# label \"select_label_01\"\n# labeljump \"select_label_end\"\n# face 300331 \"amazed\"\n# textflame 1 1\n# chara 300331\n@方天画戟\n！！\n…仲間を…守るための強さ…\n\n# label \"select_label_02\"\n# labeljump \"select_label_end\"\n# face 300331 \"amazed\"\n# textflame 1 1\n# chara 300331\n@方天画戟\n！！\n人を…そのために…強さを…\n\n# label \"select_label_03\"\n# labeljump \"select_label_end\"\n# face 300331 \"amazed\"\n# textflame 1 1\n# chara 300331\n@方天画戟\n！！\n…平和のために…戦うと…\n\n# label \"select_label_end\"\n# face 300331 \"sad\"\n# textflame 0 0\n@\nそう言ったきり、\nしばらく黙り込む彼女\n\n# textflame 1 1\n# chara 300331\n@方天画戟\n…………\n\n# textflame 0 0\n@\nどうしたの？と\nマスターが尋ねる\n\n# voice 3003 \"hotengageki_0004\"\n# face 300331 \"mad\"\n# textflame 1 1\n# chara 300331\n@方天画戟\nふん…くだらん…\n\n# textflame 1 1\n# chara 300331\n@方天画戟\nやっぱりお前は、\nこの乱世を生き抜くには…\n\n# textflame 1 1\n# chara 300331\n@方天画戟\nヌル過ぎるな\n\n# textflame 0 0\n@\nマスターを睨み付ける目\n彼女の手から、\n再び槍が取り出された"
	}
]