[
	{
		"ID": 30044204,
		"script": "# script \"lisp\"\n# background \"town\"\n# bgm \"bgm003\" 0\n# textboxarrow 0 2\n# body 300441\n# mask 300441 off\n# pos 300441 3\n# face 300441 \"surprise\"\n# textflame 1 1\n@天沼矛\nはぁ…はぁ…はぁ…！\n\n# textflame 0 0\n@\n激しい戦闘を終え、\n野営地に戻ってくる姫たち\n\n@\nみんな、\nすぐに休息を取るべく、\n横になろうとする\n\n@\nそこへ…\n\n# face 300441 \"normal\"\n# voice 3004 \"amenonuboko_0009\"\n# textflame 1 1\n@天沼矛\nみなさん、良かったら…\nお茶でも淹れましょうか？\n\n# textflame 0 0\n@\n疲れているし、\n今はいらないと断る姫たち\nしかし…\n\n# face 300441 \"smile\"\n# textflame 1 1\n]@天沼矛\nまぁ、まぁ。そう、おっしゃらずに\nすぐに立てますから、ね？\n\n# textflame 0 0\n@\nついつい、彼女の\nおっとりとしたペースに\nはまってゆく姫たち\n\n# bgm \"stop\"\n# textflame 0 0\n@\nそして…\n\n# bgm \"bgm003\" 0\n# face 300441 \"normal\"\n# textflame 1 1\n@天沼矛\nお待たせしましたぁ\n\n# textflame 0 0\n@\nわぁ…！姫たちから声が上がる\n\n@\n彼女が淹れたお茶の上には、\n美しい花びらが一枚、\n浮かんでいたのだった\n\n# select \"すごい創意工夫だね\" \"select_label_01\" \"みんな、喜んでるよ\" \"select_label_02\" \"最強のお茶…完成かな？\" \"select_label_03\"\n彼女が淹れたお茶の上には、\n美しい花びらが一枚、\n浮かんでいたのだった\n\n# face  300441  \"normal\"\n# label \"select_label_01\"\n# labeljump \"select_label_end\"\n# textflame 1 1\n# chara  300441 \n@天沼矛\nそんなことありません\n\n# face  300441  \"smile\"\n# label \"select_label_02\"\n# labeljump \"select_label_end\"\n# textflame 1 1\n# chara  300441 \n@天沼矛\n良かった…わたしも嬉しいです\n\n# face  300441  \"normal\"\n# label \"select_label_03\"\n# labeljump \"select_label_end\"\n# textflame 1 1\n# chara  300441 \n@天沼矛\nそんな…まだまだです\n\n# label \"select_label_end\"\n# face 300441 \"normal\"\n# textflame 1 1\n@天沼矛\nいきなり、\n戦をなくせるような、\nお茶は淹れられませんが…\n\n@天沼矛\nわたしも戦に出る者として、\n戦で荒ぶる人の…魂を鎮めるお茶なら\n淹れられるかも知れない…\n\n# face 300441 \"smile\"\n# voice 3004 \"amenonuboko_0005\"\n@天沼矛\nそう思ったんです\n\n# face 300441 \"irregular1\"\n@天沼矛\nまだまだ最強のお茶には程遠いけど…\nそれでも、また\n新たなる力を授かりました\n\n# face 300441 \"smile\"\n#se \"SE_0602\"\n@天沼矛\n新奥義\n『天下泰平の一服』！\n完成です！！\n\n# textflame 0 0\n@\n彼女は、また次の境地へ\n足を踏み入れていた\n\n# textflame 1 1\n@天沼矛\nこれからも創意工夫を忘れず…\nいずれは天下泰平の茶…\n淹れてみせます！！\n\n# textflame 0 0\n@\n新たな希望と共に、\n立ち上がる彼女\n…が、\n\n# face 300441 \"surprise\"\n# voice 3004 \"amenonuboko_kyara_4001\"\n# textflame 1 1\n@天沼矛\nあっ…！\n\n# imageset 0 \"c300441\"\n# imagealpha 0 0 0\n# face 300441 \"irregular2\"\n# textflame 0 0\n@\nつまづき、大きく態勢を崩す\n僕はいつになったら飲めるのだろう…\n\n# imagealpha 0 1 0\n# imagepos 0 0 0 \n# fadein \"white\" 3\n# voice 3004 \"amenonuboko_kyara_1010\"\n# textwindow \"close\"\n\n# textwindow \"nomal\"\n# textflame 0 0\n@\nそう思いながらも、\n彼女の持つ穏やかな空気に\n心温まるマスターだった"
	}
]