[
	{
		"ID": 30102204,
		"script": ";;【EP4】\n# script \"lisp\"\n# background \"wild\"\n# bgm \"bgm002\" 0\n# textboxarrow 0 2\n# body 301021\n# mask 301021 off\n# pos 301021 3\n# alpha 301021 0 0\n# textflame 0 0\n@\nあれから一ヶ月ほどが過ぎた\n\n# textflame 0 0\n@\nロンゴミアントは相変わらず…\n\n# alpha 301021 1 1\n# textflame 1 1\n# textboxarrow 0 2\n# chara 301021\n# voice 3010 \"rhongomiant_0001\"\n@ロンゴミアント\nマスター、今週のご予定は？\n\n# textflame 1 1\n# textboxarrow 0 2\n# chara 301021\n@ロンゴミアント\n今日はどこでなにしてるんですか？\n\n# textflame 1 1\n# textboxarrow 0 2\n# chara 301021\n@ロンゴミアント\nお出かけ？\n何時ごろに帰ってこられますか？\n\n# textflame 0 0\n@\nげっそりのマスター\nあぁ…こんな調子が\nずっと続くのか…\n\n# textflame 0 0\n@\nそんな矢先…\n\n# textflame 1 1\n# textboxarrow 0 2\n# chara 301021\n# voice 3010 \"rhongomiant_0004\"\n# face 301021 \"happy\"\n@ロンゴミアント\n今まで、ごめんなさい\n実験は終了です\n\n# textflame 0 0\n@\nえ？実験？\nマスターが尋ねる\n\n# textflame 1 1\n# textboxarrow 0 2\n# chara 301021\n# voice 3010 \"rhongomiant_0032\"\n# face 301021 \"normal\"\n@ロンゴミアント\n実は試してたんです\n\n# textflame 1 1\n# textboxarrow 0 2\n# chara 301021\n@ロンゴミアント\nこの前は、予定を聞き続けて、\nそれを突然やめたらフェイントの\nような効果があると知りました\n\n# textflame 1 1\n# textboxarrow 0 2\n# chara 301021\n@ロンゴミアント\n今回は、聞き続けるのを\nやめなかったら、\nどうなるかという実験\n\n# textflame 1 1\n# textboxarrow 0 2\n# chara 301021\n# voice 3010 \"rhongomiant_0004\"\n# face 301021 \"mad\"\n@ロンゴミアント\nその結果、マスターは\n私の浮気を疑わなくなった\nいや、疑えなくなった\n\n# textflame 0 0\n@\n…だって、あんなに聞かれたら、\nそんな隙間すら…ハッ！\n気づくマスター\n\n# textflame 1 1\n# textboxarrow 0 2\n# chara 301021\n# voice 3010 \"rhongomiant_0032\"\n# face 301021 \"happy\"\n@ロンゴミアント\nそうなんです\nそれこそ、まさに防御の極意\n攻撃は最大の防御というところですね\n\n# textflame 0 0\n@\n嬉しそうに語る彼女\n\n# se \"SE_0602\"\n# textflame 0 0\n@\nそれはまた、彼女が新たなるスキル\n『ドリフトランサー』に\n目覚めた瞬間でもあった\n\n# select \"でも、なにも僕で実験しなくても…\" \"select_label_01\" \"防御って…まさか今度こそ浮気を…？\" \"select_label_02\" \"まさか…なにかやましい事を隠す為…？\" \"select_label_03\"\nそれはまた、彼女が新たなるスキル\n『ドリフトランサー』に\n目覚めた瞬間でもあった\n\n# label \"select_label_01\"\n# labeljump \"select_label_end\"\n# textflame 1 1\n# textboxarrow 0 2\n# chara 301021\n# face 301021 \"happy\"\n@ロンゴミアント\nマスター相手じゃないと\n意味がないんです、ふふ\n\n# label \"select_label_02\"\n# labeljump \"select_label_end\"\n# textflame 1 1\n# textboxarrow 0 2\n# chara 301021\n# face 301021 \"happy\"\n@ロンゴミアント\nうふふ…心配ですか？\n\n# label \"select_label_03\"\n# labeljump \"select_label_end\"\n# textflame 1 1\n# textboxarrow 0 2\n# chara 301021\n# face 301021 \"happy\"\n@ロンゴミアント\nやましい事…か\nそれは、どうでしょ\n\n# label \"select_label_end\"\n# textflame 0 0\n@\n含み笑いを浮かべる彼女\n\n# textflame 1 1\n# textboxarrow 0 2\n# chara 301021\n# voice 3010 \"rhongomiant_0005\"\n@ロンゴミアント\n…なぁんて♪冗談です\nマスターに隠したかったのは…\nこれなんです\n\n# textflame 0 0\n@\nマスターの首に、\n手編みのマフラーを巻く彼女\n\n# textflame 1 1\n# textboxarrow 0 2\n# chara 301021\n# face 301021 \"normal\"\n@ロンゴミアント\n実はこの一ヶ月、\nキル姫であることは隠しながら、\n街の手芸教室に通ってたんです\n\n# textflame 1 1\n# textboxarrow 0 2\n# chara 301021\n@ロンゴミアント\n愛する主の為…\n戦い以外の事で、\nなにかをしたかったから\n\n# textflame 1 1\n# textboxarrow 0 2\n# chara 301021\n# face 301021 \"happy\"\n@ロンゴミアント\nでも守りたいって気持ちも、\nもちろん持ち続けてますよ\n\n# textflame 1 1\n# textboxarrow 0 2\n# chara 301021\n@ロンゴミアント\nだから、寒さから身を守れる\nマフラーのプレゼントです\n\n# textflame 0 0\n@\n少し照れ臭そうに微笑む彼女\nその笑顔を見ていると、\n\n# textflame 0 0\n@\nこの地方は、\nこれから暑くなるんだけど…\n\n# textflame 0 0\n@\n…とは、口が裂けても\n言えないマスター\n\n# textflame 1 1\n# textboxarrow 0 2\n# chara 301021\n# voice 3010 \"rhongomiant_0005\"\n@ロンゴミアント\nうん！似合いますね\n\n# imageset 0 \"c301021\"\n# imagealpha 0 0 0\n# textflame 0 0\n@\nその純粋な想いを受け取る\nマスターだった\n\n# imagealpha 0 1 0\n# imagepos 0 0 0 \n# fadein \"white\" 3\n# voice 3010 \"rhongomiant_kyara_0027\"\n# textwindow \"close\"\n;;一枚絵音声ロンゴミアント　「マスターのことが…いえ、これからもおそばにいますからね！」"
	}
]