[
	{
		"ID": 30181203,
		"script": "# script \"lisp\"\n# background \"foot_mountain_village\"\n# bgm \"bgm003\" 0\n# body 301811\n# mask 301811 off\n# pos 301811 3\n;;黒準備\n# imageset 1 \"bg_black\"\n# imagepos 1 0 0\n# imagealpha 1 0 0\n# textflame 1 1\n# textboxarrow 0 0\n# voice 3018 \"forcas_0009\"\n# face 301811 \"sad\"\n@フォルカス\n私のキラーズは、\n他の姫たちとは違い\n地獄に住む悪魔の槍…\n\n# voice 3018 \"forcas_0002\"\n@フォルカス\nその悪魔は…白髭をたくわえた\n残忍な老人の姿だったと聞きます\n\n@フォルカス\n私がアスカロンと気が合うのは…\n彼女も…恐れているから…\n\n# face 301811 \"worry\"\n@フォルカス\nいつか…巨人に\nなってしまうのではないかと\n\n# voice 3018 \"forcas_0003\"\n@フォルカス\n私も…同じです…\n\n# voice 3018 \"forcas_0007\"\n@フォルカス\n力を制御できなければ…\nいつか年老いた…\n醜い悪魔になってしまう…\n\n# face 301811 \"sad\"\n# voice 3018 \"forcas_0017\"\n@フォルカス\nそれが…怖い…\n\n# textflame 0 0\n@\n彼女が、年相応に見えるか\n気にしていた理由を知るマスター\n\n# select \"君の好きなものは？趣味とか\" \"select_label_01\" \"何をしている時が楽しい？\" \"select_label_02\" \"一番、心が踊る時は…？\" \"select_label_03\"\n彼女が、年相応に見えるか\n気にしていた理由を知るマスター\n\n# face 301811 \"surprise\"\n# label \"select_label_01\"\n# labeljump \"select_label_end\"\n# textflame 1 1\n# textboxarrow 0 2\n@フォルカス\n…え？趣味…？どうして…ですか？\n\n# face 301811 \"surprise\"\n# label \"select_label_02\"\n# labeljump \"select_label_end\"\n# textflame 1 1\n# textboxarrow 0 2\n@フォルカス\n…え？楽しい事…ですか…？\n\n# face 301811 \"surprise\"\n# label \"select_label_03\"\n# labeljump \"select_label_end\"\n# textflame 1 1\n# textboxarrow 0 2\n@フォルカス\n…え？それはやっぱり…\n\n# face 301811 \"worry\"\n# label \"select_label_end\"\n@フォルカス\n趣味というか…好きなのは…\n占いとか…乗馬とか\n\n# textflame 0 0\n@\nよし、借りよう！\n\n# face 301811 \"surprise\"\n# textflame 1 1\n# textboxarrow 0 2\n# voice 3018 \"forcas_0023\"\n@フォルカス\nえ！？ちょっと…\nマスター！？\n\n# textflame 0 0\n@\n乗馬クラブの人に無理言って\n馬を借りるマスター\n\n# face 301811 \"normal\"\n# textflame 1 1\n# textboxarrow 0 2\n# voice 3018 \"forcas_0001\"\n@フォルカス\nな…なんだか分からないですけど…\nとにかくマスターの言う方角に\n行けばいいんですね！！\n\n# textflame 0 0\n@\n彼女が馬を飛ばす！\n好きと言うだけあって、\nかなりの腕前だ\n\n# imagepos 1 0 0\n# imagealpha 1 1 0.5\n\n# background \"flower_garden\"\n# imagepos 1 0 0\n# imagealpha 1 0 0.5\n\n# textflame 1 1\n# textboxarrow 0 2\n# face 301811 \"surprise\"\n# voice 3018 \"forcas_0022\"\n@フォルカス\n…！！こ…ここは…\n\n# textflame 0 0\n@\nマスターに誘導され、\n辿り着いたのは…\n\n# face 301811 \"smile\"\n# textflame 1 1\n# textboxarrow 0 2\n# voice 3018 \"forcas_0041\"\n@フォルカス\nすごい…きれい…\nこんな近くに…\nこんな花畑が…\n\n# textflame 0 0\n@\n思わず、笑みがこぼれだす彼女\n\n# face 301811 \"surprise\"\n# textflame 1 1\n# textboxarrow 0 2\n# voice 3018 \"forcas_0023\"\n@フォルカス\n…え？私の笑顔…？\n年相応…ですか？\n\n# textflame 0 0\n@\nそんな笑顔ができる君が老け込む\nなんて、信じられないけどな\nとマスターも微笑む\n\n# textflame 1 1\n# textboxarrow 0 2\n@フォルカス\n…！\n\n# face 301811 \"usual\"\n@フォルカス\nアスカロンも…懸命に戦っている…\n恐れを乗り越えようと！\n私も…！！\n\n# face 301811 \"normal\"\n# voice 3018 \"forcas_0029\"\n@フォルカス\nハァッ！！\n\n# textflame 0 0\n@\n彼女の槍に光が集まる\n\n# se \"SE_0602\"\n# textflame 1 1\n# textboxarrow 0 2\n@フォルカス\nマスター！\n新技、『カリスマ地獄槍』、\n誕生です！！\n\n# textflame 0 0\n@\nそれはまさしく、\n彼女が新たなるスキルに\n目覚めた瞬間だった\n\n# face 301811 \"smile\"\n# textflame 1 1\n# textboxarrow 0 2\n# voice 3018 \"forcas_0030\"\n@フォルカス\nありがとうございます、マスター\n何だか少し…吹っ切れました！\n\n# voice 3018 \"forcas_0001\"\n@フォルカス\nマスターが背中を押して下さいました\n私も…恐れる気持ちを\n乗り越えていきます！！\n\n# textflame 0 0\n@\nその笑顔にもう暗い影はなかった\n\n# face 301811 \"shy\"\n# textflame 1 1\n# textboxarrow 0 2\n# voice 3018 \"forcas_0002\"\n@フォルカス\nあの…ちなみに言っときますけど…\nわ、私が年相応でないと\n思われたくないのは…\n\n# voice 3018 \"forcas_0001\"\n@フォルカス\nマスター…\nあなたにだけなんですからね…\n\n# textflame 0 0\n@\n顔を赤くして、彼女が言う\nえ？どうして…？と、\n尋ねるマスター\n\n# imageset 0 \"c301811\"\n# imagealpha 0 0 0\n# imagepos 0 0 0\n# textflame 1 1\n# textboxarrow 0 2\n# voice 3018 \"forcas_0042\"\n@フォルカス\nもう…女の子に…\nすべてを語らせないでください！\n\n# voice 3018 \"forcas_kyara_0026\"\n# imagealpha 0 1 0\n# imagepos 0 0 0\n# fadein \"white\" 3\n# textwindow \"close\"\n\n# textwindow \"nomal\"\n# textflame 0 0\n@\n照れた顔も十分、\n年相応の可愛らしさだけどな\nと、思うマスターだった"
	}
]