[
	{
		"ID": 30185202,
		"script": "# script \"lisp\"\n# background \"festival_evening\"\n# bgm \"bgm003\" 0\n# textboxarrow 0 2\n# body 301851\n# mask 301851 off\n# pos 301851 3\n# textflame 1 1\n# chara 301851\n# voice 3018 \"forcas_0001\"\n@フォルカス\n…お待たせしました\n行きましょうか\n\n# textflame 0 0\n@\n明らかに気合が入った浴衣姿に\nうれしいやら、見惚れるやらの\nマスター\n\n# textflame 1 1\n# chara 301851\n# face 301851 \"shy\"\n# voice 3018 \"forcas_0013\"\n@フォルカス\nな、なにをにやにやしてるんですか！\n置いていきますよ！？\n\n# textflame 0 0\n@\n口ではそう言いながらも\n歩みを合わせてくれるフォルカスと\n縁日を巡っていく\n\n# textflame 1 1\n# chara 301851\n# face 301851 \"normal\"\n@フォルカス\n縁日ですか？\n…ええ、あまり来たことは\nないかもしれないです\n\n# chara 301851\n# face 301851 \"shy\"\n@フォルカス\n少なくとも…\n浴衣で誰かと来るのは…\n初めてかも…\n\n# textflame 0 0\n@\n初めは堅かったフォルカスも\nだんだんと小さく\n歓声を漏らすようになり…\n\n# textflame 1 1\n# chara 301851\n# face 301851 \"surprise\"\n# voice 3018 \"forcas_0039\"\n@フォルカス\nりんごあめ…\nこれは未知の味覚です！！\n\n# textflame 0 0\n@\n女の子らしく、\n甘味に興奮したり…\n\n# textflame 1 1\n# chara 301851\n# face 301851 \"angry\"\n# voice 3018 \"forcas_0001\"\n@フォルカス\nマスター、静かに\n集中力が乱れて手元が狂います\n\n# textflame 0 0\n@\n射的あそびなのに\nいつものシリアスモードに\n入ってしまったり…\n\n# textflame 1 1\n# chara 301851\n# voice 3018 \"forcas_0009\"\n@フォルカス\nな、納得がいかない！\nそもそも、この仕掛けで\n金魚を取るなど無理があるのでは！？\n\n# textflame 0 0\n@\n普段は見せないような\nふくれっ面を見せてくれたりした\n\n@\nそんなフォルカスが\n最後に目をつけたのが…\n\n# textflame 1 1\n# chara 301851\n# face 301851 \"surprise\"\n# voice 3018 \"forcas_0002\"\n@フォルカス\n型抜き…？\nあれは一体どういう\n遊びなんですか？\n\n# select \"集中力が試される遊びだよ\" \"select_label_01\" \"縁日一技術がいる遊びだ\" \"select_label_02\" \"うまく行った試しがないんだよな…\" \"select_label_03\"\n型抜き…？\nあれは一体どういう\n遊びなんですか？\n\n# face 301851 \"angry\"\n# label \"select_label_01\"\n# labeljump \"select_label_end\"\n# textflame 1 1\n# chara 301851\n@フォルカス\nそれは挑戦せざるを得ませんね…\n\n# face 301851 \"angry\"\n# label \"select_label_02\"\n# labeljump \"select_label_end\"\n# textflame 1 1\n# chara 301851\n@フォルカス\n…つまり、遊びではないと？\n\n# face 301851 \"angry\"\n# label \"select_label_03\"\n# labeljump \"select_label_end\"\n# textflame 1 1\n# chara 301851\n@フォルカス\nならば、できるまでやるべきです\n\n# label \"select_label_end\"\n# textflame 0 0\n@\nフォルカスの目の色が\n明らかに変わる\n\n# textflame 1 1\n# chara 301851\n# face 301851 \"angry\"\n# voice 3018 \"forcas_0036\"\n@フォルカス\nこの勝負…受けて立ちましょう\nおじさん、一回お願いします！\n\n# textflame 0 0\n@\n妙なスイッチが入ってしまった\nフォルカスの戦いが始まる…！"
	}
]