[
	{
		"ID": 30183202,
		"script": ";;【EP2】\n# script \"lisp\"\n# background \"town_evening\"\n# bgm \"bgm002\" 0\n# body 301831\n# mask 301831 off\n# pos 301831 3\n# textflame 1 1\n# textboxarrow 0 2\n# chara 301831\n# voice 3018 \"forcas_0028\"\n# face 301831 \"sad\"\n@フォルカス\n戦いが…終わったら…\n私は…\n\n@フォルカス\n私の存在する意味は…\n\n# textflame 0 0\n@\n槍を降ろし、\n考え込んでしまうフォルカス\n\n# textflame 0 0\n@\nマスターが彼女に声を掛ける\n\n# textflame 1 1\n# textboxarrow 0 2\n# chara 301831\n@フォルカス\nそんな…\n重く考え過ぎるなと\n言われましても…\n\n# textflame 0 0\n@\n戦闘以外でも、\n好きなものとか趣味とか、\n\n# textflame 0 0\n@\nそういうもので、\n人との距離を近づける\nことだってできるよ\n\n# textflame 1 1\n# textboxarrow 0 2\n# chara 301831\n@フォルカス\n戦闘…以外でも…\n\n# select \"君の好きなものは？\" \"select_label_01\" \"君も趣味とかあるでしょ？\" \"select_label_02\" \"どんな事に興味があるの？\" \"select_label_03\"\n戦闘…以外でも…\n\n# label \"select_label_01\"\n# labeljump \"select_label_end\"\n# textflame 1 1\n# textboxarrow 0 2\n# chara 301831\n# face 301831 \"shy\"\n@フォルカス\nう…占い…です\n\n# label \"select_label_02\"\n# labeljump \"select_label_end\"\n# textflame 1 1\n# textboxarrow 0 2\n# chara 301831\n# face 301831 \"shy\"\n@フォルカス\n趣味は…う、占いです\n\n# label \"select_label_03\"\n# labeljump \"select_label_end\"\n# textflame 1 1\n# textboxarrow 0 2\n# chara 301831\n# face 301831 \"shy\"\n@フォルカス\nそ、それは…占いです\n\n# label \"select_label_end\"\n# textflame 0 0\n@\n少し恥ずかしそうに答える彼女\n\n# textflame 0 0\n@\nじゃあ、今日の鍛錬はお終い！\n今から行こう！\n\n# textflame 1 1\n# textboxarrow 0 2\n# chara 301831\n# voice 3018 \"forcas_0023\"\n# face 301831 \"surprise\"\n@フォルカス\n…え、えぇっ！？\nどこへ！？\n\n# textflame 0 0\n@\nいいから、ほら！\n\n# imageset 0 \"black\"\n# imagealpha 0 0 0\n# imagelayer 0 1\n# textflame 0 0\n@\n彼女の手を引き、\n駆け出すマスター\n\n# imagealpha 0 1 0\n# imagepos 0 0 30\n# imageleftin 0 0.5\n# serif 0\n# textwindow \"close\"\n# serif 1\n# textwindow \"close\"\n# waitandnext 1\n\n# imagerightout 0 0.5\n# alpha 301831 0 0\n# serif 0\n# textwindow \"nomal\"\n# textflame 0 0\n@\nしばらく行くと…\n\n# textflame 1 1\n# textboxarrow 0 2\n# alpha 301831 1 0.5\n# chara 301831\n# voice 3018 \"forcas_0022\"\n@フォルカス\n…！ここは…\n\n# textflame 0 0\n@\nマスターが連れて来たのは、\n街で人気の占い屋さん\n\n# textflame 0 0\n@\nすでに多くの女性客が\n行列を作っている\n\n# textflame 1 1\n# textboxarrow 0 2\n# chara 301831\n# voice 3018 \"forcas_0021\"\n# face 301831 \"happy\"\n@フォルカス\nきゃ～！すっご～い！\nここ、ずっと前から気に\nなってたんですよ、超楽しみ～！\n\n# voice 3018 \"forcas_0020\"\n@フォルカス\nでもなんて言われるか、\nドキドキしちゃいますよね？\nきゃ～！！\n\n# textflame 1 1\n# textboxarrow 0 2\n# chara 301831\n# face 301831 \"surprise\"\n@フォルカス\n…ハッ！\n\n# face 301831 \"shy\"\n@フォルカス\nあ…あの…\n\n;;吹き出し小さく\n# textsize 17\n@フォルカス\nし、失礼しました…\n\n# textsize 24\n# textflame 0 0\n@\n占いとなると、\nまるで普通の女の子だ\n少し意外に思うマスター\n\n# face 301831 \"usual\"\n# textflame 0 0\n@\nそして、いよいよ彼女の番が来た\n\n# textflame 0 0\n@\n『…あなた…』\n\n# textflame 1 1\n# textboxarrow 0 2\n# chara 301831\n@フォルカス\n…は…はぃ\n\n# textflame 0 0\n@\n『なにか大きな\n“闇”を\n抱えてらっしゃる』\n\n# textflame 1 1\n# textboxarrow 0 2\n# chara 301831\n# voice 3018 \"forcas_0022\"\n# face 301831 \"surprise\"\n@フォルカス\n…！\n\n# textflame 0 0\n@\n『その闇を拭い去らぬ限り…\n幸福は訪れませんぞ』\n\n# textflame 1 1\n# textboxarrow 0 2\n# chara 301831\n# voice 3018 \"forcas_0008\"\n# face 301831 \"sad\"\n@フォルカス\n…そ…そう…ですか\n\n# textflame 0 0\n@\nさっきまでハシャいでいたのが\n嘘のように、\n暗い瞳を落とすフォルカスだった"
	}
]