[
	{
		"ID": 30191101,
		"script": "# script \"lisp\"\n# background \"halloween\"\n# bgm \"bgm003\" 0\n# body 17\n# mask 17 off\n# pos 17 3\n# alpha 17 0 0\n# textboxarrow 0 2\n# textflame 0 0\n# chara 17\n@\n空に満月が浮かぶ夜\nマスターは一人、\n森を歩いていた\n\n# alpha 17 1.0 0.2\n# voice 3019 \"rider_0001\"\n# textflame 1 1\n# chara 17\n@ライダー\n私をお探しですか？\n\n# textflame 0 0\n@\n音もなく突如現れたキル姫、\nライダー\n\n# textflame 0 0\n@\n「な、何をしてたの？」と、\nマスターが尋ねる\n\n# voice 3019 \"rider_0031\"\n# face 17 \"worry\"\n# textflame 1 1\n# chara 17\n@ライダー\n驚かせてしまって、申し訳ありません\n\n# voice 3019 \"rider_0008\"\n# face 17 \"normal\"\n# textflame 1 1\n# chara 17\n@ライダー\n月の光に照らされる…\n花を見ていました\n\n# voice 3019 \"rider_0004\"\n# textflame 1 1\n# chara 17\n@ライダー\n花は美しい…\n戦闘に手を染める私の心を静め、\n穏やかな気持ちにさせてくれます\n\n# face 17 \"sad\"\n# textflame 1 1\n# chara 17\n@ライダー\n…が、\n\n# voice 3019 \"rider_0019\"\n# textflame 1 1\n# chara 17\n@ライダー\n美しきものの末路は…\n\n# face 17 \"normal\"\n# textflame 0 0\n@\nジャラララララッ！！\n\n# textflame 0 0\n@\nライダーの手から放たれ、\n勢いよく飛んでくる鎖\n\n# textflame 0 0\n@\nそれはマスターの腕を絡め取り、\n一気に木の枝に吊るし上げた\n\n# voice 3019 \"rider_0031\"\n# face 17 \"worry\"\n# textflame 1 1\n# chara 17\n@ライダー\n突然の御無礼、\nどうかお許し下さい\n\n# voice 3019 \"rider_0009\"\n# face 17 \"sad\"\n# textflame 1 1\n# chara 17\n@ライダー\nしかし…\nどうしても、あなたに\n問いたいことがあるのです\n\n# textflame 0 0\n@\n満月を背負ったライダーが、\nマスターに対し神妙に口を開いた\n\n# voice 3019 \"rider_0001\"\n# face 17 \"worry\"\n# textflame 1 1\n# chara 17\n@ライダー\nあなたは…\n\n# voice 3019 \"rider_0008\"\n# face 17 \"normal\"\n# textflame 1 1\n# chara 17\n@ライダー\n私の力を引き出してくれる…\n真のマスターですか？"
	}
]