[
	{
		"ID": 30241203,
		"script": ";;【EP3】(オチ)\n# script \"lisp\"\n# background \"town_night\"\n# bgm \"bgm002\" 0\n# body 302411\n# mask 302411 off\n# pos 302411 3\n# alpha 302411 1 0\n# face 302411 \"sad\"\n# textflame 0 0\n@\n弱き者の気持ちが分かれば、\nさらに強くなれる\n\n@\nマスターの言葉に\n黙り込んでしまった蜻蛉切\n\n# textflame 1 1\n# textboxarrow 0 2\n# chara 302411\n# voice 3024 \"tonbokiri_0015\"\n@蜻蛉切\n…………\n\n# textflame 0 0\n@\n槍を持ち、\n静かに立ち上がる\n\n@\nあれ？やっぱ…怒らせた？\n…とは言え、その槍でなにを？\nと怯えるマスター\n\n# textflame 1 1\n# textboxarrow 0 2\n# chara 302411\n@蜻蛉切\n弱き者の心など…\n\n;;文字大きく\n# fadein \"white\" 1\n# se \"SE_4817\"\n# voice 3024 \"tonbokiri_0029\"\n# face 302411 \"angry\"\n# textsize 36\n@蜻蛉切\nうりゃああああああ！\n\n# textsize 24\n# textflame 0 0\n@\nマスター目がけ、\n槍を一突きする彼女\n\n@\nひぃぃぃぃぃーーーっ！！\n\n@\n槍はマスターの鼻先で止まった\n\n# textflame 1 1\n# textboxarrow 0 2\n# face 302411 \"sad\"\n# chara 302411\n@蜻蛉切\n…殿が謝ることじゃない\n\n@蜻蛉切\n弱き者の心など…\n気に掛けたこともなかった…\n\n# voice 3024 \"tonbokiri_0031\"\n@蜻蛉切\n私が悪かったわ\n\n@蜻蛉切\nよく「ばかばか～」って\n言ってるけど、\nほんとにばかだったのは私…\n\n@蜻蛉切\n弱き者の心をわかること…\nそれは…\n人を顧みる優しさを持つってこと\n\n@蜻蛉切\nそうすれば慈愛の心、\n団結の心が生まれる\n殿は…それを私に教えようと…\n\n# textflame 0 0\n@\nそう言った彼女の槍の切っ先に\nトンボのボンちゃんが\nピタリととまった\n\n# textflame 1 1\n# textboxarrow 0 2\n# face 302411 \"surprise\"\n# chara 302411\n# voice 3024 \"tonbokiri_0022\"\n@蜻蛉切\n…！\n\n# face 302411 \"sad\"\n@蜻蛉切\nこの子は…遥か昔、まだ武器だった\n私が切り落してしまった\nトンボの幽霊なの\n\n@蜻蛉切\nかつての私には、\nひとかけらの慈悲も慈愛もなく、\nただ殺気しかなかったの\n\n@蜻蛉切\nでも、殿の言葉で気づけた…\n少しは…変われる…\nそんな気がする\n\n# face 302411 \"happy\"\n# voice 3024 \"tonbokiri_0004\"\n@蜻蛉切\nその心の変化が、\nボンちゃんをとまらせて\nくれたのかな…？\n\n#se \"SE_0602\"\n# textflame 0 0\n@\nそして、その変化は\n彼女に新たなるスキル\n『無双両断槍』をもたらした\n\n@\nボンちゃんは嬉しくなったのか\nぶんぶんと飛び回る\n\n# textflame 1 1\n# textboxarrow 0 2\n# face 302411 \"angry\"\n# chara 302411\n# voice 3024 \"tonbokiri_kyara_1001\"\n@蜻蛉切\nこら、ばかボン！\n調子にのるな！\n\n# voice 3024 \"tonbokiri_0042\"\n@蜻蛉切\nまったく…\n\n# face 302411 \"normal\"\n@蜻蛉切\n…で、さっきの答えだけど\n\n# textflame 0 0\n@\nえ？\nなんか言ってたっけ？\n\n# textflame 1 1\n# textboxarrow 0 2\n# face 302411 \"angry\"\n# chara 302411\n@蜻蛉切\nパックは美肌のためか？って！\n\n@蜻蛉切\n私がパックをしてたのは…\n\n# face 302411 \"sad\"\n@蜻蛉切\n殿に諫められ、\nイライラしてたから…\nそれでお肌に影響があると思って…\n\n# face 302411 \"happy\"\n@蜻蛉切\nでも、そんなイライラも\nもうなくなったから…\nこれはいらないわ\n\n# select \"優しい心を持ったからだね\" \"select_label_01\" \"なんだか内面から綺麗になったみたい\" \"select_label_02\" \"すごく輝いて見えるよ\" \"select_label_03\"\nでも、そんなイライラも\nもうなくなったから…\nこれはいらないわ\n\n# label \"select_label_01\"\n# labeljump \"select_label_end\"\n# textflame 1 1\n# textboxarrow 0 2\n# chara 302411\n# face 302411 \"shy\"\n@蜻蛉切\n…！や…優しい…？私が…？\n\n# label \"select_label_02\"\n# labeljump \"select_label_end\"\n# textflame 1 1\n# textboxarrow 0 2\n# chara 302411\n# face 302411 \"shy\"\n@蜻蛉切\n…！な…！き、綺麗だなんて…\n\n# label \"select_label_03\"\n# labeljump \"select_label_end\"\n# textflame 1 1\n# textboxarrow 0 2\n# chara 302411\n# face 302411 \"shy\"\n@蜻蛉切\n…！か、輝いて…とか…\n\n# label \"select_label_end\"\n# textflame 1 1\n# textboxarrow 0 2\n# chara 302411\n# voice 3024 \"tonbokiri_kyara_0012\"\n@蜻蛉切\nそ…！\nそんな、おべんちゃら\n言ってもダメよ！\n\n# face 302411 \"angry\"\n@蜻蛉切\n私を見て、\nお化けって言ったことは\n許さないんだからッ！\n\n# face 302411 \"shy\"\n# voice 3024 \"tonbokiri_0007\"\n@蜻蛉切\nほんとにばか殿は\n乙女心がわかってないんだからっ\n\n# textflame 0 0\n@\nまた怒って、背を向ける彼女\n\n# imageset 0 \"c302411\"\n# imagealpha 0 0 0\n# imagepos 0 0 0\n@\nしかし、鏡越しに映る顔は\nなんだかとても嬉しそうだった\n\n;;★５\n;;一枚絵ボイス：蜻蛉切　「肌がきれい…？　と、トーゼンじゃない！毎日、スキンケアは徹底してるからね！　…ふへへ」\n;;tonbokiri_kyara_0026\n# voice 3024 \"tonbokiri_kyara_0026\"\n# imagealpha 0 1 0\n# imagepos 0 0 0\n# fadein \"white\" 3\n# textwindow \"close\""
	}
]