[
	{
		"ID": 30252202,
		"script": ";;【ミネルヴァ_クリスマス_EP2】本当に大切なもの\n# script \"lisp\"\n# background \"highland_snow\"\n# bgmfile \"bgm268\" \"BgmChristmas002\" 0\n# body 302521\n# pos 302521 3\n# mask 302521 off\n# textflame 0 0\n@\n無事に異族を掃討し、\nほっと一息をつく\n\n# textflame 1 1\n# textboxarrow 0 2\n# chara 302521\n@ミネルヴァ\nでは、戻りましょう\n市街地での戦闘を避けるよう\nニケの誘導で街を離れたので\n\n# face 302521 \"surprise\"\n# textflame 1 1\n# textboxarrow 0 2\n# chara 302521\n@ミネルヴァ\n今ここにいるのは\n私とマスターだけ…\n\n# face 302521 \"shy\"\n# textflame 1 1\n# textboxarrow 0 2\n# chara 302521\n# voice 3025 \"minerva_0042\"\n@ミネルヴァ\nクリスマスに…\n二人きり…\n\n# textflame 0 0\n@\nそう言うと、\n彼女は顔を真っ赤にして\n両手で頬を押さえる\n\n# textflame 1 1\n# textboxarrow 0 2\n# chara 302521\n# voice 3025 \"minerva_0023\"\n@ミネルヴァ\nふたりきりでなんて、そんな…\nしかも今日はクリスマス…！\n\n# textflame 0 0\n@\nどうしたの？\n\n# face 302521 \"sad\"\n# textflame 1 1\n# textboxarrow 0 2\n# chara 302521\n# voice 3025 \"minerva_0025\"\n@ミネルヴァ\nいえ、なんでもないんです…！\n\n# textflame 0 0\n@\nミネルヴァは少し沈黙すると\n意を決したように顔を上げる\n\n# face 302521 \"shy\"\n# textflame 1 1\n# textboxarrow 0 2\n# chara 302521\n# voice 3025 \"minerva_0001\"\n@ミネルヴァ\nあの、マスター\nマスターに日頃の感謝の思いを込めて\nこれを…\n\n# face 302521 \"surprise\"\n# textflame 1 1\n# textboxarrow 0 2\n# chara 302521\n@ミネルヴァ\n…！？\n\n# face 302521 \"sad\"\n# textflame 0 0\n@\nだが、マスターが受け取るより早く\n彼女はそれを引っ込めてしまう\n\n# textflame 0 0\n@\n沈痛な表情で包みを見つめる彼女を\n心配するマスター\n\n# face 302521 \"normal\"\n# textflame 1 1\n# textboxarrow 0 2\n# chara 302521\n@ミネルヴァ\nいえ…\nなんでもありません\n\n# face 302521 \"happy\"\n# textflame 1 1\n# textboxarrow 0 2\n# chara 302521\n# voice 3025 \"minerva_0008\"\n@ミネルヴァ\nマスター、早く戻りましょう\nみんな、パーティーの準備をして\n待っていますから…\n\n# textflame 0 0\n@\nミネルヴァが気を抜いた一瞬に\nマスターは彼女の手を取る\n\n# face 302521 \"surprise\"\n# textflame 1 1\n# textboxarrow 0 2\n# chara 302521\n@ミネルヴァ\nあっ！\n\n# textflame 0 0\n@\nそこには先ほどの戦闘で\n破れたボロボロの包みと\n汚れたマフラーがあった\n\n# face 302521 \"sad\"\n# textflame 1 1\n# textboxarrow 0 2\n# chara 302521\n# voice 3025 \"minerva_0015\"\n@ミネルヴァ\nすみません…\nこんなことになるなら\nもっと早くに渡すべきでした\n\n# textflame 1 1\n# textboxarrow 0 2\n# chara 302521\n@ミネルヴァ\nいつも一緒に戦ってくれている\nマスターに親愛の証として\n渡したかったのに…\n\n# textflame 1 1\n# textboxarrow 0 2\n# chara 302521\n@ミネルヴァ\nせっかくのクリスマスなのに…\n\n# textflame 0 0\n@\n落ち込む彼女の肩で\nニケもまた羽を窄めている\nしかし…次の瞬間\n\n# se \"SE_0617\"\n# serif 1\n# textboxarrow 1 0\n@異族\nグギャアアアア！\n\n;;//演出:異族登場\n# face 302521 \"angry\"\n# serif 1\n# textwindow \"close\"\n# serif 0\n# textwindow \"normal\"\n# textflame 0 0\n@\n異族が現れ、咆哮を上げる\nこんなときに、と内心思うが\nそうも言っていられない\n\n# textflame 0 0\n@\nしかしマスターが\nミネルヴァに声をかけるより早く\n彼女は一歩前へ進み出ていた\n\n;;【EP3】\n;;//モヤモヤ吹き出し\n# serif 0\n# textwindow \"close\"\n# move 302521 3 0\n# serif 1\n# textwindow \"moya\"\n# textflame 1 1\n# textboxarrow 1 0\n# chara 302521\n@ミネルヴァ\n…マスターに似合う色の毛糸、\nせっかく見つけてきたのに\n\n;;//モヤモヤ吹き出し\n# textflame 1 1\n# textboxarrow 1 0\n# move 302521 3 0\n# serif 1\n# textwindow \"moya\"\n# chara 302521\n@ミネルヴァ\n少しずつ編んで、やっとできたのに…\nせっかく綺麗に包んだのに…\n\n;;//文字大きく\n# serif 1\n# textwindow \"close\"\n# serif 0\n# textwindow \"normal\"\n# textsize 32\n# textflame 1 1\n# textboxarrow 0 2\n# chara 302521\n@ミネルヴァ\n許さない…\n絶対に許さない！\n\n# se \"SE_5024\"\n# textsize 24\n# textflame 0 0\n@\nすると彼女の肩に乗ったニケが\n大きく羽を揺らして\nひときわ大きい声で鳴いた\n\n# textflame 0 0\n@\nミネルヴァの想いに呼応するように\nニケが大きく羽を広げる―！\n\n;;//スキル取得\n# se \"SE_0602\"\n# textflame 0 0\n@\nそれは彼女が新たなスキル\n『零式・戎具の聖誕\n　－ミラクルイヴ－』を\n\n# textflame 0 0\n@\n取得した瞬間だった\n\n# se \"SE_4756\"\n# fadein \"white\" 0.5\n# shake 0 0.5\n# textflame 0 0\n@\nミネルヴァの攻撃が\n異族を吹き飛ばす\n\n# face 302521 \"surprise\"\n# textflame 0 0\n@\nマスターがかけよると\n彼女は少し混乱していた\n\n# face 302521 \"sad\"\n# textflame 1 1\n# textboxarrow 0 2\n# chara 302521\n# voice 3025 \"minerva_0028\"\n@ミネルヴァ\nニケが力を貸してくれたのでしょうか\nでも、どうして…\n\n# textflame 0 0\n@\nいつも理性的なミネルヴァが\nここまで怒っているのだから\nただ事じゃないと思ったのかな？\n\n# textflame 0 0\n@\nミネルヴァの強い気持ちに\nニケは応えてくれたんだよ\n\n# face 302521 \"surprise\"\n# textflame 1 1\n# textboxarrow 0 2\n# chara 302521\n@ミネルヴァ\n私の強い気持ちに…\n\n# imageset 2 \"bg_black\"\n# imagealpha 2 0 0\n# imagelayer 2 2\n# imagescale 2 5 0\n# textflame 0 0\n@\nそのとき、ミネルヴァの鼻先に\n雪が落ちる\n\n# serif 0\n# textwindow \"close\"\n# imagealpha 2 1 0.5\n# imagepos 2 0 30\n# waitandnext 0.5\n\n# alpha 302521 0 0\n# background \"black\"\n# envbody 2000 2 0\n# effectpattern 2000 2 0\n# effectstart 2000\n# waitandnext 0.1\n\n# imagealpha 2 0 0.5\n# waitandnext 0.5\n\n# serif 0\n# textwindow \"normal\"\n# textflame 0 0\n@\nミネルヴァが顔を上げると\nすっかり日が落ちた空から\n雪が舞い落ちてくるのが見えた\n\n# fadein \"white\" 0.5\n# imagealpha 2 0 0\n# background \"highland_snow\"\n# alpha 302521 1 0\n# face 302521 \"sad\"\n# textflame 1 1\n# textboxarrow 0 2\n# chara 302521\n@ミネルヴァ\n…くしゅんっ\n\n# textflame 0 0\n@\nくしゃみをした彼女に\nマスターはコートを羽織らせる\n\n# face 302521 \"shy\"\n# textflame 1 1\n# textboxarrow 0 2\n# chara 302521\n# voice 3025 \"minerva_0025\"\n@ミネルヴァ\nえっ、マスター…！\nそんな、ダメですよ\nマスターの体が冷えてしまいます\n\n# textflame 0 0\n@\n自分にはこれがあるから\nそう言って、マスターは\n包みからマフラーを取り出す\n\n# face 302521 \"sad\"\n# textflame 1 1\n# textboxarrow 0 2\n# chara 302521\n# voice 3025 \"minerva_0015\"\n@ミネルヴァ\n…でも、それは…\nそんなボロボロなマフラーを\nマスターにあげるなんて…\n\n# textflame 0 0\n@\n戦いでボロボロになったなら\n勲章のようなものだよ\n\n# textflame 0 0\n@\nボロボロになったマフラーを\nマスターは躊躇なく巻く\n\n# textflame 0 0\n@\nそしてマスターは街を指差した\n\n# face 302521 \"surprise\"\n# textflame 1 1\n# textboxarrow 0 2\n# chara 302521\n# voice 3025 \"minerva_0022\"\n@ミネルヴァ\n…えっ？\n\n# textflame 0 0\n@\n次の瞬間、\n街のイルミネーションが灯った\n\n# face 302521 \"happy\"\n# textflame 1 1\n# textboxarrow 0 2\n# chara 302521\n# voice 3025 \"minerva_0021\"\n@ミネルヴァ\nわぁ…きれい…！\nこの明かりのひとつひとつに\n人々の生活と、命があるんですね…\n\n# textflame 0 0\n@\nミネルヴァのおかげで\nこの風景を守ることができたんだ\nマスターはそう声をかける\n\n# face 302521 \"normal\"\n# textflame 1 1\n# textboxarrow 0 2\n# chara 302521\n@ミネルヴァ\nマスター…\n\n# textflame 1 1\n# textboxarrow 0 2\n# chara 302521\n@ミネルヴァ\n目に見えるものだけが…\n形あるものだけがすべてじゃない…\nそういうことですね\n\n# face 302521 \"happy\"\n# textflame 1 1\n# textboxarrow 0 2\n# chara 302521\n# voice 3025 \"minerva_0030\"\n@ミネルヴァ\n…ありがとうございます\nマスターから、また大切なことを\n教えていただきました\n\n# imageset 0 \"c302521\"\n# imagealpha 0 0 0\n# textflame 1 1\n# textboxarrow 0 2\n# chara 302521\n# voice 3025 \"minerva_0020\"\n@ミネルヴァ\nとても素敵な…\nクリスマスプレゼントです\n\n;;一枚絵ボイス\n;;ミネルヴァ　「この湧き上がる感情こそが《信頼》なのですね」\n;;ID:minerva_kyara_0018\n# effectskip 2000\n# imagealpha 0 1 0\n# imagepos 0 0 0 \n# fadein \"white\" 3\n# voice 3025 \"minerva_kyara_0018\"\n# textwindow \"close\""
	}
]