[
	{
		"ID": 30251203,
		"script": ";;【EP3】(オチ)\n# script \"lisp\"\n# background \"highland\"\n# bgm \"bgm002\" 0\n# alpha 302511 0 0\n# body 302511\n# pos 302511 3\n# mask 302511 off\n# textflame 0 0\n# face 302511 \"angry\"\n@\n剥離帯電とやらに\nヒントを掴んだ様子の\nミネルヴァ\n\n# alpha 302511 1 0.5\n# textflame 1 1\n# textboxarrow 0 2\n# chara 302511\n@ミネルヴァ\n…………\n\n# textflame 0 0\n@\nニケを肩に乗せたまま、\n静かに目を閉じている\n\n# textflame 0 0\n@\n次の瞬間…\n\n# se \"SE_5221\"\n# textflame 0 0\n# face 302511 \"angry\"\n@\nバサバサッ！\n\n# textflame 1 1\n# textboxarrow 0 2\n# chara 302511\n@ミネルヴァ\n！！\n\n# se \"SE_4761\"\n# fadein \"white\" 0.5\n# textboxarrow 0 2\n# chara 302511\n# voice 3025 \"minerva_battle_0001\"\n@ミネルヴァ\nはぁっ！！\n\n# textflame 0 0\n@\n雷撃を放つ彼女\n\n# textflame 0 0\n@\nその威力は、\n今までの技を\n遥かに凌駕していた\n\n# textflame 1 1\n# textboxarrow 0 2\n@ミネルヴァ\n出来た…出来ました…！\n新たなる奥義…\n\n# se \"SE_0602\"\n# textflame 1 1\n# textboxarrow 0 2\n# chara 302511\n# voice 3025 \"minerva_0006\"\n# face 302511 \"happy\"\n@ミネルヴァ\n『零式・雷神の裁き』\n-トールジャッジメント-の\n完成です！！\n\n# textflame 0 0\n@\n喜ぶ彼女にマスターが声を掛ける\n\n# textflame 1 1\n# textboxarrow 0 2\n# chara 302511\n# voice 3025 \"minerva_0009\"\n# face 302511 \"surprise\"\n@ミネルヴァ\n…え？\n『知恵』と『思慮』のおかげ？\n\n# textflame 0 0\n@\nそう！\n知恵と思慮だけじゃ\n力に及ばないって言ってたけど、\n\n# textflame 0 0\n@\nその知恵があったから、\nそして知恵を応用できる\n深い思慮があったからこそ、\n\n# textflame 0 0\n@\n力に変えることができたんだ！\n\n# textflame 1 1\n# textboxarrow 0 2\n# chara 302511\n@ミネルヴァ\n私の…知恵と思慮が…\n力を生んだ…\n\n# textboxarrow 0 2\n# chara 302511\n# voice 3025 \"minerva_0030\"\n# face 302511 \"happy\"\n@ミネルヴァ\nあ…ありがとうございます！\n\n# textboxarrow 0 2\n# chara 302511\n@ミネルヴァ\nマスターに相談して…\n正解でした！\n\n# textflame 0 0\n@\n笑顔がこぼれる彼女に、\n\n# select \"よく頑張ったね\" \"select_label_01\" \"さすがミネルヴァ\" \"select_label_02\" \"やっぱり頼りになるよ\" \"select_label_03\"\n笑顔がこぼれる彼女に、\n\n# label \"select_label_01\"\n# labeljump \"select_label_end\"\n# textflame 1 1\n# textboxarrow 0 2\n# chara 302511\n# face 302511 \"shy\"\n@ミネルヴァ\nなっ！なななな…\nなにをするつもりですか！？\n\n# label \"select_label_02\"\n# labeljump \"select_label_end\"\n# textflame 1 1\n# textboxarrow 0 2\n# chara 302511\n# face 302511 \"shy\"\n@ミネルヴァ\nちょっと…！待って下さい！\n\n# label \"select_label_03\"\n# labeljump \"select_label_end\"\n# textflame 1 1\n# textboxarrow 0 2\n# chara 302511\n# face 302511 \"shy\"\n@ミネルヴァ\nな、なんですか、その手は！？\n\n# label \"select_label_end\"\n# textflame 0 0\n@\n頭を撫でようとするマスターに\nひどく戸惑うミネルヴァ\n\n# textflame 0 0\n@\nいや「甘えられないのは辛い」って\n言ってたから…\nと、マスターが答える\n\n# textflame 1 1\n# textboxarrow 0 2\n# chara 302511\n@ミネルヴァ\nう…、私を…\n甘えさせてくれようと…\n\n# textboxarrow 0 2\n# chara 302511\n# voice 3025 \"minerva_0004\"\n@ミネルヴァ\nで、では…\nお願いします\n\n# textflame 0 0\n@\nマスターの手が、\n彼女の頭に伸びる\n\n# textflame 1 1\n# textboxarrow 0 2\n# chara 302511\n# voice 3025 \"minerva_0015\"\n@ミネルヴァ\nうぅ…\nで、でも…！\n\n# textboxarrow 0 2\n# chara 302511\n# face 302511 \"angry\"\n@ミネルヴァ\nやっぱりいいです…！\n\n# textboxarrow 0 2\n# chara 302511\n# face 302511 \"shy\"\n@ミネルヴァ\nいや！\nやっぱりよくないです！！\nお願いしま…い、いや！！\n\n# textflame 0 0\n@\nいつも落ち着いている印象の彼女が、\nこんなに動揺するのは初めて見た\n\n# textflame 1 1\n# textboxarrow 0 2\n# chara 302511\n# voice 3025 \"minerva_0025\"\n@ミネルヴァ\nあぁー！\nもぅどうしたらいいのか\nわかりません！！\n\n# imageset 0 \"c302511\"\n# imagealpha 0 0 0\n# textflame 0 0\n@\nこういう時の知恵や思慮は\nまだないんだ\n\n# textflame 0 0\n@\nそう思うと、\n彼女が可愛いらしく見えてくる\nマスターだった\n\n;;一枚絵ボイス/ミネルヴァ「あの、マスター、その…。なでなでしてもらってもよろしいですか…？あとはえぇーっと…。うぅ、甘えたいのに、方法がわかりません…」\n# imagealpha 0 1 0\n# imagepos 0 0 0 \n# fadein \"white\" 3\n# voice 3025 \"minerva_kyara_0027\"\n# textwindow \"close\"\n"
	}
]