[
	{
		"ID": 3101355,
		"script": "# script \"lisp\"\n# body 810004\n# pos 810004 3\n# scale 810004 0.8 0\n# mask 810004 off\n# textflame 1 1\n# textboxarrow 0 2\n# chara 810004\n@異族の大将\n鬼タウロス頑張ってるかー\nお前頑張らなオレんとこ\n来んねんぞ～！\n"
	}
]