[
	{
		"ID": 3101366,
		"script": ";;戦闘終了後\n# script \"lisp\"\n# background \"town\"\n# bgm \"bgm006\" 0\n# body 823004\n# pos 823004 3\n# scale 823004 0.8 0\n# body 900012\n# pos 900012 5\n# scale 900012 0.8 0\n# body 810008\n# pos 810008 1\n# scale 810008 0.8 0\n# textflame 1 1\n# textboxarrow 0 2\n# chara 823004\n@大将\nお前らの熱い熱い本気のバイブス\n確かに受け取った\nがんばっとったんやな…\n\n# textboxarrow 0 1\n# chara 810008\n@ミノパイセン\nウウウ…大将！\n\n# textboxarrow 0 2\n# chara 823004\n@大将\nもう一度や！まだやり直せる！\nもっかいみんなで\n1からやりなおしや！\n\n# textboxarrow 0 3\n# chara 900012\n@ゴーレム\nタアアアアアイショオオオオオオオオ\n\n# textboxarrow 0 2\n# chara 823004\n@大将\nあ、マスターとキル姫達よ\n\n# textboxarrow 0 2\n# chara 823004\n@大将\n2年前のハロウィンで\nこっちきてから…\n\n# textboxarrow 0 2\n# chara 823004\n@大将\nいろいろ世話んなったな\nありがとう\n\n# textboxarrow 0 2\n# chara 823004\n@大将\nけど、今度会うた時は敵同士や！\nボッコボコにしたるからな！\n\n# se \"SE_9229\"\n# textboxarrow 0 2\n# voice 9994 \"izokutaisho_0087\"\n# chara 823004\n@大将\nほなまたな！\n死ぬな、怪我すな、病気すな\n"
	}
]