[
	{
		"ID": 310201214,
		"script": ";;-----------------------------------------\n;;さやか3-3\n;;-----------------------------------------\n# script \"lisp\"\n# background \"plain\"\n# bgmfile \"bgm270\" \"BgmLostRagnarokEvent\" 0\n;;-----------------------------------------\n;;さやか\n# body 3102011\n# pos 3102011 3\n# scale 3102011 0.8 0\n# layer 3102011 2\n# alpha 3102011 0 0\n# mask 3102011 off\n;;さやか（通常）\n# body 102011\n# pos 102011 3\n# scale 102011 0.8 0\n# layer 102011 2\n# alpha 102011 1 0\n# mask 102011 off\n;;-----------------------------------------\n;;一枚絵\n# imageset 1 \"c3102011\"\n# imagelayer 1 3\n# imagealpha 1 0 0\n;;-----------------------------------------\n;;背景：平原など\n;;演出：さやか通常衣装\n# textflame 1 1\n# textboxarrow 0 2\n# face 102011 \"sad1\"\n# voice 1020 \"sayaka_0028\"\n@さやか\n２人のことは好きだけど\n毎回敵も一緒に連れてきちゃうのは\n困っちゃうね…\n\n# textflame 0 0\n@\n以前助けた兄妹がマスター達の\nもとへお礼を言いに来たのだが\n彼らをまだ追っている敵兵付きだった\n\n# textflame 1 1\n# textboxarrow 0 2\n# voice 1020 \"sayaka_0027\"\n@さやか\nそれにしても\nあのパーティーが\nそんな物騒なものだったなんてね…\n\n# textflame 0 0\n@\n兄妹が親から相続した土地には\n何やら利用価値があるらしく…\n\n# textflame 0 0\n@\nそれを狙った者達がふたりを\n呼び出し、亡き者にして奪おうと\n考えたのが例のパーティーだったのだ\n\n# textflame 1 1\n# textboxarrow 0 2\n# face 102011 \"normal\"\n@さやか\nとりあえず追っ手は倒したけど\n本当に大丈夫なの？\n\n# textflame 0 0\n@\n護衛を雇ったから大丈夫\nと兄はさやかに胸を張って言う\n\n# textflame 1 1\n# textboxarrow 0 2\n# face 102011 \"sad2\"\n@さやか\nその割にいま襲われてたけど！？\nいや、大丈夫って言うなら\n信じるしかないけど…\n\n# textflame 1 1\n# textboxarrow 0 2\n# face 102011 \"normal\"\n@さやか\nそれで、今日は危険をおかしてまで\nお礼を言いに来ただけ…って感じ？\n\n# textflame 0 0\n@\nさやかの問いに兄妹が\n「今日はお誘いに来ました！」\nと元気よく返す\n\n# textflame 1 1\n# textboxarrow 0 2\n@さやか\nお誘い…？\n\n# textflame 0 0\n@\n迷惑をかけたお礼だと\n今度は普通のパーティーのお誘いを\nしに来たという兄妹\n\n# textflame 1 1\n# textboxarrow 0 2\n# face 102011 \"sad2\"\n# voice 1020 \"sayaka_0022\"\n@さやか\nええっ！\nだからそういうのガラじゃないって！\n\n# textflame 0 0\n@\nお礼を受けるのは悪いことじゃない\nというマスターの言葉に渋々\n招待状を受け取るさやか\n\n# textflame 1 1\n# textboxarrow 0 2\n# voice 1020 \"sayaka_0028\"\n@さやか\nけどドレスとかないし…\nえっ、こないだのドレスは\nお礼にプレゼントしますって！？\n\n# imageset 0 \"black\"\n# imagealpha 0 0 0\n# imagelayer 0 1\n# textflame 0 0\n@\nさやかに逃げ場はなくなったようだ\n\n;;演出：移動の暗転\n# imagealpha 0 1 0\n# imagepos 0 0 30\n# imageleftin 0 0.5\n# serif 0\n# textwindow \"close\"\n# serif 1\n# textwindow \"close\"\n# waitandnext 0.5\n\n;;背景：街中\n# background \"town\"\n;;演出：さやかドレスver\n# alpha 3102011 1 0\n# face 3102011 \"sad\"\n# alpha 102011 0 0\n# waitandnext 0.2\n\n# imagealpha 0 0 0.5\n# imagerightout 0 0.5\n# waitandnext 0.5\n\n# serif 0\n# textwindow \"nomal\"\n# textflame 1 1\n# textboxarrow 0 2\n# voice 310201 \"sayaka_0008\"\n@さやか\nや、やっぱ私に\nこういうのは似合わないって…\nそれに、パーティーなんて…\n\n# textflame 0 0\n@\nドレスは似合ってるし\nパーティーも楽しめばいい\nとマスター\n\n# textflame 1 1\n# textboxarrow 0 2\n@さやか\nそう簡単に言ってくれちゃって…\n\n# textflame 0 0\n@\nいつも頑張っているさやかには\nご褒美があったっていいとマスター\n\n# textflame 1 1\n# textboxarrow 0 2\n# face 3102011 \"surprise\"\n# voice 310201 \"sayaka_0022\"\n@さやか\n…へ？\n私なんか全然頑張ってないよ？\n\n# textflame 0 0\n@\nさやかは隊の中で頑張っている\nとマスターは断言する\n\n# textflame 1 1\n# textboxarrow 0 2\n@さやか\nそれは仲間に入れてくれた\nマスターへの恩返しとして\n当たり前のことしただけだし…\n\n# textflame 0 0\n@\nさやかがそう思っていたとしても\nさやかは頑張ってると思っているから\n報われていい、とマスターは説く\n\n# textflame 1 1\n# textboxarrow 0 2\n# face 3102011 \"shy\"\n@さやか\nそっか、私も報われていいんだ…\nそんな風に思ってくれる人が\n私にもいるんだね\n\n# se \"SE_0602\"\n# textflame 0 0\n@\nマスターの想いが\nさやかへ新たな力\n美装『受継ぐ意志』を与える\n\n# textflame 0 0\n@\n言わないと伝わらない\nそう言ったのは自分だったと\nマスターはさやかへ改めて感謝を言う\n\n# textflame 1 1\n# textboxarrow 0 2\n# face 3102011 \"happy\"\n# voice 310201 \"sayaka_0005\"\n@さやか\nも、もう十分言ってくれてるって！\n恥ずかしくなってきちゃうじゃん！\n\n# textflame 1 1\n# textboxarrow 0 2\n@さやか\nあ、パーティー遅れちゃうよ！\n急いで、マスター！\n\n# textflame 0 0\n@\n照れ隠しか\n駆けて行ってしまうさやか\nマスターもその後を追うのだった\n\n;;＜一枚絵同じ＞\n;;＜一枚絵ボイス＞\n;;さやか　「なに？ あはっ、\n;;　　　　　なんだかちょっとこういうの照れるね」\n;;         sayaka_kyara_0012\n;;※ボイスは前回のコラボの際に収録させていただいたものを使用いたします。\n# textflame 0 0\n# imagealpha 1 1 0\n# imagepos 1 0 0\n# fadein \"white\" 3\n# buttonsout 0 0\n# textwindow \"close\"\n# voice 310201 \"sayaka_kyara_0012\"\n\n# frameout 0 1\n\n# waitandnext 0.8\n\n# fadeout \"black\" 1.5\n# waitandnext 1.5"
	}
]