[
	{
		"ID": 310251214,
		"script": ";;【ＥＰ３】\n# background \"forest\"\n# body 3102511\n# mask 3102511 off\n# pos 3102511 3\n# scale 3102511 0.8 0\n# alpha 3102511 0 0\n# textwindow \"nomal\"\n# face 3102511 \"angry\"\n# bgm \"bgm002\" 0\n# textflame 0 0\n@\nそれから数日後─\n\n# alpha 3102511 1 0.5\n# textflame 1 1\n# textboxarrow 0 2\n# voice 310251 \"muramasa_ge_battle_0001\"\n@ムラマサ\nふん…！ふん…！\n\n# textflame 0 0\n@\nまた一人、森で剣を振るムラマサ\n…と、そこに\n\n# face 3102511 \"normal\"\n# textflame 1 1\n# textboxarrow 0 2\n# voice 310251 \"muramasa_ge_0001\"\n@ムラマサ\n…主君\n\n# face 3102511 \"happy\"\n# textflame 1 1\n# textboxarrow 0 2\n# voice 310251 \"muramasa_ge_0004\"\n@ムラマサ\nはい…鍛錬です\n\n# textflame 1 1\n# textboxarrow 0 2\n@ムラマサ\n剣術だけではなく…\n己の心をもう一度、\n磨き直したくて\n\n# textflame 0 0\n@\n己の心の内を話す彼女\n\n# face 3102511 \"shy\"\n# textflame 1 1\n# textboxarrow 0 2\n@ムラマサ\n今では…恥ずかしく思っています\n\n# face 3102511 \"sad\"\n# textflame 1 1\n# textboxarrow 0 2\n@ムラマサ\nヤマタノオロチの力を得て、\n尊大になっていた自分が…\n\n# textflame 1 1\n# textboxarrow 0 2\n@ムラマサ\n偉大なる姉・マサムネを\n実際は超えられたかどうかも\n分からないのに…\n\n# textflame 1 1\n# textboxarrow 0 2\n# voice 310251 \"muramasa_ge_0027\"\n@ムラマサ\n超えたと思い込み…\nいや…\nそう思い込みたかっただけなのかも…\n\n# textflame 1 1\n# textboxarrow 0 2\n@ムラマサ\nだから自分は強いと言い聞かせ…\n他人を威圧するような態度に……\n\n# face 3102511 \"angry\"\n# textflame 1 1\n# textboxarrow 0 2\n@ムラマサ\nそんな恥ずべき心は…\n汗と共に流し切ります\n\n# textflame 1 1\n# textboxarrow 0 2\n@ムラマサ\n今一度…出直しです！\n\n# textflame 0 0\n@\n晴れやかな瞳で語る彼女\n\n# face 3102511 \"happy\"\n# textflame 1 1\n# textboxarrow 0 2\n# voice 310251 \"muramasa_ge_0004\"\n@ムラマサ\n主君…\nそのことに気づかせて下さり、\nありがとうございました！！\n\n# textflame 0 0\n@\nムラマサが頭を深々と下げた\nそんな彼女にマスターが告げる\n\n# textflame 0 0\n@\nそう思って、\nすぐに隊の姫たちに謝った君は\n偉いと思うよ\n\n# face 3102511 \"shy\"\n# textflame 1 1\n# textboxarrow 0 2\n@ムラマサ\nい、いえ、そんな…\n\n# textflame 0 0\n@\n真っすぐ真摯な想いで\n謝罪したからこそ、\nみんな許してくれた\n\n# textflame 0 0\n@\n自分たちも、同じように\n謙虚な気持ちを持たなくては…\nみんな、そう思ったんだよ\n\n# textflame 1 1\n# textboxarrow 0 2\n# face 3102511 \"surprise\"\n@ムラマサ\n謙虚な…気持ち……\n\n# textflame 0 0\n@\nありがとう、\nみんなに勇気と優しさをくれて\n\n# textflame 1 1\n# textboxarrow 0 2\n@ムラマサ\n！！\n\n# textflame 0 0\n@\nその言葉に、彼女のバイブスが共鳴した\n\n# face 3102511 \"shy\"\n# textflame 1 1\n# textboxarrow 0 2\n# voice 310251 \"muramasa_ge_0004\"\n@ムラマサ\nわたっ、拙者こそ…\nずっと貰いっ放しです\n\n# textflame 1 1\n# textboxarrow 0 2\n@ムラマサ\n包んでくれるような主君の想いが…\n拙者に勇気と優しさと…\nさらなる力を！\n\n# se \"SE_0602\"\n# textflame 0 0\n@\nそれは彼女が新たなるスキル\n四法『大蛇の酒宴』に\n覚醒した瞬間だった\n\n# textflame 1 1\n# textboxarrow 0 2\n# voice 310251 \"muramasa_ge_0001\"\n@ムラマサ\nあ、あの…！\nそんな大恩ある主君に…\n渡したいものが…！\n\n# textflame 1 1\n# textboxarrow 0 2\n@ムラマサ\nこ、これを…！\n\n# textflame 0 0\n@\n彼女が差し出したのは、\n自らの手で編んだ『組紐』だった\n\n# face 3102511 \"happy\"\n# textflame 1 1\n# textboxarrow 0 2\n# voice 310251 \"muramasa_ge_0031\"\n@ムラマサ\n久しぶりに作ったので…\n上手く出来ませんでしたが…\n\n# textflame 1 1\n# textboxarrow 0 2\n@ムラマサ\n良かったら…\n貰ってくれませんか？\n\n# textflame 0 0\n@\n…なんだか変わったね\n\n# face 3102511 \"shy\"\n# textflame 1 1\n# textboxarrow 0 2\n@ムラマサ\nそ、そうでしょうか…？\n\n# textflame 0 0\n@\nオロチみたいだった目も、\nすっかり優しくなったよ\n\n# face 3102511 \"surprise\"\n# textflame 1 1\n# textboxarrow 0 2\n@ムラマサ\n…！\n\n# face 3102511 \"shy\"\n# textflame 1 1\n# textboxarrow 0 2\n# voice 310251 \"muramasa_ge_0042\"\n@ムラマサ\nもう！か…からかわないで下さい！\n\n# textflame 0 0\n@\nマスターの言葉に照れて、\nついつい剣を構えてしまう\nムラマサだった\n\n# textflame 1 1\n# textboxarrow 0 2\n@ムラマサ\nあぁ、これくらいのことで\n取り乱すとは…\n\n# imageset 0 \"c3102511\"\n# imagealpha 0 0 0\n# textflame 1 1\n# textboxarrow 0 2\n@ムラマサ\nま、まだまだ…\n心の修行が足りません！\n\n# imagealpha 0 1 0\n# buttonsout 0 0\n# imagepos 0 0 0\n# fadein \"white\" 3\n# voice 310251 \"muramasa_ge_kyara_0025\"\n# textwindow \"close\"\n\n# frameout 0 1\n# waitandnext 0.8\n\n# fadeout \"black\" 1.5\n# waitandnext 1.5\n"
	}
]