[
	{
		"ID": 310361212,
		"script": ";;-----------------------------------------\n;;神令ラグナロク_キャラクエシナリオ 深浦\n;;【EP2バトル前】\n;;スクリプト最後の背景：平原（朝）\n;;背景：平原（朝）\n;;-----------------------------------------\n# script \"lisp\"\n# background \"101_plain_daytime\"\n# bgmfile \"bgm270\" \"BgmLostRagnarokEvent\" 0\n;;-----------------------------------------\n;;神令スイハ\n# body 3401711\n# pos 3401711 3\n# scale 3401711 0.8 0\n# layer 3401711 2\n# alpha 3401711 0 0\n# mask 3401711 off\n;;神令フライシュッツ\n# body 3502711\n# pos 3502711 3\n# scale 3502711 0.8 0\n# layer 3502711 2\n# alpha 3502711 0 0\n# mask 3502711 off\n;;神令ダモクレス\n# body 3103511\n# pos 3103511 3\n# scale 3103511 0.8 0\n# layer 3103511 2\n# alpha 3103511 0 0\n# mask 3103511 off\n;;神令エルキュール\n# body 3202511\n# pos 3202511 3\n# scale 3202511 0.8 0\n# layer 3202511 2\n# alpha 3202511 0 0\n# mask 3202511 off\n;;神令グラーシーザ\n# body 3302611\n# pos 3302611 3\n# scale 3302611 0.8 0\n# layer 3302611 2\n# alpha 3302611 0 0\n# mask 3302611 off\n;;神令ネス\n# body 3602011\n# pos 3602011 3\n# scale 3602011 0.8 0\n# layer 3602011 2\n# alpha 3602011 0 0\n# mask 3602011 off\n;;神令ミネルヴァ\n# body 3302511\n# pos 3302511 3\n# scale 3302511 0.8 0\n# layer 3302511 2\n# alpha 3302511 0 0\n# mask 3302511 off\n;;神令ラグナロク\n# body 3103611\n# pos 3103611 3\n# scale 3103611 0.8 0\n# layer 3103611 2\n# alpha 3103611 0 0\n# mask 3103611 off\n;;-----------------------------------------\n;;【EP2バトル前】\n;;背景：平原（昼）\n# move 3103611 3 0\n# face 3103611 \"usual\"\n# alpha 3103611 1 0\n# mask 3103611 off\n# textflame 1 1\n# textboxarrow 0 2\n@ラグナロク\n骨は拾ってやる\n\n;;モノローグ\n# textflame 0 0\n@\nラグナロクが掲げた旗は\n戦場でその存在を示し続け\nマスターは度々戦火にさらされた\n\n;;モノローグ\n@\nラグナロクから立ち昇る\n圧倒的なマナは\n彼女が宿すユグドラシルのごとく…\n\n;;モノローグ\n@\n世界中にその存在を示し\n敵軍を引き寄せる\n呼び水となってしまっていた\n\n;;モノローグ\n@\n敵襲のペースは格段に上がり\n恐らく次に敵襲があれば\n総崩れとなることは明白である\n\n# textflame 1 1\n# textboxarrow 0 2\n@ラグナロク\n皆、マスターを守るべく戦い\n傷を受け、倒れていく\n\n# voice 310361 \"ragnarok_c_0004\"\n# face 3103611 \"happy\"\n# textboxarrow 0 2\n@ラグナロク\n美談ね\n\n# face 3103611 \"usual\"\n# textboxarrow 0 2\n@ラグナロク\nその共感が他の斬ル姫たちにも伝播し\n次々に無用な自己犠牲が生まれる\n\n# textboxarrow 0 2\n@ラグナロク\n全ては世界に争いを産むきっかけ\nバイブスが原因よ\n\n;;演出：以降コマンドキラーズの解説時、黒バックなどで各立ち絵を表示（コマンドキラーズに相応しい背景あればそちらでも）\n# textwindow \"close\"\n# fadeout \"black\" 0.6\n# waitandnext 0.8\n\n# background \"bg_black\"\n# alpha 3103611 0 0\n# move 3401711 3 0\n# face 3401711 \"normal\"\n# alpha 3401711 1 0\n# mask 3401711 off\n# waitandnext 0.2\n\n# fadein \"black\" 0.6\n# waitandnext 0.6\n\n# textboxarrow 0 0\n# textwindow \"normal\"\n@ラグナロク\nスイハのような\n共鳴なき勇気“孤高”が\n群れること、競い争うことを回避する\n\n# alpha 3401711 0 0.5\n# move 3103511 3 0\n# face 3103511 \"normal\"\n# alpha 3103511 1 0.5\n# mask 3103511 off\n# textboxarrow 0 0\n@ラグナロク\nダモクレスのような\n共鳴なき愛“蒐集”が生の渇望を除き\n戦いの必要性を失くす\n\n# alpha 3103511 0 0.5\n# move 3502711 3 0\n# face 3502711 \"normal\"\n# alpha 3502711 1 0.5\n# mask 3502711 off\n# textboxarrow 0 0\n@ラグナロク\nフライシュッツのような\n共鳴なき信仰“陶酔”が\n自主性を妨げ、裏切りや内紛を避ける\n\n# alpha 3502711 0 0.5\n# move 3202511 3 0\n# face 3202511 \"normal\"\n# alpha 3202511 1 0.5\n# mask 3202511 off\n# textboxarrow 0 0\n@ラグナロク\nエルキュールのような\n共鳴なき希望“信念”が\n終わりを受け入れる\n\n# alpha 3202511 0 0.5\n# move 3302611 3 0\n# face 3302611 \"normal\"\n# alpha 3302611 1 0.5\n# mask 3302611 off\n# textboxarrow 0 0\n@ラグナロク\nグラーシーザのような\n共鳴なき正義“断罪”が\n迷うことなき裁きを下す\n\n# alpha 3302611 0 0.5\n# move 3302511 3 0\n# face 3302511 \"normal\"\n# alpha 3302511 1 0.5\n# mask 3302511 off\n# textboxarrow 0 0\n@ラグナロク\nミネルヴァのような\n共鳴なき知恵“盲目”が\n他者との摩擦を防ぐ\n\n# alpha 3302511 0 0.5\n# move 3602011 3 0\n# face 3602011 \"normal\"\n# alpha 3602011 1 0.5\n# mask 3602011 off\n# textboxarrow 0 0\n@ラグナロク\nネスのような\n共鳴なき節制“支配”が\n規律正しき秩序を生む\n\n;;演出：立ち絵、ラグナロクに戻る\n# textwindow \"close\"\n# fadeout \"black\" 0.6\n# waitandnext 0.8\n\n# background \"101_plain_daytime\"\n# alpha 3602011 0 0\n# move 3103611 3 0\n# face 3103611 \"usual\"\n# alpha 3103611 1 0\n# mask 3103611 off\n# waitandnext 0.2\n\n# fadein \"black\" 0.6\n# waitandnext 0.6\n\n# textboxarrow 0 2\n# textwindow \"normal\"\n@ラグナロク\n感情を捨て\n戦いの宿命から解き放たれるべきよ\n\n# textboxarrow 0 2\n@ラグナロク\n繋がることのない\n自立した個を尊重して\nべたついた関係性を清算すべきなの\n\n;;モノローグ\n# textflame 0 0\n@\n遠くから敵軍勢が迫る音が響く\n\n# voice 310361 \"ragnarok_c_0001\"\n# face 3103611 \"angry\"\n# textflame 1 1\n# textboxarrow 0 2\n@ラグナロク\n斬ル姫の光たるマスター\nお前の陽はこれより沈む\n\n# textboxarrow 0 2\n@ラグナロク\n今こそ、世界の黄昏をもたらそう\n\n;;モノローグ\n# textflame 0 0\n@\nラグナロクは旗を地に突き立て\n掲げる\n\n;;モノローグ\n@\n彼女からマナが立ち昇ると\nそれを標的とした敵軍が遠巻きに\nマスター達の隊を包囲しだす\n\n;;モノローグ\n@\n斬ル姫達は傷だらけの身体をおして\n武器を握る\n\n# face 3103611 \"usual\"\n# textflame 1 1\n# textboxarrow 0 2\n@ラグナロク\n異論はある？\n\n;;選択肢\n# textflame 0 0\n;;@\n;;A　旗を下げてくれ！\n;;B　負けると決まったわけじゃない\n;;C　異議がある！\n# select \"旗を下げてくれ！\" \"select_label_01\" \"負けると決まったわけじゃない\" \"select_label_02\" \"異議がある！\" \"select_label_03\"\n異論はある？\n\n;;アンサー\n;;A\n# label \"select_label_01\"\n# labeljump \"select_label_end\"\n# textflame 1 1\n# textboxarrow 0 2\n@ラグナロク\n掲げる意味を伝えたはずだけど？\n\n;;B\n# label \"select_label_02\"\n# labeljump \"select_label_end\"\n# textflame 1 1\n# textboxarrow 0 2\n@ラグナロク\n楽観的ね\n\n;;C\n# label \"select_label_03\"\n# labeljump \"select_label_end\"\n# voice 310361 \"ragnarok_c_0022\"\n# face 3103611 \"surprise\"\n# textflame 1 1\n# textboxarrow 0 2\n@ラグナロク\n逆転する抗弁が？\n\n;;モノローグ\n# label \"select_label_end\"\n# textflame 0 0\n@\n敵襲まで一刻の猶予もない\nマスターは決死の覚悟で言う\n\n;;モノローグ\n@\nラグナロクの行いは、傍観だと\n\n# voice 310361 \"ragnarok_c_0032\"\n# face 3103611 \"usual\"\n# textflame 1 1\n# textboxarrow 0 2\n@ラグナロク\n…続けて？\n\n;;モノローグ\n# textflame 0 0\n@\n今のラグナロクの振る舞いの全ては\n世界を平和にするための観測ではない\n\n;;モノローグ\n@\n自身の使命をおろそかにした\n無責任な傍観なのではないかと\n\n# face 3103611 \"angry\"\n# textflame 1 1\n# textboxarrow 0 2\n@ラグナロク\n私の行いは\nバイブスを把握する為の\n客観的な分析・判断よ\n\n# textboxarrow 0 2\n@ラグナロク\n争いのない世界を作るべく\n平和な世界を目指すべく\n\n;;モノローグ\n# textflame 0 0\n@\nラグナロクは眉一つ動かすことなく\nマスターへ反論する\n\n# face 3103611 \"usual\"\n# textflame 1 1\n# textboxarrow 0 2\n@ラグナロク\nその結果の今よ\nバイブスは戦いを引き起こし\n争いの火種であり…\n\n# textboxarrow 0 2\n@ラグナロク\nその力は\n淘汰されようとしている\n因果応報、わかり切った結末じゃない\n\n;;モノローグ\n# textflame 0 0\n@\nマスターはラグナロクを見つめ\n語りかける\n\n;;モノローグ\n@\nバイブスが起こしたことは\nそれだけじゃない\n\n;;モノローグ\n@\nバイブスは\nラグナロクにも共鳴したのだと\n\n# voice 310361 \"ragnarok_c_0023\"\n# face 3103611 \"surprise\"\n# textflame 1 1\n# textboxarrow 0 2\n@ラグナロク\n…っ\n\n;;モノローグ\n# textflame 0 0\n@\n少し、息を飲むラグナロク\n\n;;モノローグ\n@\nバイブスの力を\n見極める必要があるのなら…\n\n;;モノローグ\n@\nバイブスによって共鳴した\nラグナロクの力も\n示すべきなのではないかと\n\n;;モノローグ\n@\n軍旗は\n戦士を鼓舞する為にも\nあるのではないかと\n\n# face 3103611 \"usual\"\n# textflame 1 1\n# textboxarrow 0 2\n@ラグナロク\n…\n\n;;モノローグ\n# textflame 0 0\n@\nラグナロクは少しの間、口をつぐむ\n思索するように\nマスターを値踏みするように\n\n# textflame 1 1\n# textboxarrow 0 2\n@ラグナロク\n…私も\n\n# textboxarrow 0 2\n@ラグナロク\nバイブスの可能性の\nひとつだと言うことか………\n\n;;モノローグ\n# textflame 0 0\n@\n彼女は地に突き立った旗を引き抜くと\n空高く掲げる\n\n# voice 310361 \"ragnarok_c_0004\"\n# face 3103611 \"happy\"\n# textflame 1 1\n# textboxarrow 0 2\n@ラグナロク\nこの数の墓穴を掘るのは\n少し骨だな\n\n;;モノローグ\n# textflame 0 0\n@\nふっ、と\n不敵な笑みをこぼすラグナロクは\n斬ル姫達に演説をぶつ\n\n# voice 310361 \"ragnarok_c_0002\"\n# face 3103611 \"usual\"\n# textflame 1 1\n# textboxarrow 0 2\n@ラグナロク\n斬ル姫達…\n自分の墓場は自分で作るがいい\n\n# face 3103611 \"angry\"\n# textboxarrow 0 2\n@ラグナロク\n墓標を立てるべきかどうか…\n世界を繋ぐユグドラシルに\n観せてみろ\n\n;;モノローグ\n# textflame 0 0\n@\nラグナロクの旗が\n前線に翻る"
	}
]