[
	{
		"ID": 310407212,
		"script": ";;-----------------------------------------\n;;【PK】ハロウィン・モラルタキャラクエ\n;;●登場人物\n;;・ベガルタ\n;;・モラルタ\n;;・マスター\n;;【EP2】戦闘前\n;;スクリプト最後の背景：街\n;;-----------------------------------------\n# script \"lisp\"\n# background \"101_city_night3\"\n# bgm \"bgm002\" 0\n;;-----------------------------------------\n;;ハロウィンモラルタ\n# body 3104071\n# pos 3104071 3\n# scale 3104071 0.8 0\n# alpha 3104071 0 0\n;;-----------------------------------------\n;;背景：街\n;;モノローグ\n# textflame 0 0\n@\nモラルタが足を止めると\n先ほどよりも祭りの\n片づけが進んでいる場所にいた\n\n# face 3104071 \"usual\"\n# alpha 3104071 1 0.5\n# mask 3104071 off\n# textflame 1 1\n# textboxarrow 0 2\n@モラルタ\nおやおや、すっかり元通りですね\n\n@モラルタ\nこの辺りの方々はお祭りが\nお好きじゃなかったのかもしれません\n\n@モラルタ\nだからって\nさっさと片づけるこたぁねぇよな？\n\n;;モノローグ\n# textflame 0 0\n@\nモラルタはまるで\n誰かと会話をしているように\n独り言を喋りながら歩く\n\n# voice 1040 \"morallta_0015\"\n# face 3104071 \"sad\"\n# textflame 1 1\n@モラルタ\nあ～んなに楽しかったのにさ～？\n\n@モラルタ\nベガ以外の人とも\n楽しく過ごせるんだ～って\n初めて思ったんだけど～？\n\n;;モノローグ\n# textflame 0 0\n@\n不意に足を止め、\nモラルタはうつむいて\n唇を噛み締める\n\n# textflame 1 1\n@モラルタ\nもっとハロウィンを\n楽しんでいたかったな…\n\n@モラルタ\nベガにも\nもっと笑顔でいて欲しかった！\n\n# face 3104071 \"normal\"\n@モラルタ\n…トリックオアトリート！\n\n@モラルタ\nトリックオアトリート！！\n\n;;モノローグ\n# textflame 0 0\n@\n祭りの片づけが終わった場所は\nすっかり日常を取り戻し\n静けさに包まれている。\n\n;;モノローグ\n@\nモラルタの声だけが\nその場に空しく響いた\n\n# voice 1040 \"morallta_0027\"\n# face 3104071 \"sad\"\n# textflame 1 1\n@モラルタ\n…はぁ\n\n;;モノローグ\n# textflame 0 0\n@\nうなだれたモラルタは\nふと、自分の片手が\n空いていることに気がついた\n\n# textflame 1 1\n@モラルタ\nベガが、いない\n置いてきちゃったんだ…\n\n# face 3104071 \"usual\"\n@モラルタ\nもう楽しい時間は終わった\n\n@モラルタ\n私にはベガしかいない\nベガがいればいい\n\n# face 3104071 \"shy\"\n@モラルタ\nそうだよベガルタだけが\nいればいいんだよ\n\n# voice 1040 \"morallta_0004\"\n@モラルタ\nそうしたら毎日毎日楽しい！\nあーっ、ベガが欲しい！\n欲しい欲しい、欲しいったら欲しい！\n\n# face 3104071 \"angry\"\n@モラルタ\nベガはどこ！？\n早く早く、ベガルタをちょうだい！"
	}
]