[
	{
		"ID": 3120101,
		"script": "# script \"lisp\"\n# background \"flower_garden\"\n# bgm \"bgm003\" 0\n# body 600121\n# mask 600121 off\n# pos 600121 3\n# textboxarrow 0 2\n# chara 600121\n@アスクレピオス\n…ちょっと？\nせっかく人が静かに読書してたのに、\nうるさいわねぇ、なんなの！？\n\n# chara 600121\n@アスクレピオス\n私は静かに読書したいの\n…異族がいる？\nそんなのわかってるわよ？\n\n# chara 600121\n@アスクレピオス\nああ、なんだ\n洗礼前のマスターなのね\n世間知らずでも仕方ない…か…\n\n# chara 600121\n@アスクレピオス\nあの異族達が攻めて来たら\n私だって容赦はしないわ\n見くびらないでちょうだい\n\n# chara 600121\n@アスクレピオス\nで、あなたのチームが\n倒しに行くわけ？\n…そのチームで？\n\n# chara 600121\n@アスクレピオス\nフン…まぁいいわ\nお手並み拝見させてもらおうじゃない"
	}
]