[
	{
		"ID": 3190501,
		"script": "# script \"lisp\"\n# background \"town\"\n# bgm \"bgm002\" 0\n;;デュリン準備\n# body 0\n# layer 0 1\n# pos 0 1\n;;マミ準備\n# body 501411\n# pos 501411 3\n;;ティル準備\n# body 101411\n# pos 101411 5\n# layer 101411 4\n# scale 101411 0.9 0\n# serif 0\n# textboxarrow 0 1\n# chara 0\n# voice 9942 \"fok_collabo1_0090_durin\"\n# face 0 \"happy\"\n@デュリン\nおいしーい！\n\n# serif 1\n# textboxarrow 1 3\n# chara 101411\n# voice 9942 \"fok_collabo1_0091_tyrufing\"\n# face 101411 \"smile\"\n@ティルフィング\nマミさんのチョイスするお菓子は、\n本当に美味しいですね\n\n;ほむら準備\n# body 501311\n# pos 501311 5\n# alpha 501311 0 0\n# serif 0\n# textboxarrow 0 1\n# chara 0\n# voice 9942 \"fok_collabo1_0092_durin\"\n@デュリン\nマミの淹れる紅茶も最高！！\n\n# serif 1\n# textboxarrow 1 2\n# chara 501411\n# voice 9942 \"fok_collabo1_0093_mami\"\n# face 501411 \"happy\"\n@巴マミ　\nでしょ？\nほら、暁美さんも食べて\n\n# alpha 101411 0 0.5\n;;ほむら登場\n# alpha 501311 1 0.5\n# serif 0\n# textboxarrow 0 3\n# chara 501311\n# voice 9942 \"fok_collabo1_0094_homura\"\n@暁美ほむら\n…ええ\n\n# move 101411 3 0\n# serif 1\n# textboxarrow 1 2\n# chara 501411\n# voice 9942 \"fok_collabo1_0095_mami\"\n# face 501411 \"surprise\"\n@巴マミ\nどうしたの？\n元気ないけど\n\n# serif 0\n# textboxarrow 0 3\n# chara 501311\n# voice 9942 \"fok_collabo1_0096_homura\"\n@暁美ほむら\n別に…\n\n# serif 1\n# textboxarrow 1 1\n# chara 0\n# voice 9942 \"fok_collabo1_0097_durin\"\n# face 0 \"proud\"\n@デュリン\nうーん…やっぱり\nほむらとティルって、\nなんか似てるんだよね…\n\n;;マミ退場\n# alpha 501411 0 0.5\n;;ティル登場\n# alpha 101411 1 0.5\n# serif 1\n# textboxarrow 1 2\n# chara 101411\n# voice 9942 \"fok_collabo1_0098_tyrufing\"\n# face 101411 \"happy\"\n@ティルフィング\nそうですか？\n嬉しいです、こんなに可愛い人と…\n\n# serif 0\n# textboxarrow 0 1\n# chara 0\n# voice 9942 \"fok_collabo1_0099_durin\"\n# face 0 \"happy\"\n@デュリン\n特に、\nぼーっとしてるところがそっくり！\n\n# serif 1\n# textboxarrow 1 2\n# chara 101411\n# voice 9942 \"fok_collabo1_0100_tyrufing\"\n# face 101411 \"sad\"\n@ティルフィング\nそれは…嬉しくないです"
	}
]