[
	{
		"ID": 3200801,
		"script": ";;背景画像\"004_wildland\"\n# script \"lisp\"\n# background \"walpurgis\"\n# bgmfile \"bgm059\" \"BgmMMcollabo001\" 0\n;;まどか準備\n# body 401111\n# pos 401111 3\n;;黒準備\n# imageset 1 \"bg_black\"\n# imagepos 1 0 0\n# imagelayer 1 6\n# imagealpha 1 0 0\n# textwindow \"close\"\n# se \"SE_0636\"\n# face 401111 \"cry\"\n# waitandnext 1\n\n# textwindow \"nomal\"\n# serif 0\n# textboxarrow 0 2\n# chara 401111\n# voice 9940 \"fok_collabo3_0153_madoka\"\n@鹿目まどか\n来た\n\n# se \"SE_0631\"\n;;フェードアウト\n# imagepos 1 0 0\n# imagealpha 1 1 1\n# waitandnext 1\n\n# alpha 401111 0 0\n;;フェードイン\n# imagepos 1 0 0\n# imagealpha 1 0 1\n;;画面ゆらす\n# shakeloop 1\n;;ワルプル準備\n# body 900022\n# mask 900022 off\n# alpha 900022 0 0\n# pos 900022 3\n# se \"SE_0637\"\n# textwindow \"close\"\n# waitandnext 1.5\n\n;;結界出現演出\n# flush \"white\" 0.1 1\n# se \"SE_0621\"\n# fillrect \"blue\" 1.0 0 0.3\n;;ワルプルギスの夜 IN\n# alpha 900022 1 1\n# waitandnext 1.5\n\n;;フェードアウト\n# fillrect \"blue\" 2 0.3 0\n# imagepos 1 0 0\n# imagealpha 1 1 1\n# waitandnext 1\n\n;;フェードイン\n# imagepos 1 0 0\n# imagealpha 1 0 1\n# body 501411\n# pos 501411 1\n# body 501311\n# pos 501311 3\n# body 0\n# pos 0 5\n# layer 0 1\n;;ワルプル消す\n# alpha 900022 0 0\n;;画面止める\n# shakestop\n# face 501411 \"sad1\"\n# face 501311 \"amazed\"\n# waitandnext 1\n\n# textwindow \"nomal\"\n# serif 0\n# textboxarrow 0 3\n# chara 0\n# voice 9940 \"fok_collabo3_0154_durin\"\n# face  0 \"angry\"\n@デュリン\nなによあれ！！\nあんな異族、見たことないわよ！\n\n;;ほむら台詞\n# serif 1\n# textboxarrow 1 2\n# chara 501311\n# voice 9940 \"fok_collabo3_0155_homura\"\n# face 501311 \"angry\"\n@暁美ほむら\nあれは異族じゃないわ\n\n;;マミ台詞\n# serif 0\n# textboxarrow 0 1\n# chara 501411\n# voice 9940 \"fok_collabo3_0156_mami\"\n# face 501411 \"sad2\"\n@巴マミ\n最悪で、最強の、魔女よ\n\n;;ティル準備\n# body 101411\n# pos 101411 1\n# scale 101411 0.9 0\n# layer 101411 4\n# alpha 101411 0 0\n;;デュリン台詞\n# serif 1\n# textboxarrow 1 3\n# chara 0\n# voice 9940 \"fok_collabo3_0157_durin\"\n# face 0 \"sad\"\n@デュリン\n魔女？\n\n;;マミ消す\n# alpha 501411 0 0.5\n;;ティル出す\n# alpha 101411 1 0.5\n;;ティル台詞\n# serif 0\n# textboxarrow 0 1\n# chara 101411\n# voice 9940 \"fok_collabo3_0158_tyrufing\"\n# face 101411 \"angry\"\n@ティルフィング\nワルプルギスの夜…\n私は、あれがこの世界を\n滅ぼすのを見たんです\n\n;;フェードアウト\n# imagepos 1 0 0\n# imagealpha 1 1 1\n# waitandnext 1\n\n# textboxarrow 0 0\n# textboxarrow 1 0\n;;フェードイン\n# imagepos 1 0 0\n# imagealpha 1 0 1\n;;デュリン、ティル、ほむら、消す\n# alpha 101411 0 0\n# alpha 501311 0 0\n# alpha 0 0 0\n;;ワルプル出す\n# alpha 900022 1 0\n;;画面ゆらす\n# shakeloop 0\n# waitandnext 1\n\n;;ワルプルギスの夜、世界を崩壊させていく。(立ち絵と破壊音？)\n# se \"SE_0638\"\n;フラッシュ\n# flush \"white\" 0.2 2\n;;フェードアウト\n# imagepos 1 0 0\n# imagealpha 1 1 1\n# waitandnext 1\n\n;;フェードイン\n# imagepos 1 0 0\n# imagealpha 1 0 1\n;;ティル、ほむら、まどか出す\n# alpha 101411 1 0\n# alpha 501311 1 0\n# move 401111 5 0\n# alpha 401111 1 0\n# face 401111 \"usual\"\n;;ワルプル消す\n# alpha 900022 0 0\n;;画面とめる\n# shakestop\n# waitandnext 1\n\n# serif 1\n# textboxarrow 1 2\n# chara 501311\n# voice 9940 \"fok_collabo3_0159_homura\"\n@暁美ほむら\n行きましょう\n\n# serif 0\n# textboxarrow 0 1\n# chara 101411\n# voice 9940 \"fok_collabo3_0160_tyrufing\"\n@ティルフィング\n私も\n\n# serif 1\n# textboxarrow 1 3\n# chara 401111\n# voice 9940 \"fok_collabo3_0161_madoka\"\n@鹿目まどか\n大丈夫。魔女は魔法少女に任せて\n\n# alpha 101411 0 0.5\n# body 301511\n# pos 301511 1\n# face 301511 \"angry\"\n# alpha 301511 0 0\n# waitandnext 1\n\n;;杏子出す\n# alpha 301511 1 0.5\n;;杏子台詞\n# serif 0\n# textboxarrow 0 1\n# chara 301511\n# voice 9940 \"fok_collabo3_0162_kyoko\"\n@佐倉杏子\nうちらの世界の魔女だ\n自分のケツは、自分で拭くよ"
	}
]