[
	{
		"ID": 320301212,
		"script": ";;-----------------------------------------\n;;針枷リサナウト_キャラクエ2_1\n;;背景：戦場（夕方）\n;;-----------------------------------------\n# script \"lisp\"\n# background \"plain_evening\"\n# bgmfile \"bgm271\" \"BgmLostRagnarokEvent\" 0\n;;-----------------------------------------\n# body 3203011\n# pos 3203011 3\n# scale 3203011 0.8 0\n# layer 3203011 3\n# alpha 3203011 0 0\n# mask 3203011 off\n;;-----------------------------------------\n# textflame 0 0\n@\nリサナウトが来てくれて\n本当に良かった…\n\n# textflame 0 0\n@\n僅かとなった敵敗残兵の撤退を眺め\nマスターは呟いた\n\n# alpha 3203011 1 0.5\n# textflame 1 1\n# textboxarrow 0 2\n# face 3203011 \"happy\"\n# voice 2030 \"risanautr_l_0005\"\n@リサナウト\n１５７分ぴったり\n\n# textflame 0 0\n@\n初入隊、初戦場にして\nリサナウトは獅子奮迅の戦いを見せ\n見事敵襲を退けたのだ\n\n# textflame 1 1\n# textboxarrow 0 2\n# face 3203011 \"usual\"\n# voice 2030 \"risanautr_l_0003\"\n@リサナウト\n言ったでしょ？\nこの結果は確定事象だって\n\n# alpha 3203011 0 0.5\n# textflame 0 0\n@\nリサナウトの戦績としては圧勝\n彼女には傷一つない\n\n# textflame 0 0\n@\n………しかし\n隊としては辛勝であった\n\n# textflame 0 0\n@\nリサナウトが敵兵を薙ぎ倒している間\n他の姫達は勿論\n他の敵兵達の相手をしている\n\n# textflame 0 0\n@\nしかしどういうわけか\nリサナウトは敵兵を倒すのに\n若干の時間を要していた\n\n# textflame 0 0\n@\n手こずっているわけではない\n彼女は無傷なのだ\n\n# textflame 0 0\n@\n戦場の混乱の中で\nはっきりとはわからなかったが\nアレは…\n\n# alpha 3203011 1 0.5\n# textflame 1 1\n# textboxarrow 0 2\n# face 3203011 \"smile\"\n# voice 2030 \"risanautr_l_0004\"\n@リサナウト\n凡人のように\n時に身を委ねはしないの\n\n# textflame 1 1\n# textboxarrow 0 2\n# voice 2030 \"risanautr_l_0002\"\n@リサナウト\nどれだけ苦労したか聞いてくれる？\n誰かに話したいの\n私、当主様に話したいわ？\n\n# textflame 0 0\n@\nリサナウトの能力は\n宿されたクロノスによる時間の操作\nそれは隊に合流した際に聞いていた\n\n# textflame 1 1\n# textboxarrow 0 2\n# face 3203011 \"usual\"\n@リサナウト\n一定範囲内の時間を\n止めたり遅くしたり…\n\n# textflame 1 1\n# textboxarrow 0 2\n@リサナウト\n『どんな事柄が起きれば\nどんな結果がもたらされるのか\n全ての影響を前もって把握できる』\n\n# textflame 1 1\n# textboxarrow 0 2\n@リサナウト\n私はその能力をもって\n敵兵に無傷で勝利する時間軸を\n確定させる事柄を起こし続けた\n\n# textflame 1 1\n# textboxarrow 0 2\n# face 3203011 \"smile\"\n# voice 2030 \"risanautr_l_0004\"\n@リサナウト\n物事の結末から逆算して\n準備と用意を怠らないのが\n私の美徳よ\n\n# textflame 0 0\n@\n誇らしげに語るリサナウト\n\n# textflame 0 0\n@\n…だがその結果として\n彼女が時間操作をしながら\n戦っている範囲の外側で…\n\n# textflame 0 0\n@\n他の姫達は\n次々に傷ついていったのだと\nマスターはリサナウトに苦言を呈す\n\n# textflame 1 1\n# textboxarrow 0 2\n# face 3203011 \"angry\"\n# voice 2030 \"risanautr_l_0013\"\n@リサナウト\n…詳しく聞かせてもらえる？\n\n# textflame 0 0\n@\n彼女が目の前の敵に固執している間で\n周りの敵は彼女を避け\n他の姫を狙い出してしまっていたのだ\n\n# textflame 0 0\n@\n戦闘には勝利はしたものの\n最終的に被害は拡大していた\n\n# textflame 1 1\n# textboxarrow 0 2\n# face 3203011 \"usual\"\n# voice 2030 \"risanautr_l_0040\"\n@リサナウト\nなるほど…桶は桶屋ね…\n\n# textflame 0 0\n@\nリサナウトは周囲の惨状を眺め\n深く考え込む\n\n# textflame 0 0\n@\nおそらく、\n専門のことは専門家に\n聞いたほうがよいということだろう\n\n# textflame 0 0\n@\nリサナウト個人の実力は\n折り紙つきだが\n集団で戦うことには慣れていない\n\n# textflame 1 1\n# textboxarrow 0 2\n@リサナウト\n多くの戦士達を擁する当主様\n独り戦ってきた私とは違うわね\n\n# textflame 0 0\n@\n驚きなのか、感心なのか\n吐息混じりに呟くリサナウト\n\n# textflame 1 1\n# textboxarrow 0 2\n# face 3203011 \"sad\"\n# voice 2030 \"risanautr_l_0028\"\n@リサナウト\n私、自慢じゃないけど\n友達っていないの\n\n# textflame 1 1\n# textboxarrow 0 2\n# face 3203011 \"smile\"\n@リサナウト\nあえてなのよ？\n甘んじて受け入れているだけ\nなんだけれど\n\n# textflame 0 0\n@\n全然自慢じゃない\nしかも甘んじてしまっている\n口元まで出そうになるが飲み込む\n\n# textflame 1 1\n# textboxarrow 0 2\n# face 3203011 \"sad\"\n# voice 2030 \"risanautr_l_0031\"\n@リサナウト\nだから………ごめんなさい\n\n# textflame 0 0\n@\n先程まで文字通り\n頭が高かった彼女だが\n一転、ぺこりと頭を下げる\n\n# textflame 1 1\n# textboxarrow 0 2\n@リサナウト\n周りが見えていなかったのね\nこれまでは\n周りを見る必要がなかったから…\n\n# textflame 1 1\n# textboxarrow 0 2\n@リサナウト\n誰とも交わることがなかった時間軸で\n独り試行錯誤しながら生きてきたわ\nそれも悪くなかったの\n\n# textflame 1 1\n# textboxarrow 0 2\n@リサナウト\nだけど“あれ以来”\n仲間との時間というのは少し\n羨ましいと考えるようになった\n\n# textflame 0 0\n@\nマスターは彼女の話す\n“あれ以来”に少し気を取られるが\nリサナウトの言葉に耳を傾けなおす\n\n# textflame 1 1\n# textboxarrow 0 2\n# face 3203011 \"smile\"\n# voice 2030 \"risanautr_l_0004\"\n@リサナウト\nだから私は来たの。当主様\n\n# textflame 1 1\n# textboxarrow 0 2\n@リサナウト\n誰とでも交わり合った\n唯一の時間軸を持つ当主様に\n会うために\n\n# textflame 1 1\n# textboxarrow 0 2\n@リサナウト\nさあ、どんな事柄を起こせば\n私と、この隊と、当主様が\n満足できる勝利が得られるのかしら\n\n# textflame 0 0\n@\n高慢な態度はそのままに\nそれでも勝利のために\nマスターに助言を求めるリサナウト\n\n# textflame 1 1\n# textboxarrow 0 2\n@リサナウト\nこれもまた物事の結末から逆算した\n準備と用意の一環なのよ\n\n# textflame 0 0\n@\nなぜか自慢げなリサナウトに\nマスターは熟考の末、提案する\n\n# textflame 0 0\n@\n時を操作することなく\n他の姫達と共に一緒に足並みを揃えて\n戦いに赴くのはどうか、と\n\n# textflame 1 1\n# textboxarrow 0 2\n# face 3203011 \"surprise\"\n# voice 2030 \"risanautr_l_0022\"\n@リサナウト\n…私の力を発揮させずに？\n\n# textflame 0 0\n@\n怪訝そうなリサナウト\n\n# textflame 0 0\n@\nしかしマスターは言う\n時間操作だけが\nリサナウトの力ではないはずだと\n\n# textflame 0 0\n@\n時間を操らないことで\nリサナウトが傷つくかもしれない\n無理をさせるつもりはない。しかし…\n\n# textflame 0 0\n@\nマスターは彼女の力を見ていた\n一心同体、巨人の戦斧“リサナウト”\n準備と用意の周到さ…\n\n# textflame 0 0\n@\n時を操り、時を見てきた彼女であれば\n今流れているこの時を\n見極めることも出来るはず\n\n# textflame 1 1\n# textboxarrow 0 2\n# face 3203011 \"usual\"\n@リサナウト\n…\n\n# textflame 0 0\n@\nその勝機を\n\n# textflame 1 1\n# textboxarrow 0 2\n# face 3203011 \"smile\"\n# voice 2030 \"risanautr_l_0004\"\n@リサナウト\n………ふふっ\n\n# textflame 0 0\n@\nリサナウトは不敵に笑う\n\n# textflame 1 1\n# textboxarrow 0 2\n@リサナウト\n言ったでしょ\n大船に乗ったつもりでいてって\n\n# textflame 0 0\n@\n彼女はもう\n躓くことはなかった"
	}
]