[
	{
		"ID": 330012212,
		"script": ";;-----------------------------------------\n;;ファンキル キャラクエ「ロンギヌス（ウェディングVer）」シナリオ\n;;【EP.2】戦闘前\n;;スクリプト最後の背景：ハルモニア市街地（昼）\n;;背景：ハルモニア市街地（昼）\n;;-----------------------------------------\n# script \"lisp\"\n# background \"400_angel_town_daytime\"\n# bgmfile \"bgm270\" \"BgmLostRagnarokEvent\" 0\n;;-----------------------------------------\n;;ロンギヌスウェディング\n# body 3300121\n# pos 3300121 3\n# scale 3300121 0.8 0\n# layer 3300121 2\n# alpha 3300121 0 0\n# mask 3300121 off\n;;-----------------------------------------\n;;【EP.2】\n;;ロンギヌス（以下、ウェディングVer）\n# voice 330012 \"ronginusu_t_0015\"\n# move 3300121 3 0\n# face 3300121 \"sad\"\n# alpha 3300121 1 0\n# mask 3300121 off\n# textflame 1 1\n# textboxarrow 0 2\n@ロンギヌス\n大事なドレスを汚してしまったかも…\nやはり私のような者が\n着るべき衣装ではないのですね\n\n;;モノローグ\n# textflame 0 0\n@\nマスターが後ろや横から見て確認する\n汚れたり壊れたりはしていないが、\n脇腹付近の装飾が少しズレていた\n\n;;モノローグ\n@\nそこでマスターは…\n\n;;A　少しじっとしていてね\n;;B　飾りがズレているよ\n;;C　衣装直してもいいかな？\n# select \"少しじっとしていてね\" \"select_label_01\" \"飾りがズレているよ\" \"select_label_02\" \"衣装直してもいいかな？\" \"select_label_03\"\nそこでマスターは…\n\n;;選択肢の答え\n;;A\n# label \"select_label_01\"\n# labeljump \"select_label_end\"\n# voice 330012 \"ronginusu_t_0024\"\n# face 3300121 \"surprise\"\n# textflame 1 1\n# textboxarrow 0 2\n@ロンギヌス\nひゃあっ！\nそそ、その手はなんですか！？\nえ？飾り？\n\n;;B\n# label \"select_label_02\"\n# labeljump \"select_label_end\"\n# voice 330012 \"ronginusu_t_0022\"\n# face 3300121 \"surprise\"\n# textflame 1 1\n# textboxarrow 0 2\n@ロンギヌス\nえっ、どこですか？\nよろしければ直していただけると…\nまさかそこだなんて…！\n\n;;C\n# label \"select_label_03\"\n# labeljump \"select_label_end\"\n# voice 330012 \"ronginusu_t_0024\"\n# face 3300121 \"shy\"\n# textflame 1 1\n# textboxarrow 0 2\n@ロンギヌス\nえ！あ、あの困ります！\n自分でできますからっ…！\nそこだけは…！\n\n# label \"select_label_end\"\n# face 3300121 \"shy\"\n# textflame 1 1\n# textboxarrow 0 2\n@ロンギヌス\nうう…本当に、\nわ、わき腹はダメなんです…！\n\n;;モノローグ\n# textflame 0 0\n@\nそんな彼女の反応を楽しみつつも、\nごめんごめん、と謝るマスター\n\n# voice 330012 \"ronginusu_t_0009\"\n# face 3300121 \"angry\"\n# textflame 1 1\n# textboxarrow 0 2\n@ロンギヌス\nむぅぅ…少し楽しんでいませんか…？\nまぁ…ドレスを直していただいたのも\n確かですし…\n\n# textboxarrow 0 2\n@ロンギヌス\n…今回だけは、許します\nですが、次に同じことをしたら\nマスターといえど終焉を告げますよ！\n\n;;モノローグ\n# textflame 0 0\n@\nわかった、もう触らないから\nと、いってマスターは\nドレスとブーケを改めて確認する\n\n;;モノローグ\n@\nそれにしても綺麗だね、これを着る\n花嫁さんはきっと幸せなんだろうなぁ\nと、マスターは話す\n\n# voice 330012 \"ronginusu_t_0002\"\n# face 3300121 \"usual\"\n# textflame 1 1\n# textboxarrow 0 2\n@ロンギヌス\nなぜ、ドレスと花束で、\n花嫁は幸せになるのですか？\n\n;;モノローグ\n# textflame 0 0\n@\n改めてそう問われると、\nマスターも理由はわからない\n\n# textflame 1 1\n# textboxarrow 0 2\n@ロンギヌス\n結婚式とは、愛を誓いあう\n精神的な儀式ですよね？\n\n# textboxarrow 0 2\n@ロンギヌス\nなのに、どうして花嫁は\nドレスを着るのでしょう？\n\n# textboxarrow 0 2\n@ロンギヌス\nドレスなどなくても、\n儀式は成立するはずですが…\n\n;;モノローグ\n# textflame 0 0\n@\nロンギヌスの問いに答えられず、\nマスターは、うーん…\nと、考え込んでしまう\n\n;;モノローグ\n@\nその時、教会の入り口に\n再びハルモニア兵が現れ、\nロンギヌスはすばやく反応する\n\n# face 3300121 \"angry\"\n# textflame 1 1\n# textboxarrow 0 2\n@ロンギヌス\n…マスター\n答えは、後ほどお願いします"
	}
]