[
	{
		"ID": 330041203,
		"script": ";;天使天沼矛_3\n# script \"lisp\"\n# background \"highland\"\n# bgm \"bgm002\" 0\n# body 3300411\n# pos 3300411 3\n# alpha 3300411 0 0\n# mask 3300411 off\n# face 3300411 \"happy\"\n# textflame 0 0\n@\n数日後─\n\n# alpha 3300411 1 0.5\n# textflame 1 1\n# textboxarrow 0 2\n# chara 3300411\n# voice 330041 \"amenonuboko_t_0006\"\n@天沼矛\nやった～！\nまた勝ちました！！\n\n# textflame 0 0\n@\nマスターの助言以来、\n戦闘でも好調を取り戻した天沼矛\n\n# face 3300411 \"normal\"\n# textflame 1 1\n# textboxarrow 0 2\n# chara 3300411\n@天沼矛\nこれもマスターのおかげですね！\n\n# textflame 0 0\n@\n自信を付け、\n元来の明るさも戻って来た\n\n# face 3300411 \"usual\"\n# textflame 1 1\n# textboxarrow 0 2\n# chara 3300411\n@天沼矛\nそれに、\nもちろんみなさんの\nおかげでもあります！\n\n# face 3300411 \"happy\"\n# textflame 1 1\n# textboxarrow 0 2\n# chara 3300411\n# voice 330041 \"amenonuboko_t_0005\"\n@天沼矛\nこれからも一緒に\n戦いましょうね～！\nうふふ♪\n\n# textflame 0 0\n@\nまるで本物の天使のような\n明るさ、優しさ、柔らかさに\n力をもらう姫達\n\n# face 3300411 \"usual\"\n# textflame 1 1\n# textboxarrow 0 2\n# chara 3300411\n@天沼矛\nわたし、なんだか\nまた新しい力に\n目覚めた気がします\n\n# se \"SE_0602\"\n# face 3300411 \"happy\"\n# textflame 1 1\n# textboxarrow 0 2\n# chara 3300411\n@天沼矛\n天戒『天の包容』\n誕生です！\n\n# textflame 0 0\n@\nそれは彼女が、\n新たなるスキルに\n目覚めた瞬間であった\n\n# face 3300411 \"usual\"\n# textflame 1 1\n# textboxarrow 0 2\n# chara 3300411\n@天沼矛\nやっぱりバランスっていうか…\n\n# face 3300411 \"normal\"\n# textflame 1 1\n# textboxarrow 0 2\n# chara 3300411\n@天沼矛\n心と体は繋がっているんですね\n\n# face 3300411 \"happy\"\n# textflame 1 1\n# textboxarrow 0 2\n# chara 3300411\n@天沼矛\n心が明るくなったら、\n体も調子いいって言うか…\n喜んでいる気がします！\n\n# face 3300411 \"usual\"\n# textflame 1 1\n# textboxarrow 0 2\n# chara 3300411\n@天沼矛\n“心”と“体”…\n\n# textflame 1 1\n# textboxarrow 0 2\n# chara 3300411\n@天沼矛\nそして、\n鎖から解放された“現在”\n\n# face 3300411 \"happy\"\n# textflame 1 1\n# textboxarrow 0 2\n# chara 3300411\n# voice 330041 \"amenonuboko_t_0029\"\n@天沼矛\nすべてを受け入れて、\n前に進んでいきます！\n\n# face 3300411 \"usual\"\n# textflame 1 1\n# textboxarrow 0 2\n# chara 3300411\n@天沼矛\nだから…これから\nわたしがどうなってゆくのか\nどう成長していくのか\n\n# textflame 1 1\n# textboxarrow 0 2\n# chara 3300411\n@天沼矛\nどこまで大きくなれるのか！\n\n# face 3300411 \"shy\"\n# textflame 1 1\n# textboxarrow 0 2\n# chara 3300411\n# voice 330041 \"amenonuboko_t_0005\"\n@天沼矛\nず、ずっと\n見守っていて下さいね…！\n\n# textflame 0 0\n@\n…と、恥ずかしそうに\n見つめてくる彼女\n\n# face 3300411 \"surprise\"\n# textflame 1 1\n# textboxarrow 0 2\n# chara 3300411\n# voice 330041 \"amenonuboko_t_0009\"\n@天沼矛\n…ん？\nなんだか視線が\n下に行ってませんか？\n\n# face 3300411 \"shy\"\n# textflame 1 1\n# textboxarrow 0 2\n# chara 3300411\n# voice 330041 \"amenonuboko_t_0010\"\n@天沼矛\nも～！大きくって…\n“ここ”のことじゃ\nないですからね\n\n# imageset 0 \"c3300411\"\n# imagealpha 0 0 0\n# textflame 0 0\n@\nと、胸元を指し\n照れてこちらを窺う彼女は、\nとても愛らしかった\n\n;;一枚絵ボイス：天沼矛　「マスターを見ているとドキドキしてきて、なんだか目の前がぐるぐるします…」\n;;　　　　　　　ID:amenonuboko_t_kyara_0025\n# imagealpha 0 1 0\n# imagepos 0 0 0 \n# fadein \"white\" 3\n# voice 330041 \"amenonuboko_t_kyara_0025\"\n# textwindow \"close\"\n"
	}
]