[
	{
		"ID": 33031124,
		"script": ";;-----------------------------------------\n;;■カシウス・キャラクエ　シナリオ\n;;【ＥＰ３】\n;;スクリプト最後の背景：plain\n;;背景：平原\n;;-----------------------------------------\n# script \"lisp\"\n# background \"plain\"\n# bgmfile \"bgm272\" \"BgmLostRagnarokEvent\" 0\n;;-----------------------------------------\n;;カシウス\n# body 3303111\n# pos 3303111 3\n# scale 3303111 0.8 0\n# layer 3303111 2\n# alpha 3303111 0 0\n# mask 3303111 off\n;;-----------------------------------------\n;;カシウス一枚絵\n# imageset 0 \"c3303111\"\n# imagelayer 0 3\n# imagealpha 0 0 0\n;;-----------------------------------------\n;;【ＥＰ３】\n;;モノローグ\n# textflame 0 0\n@\nあれから数日後――\n\n;;モノローグ\n@\n草原で一人、佇むカシウス\n\n# move 3303111 3 0\n# face 3303111 \"normal\"\n# alpha 3303111 1 0.5\n# mask 3303111 off\n# textflame 1 1\n# textboxarrow 0 2\n@カシウス\n………\n\n;;モノローグ\n# textflame 0 0\n@\nまた隊の姫たちを\nぼんやり眺めている\n\n;;モノローグ\n@\nなにしてるの？と、\n声を掛けてくるマスター\n\n# voice 3031 \"cassius_ge_0001\"\n# textflame 1 1\n# textboxarrow 0 2\n@カシウス\n…御館様\n\n# voice 3031 \"cassius_ge_0015\"\n# face 3303111 \"sad\"\n# textboxarrow 0 2\n@カシウス\n考えてたの…\n今までのことを\n\n# textboxarrow 0 2\n@カシウス\n過去の過ちを受け止め、\nそこから進めずにいた\n\n# face 3303111 \"normal\"\n# textboxarrow 0 2\n@カシウス\nでも、御館様が光を示してくれた\n\n# textboxarrow 0 2\n@カシウス\n負の円環からは\n抜け出られた気がする…\n\n# textboxarrow 0 2\n@カシウス\nじゃあ次は…\nなにをするべきなんだろう？\n\n;;モノローグ\n# textflame 0 0\n@\n次に進むべき道か…\n言葉に詰まるマスター\n\n# voice 3031 \"cassius_ge_0004\"\n# face 3303111 \"happy\"\n# textflame 1 1\n# textboxarrow 0 2\n@カシウス\n大丈夫、次なる円環を見つけたから\n\n;;モノローグ\n# textflame 0 0\n@\nまた円環なの？そこからは、\nもう抜け出したはずじゃ…\nとマスターが尋ねる\n\n# voice 3031 \"cassius_ge_0028\"\n# face 3303111 \"normal\"\n# textflame 1 1\n# textboxarrow 0 2\n@カシウス\n次なる円環…\n\n# textboxarrow 0 2\n@カシウス\nそれは、御館様と共に\n平和な世界を創造していくこと\n\n# face 3303111 \"happy\"\n# textboxarrow 0 2\n@カシウス\n朝が来て、\n人々の幸せな生活が始まり、\n夜が来て、終わる\n\n# textboxarrow 0 2\n@カシウス\nそんな温かい円環を創造したいの\n\n# face 3303111 \"normal\"\n# textboxarrow 0 2\n@カシウス\nでも、そのためには…\nやっぱり一人の力じゃ無理\n\n# textboxarrow 0 2\n@カシウス\nみんなの力が必要だと、\n改めて思った\n\n# voice 3031 \"cassius_ge_0004\"\n# face 3303111 \"happy\"\n# textboxarrow 0 2\n@カシウス\nみんなと力を合わせ、\n共に戦ってゆきたいの\n\n;;モノローグ\n# se \"SE_0602\"\n# textflame 0 0\n@\nその想いが、彼女にまた新たな力\n獣魂『無限なる竜』\nを与えていた\n\n# face 3303111 \"normal\"\n# textflame 1 1\n# textboxarrow 0 2\n@カシウス\nでも…不思議なことがあるの\n\n;;モノローグ\n# textflame 0 0\n@\nなに？と尋ねるマスター\n\n# textflame 1 1\n# textboxarrow 0 2\n@カシウス\n円環を見つめ直したはずだったけど…\n最近、それでは説明のつかない\n感情が生まれてる\n\n# textboxarrow 0 2\n@カシウス\n御館様を見ていると…\n優しくしたいし、優しくされたい\n\n# textboxarrow 0 2\n@カシウス\n嬉しい時もあれば、\n嫉妬している時もある…\n\n# textboxarrow 0 2\n@カシウス\n円環とは程遠い、\nぐちゃぐちゃと入り乱れた\n混沌とした感情になってしまうの\n\n# voice 3031 \"cassius_ge_0005\"\n# face 3303111 \"happy\"\n# textboxarrow 0 2\n@カシウス\nふふ…おもしろいわね\n\n# textboxarrow 0 2\n@カシウス\n一つの謎が解けると、\nまた新たな謎が生まれる\n\n# textboxarrow 0 2\n@カシウス\n狭い視野で見れば、\n入り乱れたものも…\n\n# textboxarrow 0 2\n@カシウス\n大きな視野で捉えると、\nそれもまた『生きる』ということの\n円環なのかな？\n\n# face 3303111 \"normal\"\n# textboxarrow 0 2\n@カシウス\n…なんて考えてみるけど、\nやっぱり御館様を見つめると、\n今までになかった感情になってしまう\n\n# textboxarrow 0 2\n@カシウス\nこの気持ちはなんだろう？\n温かくて、力強くて…\n\n# voice 3031 \"cassius_ge_0020\"\n# face 3303111 \"happy\"\n# textboxarrow 0 2\n@カシウス\nまあ、いっか…\nその答えが見つかるまで…\n\n# textboxarrow 0 2\n@カシウス\nずっと御館様のそばにいる\n\n# textboxarrow 0 2\n@カシウス\nそばにいれば…\nわたしも力をもらえるから\n\n;;モノローグ\n# textflame 0 0\n@\n相変わらず不思議ちゃんチックな\nことを言っているが、\n\n;;モノローグ\n@\nマスターを見つめるその目は、\n優しさに満ちていた\n\n;;★６（一枚絵同じ）\n;;カシウス　「この気持ちはなに？\n;;　　　　　　温かくて、力強い…。\n;;　　　　　　あなたの傍に居ると、湧き上がってくる…」cassius_ge _kyara_0026\n;;ホワイトアウト\n# textflame 0 0\n# imagealpha 0 1 0\n# imagepos 0 0 0\n# fadein \"white\" 3\n# buttonsout 0 0\n# textwindow \"close\"\n# voice 3031 \"cassius_ge_kyara_0026\"\n\n# frameout 0 1\n\n# waitandnext 0.8\n\n# fadeout \"black\" 1.5\n# waitandnext 1.5"
	}
]