[
	{
		"ID": 331003122,
		"script": ";;-----------------------------------------\n;;■悪魔デュランダル・キャラクエ　シナリオ\n;;【ＥＰ２】戦闘前\n;;スクリプト最後の背景：300_devil_daytime02\n;;背景：ケイオスリオン街中（昼）\n;;-----------------------------------------\n# script \"lisp\"\n# background \"300_devil_daytime02\"\n# bgmfile \"bgm270\" \"BgmLostRagnarokEvent\" 0\n;;-----------------------------------------\n;;デュランダル\n# body 3100311\n# pos 3100311 3\n# scale 3100311 0.8 0\n# layer 3100311 2\n# alpha 3100311 0 0\n# mask 3100311 off\n;;-----------------------------------------\n;;【ＥＰ２】\n;;モノローグ\n# textflame 0 0\n@\n立ち去ったデュランダルの\n後を追うマスター\n\n# move 3100311 3 0\n# face 3100311 \"surprise\"\n# alpha 3100311 1 0.5\n# mask 3100311 off\n# textflame 1 1\n# textboxarrow 0 2\n@デュランダル\nマ、マスター\n\n# textboxarrow 0 2\n@デュランダル\n追ってきたんですの…？\n\n# voice 310031 \"durandaru_a_0031\"\n# face 3100311 \"sad\"\n# textboxarrow 0 2\n@デュランダル\nさっきはひどいことを\n言ってしまってごめんなさい\n\n# face 3100311 \"normal\"\n# textboxarrow 0 2\n@デュランダル\nでも…\n\n# textboxarrow 0 2\n@デュランダル\nあの気持ちにウソはありませんわ\n\n# textboxarrow 0 2\n@デュランダル\nマスターが望むのなら、\n除隊でもどうとでもして下さい\n\n;;モノローグ\n# textflame 0 0\n@\n覚悟を決めるデュランダル\n\n;;モノローグ\n@\nしかし、マスターの口から出たのは…\n\n;;モノローグ\n@\nいつも君たちに任せてしまって\n申し訳ないと思ってるんだ…\nとの言葉だった\n\n# face 3100311 \"sad\"\n# textflame 1 1\n# textboxarrow 0 2\n@デュランダル\n………\n\n;;モノローグ\n# textflame 0 0\n@\nどう言おうと、戦闘で姫たちに\n頼っているのは事実\n\n;;モノローグ\n@\nなんの申し開きも出来ないよ…\nと素直に頭を下げる\n\n# textflame 1 1\n# textboxarrow 0 2\n@デュランダル\n……マスター\n\n;;モノローグ\n# textflame 0 0\n@\nその姿を見た彼女は、\n\n# face 3100311 \"angry\"\n# textflame 1 1\n# textboxarrow 0 2\n@デュランダル\n欺くことは、\nわたくしの騎士道に反します…\n正直にお話ししますわ\n\n;;モノローグ\n# textflame 0 0\n@\n彼女が隠していた本心を語り始めた\n\n# bgmfile \"bgm273\" \"BgmLostRagnarokEvent\" 0\n# face 3100311 \"normal\"\n# textflame 1 1\n# textboxarrow 0 2\n@デュランダル\n隊の姫たち、みんなが\n貴方を慕っているのは知ってますわ\n\n# textboxarrow 0 2\n@デュランダル\nでもわたくしは、\n戦にしか居場所を見つけられない性分\n\n# textboxarrow 0 2\n@デュランダル\n戦のない世を望むマスターにとって…\nいずれ必要のない存在になることは\n分かっていますの\n\n# face 3100311 \"sad\"\n# textboxarrow 0 2\n@デュランダル\n貴方を信用していない\nふりをしていましたが、\n本当は…\n\n# voice 310031 \"durandaru_a_0015\"\n# textboxarrow 0 2\n@デュランダル\n必要とされなくなるのを\n恐れていたのです……\n\n;;モノローグ\n# textflame 0 0\n@\n悲し気な目を見せる彼女\n\n;;モノローグ\n# bgm \"stop\"\n@\nマスターが声を掛けようとした時…\n\n# bgmfile \"bgm276\" \"BgmLostRagnarokEvent\" 0\n# voice 310031 \"durandaru_a_0024\"\n# face 3100311 \"surprise\"\n# textflame 1 1\n# textboxarrow 0 2\n@デュランダル\n…！\n\n# face 3100311 \"sad\"\n# textboxarrow 0 2\n@デュランダル\nやれやれ…こんな時に…\n\n;;モノローグ\n# textflame 0 0\n@\nその場に敵の軍が出現\n\n;;:;モヤモヤ吹き出し\n# move 3100311 3 0\n# face 3100311 \"angry\"\n# textflame 1 1\n# textboxarrow 0 0\n# textwindow \"moya\"\n# mask 3100311 off\n@デュランダル\nわたくしはいずれ\n必要とされなくなる身…\nならば役に立てるうちは…\n\n;;モノローグ\n# textflame 0 0\n@\nそう心に想い、\n剣を構えるデュランダルだった"
	}
]