[
	{
		"ID": 340041214,
		"script": ";;【ＥＰ３】\n# bgm \"bgm003\" 0\n# background \"plain\"\n# body 3400411\n# mask 3400411 off\n# pos 3400411 3\n# scale 3400411 0.8 0\n# textwindow \"nomal\"\n# face 3400411 \"happy\"\n# textwindow \"nomal\"\n# textflame 0 0\n@\nあれから数日後─\n\n# textwindow \"nomal\"\n# textflame 0 0\n@\nエロースはもう、\n隊の姫への『愛の洗脳』は\nやめていた\n\n# textwindow \"nomal\"\n# textflame 0 0\n@\nそれは良いのだが…、\n\n# voice 340041 \"erosu_t_0004\"\n# textwindow \"nomal\"\n# textflame 1 1\n# textboxarrow 0 2\n@エロース\nどうですか、マスター？\nあの子、ダメですか？\nと～っても可愛いと思うんですけど♪\n\n# face 3400411 \"shy\"\n# textwindow \"nomal\"\n# textflame 1 1\n# textboxarrow 0 2\n@エロース\nエロースは、マスターと\n“真なる愛”を育んでくれる女性を\n見つけたいんですぅ\n\n# textwindow \"nomal\"\n# textflame 0 0\n@\nマスターに相応しい女性を\n探し出そうと、\nお見合いさせまくっていた…\n\n# textwindow \"nomal\"\n# textflame 0 0\n@\n「いや、そういうの大丈夫だから…」\n苦笑いで断るマスター\n\n# voice 340041 \"erosu_t_0026\"\n# face 3400411 \"angry\"\n# textwindow \"nomal\"\n# textflame 1 1\n# textboxarrow 0 2\n@エロース\nなにを言っているんです！\n強い気持ち、強い愛で\n世界を平和に導くには…\n\n# textwindow \"nomal\"\n# textflame 1 1\n# textboxarrow 0 2\n@エロース\nマスターを強い愛で包みこんでくれる\nお相手がいなくては！そうでしょ！？\n\n# textwindow \"nomal\"\n# textflame 0 0\n@\nと、息巻いているエロース\n\n# textwindow \"nomal\"\n# textflame 0 0\n@\nそんな彼女に\n「その気持ちだけは嬉しいよ」\nと答えるマスター\n\n# voice 340041 \"erosu_t_0022\"\n# face 3400411 \"surprise\"\n# textwindow \"nomal\"\n# textflame 1 1\n# textboxarrow 0 2\n@エロース\nえ？嬉しい……？\n本当ですか…？\n\n# face 3400411 \"normal\"\n# textwindow \"nomal\"\n# textflame 1 1\n# textboxarrow 0 2\n@エロース\nそっか…なんというか…\n今、少し分かった気がしました\n\n# textwindow \"nomal\"\n# textflame 1 1\n# textboxarrow 0 2\n@エロース\n慈愛とは…自分には\n返ってこなくてもやりたいと思える\n無償の愛なのですね！\n\n# textwindow \"nomal\"\n# textflame 0 0\n@\n温かな想いと共に、\n光を放ち始める彼女の体\n\n# se \"SE_0602\"\n# voice 340041 \"erosu_t_0020\"\n# face 3400411 \"happy\"\n# textwindow \"nomal\"\n# textflame 1 1\n# textboxarrow 0 2\n@エロース\nこれぞ…\n四聖『天戒『調律の抱擁』』♪\n\n# textwindow \"nomal\"\n# textflame 0 0\n@\n誰かを思いやる気持ちが、\n彼女に新たなスキルを与えるのだった\n\n# voice 340041 \"erosu_t_0028\"\n# face 3400411 \"sad\"\n# textwindow \"nomal\"\n# textflame 1 1\n# textboxarrow 0 2\n@エロース\n……だけど\n\n# textwindow \"nomal\"\n# textflame 0 0\n@\n己の心の矛盾に気付く彼女\n\n# textwindow \"nomal\"\n# textflame 1 1\n# textboxarrow 0 2\n@エロース\nマスターに相応しい\n素敵な女性が見つかって欲しい…\nでも、なんか…\n\n# textwindow \"nomal\"\n# textflame 1 1\n# textboxarrow 0 2\n@エロース\nマスターが他の女性と\n楽しそうにしていると、\n心の中がざわつくんですぅ\n\n# textwindow \"nomal\"\n# textflame 1 1\n# textboxarrow 0 2\n@エロース\nこれは一体…\nなんなのでしょう…？\n\n# textwindow \"nomal\"\n# textflame 0 0\n@\nそんな自分の気持ちが、\nよく分からない彼女\n\n# face 3400411 \"happy\"\n;;モヤモヤ吹き出し\n# textwindow \"nomal\"\n# textflame 1 1\n# move 3400411 3 0\n# textwindow \"moya\"\n# textboxarrow 0 0\n@エロース\nでもマスターといれば…\nやがて分かるような気がします\n\n;;モヤモヤ吹き出し\n# move 3400411 3 0\n# textwindow \"moya\"\n# textboxarrow 0 0\n@エロース\nだから、それまでは…\nこの人のそばにいよう\nこの人を守るために戦おう\n\n# textwindow \"nomal\"\n# textflame 0 0\n@\nそう決意し、\n笑顔でマスターを見つめる\nエロース\n\n# textwindow \"nomal\"\n# textflame 0 0\n@\nその感情こそ、\n人々が呼ぶ『愛』なのだが…\n\n# voice 340041 \"erosu_t_0042\"\n# face 3400411 \"shy\"\n;;モヤモヤ吹き出し\n# textflame 1 1\n# textwindow \"nomal\"\n# move 3400411 3 0\n# textwindow \"moya\"\n# textboxarrow 0 0\n@エロース\nふふ、なんなんですかね、\nこの気持ち♪\nでも…温かいです！\n\n# imageset 1 \"c3400411\"\n# imagealpha 1 0 0\n# imagelayer 1 1\n# textwindow \"nomal\"\n# textflame 0 0\n@\nこの時の彼女はまだ、\n深く理解できていなかった\n\n# textwindow \"close\"\n# fadein \"white\" 3\n# imagealpha 1 1 0\n# imagepos 1 0 0\n# alpha 3400411 0 0\n# voice 340041 \"erosu_t_kyara_0028\"\n# buttonsout 0 0\n# textwindow \"close\"\n# frameout 0 1"
	}
]