[
	{
		"ID": 340131214,
		"script": ";;-----------------------------------------\n;;悪魔アフロディーテ・キャラクエ シナリオ\n;;スキル効果 EP3：デュエル EP4：バフ\n;;【ＥＰ３】 7/31 16:20 更新\n;;背景：草原\n;;スクリプト最後の背景:\"plain_evening\"\n;;スクリプトID:\n;;-----------------------------------------\n# script \"lisp\"\n# background \"plain_evening\"\n# bgm \"bgm005\" 0\n# body 3401311\n# pos 3401311 3\n# scale 3401311 0.8 0\n# alpha 3401311 1 0\n# mask 3401311 off\n# face 3401311 \"sad\"\n;;-----------------------------------------\n;;一枚絵\n# imageset 0 \"c3401311\"\n# imagelayer 0 3\n# imagealpha 0 0 0\n# textflame 0 0\n;;◆背景：草原-----------------------------\n# textflame 0 0\n# textboxarrow 0 2\n@\n数日後─\n\n# textflame 1 1\n@アフロディーテ\n………\n\n# textflame 0 0\n@\n草原で一人佇み、\n物思いにふける彼女\n\n# face 3401311 \"surprise\"\n# textflame 1 1\n@アフロディーテ\n…あ\n\n# textflame 0 0\n@\nそこにマスターがやってくる\n\n@\nなにをしてたの？\nそう尋ねるマスターに、\n\n# voice 340131 \"aphrodite_a_0008\"\n# face 3401311 \"usual\"\n# textflame 1 1\n@アフロディーテ\nあれからずっと…考えていました\n\n@アフロディーテ\n美とはなにか？\n愛とはなにか？\n\n@アフロディーテ\n『マスターの心を支配したい』\n\n@アフロディーテ\nそういった気持ちは今もありますわ\n\n@アフロディーテ\nでもマスターに助けてもらって以来、\nあなたの持つ大きな愛を\n自分に向けてもらいたくなった…\n\n# voice 340131 \"aphrodite_a_0017\"\n# face 3401311 \"shy\"\n@アフロディーテ\n『マスターに愛されたい』\n\n@アフロディーテ\nそう強く想うようになりましたの\n\n# face 3401311 \"sad\"\n@アフロディーテ\n見返りを求めず、愛を超えてゆく…\nそう誓ったのに、愛されたいという\n想いがどんどん強くなってゆく…\n\n@アフロディーテ\nなんて自分勝手で…\n醜い心でしょう…\n\n# textflame 0 0\n@\nそう言って、俯く彼女\n\n@\nそんなことはないよ\nマスターが彼女に告げる\n\n# voice 340131 \"aphrodite_a_0022\"\n# face 3401311 \"surprise\"\n# textflame 1 1\n@アフロディーテ\n無理に感情を押し殺すのではなく…\n受け入れ向き合うことも……\n美しい…？\n\n@アフロディーテ\nそう…仰って下さるのですか…？\n\n# voice 340131 \"aphrodite_a_0004\"\n# face 3401311 \"happy\"\n@アフロディーテ\n……うふふ\n\n@アフロディーテ\nそんな風に言ってもらえて…\n少し楽になれました\n\n@アフロディーテ\nありがとうございます、マスター\n\n# face 3401311 \"usual\"\n# textflame 0 0\n@\n彼女の目に、光が戻る\n\n# face 3401311 \"happy\"\n# voice 340131 \"aphrodite_a_0005\"\n# textflame 1 1\n@アフロディーテ\nふふ、そうですわね\nウジウジ悩むのなんて…\n美しくありませんわね！\n\n@アフロディーテ\nわたしもマスターのように…\n大きな愛でみんなを包めるように\nなりたいですわ\n\n# face 3401311 \"usual\"\n@アフロディーテ\nそれこそがマスターが掲げている\n『世界を平和に導く』ということ\n\n@アフロディーテ\nあなたの行いを美しいと\n思っていたけれど…\n\n# face 3401311 \"sad\"\n@アフロディーテ\nわたしはまだまだその神髄を\n理解できてませんでした\n\n# voice 340131 \"aphrodite_a_0003\"\n# face 3401311 \"usual\"\n@アフロディーテ\n今…\nようやくその入り口に\n立てた気がします\n\n# textflame 0 0\n@\n自身の心と向き合い、\n訪れた心境の変化により、\n\n# se \"SE_0602\"\n@\n彼女は新たな力\n四業『礼節の報恩』に\n目覚めていた\n\n# face 3401311 \"happy\"\n# voice 340131 \"aphrodite_a_0001\"\n# textflame 1 1\n@アフロディーテ\nマスターが持つ大きな愛は\nとても美しいですわ\n\n# face 3401311 \"usual\"\n@アフロディーテ\nもう、それを\n独り占めしようとは\n思いません\n\n@アフロディーテ\n今は…愛されるように\nひたすら自分を磨きます\n\n@アフロディーテ\nそして…\n\n# voice 340131 \"aphrodite_a_0020\"\n# face 3401311 \"shy\"\n@アフロディーテ\nいつの日か、\n真の美しさを\n手に入れてみせますわ\n\n@アフロディーテ\nそれが…\n今のわたしが導き出した\n答えです\n\n@\nはにかみ、微笑む彼女\nこれ以上 美しくなるのかと思うと、\n目が眩むマスターだった\n\n# textflame 0 0\n# imagealpha 0 1 0\n# imagepos 0 0 0\n# fadein \"white\" 3\n# buttonsout 0 0\n# textwindow \"close\"\n# voice 340131 \"aphrodite_a_kyara_0026\"\n\n# frameout 0 1\n# waitandnext 0.8\n\n# fadeout \"black\" 1.5\n# waitandnext 1.5\n;;★６（一枚絵同じ）\n;;一枚絵ボイス：もちろん、マスターのことは愛していますわよ。\n;;いやだ…改めて言うと恥ずかしいですわね…\n;;aphrodite_a _kyara_0026"
	}
]