[
	{
		"ID": 350071213,
		"script": ";;-----------------------------------------\n;;【ファントムオブキル】悪魔ブリューナク\n;;【EP2】戦闘後\n;;スクリプト最後の背景：森（夜）\n;;背景：森（夕）\n;;-----------------------------------------\n# script \"lisp\"\n# background \"forest_evening\"\n# bgmfile \"bgm276\" \"BgmLostRagnarokEvent\" 0\n;;-----------------------------------------\n;;ブリューナク\n# body 3500711\n# pos 3500711 3\n# scale 3500711 0.8 0\n# layer 3500711 2\n# alpha 3500711 0 0\n# mask 3500711 off\n# body 3830001\n# pos 3830001 3\n# scale 3830001 0.8 0\n# layer 3830001 3\n# alpha 3830001 0 0\n# mask 3830001 off\n;;-----------------------------------------\n;;ブリューナク一枚絵\n# imageset 0 \"c3500711\"\n# imagelayer 0 3\n# imagealpha 0 0 0\n;;-----------------------------------------\n;;背景：森（夕）\n# voice 350071 \"buryunaku_a_battle_0001\"\n# move 3500711 3 0\n# face 3500711 \"angry\"\n# alpha 3500711 1 0\n# mask 3500711 off\n# textflame 1 1\n# textboxarrow 0 2\n@ブリューナク\nはっ！　\n…次っ\n\n# textboxarrow 0 2\n@ブリューナク\nそこだ！\n\n# alpha 3500711 0 0.5\n# move 3830001 3 0\n# alpha 3830001 1 0.5\n# mask 3830001 off\n# textboxarrow 0 2\n@トレイセーマ兵\nくっ、うっ…\n\n;;演出：倒されるトレイセーマ兵\n# se \"SE_3001\"\n# textwindow \"close\"\n# alpha 3830001 0 0.5\n# waitandnext 0.5\n\n;;モノローグ\n# textflame 0 0\n# textwindow \"normal\"\n@\n今までも頼もしいと感じていた\nブリューナクの戦いぶりだが\n今の戦闘では少し違うものに感じた\n\n;;モノローグ\n@\n冷静さの中に思いが乗るような\nそんな、熱を帯びた戦い方…\n\n# move 3500711 3 0\n# face 3500711 \"normal\"\n# alpha 3500711 1 0.5\n# mask 3500711 off\n# textflame 1 1\n# textboxarrow 0 2\n@ブリューナク\n戦闘終了だ\n驚かせてしまったか、マスター？\n\n# voice 350071 \"buryunaku_a_0027\"\n# face 3500711 \"happy\"\n# textboxarrow 0 2\n@ブリューナク\nふぅ…少し熱くなってしまったようだ\n狩りとなると、我の中のバルバトスの\n血が、獲物を逃すまいと騒ぎ出すのだ\n\n# face 3500711 \"normal\"\n# textboxarrow 0 2\n@ブリューナク\nさぁ、あと少しだマスター\n我らの旅はどんな終わりを\n迎えるのだろうか…\n\n;;モノローグ\n# alpha 3500711 0 0.5\n# textflame 0 0\n@\n調査を始めた頃より確実に\n近づいているブリューナクとの距離\n\n;;モノローグ\n@\nまるで宝探しをするようで\n高鳴る気持ちを胸に、マスターたちは\n森の奥を目指すのだった\n\n;;演出：移動の暗転\n;;背景：森（夜）\n# textwindow \"close\"\n# fadeout \"black\" 1\n# waitandnext 1.2\n\n# background \"forest_totaleclipse\"\n# move 3500711 3 0\n# face 3500711 \"normal\"\n# alpha 3500711 1 0\n# mask 3500711 off\n# waitandnext 0.2\n\n# fadein \"black\" 1\n# waitandnext 1\n\n# bgmfile \"bgm270\" \"BgmLostRagnarokEvent\" 0\n# voice 350071 \"buryunaku_a_0028\"\n# textflame 1 1\n# textboxarrow 0 2\n# textwindow \"normal\"\n@ブリューナク\n地図によれば\nこの遺跡の辺りのはずだが…\n\n;;モノローグ\n# textflame 0 0\n@\n目的地にたどり着いたが\nこれといって変わったものもなく\n肩を落とすマスター\n\n# textflame 1 1\n# textboxarrow 0 2\n@ブリューナク\n落ち込むにはまだ早いぞマスター\n財宝が、目立つ場所に置いて\nあるはずがないだろう？\n\n# voice 350071 \"buryunaku_a_0004\"\n# face 3500711 \"happy\"\n# textboxarrow 0 2\n@ブリューナク\nふっ…ここは我に任せてほしい\nブリューナクに宿る悪魔の血が、\n確かに財宝の気配を感じているのだ\n\n;;モノローグ\n# textflame 0 0\n@\nそう言うと、彼女は慣れた手つきで\n遺跡の一画にあった仕掛けを動かし\n隠された小箱を取り出す\n\n# voice 350071 \"buryunaku_a_0003\"\n# textflame 1 1\n# textboxarrow 0 2\n@ブリューナク\nああ、この瞬間だ\nいつだって宝を手にする\nその瞬間がたまらない…\n\n;;モノローグ\n# textflame 0 0\n@\nドキドキするマスターを横に、\n隠されていた宝をあっさりと\n見つけてしまったブリューナク\n\n;;モノローグ\n@\n財宝発見の瞬間に立ち会い、\nすごい！と声を上げるマスター\nそして興味津々な様子で箱を見つめる\n\n# voice 350071 \"buryunaku_a_0005\"\n# textflame 1 1\n# textboxarrow 0 2\n@ブリューナク\nはは、焦らずとも\n宝は我らの手中だ、マスター\nどれ、さっそく開けてみよう…\n\n# voice 350071 \"buryunaku_a_0013\"\n# face 3500711 \"surprise\"\n# textboxarrow 0 2\n@ブリューナク\n…む、これは…\n\n;;モノローグ\n# textflame 0 0\n@\n箱を開けると\nそこには紙切れが入っていた\nどうやら、また地図のようだ\n\n# voice 350071 \"buryunaku_a_0040\"\n# face 3500711 \"happy\"\n# textflame 1 1\n# textboxarrow 0 2\n@ブリューナク\n…ふふっ、なるほどな\n宝はそう簡単には手に入らない\nということか\n\n;;モノローグ\n# textflame 0 0\n@\n宝が手に入った訳でもないのに\n嬉しそうに話すブリューナク\n\n;;モノローグ\n@\n楽しげな彼女の表情に、\nマスターも胸の高鳴りを覚え、\nまた、旅が始まるね、と話す\n\n# voice 350071 \"buryunaku_a_0022\"\n# face 3500711 \"surprise\"\n# textflame 1 1\n# textboxarrow 0 2\n@ブリューナク\nマスター、それは…\n\n;;モノローグ\n# textflame 0 0\n@\n驚いた表情を浮かべるブリューナク\n旅は何があるかわからないからこそ\n夢がある、と話すマスター\n\n;;モノローグ\n@\nそして、\nこれがロマンってやつかな？\nと、笑顔で付け加えるマスター\n\n# textflame 1 1\n# textboxarrow 0 2\n@ブリューナク\n……ッ！？\n\n# voice 350071 \"buryunaku_a_0005\"\n# face 3500711 \"happy\"\n# textboxarrow 0 2\n@ブリューナク\n…ああ…マスター\nふふ…そうか、\nそうだったのだな\n\n# textboxarrow 0 2\n@ブリューナク\nブリューナクの目に狂いはなかった\n今目の前にあるマスターの表情\nそれは、ロマンを求める者の顔だ\n\n# textboxarrow 0 2\n@ブリューナク\n財宝を得ることは素晴らしいが\nそれを求める旅路にこそロマンがある\n\n# textboxarrow 0 2\n@ブリューナク\nそれを知っているとは…\nマスターもまたブリューナクと同じ\nロマンを追い求める者だったのだな\n\n;;モノローグ\n# textflame 0 0\n@\nマスターとの繋がりを強く感じた\nブリューナクに力が宿っていく\n\n;;モノローグ\n# bgm \"stop\"\n@\nそのとき…\n\n;;演出：トレイセーマ兵in\n# bgmfile \"bgm276\" \"BgmLostRagnarokEvent\" 0\n# alpha 3500711 0 0.5\n# move 3830001 3 0\n# alpha 3830001 1 0.5\n# mask 3830001 off\n# textflame 1 1\n# textboxarrow 0 2\n@トレイセーマ兵\n見つけたぞ！\n\n;;モノローグ\n# textflame 0 0\n@\n突如、木の陰から\n兵士が姿を現した\n\n# textflame 1 1\n# textboxarrow 0 2\n@トレイセーマ兵\n泳がせておいて、宝の在処を\n探させる策は当たりだったようだな！\n\n# voice 350071 \"buryunaku_a_0004\"\n# alpha 3830001 0 0.5\n# move 3500711 3 0\n# face 3500711 \"happy\"\n# alpha 3500711 1 0.5\n# mask 3500711 off\n# textboxarrow 0 2\n@ブリューナク\nふっ…いや、\n外れも外れ、大外れだよ、\n愚か者どもよ\n\n;;モノローグ\n# textflame 0 0\n@\nブリューナクはそう言うと\n身に宿したばかりの力を解放し\n兵士たちを蹂躙する\n\n# se \"SE_0602\"\n# face 3500711 \"angry\"\n# textflame 1 1\n# textboxarrow 0 2\n@ブリューナク\n叫べ獰猛なる銃声よ\nこれがブリューナクの新たなる力\n『高貴なる影弾』だ\n\n;;銃声の演出\n# se \"SE_4400\"\n# waitandnext 0.5\n\n# alpha 3500711 0 0.5\n# move 3830001 3 0\n# alpha 3830001 1 0.5\n# mask 3830001 off\n# textboxarrow 0 2\n@トレイセーマ兵\nぐ、ぐあああああああっ！\n\n;;演出：倒れるトレイセーマ兵\n# bgm \"stop\"\n# se \"SE_3001\"\n# textwindow \"close\"\n# alpha 3830001 0 0.5\n# waitandnext 0.5\n\n# bgmfile \"bgm272\" \"BgmLostRagnarokEvent\" 0\n# voice 350071 \"buryunaku_a_0004\"\n# move 3500711 3 0\n# face 3500711 \"happy\"\n# alpha 3500711 1 0.5\n# mask 3500711 off\n# textboxarrow 0 2\n# textwindow \"normal\"\n@ブリューナク\nふっ…\n財宝とは勝者への褒美\nお前たちには不相応の品だ\n\n;;モノローグ\n# textflame 0 0\n@\nそう呟くと、戦闘で乱れた\n手袋を直しながら、マスターに\n向き直るブリューナク\n\n# textflame 1 1\n# textboxarrow 0 2\n@ブリューナク\n困難が多いほど旅は面白い\nどうやら、マスターとの旅路は\nロマンに溢れていそうだな\n\n# textboxarrow 0 2\n@ブリューナク\n我らの旅はここでは終わらない\nそうだろう？\n\n;;モノローグ\n# textflame 0 0\n@\nブリューナクの投げかけに、\n目を輝かせて頷くマスター\n\n# textflame 1 1\n# textboxarrow 0 2\n@ブリューナク\nふっ…いい目だ\nさぁ、行こうかマスター\n\n# textboxarrow 0 2\n@ブリューナク\nまだ見ぬロマンを求め、\n新たな舞台へ！\n\n;;モノローグ\n# textflame 0 0\n@\nそうマスターに告げるブリューナク\nふたりの間にはもう距離などなかった\n\n;;⇒一枚絵ボイス\n;;★５\n;;「この先も、ブリューナクはマスターと共にある。\n;; 理由など、確認する必要もないだろう？\n;; そこにロマンがあるからだ」\n;;ホワイトアウト\n# textflame 0 0\n# imagealpha 0 1 0\n# imagepos 0 0 0\n# fadein \"white\" 3\n# buttonsout 0 0\n# textwindow \"close\"\n# voice 350071 \"buryunaku_a_kyara_0026\"\n\n# frameout 0 1\n\n# waitandnext 0.8\n\n# fadeout \"black\" 1.5\n# waitandnext 1.5"
	}
]