[
	{
		"ID": 35031224,
		"script": ";;-----------------------------------------\n;;【PK】人気投票1位_ソロモン_シナリオ\n;;【EP3】\n;;背景：花が咲いている草原\n;;-----------------------------------------\n# script \"lisp\"\n# background \"plain\"\n# bgmfile \"bgm270\" \"BgmLostRagnarokEvent\" 0\n;;-----------------------------------------\n# body 3503121\n# pos 3503121 3\n# scale 3503121 0.8 0\n# alpha 3503121 1 0\n# mask 3503121 off\n;;ソロモン\n# body 3503111\n# alpha 3503111 0 0\n;;-----------------------------------------\n# face 3503121 \"happy\"\n# voice 350312 \"solomon_t_0003\"\n# textflame 1 1\n# textboxarrow 0 2\n@ソロモン\n良い有給休暇をもらったから\n\n# textflame 0 0\n@\nソロモンの休暇が明け、数日\n\n@\n彼女は隊の仲間とも相互に答えを募り\n折衷案や最適とされた相手の解を\nよく尊重するようになった\n\n# voice 350312 \"solomon_t_0032\"\n# textflame 1 1\n# textboxarrow 0 2\n@ソロモン\n最適解かどうかは\n皆と話さなければ\nわからないものね\n\n# textflame 0 0\n@\n仕事中であっても\n朗らかな表情を\n覗かせるようになったソロモン\n\n# face 3503121 \"normal\"\n# voice 350312 \"solomon_t_0001\"\n# textflame 1 1\n# textboxarrow 0 2\n@ソロモン\n貴方の話を聞かなければ\n解らなかった\n\n# face 3503121 \"happy\"\n# voice 350312 \"solomon_t_0030\"\n@ソロモン\nマスター、本当にありがとう\n\n;;選択肢\n# select \"礼を言われるほどのことじゃあ…\" \"select_label_01\" \"聞いてくれたのは、ソロモンだよ\" \"select_label_02\" \"冗談だって聞くからね\" \"select_label_03\"\n@\nマスター、本当にありがとう\n\n;;アンサー\n# label \"select_label_01\"\n# labeljump \"select_label_end\"\n# face 3503121 \"happy\"\n# voice 350312 \"solomon_t_0003\"\n# textflame 1 1\n# textboxarrow 0 2\n@ソロモン\n礼を言うほどのことなんです\n\n# label \"select_label_02\"\n# labeljump \"select_label_end\"\n# face 3503121 \"happy\"\n# voice 350312 \"solomon_t_0032\"\n@ソロモン\n話してくれたのは、マスターです\n\n# label \"select_label_03\"\n# labeljump \"select_label_end\"\n# face 3503121 \"happy\"\n# voice 350312 \"solomon_t_0004\"\n@ソロモン\nこの世には10種類の人間しかいません\n二進数を理解する人間と\n理解しない人間です…わかりますか？\n\n# label \"select_label_end\"\n# textflame 0 0\n@\nソロモンはマントの裾を\nいじりながら\nマスターを見上げる\n\n# face 3503121 \"shy\"\n# voice 350312 \"solomon_t_0026\"\n# textflame 1 1\n# textboxarrow 0 2\n@ソロモン\nあの、マスター…？\nもう、きっとあんなに長い休暇は\nこれからは取れそうにないけど…\n\n@ソロモン\nこれからも…\nマスターの傍に\nいさせてほしい\n\n@ソロモン\n休む時だけじゃなく\n戦う時であっても\n\n# face 3503121 \"normal\"\n@ソロモン\nもう答えがわかれば\nそれを聞けば\n臆病になることもないから\n\n# face 3503121 \"happy\"\n# voice 350312 \"solomon_t_0004\"\n@ソロモン\nこれからもマスターと\n答え合わせで気持ちを重ねて\n貴方の力となることを誓います\n\n# fadein \"white\" 0.5\n# se \"SE_0602\"\n# textflame 0 0\n@\nその誓いは彼女の新スキル\n理砕『軍神の行軍』\n誕生の瞬間でもあった\n\n# face 3503121 \"normal\"\n# voice 350312 \"solomon_t_0002\"\n# textflame 1 1\n# textboxarrow 0 2\n@ソロモン\n貴方の話を聞かせてもらったから\n\n# voice 350312 \"solomon_t_kyara_0019\"\n@ソロモン\n方程式はイコールで結ばれた\n証明は完了\n\n# textflame 0 0\n@\n凛とした表情で\n胸を張るソロモン\n\n# alpha 3503121 0 0.5\n@\nその後マスターは\n休日に入る度に\nソロモンに連れ添うこととなり…\n\n@\nボードゲームに付き合わせては\n完膚なきまで叩きのめされ続けるのは\nまた、別のお話…\n\n# alpha 3503121 1 0.5\n# textflame 1 1\n# textboxarrow 0 2\n@ソロモン\n貴方の傍を\n片時も離れません\n\n# imageset 0 \"c3503121\"\n# imagelayer 0 3\n# imagealpha 0 0 0\n# face 3503121 \"happy\"\n# voice 350312 \"solomon_t_0005\"\n@ソロモン\nこれが、私の最適解\n\n;;【一枚絵指定】\n;;EP2バトル後と同じ\n;;\n;;【一枚絵ボイス★６】\n;;「貴方の身は私が必ず守る。まず食事は全て私が毒見をするわ。\n;;外に出る場合は必ず護衛をするし、入浴中や就寝中は特に危険だからね。\n;;したがって、常に私が…何？　それだと困る？\n;;いや、でもこれが最適解…」\n# imagealpha 0 1 0\n# imagepos 0 0 0\n# fadein \"white\" 3\n# buttonsout 0 0\n# textwindow \"close\"\n# voice 350312 \"solomon_t_kyara_0026\"\n\n# frameout 0 1\n\n# fadeout \"black\" 1.5\n# waitandnext 1.5"
	}
]