[
	{
		"ID": 350322212,
		"script": ";;-----------------------------------------\n;;賀正ティファレト2-1\n;;-----------------------------------------\n# script \"lisp\"\n# background \"400_angel_town_night\"\n# bgmfile \"bgm358\" \"BgmNewYear002\" 0\n;;-----------------------------------------\n# body 3503221\n# pos 3503221 3\n# scale 3503221 0.8 0\n# layer 3503221 2\n# alpha 3503221 1 0\n# mask 3503221 off\n# body 3810001\n# pos 3810001 3\n# scale 3810001 0.8 0\n# alpha 3810001 0 0\n# mask 3810001 off\n;;-----------------------------------------\n;;背景：ハルモニア市街地（夜）\n# textflame 1 1\n# textboxarrow 0 2\n# face 3503221 \"surprise\"\n# voice 350322 \"tiphereth_t_0039\"\n@ティファレト\nまだ早い時間なのに\nこれだけの人出があるのですね！\n\n# textflame 0 0\n@\n初詣ということで向かった\nハルモニアのとある場所\n\n# textflame 0 0\n@\nそこはマスター達と\n同じように初詣のために\n訪れた人々で賑わっていた\n\n# textflame 1 1\n# textboxarrow 0 2\n@ティファレト\nこの人達すべてが\n初詣のためにここへ\n訪れているのですか…\n\n# textflame 1 1\n# textboxarrow 0 2\n@ティファレト\n今まで…この時期はとくに\n外へ出ることがありませんでしたから\nこのようになっているとは…\n\n# textflame 0 0\n@\nティファレトは人出の多さに\n驚いているようだった\n\n# textflame 0 0\n@\nここにいる人達みんなが\n新しい年を祝い、願いを込めて\n初詣するのだと説明するマスター\n\n# textflame 1 1\n# textboxarrow 0 2\n# face 3503221 \"sad\"\n# voice 350322 \"tiphereth_t_0028\"\n@ティファレト\nそうなのですね…\nしかし、私はその願いを\n叶えることができなかったのですね…\n\n# textflame 0 0\n@\nティファレトの言葉に\nそういう話をしたい訳じゃないのに…\nとマスターがティファレトを見ると…\n\n# textflame 1 1\n# textboxarrow 0 2\n@ティファレト\nあ、すみません…\nその、今はあまりこちらを\n見ないでいただけますと…\n\n# textflame 0 0\n@\n過去を悔いる言葉は嘘ではないだろう\nしかし、それと同時にティファレトの\n表情には違うものが浮かんでいた\n\n# textflame 0 0\n@\n…もしかして\nちょっとワクワクしてる？\nと聞いてみるマスター\n\n# textflame 1 1\n# textboxarrow 0 2\n# face 3503221 \"shy\"\n# voice 350322 \"tiphereth_t_0042\"\n@ティファレト\nけ、決してそのようなことは…\n\n# textflame 0 0\n@\n目を伏せる彼女を\nじっと見るマスター\nすると観念した様子で口を開く\n\n# textflame 1 1\n# textboxarrow 0 2\n# voice 350322 \"tiphereth_t_0015\"\n@ティファレト\nう、うぅ…主様には\n私の浅はかな思考など\nお見通しなのですね…\n\n# textflame 1 1\n# textboxarrow 0 2\n@ティファレト\n実は、教皇としての立場もなく\n主様の斬ル姫としての私\n\n# textflame 1 1\n# textboxarrow 0 2\n@ティファレト\nそれに今は斬ル姫であることすら\n隠してこのように民衆へ紛れて\n初詣をしていること…\n\n# textflame 1 1\n# textboxarrow 0 2\n@ティファレト\nそのことに少しばかり\n喜びを感じてしまっていることは\nたしかなのです…\n\n# textflame 0 0\n@\n楽しんでもいいんじゃないかな\nマスターはそう言うが…\n\n# textflame 1 1\n# textboxarrow 0 2\n# face 3503221 \"angry\"\n@ティファレト\nいえ、このように主様が私を\n初詣へと連れてきてくださったのは\n自戒を忘れるなというメッセージ\n\n# textflame 1 1\n# textboxarrow 0 2\n@ティファレト\n浮かれて楽しむなど\n言語道断なのです\n\n# textflame 0 0\n@\nそういうつもりじゃ\nないんだけどな…\nと悩むマスター\n\n# textflame 0 0\n@\nどうすればティファレトに\n理解してもらえるか\nマスターが考えていると…\n\n# textflame 1 1\n# textboxarrow 0 2\n# face 3503221 \"surprise\"\n# voice 350322 \"tiphereth_t_0001\"\n@ティファレト\n主様、どうやらこの先で\n何やら騒がしくなっているようです\n\n# alpha 3503221 0 0.5\n# textflame 0 0\n@\nティファレトが指さすほうを見ると\nハルモニア兵が誰かを取り押さえて\nいる様子が見て取れた\n\n# alpha 3810001 1 0.5\n# textflame 1 1\n# textboxarrow 0 2\n@ハルモニア兵\nこのイミテーションは\n列を乱し、混乱を招いた！\n即刻連行する！\n\n# textflame 0 0\n@\nその物言いにやりすぎだと\n感じたマスターはティファレトを見る\n\n# alpha 3810001 0 0.5\n# alpha 3503221 1 0.5\n# textflame 1 1\n# textboxarrow 0 2\n# face 3503221 \"angry\"\n# voice 350322 \"tiphereth_t_0032\"\n@ティファレト\n…ええ、主様\n今はあれを止めるのが先決です\n\n# textflame 0 0\n@\nマスターはティファレトと共に\nハルモニア兵の前へと割って入った"
	}
]