[
	{
		"ID": 360051214,
		"script": ";;-----------------------------------------\n;;ケーリュケイオン・幻獣・フギン\n;;【EP3】\n;;スクリプト最後の背景：トレイセーマ首都（夜）\n;;背景：トレイセーマ首都（夜）\n;;-----------------------------------------\n# script \"lisp\"\n# background \"201_beast_night\"\n# bgmfile \"bgm272\" \"BgmLostRagnarokEvent\" 0\n;;-----------------------------------------\n;;ケーリュケイオン\n# body 3600511\n# pos 3600511 3\n# scale 3600511 0.8 0\n# layer 3600511 2\n# alpha 3600511 0 0\n# mask 3600511 off\n;;-----------------------------------------\n;;ケーリュケイオン一枚絵\n# imageset 0 \"c3600511\"\n# imagelayer 0 3\n# imagealpha 0 0 0\n;;-----------------------------------------\n;;【EP3】\n;;モノローグ\n# textflame 0 0\n@\n隊に加入して月日が経ち、\n仲間の斬ル姫たちとも\nすっかり馴染んだケーリュケイオン\n\n# voice 360051 \"keryukeion_ge_0005\"\n# move 3600511 3 0\n# face 3600511 \"happy\"\n# alpha 3600511 1 0.5\n# mask 3600511 off\n# textflame 1 1\n# textboxarrow 0 2\n@ケーリュケイオン\nあははっ！\nそうそう、野菜もいいけど\nあのお肉も美味しかったよね～\n\n;;モノローグ\n# textflame 0 0\n@\n昨日の晩御飯の話で\n仲間と盛り上がる様子を、\nマスターは微笑ましい気持ちで眺める\n\n;;演出：場面転換\n# textwindow \"close\"\n# fadeout \"black\" 1\n# waitandnext 1.2\n\n# face 3600511 \"normal\"\n# waitandnext 0.2\n\n# fadein \"black\" 1\n# waitandnext 1\n\n;;モノローグ\n# textwindow \"normal\"\n@\n今度はひとりでいる彼女を見かけ、\nさっきは楽しそうだったね\nと、マスターが話しかけると…\n\n# textflame 1 1\n# textboxarrow 0 2\n@ケーリュケイオン\nさっきって…\nなんのこと？\n\n# voice 360051 \"keryukeion_ge_0022\"\n# face 3600511 \"surprise\"\n# textboxarrow 0 2\n@ケーリュケイオン\nえ？\n私が、みんなと\n楽しそうに話していたって？\n\n;;ケーリュケイオン（笑顔）\n# face 3600511 \"happy\"\n# textboxarrow 0 2\n@ケーリュケイオン\nうーん…\nもう忘れちゃった♪\nねぇ、そんなことより…\n\n# textboxarrow 0 2\n@ケーリュケイオン\nさ～て、ここで問題です♪\n\n# textboxarrow 0 2\n@ケーリュケイオン\nマスターはこの間のこと、\nちゃんと覚えてる？\n\n;;モノローグ\n# textflame 0 0\n@\nマスターが、なんのことかと\n考えていると…\n\n# textflame 1 1\n# textboxarrow 0 2\n@ケーリュケイオン\nも～っ！\n二人の大切な思い出なのに、\n忘れちゃったの～？\n\n# voice 360051 \"keryukeion_ge_0004\"\n# textboxarrow 0 2\n@ケーリュケイオン\nじゃ、特別にヒントをあげる♪\nこれで答えられなかったら…\nふふっ、どうしよっかなぁ？\n\n;;モノローグ\n# textflame 0 0\n@\nそう言って不敵に微笑む彼女を\nマスターは、じっと見つめて\nヒントを待つ\n\n;;ケーリュケイオン（照れ）\n# face 3600511 \"shy\"\n# textflame 1 1\n# textboxarrow 0 2\n@ケーリュケイオン\n…ッ！\n\n;;モノローグ\n# textflame 0 0\n@\nマスターの視線を受け、\n赤くなる顔を隠すように、\n慌てて顔を背ける彼女\n\n;;ケーリュケイオン（照れ）\n# textflame 1 1\n# textboxarrow 0 2\n@ケーリュケイオン\nや、やっぱりヒントはなし！\nがんばって思い出してよ！\n\n;;モノローグ\n# textflame 0 0\n@\nマスターは思考を巡らせ、\n二人の思い出という言葉から\nあのデザート事件かな、と答えを出す\n\n# voice 360051 \"keryukeion_ge_0039\"\n# face 3600511 \"happy\"\n# textflame 1 1\n# textboxarrow 0 2\n@ケーリュケイオン\nへぇ～！正解だよ！\nなかなか賢くなってきたじゃない♪\n\n;;モノローグ\n# textflame 0 0\n@\nマスターは照れながら、\nケーリュケイオンがいろんな質問で\n鍛えてくれるおかげだ、と笑う\n\n# voice 360051 \"keryukeion_ge_0005\"\n# textflame 1 1\n# textboxarrow 0 2\n@ケーリュケイオン\nあははっ\n私の勇者様には、\nもっと賢くなってもらわなくっちゃ♪\n\n;;モノローグ\n# face 3600511 \"normal\"\n# textflame 0 0\n@\nそう言うと、杖を持ち\nマスターに真面目な表情を\n向ける彼女\n\n# textflame 1 1\n# textboxarrow 0 2\n@ケーリュケイオン\nこの杖はね、思考の鍵なんだ\n私の思考力を最大限に解き放って\n真相に至る扉を開けてくれるの\n\n# face 3600511 \"happy\"\n# textboxarrow 0 2\n@ケーリュケイオン\nま、もともと思考力には\n自信があるんだけどね\n\n# face 3600511 \"normal\"\n# textboxarrow 0 2\n@ケーリュケイオン\nだけど、これまで\n本気で解決したいと思える\n謎には出会えなかった\n\n# textboxarrow 0 2\n@ケーリュケイオン\n簡単すぎて退屈しちゃって…\nやる気がでなかったんだよね～\n\n# textboxarrow 0 2\n@ケーリュケイオン\nでも、マスターと一緒なら\nどんな謎にも本気で取り組める…\n\n# face 3600511 \"happy\"\n# textboxarrow 0 2\n@ケーリュケイオン\nあなたの存在が、\n私のやる気の扉を開ける\n鍵だったのかもね♪\n\n;;モノローグ\n# textflame 0 0\n@\n本当にそうなら嬉しい\nと、微笑むマスター\n\n# voice 360051 \"keryukeion_ge_0004\"\n# textflame 1 1\n# textboxarrow 0 2\n@ケーリュケイオン\nふふふっ…\nそんなマスターの心の扉の鍵は\nどこにあるんだろうね～？\n\n;;モノローグ\n# textflame 0 0\n@\nいたずらっぽく微笑む彼女に、\n自分の心の扉はもう開いてる\nと、マスターは真面目な顔で返す\n\n# face 3600511 \"surprise\"\n# textflame 1 1\n# textboxarrow 0 2\n@ケーリュケイオン\nえ…っ？\n\n;;モノローグ\n# textflame 0 0\n@\nケーリュケイオンといると楽しいし、\n自分にとって大事な存在だと思う\n\n;;モノローグ\n@\n自分だけ楽しいんじゃ不公平だから\nケーリュケイオンの心の扉の鍵も\n探さないとね、とマスターは笑う\n\n;;モノローグ\n@\nそのマスターの真っ直ぐな想いが、\nケーリュケイオンの心の扉を\n優しくノックした\n\n;;できればもやもやフレームで\n# move 3600511 3 0\n# face 3600511 \"happy\"\n# mask 3600511 off\n# textflame 1 1\n# textboxarrow 0 0\n# textwindow \"moya\"\n@ケーリュケイオン\nな～んだ、そういうこと\n私の心の鍵…\nこんなに近くにあったなんてね…\n\n;;ケーリュケイオン（照れ）\n# voice 360051 \"keryukeion_ge_0030\"\n# face 3600511 \"shy\"\n# textboxarrow 0 2\n# textwindow \"normal\"\n@ケーリュケイオン\nふふふっ\nなんか照れちゃうけど…嬉しいな\nありがとう…\n\n;;モノローグ\n# textflame 0 0\n@\nマスターと心を通わせ、\nお互いを想い合う気持ちが、\n彼女にまた新たなるスキル…\n\n;;モノローグ\n# se \"SE_0602\"\n@\n獣血『賢鴉の思考』\nを与えていた\n\n# voice 360051 \"keryukeion_ge_0002\"\n# face 3600511 \"normal\"\n# textflame 1 1\n# textboxarrow 0 2\n@ケーリュケイオン\nねぇ、マスター…\n\n# textboxarrow 0 2\n@ケーリュケイオン\n私は忘れっぽいけど、\nあなたとの大切な時間は\nちゃんと覚えているんだよ\n\n;;ケーリュケイオン（照れ）\n# face 3600511 \"shy\"\n# textboxarrow 0 2\n@ケーリュケイオン\nあの時のマスターは、\nちょっとだけかっこよかったし…\n\n;;ケーリュケイオン（照れ）\n# textboxarrow 0 2\n@ケーリュケイオン\nつまり、私の心の扉を開くのは\n誰なのか…\n\n;;ケーリュケイオン（照れ）\n# textboxarrow 0 2\n@ケーリュケイオン\n今のあなたなら…わかるよね？\n\n;;★６(イラストは同じ)\n;;「私って忘れっぽいでしょ？\n;;　でも、大切なことはちゃんと覚えてるんだから♪　\n;;　特にあなたに関わることなんかはね～。\n;;　ふふふっ、そういうこと♪」\n;;ホワイトアウト\n# textflame 0 0\n# imagealpha 0 1 0\n# imagepos 0 0 0\n# fadein \"white\" 3\n# buttonsout 0 0\n# textwindow \"close\"\n# voice 360051 \"keryukeion_ge_kyara_0028\"\n\n# frameout 0 1\n\n# waitandnext 0.8\n\n# fadeout \"black\" 1.5\n# waitandnext 1.5"
	}
]