[
	{
		"ID": 4000601,
		"script": "# script \"lisp\"\n# background \"004_outland\"\n# bgm \"bgm004\" 0\n# body 300111\n# scale 300111 0.9 0\n# pos 300111 5\n# body 301811\n# scale 301811 0.9 0\n# pos 301811 1\n# textboxarrow 0 1\n# chara 301811\n# voice 3018 \"forcas_0002\"\n# face 301811 \"usual\"\n@フォルカス\nひとつ…尋ねたい事があります\n\n# serif 1\n# chara 300111\n# textboxarrow 1 3\n# face 300111 \"surprise\"\n# voice 3001 \"ronginusu_0003\"\n@ロンギヌス\n…はい\nな、なんでしょうか…？\n\n# serif 0\n# chara 301811\n# voice 3018 \"forcas_0013\"\n@フォルカス\n今日の戦闘…\n\n# serif 0\n# chara 301811\n@フォルカス\n最前線にいたにも関わらず、\n出撃が遅れたのは、\nどういったわけでしょうか…？\n\n# serif 1\n# chara 300111\n# face 300111 \"normal\"\n# voice 3001 \"ronginusu_0002\"\n@ロンギヌス\nあ、あの…それは…\n\n# serif 0\n# chara 301811\n# voice 3018 \"forcas_0009\"\n@フォルカス\nあなたの判断が遅いせいで、\n犠牲者が出てしまう事もあるのですよ\n\n# serif 1\n# chara 300111\n# voice 3001 \"ronginusu_0015\"\n@ロンギヌス\nは、はぃ…\n\n# serif 1\n# chara 300111\n# face 300111 \"sad\"\n# voice 3001 \"ronginusu_0037\"\n@ロンギヌス\nでも…私は…\nできれば余計な戦いは…\n避けたいんです…\n\n# serif 0\n# chara 301811\n# face 301811 \"normal\"\n# voice 3018 \"forcas_0013\"\n@フォルカス\n…余計？\n\n# serif 1\n# chara 300111\n# face 300111 \"surprise\"\n# voice 3001 \"ronginusu_0024\"\n@ロンギヌス\nあっ、いえっ！\n今日の戦闘が\n余計だったという意味じゃなく…\n\n# serif 0\n# chara 301811\n# voice 3018 \"forcas_battle_0005\"\n@フォルカス\n民間人の命を救えた今日の戦いを…\nあなたは…\n\n# serif 1\n# chara 300111\n# face 300111 \"sad\"\n# voice 3001 \"ronginusu_unit_1006\"\n@ロンギヌス\nご、ごめんなさい…！\nそういう意味じゃなくて…\n私自身の…臆病な心が…\n\n# serif 0\n# chara 301811\n# face 301811 \"sad\"\n# voice 3018 \"forcas_battle_0006\"\n@フォルカス\n…ずっと、あなたが…\n好きになれなかった…\n\n# serif 1\n# chara 300111\n# face 300111 \"surprise\"\n# voice 3001 \"ronginusu_0022\"\n@ロンギヌス\n…え？\n\n# serif 0\n# chara 301811\n@フォルカス\n“聖槍”と呼ばれる程の\n清き大きな力を持ちながら、\nいつもおどおどと自信なさげに…\n\n# serif 0\n# chara 301811\n@フォルカス\n悪魔の槍として生まれた私は…\nずっとあなたが…恨めしかった\n\n# serif 1\n# chara 300111\n# voice 3001 \"ronginusu_unit_2007\"\n@ロンギヌス\nそ、そんな…\n\n# serif 0\n# chara 301811\n@フォルカス\n最近は穏やかになったつもりで\nいたけど…ロンギヌス…\nあなたの前では…\n\n# serif 0\n# chara 301811\n# face 301811 \"usual\"\n# voice 3018 \"forcas_battle_0006\"\n@フォルカス\n私は悪魔に戻ります…！\n\n# textflame 0 0\n@\n険しい目つきになり、\nフォルカスが槍を構えた\nそう、悪魔の槍を…\n\n# textflame 1 1\n# serif 0\n# chara 301811\n# voice 3018 \"forcas_0032\"\n@フォルカス\nこれは…“聖槍”と“魔槍”…\nどっちが正しいかを決める戦いです！\n\n# serif 1\n# chara 300111\n# face 300111 \"surprise\"\n# voice 3001 \"ronginusu_0011\"\n@ロンギヌス\nフォ、フォルカスさん…\nやめてください！"
	}
]