[
	{
		"ID": 4000402,
		"script": "# script \"lisp\"\n# background \"wild\"\n# bgm \"bgm102\" 0\n# body 500211\n# scale 500211 0.9 0\n# pos 500211 5\n# body 501711\n# scale 501711 0.9 0\n# pos 501711 1\n# textboxarrow 0 1\n# serif 0\n# chara 501711\n# face 501711 \"angry\"\n# voice 5017 \"grimoire_0012\"\n@グリモワール\n何が魔弾よ！やっぱり、\nぜんっぜんダメじゃない！？\n\n# serif 1\n# chara 500211\n# textboxarrow 1 3\n# face 500211 \"sad\"\n# voice 5002 \"furaikugeru_unit_1011\"\n@フライクーゲル\nはぁ…はぁ…はぁ…\n今のは…ミステイク…\nしちゃったよ…\n\n# serif 0\n# chara 501711\n# voice 5017 \"grimoire_0010\"\n@グリモワール\nもう、さっさと諦めなさい！！\n\n# serif 1\n# chara 500211\n# voice 5002 \"furaikugeru_0015\"\n@フライクーゲル\nはぁ…はぁ…ネヴァーギバップ！\nお願い！わたしに…\nワンモアチャンスを…！！\n\n# serif 0\n# chara 501711\n# face 501711 \"sad\"\n# voice 5017 \"grimoire_0015\"\n@グリモワール\n…なんで、そんなにがんばれるわけ？\n\n# serif 1\n# chara 500211\n# voice 5002 \"furaikugeru_0008\"\n@フライクーゲル\n決まってんでしょ…\nキミみたいな強い子が\n出てきてんのに…わたしだけ…\n\n# serif 1\n# chara 500211\n# face 500211 \"normal\"\n@フライクーゲル\n立ち止まってらんない！\n\n# serif 1\n# chara 500211\n# face 500211 \"happy\"\n# voice 5002 \"furaikugeru_kyara_1014\"\n@フライクーゲル\nわたしも…\nマスターの目指す平和な世界のため…\nアプディトしないとね！\n\n# serif 0\n# chara 501711\n# face 501711 \"normal\"\n# voice 5017 \"grimoire_battle_0005\"\n@グリモワール\n…！\n\n# serif 0\n# chara 501711\n# voice 5017 \"grimoire_0029\"\n@グリモワール\nキミって…\nただのハッピーバカじゃないんだね\n少し…見直したわ\n\n# serif 1\n# chara 500211\n# face 500211 \"normal\"\n# voice 5002 \"furaikugeru_0008\"\n@フライクーゲル\nノン、ノン、ノン！\n\n# serif 0\n# chara 501711\n# face 501711 \"usual\"\n# voice 5017 \"grimoire_0022\"\n@グリモワール\n…え？\n\n# serif 1\n# chara 500211\n# voice 5002 \"furaikugeru_0020\"\n@フライクーゲル\nハッピーじゃなくて…\nヘァピィ！…ね？\n\n# serif 0\n# chara 501711\n# voice 5017 \"grimoire_0007\"\n@グリモワール\n…ふっ…\n立ってるのもやっとのくせに\n強がっちゃって…\n\n# serif 0\n# chara 501711\n# face 501711 \"normal\"\n# voice 5017 \"grimoire_0009\"\n@グリモワール\nでも、だから、なに？\n手加減はしないわよ！\n\n# serif 1\n# chara 500211\n# face 500211 \"happy\"\n# voice 5002 \"furaikugeru_0032\"\n@フライクーゲル\nＯＫ！それでこそ…\nプライスレスな\n勝利になるから！"
	}
]