[
	{
		"ID": 40013301,
		"script": "# script \"lisp\"\n# background \"foot_mountain_village\"\n# bgm \"bgm004\" 0\n# body 400131\n# mask 400131 off\n# pos 400131 3\n# face 400131 \"nutual\"\n# textboxarrow 0 2\n# chara 400131\n@アルテミス\nふぅ…\nやっぱり満月の夜が一番落ち着くわ…\n\n# voice 4001 \"arutemisu_0004\"\n# chara 400131\n@アルテミス\nねぇ、聞いて？\n今日の任務はとっても大変だったの…\nとっても過酷な…辛い戦闘だった…\n\n# face 400131 \"sad\"\n# chara 400131\n@アルテミス\nでも、\n今夜は満月だって分かってたから\n絶対あなたと一緒に月を見ようって…\n\n# voice 4001 \"arutemisu_0024\"\n# chara 400131\n@アルテミス\n早くあなたを抱きしめたい…\n思いっきり甘えたい…\nそう思ってたのよ？\n\n# chara 400131\n@アルテミス\n…イヤ！２人きりの時は、\n戦いの話はしないで？\n\n# chara 400131\n@アルテミス\n明日、死ぬかも知れない…\n今度は…いつ、２人になれるか\nわからないんだから…ね？　\n\n# face 400131 \"angry\"\n# chara 400131\n@アルテミス\n今…この時を大切に…\n…！\n何奴！？\n\n#se \"SE_4301\"\n\n# face 400131 \"surprise\"\n# bgm \"bgm006\" 0\n# voice 4001 \"arutemisu_0025\"\n# chara 400131\n@アルテミス\nマ…マスター？\nも、申し訳ありません！\n思わず、矢を放ってしまいました！\n\n# chara 400131\n@アルテミス\nあ、当たっていません…よね？\nホッ…良かった\n\n# face 400131 \"nutual\"\n# voice 4001 \"arutemisu_0001\"\n# chara 400131\n@アルテミス\n…で？いつから、そちらに\nいらしたんでしょうか？\n\n# chara 400131\n@アルテミス\nそして、どのあたりから話を\n聞いていました？\n\n# voice 4001 \"arutemisu_0009\"\n# chara 400131\n@アルテミス\nトボけないで下さい\n…しらを切っても無駄です\n\n# textflame 0 0\n@\nマスターに対して、アルテミスは\n極めて冷静に、かつ丁寧に言葉を紡ぐ\n\n# textflame 0 0\n@\nその瞳の奥には、恐ろしい怒気と、\n儚げな不安が入り交じっていた"
	}
]