[
	{
		"ID": 40045202,
		"script": "# script \"lisp\"\n# background \"lake\"\n# bgm \"bgm002\" 0\n# body 400451\n# mask 400451 off\n# pos 400451 3\n# textboxarrow 0 2\n# voice 4004 \"erosu_0004\"\n# face 400451 \"happy\"\n# textflame 1 1\n@エロース\nどうですか、マスター？\nエロースのニュー装備？\n\n# textflame 0 0\n@\nあっけらかんとした表情で、\n水着姿をマスターに見せ続ける\nエロース\n\n# textflame 1 1\n# chara 400451\n@エロース\n街で買った時、店員さんが\n「攻撃力は絶大！」と\n言ってました\n\n# voice 4004 \"erosu_0040\"\n@エロース\n確かに動きやすいし、\n攻撃しやすそう！\nね？マスター♪\n\n# chara 400451\n# voice 4004 \"erosu_0005\"\n@エロース\nほら、こんな動きや、\nこんな動きも出来ちゃいますぅ♪\n\n# textflame 0 0\n@\nと、いろんなポージングを\n見せる彼女\n\n# select \"それは攻撃力の意味が違うよ…\" \"select_label_01\" \"確かに、とてつもない攻撃力だ…\" \"select_label_02\" \"でも防御力は下がったんじゃ……\" \"select_label_03\"\nと、いろんなポージングを\n見せる彼女\n\n# textflame 1 1\n# label \"select_label_01\"\n# labeljump \"select_label_end\"\n# chara 400451\n# face 400451 \"surprise\"\n@エロース\nあら？どういうことですか？\n\n# textflame 1 1\n# label \"select_label_02\"\n# labeljump \"select_label_end\"\n# chara 400451\n# face 400451 \"happy\"\n@エロース\nですよね？やったぁ♪\n\n# textflame 1 1\n# label \"select_label_03\"\n# labeljump \"select_label_end\"\n# chara 400451\n# face 400451 \"surprise\"\n@エロース\nそんな事ないですよぉ、動きやすいし\n\n# label \"select_label_end\"\n# chara 400451\n# face 400451 \"happy\"\n@エロース\nほんと、いい買い物しましたぁ\n\n# chara 400451\n# voice 4004 \"erosu_0006\"\n@エロース\nこれで、この夏は\nエロースの大活躍\n間違いなしですね！？\n\n# textflame 0 0\n@\n嬉しそうな彼女\n\n# textflame 1 1\n# chara 400451\n# voice 4004 \"erosu_0009\"\n# face 400451 \"sad\"\n@エロース\nでも…\n\n# chara 400451\n@エロース\n動き易くなったのはいいけど、\nそれだけじゃなにか決め手に\n欠けるような…\n\n# textflame 0 0\n@\nと、素早く動いて見せる彼女\nその度に「ぶるん！」と揺れる\n大きな胸…\n\n# textflame 1 1\n# chara 400451\n# face 400451 \"normal\"\n@エロース\nね？マスター\nどう思います？\n\n# textflame 0 0\n@\nいや、決め手充分ですよ…\nクラクラしっ放しのマスターだった"
	}
]