[
	{
		"ID": 40044201,
		"script": "# script \"lisp\"\n# background \"004_outland\"\n# bgm \"bgm003\" 0\n# body 400441\n# mask 400441 off\n# pos 400441 3\n# textboxarrow 0 2\n# voice 4004 \"erosu_0001\"\n# chara 400441\n@エロース\nマスター…\nちょっとよろしいですかぁ？\n\n# voice 4004 \"erosu_0022\"\n# chara 400441\n@エロース\nえ？相談…？\nまぁ…相談といえば…\n相談かも…\n\n# chara 400441\n@エロース\nなんの相談かと言いますと…\n\n# voice 4004 \"erosu_0034\"\n# chara 400441\n@エロース\n“恋”の相談です！\n\n# face 400441 \"sad\"\n# chara 400441\n@エロース\n実は…好きな人がいるけど…\nうまく伝えられない子がいて…\nどうしたものかと…\n\n# chara 400441\n@エロース\nえ？いや…同じ隊っていうか…\nまぁ…そんなようなものです\n\n# chara 400441\n@エロース\n…で！その子は想いを打ち明けられず\n悩んでいるんですぅ…\n毎日、毎日…苦しんでいるんですぅ…\n\n# voice 4004 \"erosu_0015\"\n\n# chara 400441\n@エロース\nマスター…\nどうしたらいいと思いますか…？\n\n# voice 4004 \"erosu_0014\"\n# chara 400441\n@エロース\nた…確かに以前、\n恋の応援団長を卒業するとは\n言いましたけど…！\n\n# face 400441 \"sad2\"\n# voice 4004 \"erosu_0024\"\n# chara 400441\n@エロース\nい、いいじゃないですか、別に！\nそれより答えを教えて下さいッ！！\n\n# face 400441 \"sad\"\n# voice 4004 \"erosu_0003\"\n# chara 400441\n@エロース\n飾らず…正直に…ですね？\nなるほど！\n\n# chara 400441\n@エロース\nそ…そりゃぁ恋の応援団長ですから、\nそれくらいのアドバイス、\n“人になら”できますけど…\n\n# face 400441 \"worry\"\n# shake 1 1\n# textwindow \"toge\"\n# textboxarrow 0 0\n# textsize 28\n# voice 4004 \"erosu_0008\"\n# chara 400441\n@エロース\n…あ、い、いや！\nな、なんでもありませんッ！！\n\n# textwindow \"nomal\"\n# textboxarrow 0 2\n# textsize 24\n# textflame 0 0\n@\n突然、焦りだし、\n走り去ってしまったエロース\n\n# textflame 1 0\n# chara 400441\n@エロース\nうぅ…そりゃ人にならアドバイス\nできますけど…\n\n# chara 400441\n@エロース\n自分のこととなると…\nどうしていいか分からなく\nなるんですよぉ…もぉ！\n\n# voice 4004 \"erosu_0028\"\n\n# chara 400441\n@エロース\n人の恋愛の応援は\n得意だったのになぁ…\nはぁ…\n\n# voice 4004 \"erosu_0027\""
	}
]