[
	{
		"ID": 40062303,
		"script": "\"# script \"lisp\"\n# background \"plain_night\"\n# bgm \"bgm003\" 0\n# body 400623\n# mask 400623 off\n# pos 400623 3\n# textboxarrow 0 2\n# textflame 1 0\n# voice 4006 \"azusa_0025\"\n# chara 400623\n# face 400623 \"angry\"\n@梓弓\nなっ！\nなんという\n罰当たりなことを…！！\n\n# select \"占いや、まじないは素晴らしい…でも\" \"select_label_01\" \"信じすぎて変えようとしないのって…\" \"select_label_02\" \"神頼みばかりじゃなにも変わらないよ\" \"select_label_03\"\nなっ！\nなんという\n罰当たりなことを…！！\n\n# label \"select_label_01\"\n# labeljump \"select_label_end\"\n# textflame 1 0\n# chara 400623\n# face 400623 \"worry\"\n@梓弓\nマスターのおっしゃりたいことは\n分かります…\n\n# label \"select_label_02\"\n# labeljump \"select_label_end\"\n# textflame 1 0\n# chara 400623\n# face 400623 \"surprise\"\n@梓弓\n！！\n確かに…そうかも知れませぬ…\n\n# label \"select_label_03\"\n# labeljump \"select_label_end\"\n# textflame 1 0\n# chara 400623\n# face 400623 \"sad\"\n@梓弓\n！！\n盲信であったと…\n\n# textflame 1 0\n# face 400623 \"worry\"\n# label \"select_label_end\"\n# voice 4006 \"azusa_0013\"\n@梓弓\nしかし…いくらあなた様といえど\nこのような行為は…\n\n# textflame 1 0\n# face 400623 \"surprise\"\n# voice 4006 \"azusa_kyara_1013\"\n@梓弓\nっ！？\nこ…これは…\n\n# textflame 1 0\n# face 400623 \"surprise\"\n@梓弓\n陶器が割れて…\nまた新しい運勢が…\n\n# textflame 1 0\n# face 400623 \"surprise\"\n@梓弓\nわたくし達の前途が多難なことに\n変わりはないのですが…\n\n# textflame 1 0\n# face 400623 \"surprise\"\n@梓弓\nしかし、その先には…\n明るい“光”が待っていると…\n\n# textflame 1 0\n# face 400623 \"surprise\"\n# voice 4006 \"azusa_0003\"\n@梓弓\n…………光\n\n# textflame 0 0\n@\n彼女が呟いた次の瞬間だった\n\n# textflame 1 0\n# face 400623 \"surprise\"\n#BGM \"bgm000\"\n# voice 4006 \"azusa_0039\"\n@梓弓\n…！！\n\n# textflame 0 0\n@\n気がつくと、\n辺り一面に広がる\n無数の光\n\n# textflame 1 0\n# face 400623 \"surprise\"\n@梓弓\nこれは…\n\n# textflame 1 0\n# face 400623 \"surprise\"\n@梓弓\nホタル…\nまさか、なぜこのような時期に…\n\n# textflame 1 0\n# face 400623 \"surprise\"\n@梓弓\nこれが…奇跡？\n奇跡は起こると…？\n強く信じてさえいれば…\n\n# textflame 1 0\n# face 400623 \"normal\"\n# voice 4006 \"azusa_kyara_1010\"\n@梓弓\nマスター…\n\n# textflame 1 0\n# face 400623 \"normal\"\n@梓弓\nわたくしも…\n信じてみようと思います…\n\n# textflame 0 0\n@\n梓弓がそっとホタルを掴まえた\n\n# textflame 0 0\n@\nそれはまさしく、\n彼女が新たなるスキルに\n目覚めた瞬間だった\n\n# textflame 1 0\n# face 400623 \"normal\"\n@梓弓\n新奥義の極意…\n『蛍火光臨の弓』！！\n#se \"SE_0602\"\n\n# textflame 1 0\n# face 400623 \"normal\"\n@梓弓\nこの先、どのような困難が\n待っていようと…\nマスターと一緒なら信じられます\n\n# textflame 1 0\n# face 400623 \"normal\"\n@梓弓\n明るい…光溢れる未来を！\n\n# textflame 1 0\n# face 400623 \"happy\"\n@梓弓\nあなた様と歩む未来\nきっと楽しいのでしょうね\n\n# imageset 0 \"c400621\"\n# imagealpha 0 0 0\n# textflame 1 0\n# face 400623 \"happy\"\n@梓弓\nあなた様と…二人でなら \n# voice 4006 \"azusa_0007\"\n\n# imagealpha 0 1 0\n# imagepos 0 0 0\n# voice 4006 \"azusa_kyara_0018\"\n# fadein \"white\" 3\n# textwindow \"close\"\n\n# textwindow \"nomal\"\n# textflame 0 0\n@\nホタルの光に照らされたその笑顔は\n神々しいまでに美しかった\"\n"
	}
]