[
	{
		"ID": 4100113,
		"script": "# script \"lisp\"\n# background \"antiquity\"\n# bgm \"bgm002\" 0\n# body 501311\n# body 401111\n# pos 501311 2\n# pos 401111 4\n# textboxarrow 0 1\n# voice 5013 \"homura_0013\"\n# chara 501311\n# face 501311 \"amazed\"\n@暁美ほむら\n私を…救う…？\n\n# textboxarrow 0 3\n# voice 4011 \"madoka_0003\"\n# chara 401111\n# face 401111 \"usual\"\n@鹿目まどか\nそうよ\n\n# textboxarrow 0 1\n# voice 5013 \"homura_0014\"\n# chara 501311\n# face 501311 \"sad\"\n@暁美ほむら\n魔法少女として戦うつもり…？\nでも、そうなったら…！\n\n# textboxarrow 0 3\n# voice 4011 \"madoka_0003\"\n# chara 401111\n@鹿目まどか\nほむらちゃん、\nいつか言ってくれたよね？\n\n# textboxarrow 0 1\n# chara 501311\n@暁美ほむら\n…………\n\n# textboxarrow 0 3\n# chara 401111\n@鹿目まどか\n貴女はいつだって自分を犠牲にして…\n自分を粗末にしないで貴女を大切に\n思う人のことも考えて…って…\n\n# textboxarrow 0 1\n# voice 5013 \"homura_0018\"\n# chara 501311\n# face 501311 \"angry\"\n@暁美ほむら\nそうよ…だって、それは…！\n私はあなたが…！\n\n# textboxarrow 0 3\n# voice 4011 \"madoka_0003\"\n# chara 401111\n@鹿目まどか\n私もおんなじ\n\n# textboxarrow 0 1\n# voice 5013 \"homura_0022\"\n# chara 501311\n# face 501311 \"surprise\"\n@暁美ほむら\n…え？\n\n# textboxarrow 0 3\n# voice 4011 \"madoka_0015\"\n# chara 401111\n@鹿目まどか\n私も…ほむらちゃんが\n自分を犠牲にするようなことは\nしてほしくない\n\n# textboxarrow 0 1\n# voice 5013 \"homura_0037\"\n# chara 501311\n# face 501311 \"sad\"\n@暁美ほむら\n…っ！！\n\n# textboxarrow 0 3\n# chara 401111\n@鹿目まどか\n私もほむらちゃんのこと…\n大切に思ってるから\n\n# textboxarrow 0 1\n# chara 501311\n@暁美ほむら\nま…まどか…\n\n# textflame 0 0\n@\nほむらの目に涙が光った\n\n# textflame 1 1\n# textboxarrow 0 3\n# voice 4011 \"madoka_0004\"\n# chara 401111\n# face 401111 \"happy\"\n@鹿目まどか\nだから、きっと大丈夫！\n\n# textboxarrow 0 1\n# chara 501311\n@暁美ほむら\nで…でも…！\n\n# select \"みんなで力を合わせれば！\" \"select_label_01\" \"心強い仲間がいるから！\" \"select_label_02\" \"みんな、魔法少女の仲間だよ！\" \"select_label_03\"\nで…でも…！\n\n# label \"select_label_01\"\n# labeljump \"select_label_end\"\n# chara 501311\n@暁美ほむら\nっ！\nあ…あなた達…\n\n# label \"select_label_02\"\n# labeljump \"select_label_end\"\n# chara 501311\n@暁美ほむら\nっ！\n仲間…\n\n# label \"select_label_03\"\n# labeljump \"select_label_end\"\n# chara 501311\n@暁美ほむら\nっ！\nいつの間に…\n\n# label \"select_label_end\"\n# textflame 0 0\n@\nほむらが振り返ると、\nそこには二人を見つめる\n大勢のキラープリンセスが…\n\n# textflame 1 1\n# textboxarrow 0 3\n# voice 4011 \"madoka_0003\"\n# chara 401111\n# face 401111 \"usual\"\n@鹿目まどか\n大丈夫！\nもう、ほむらちゃん一人が、\n辛い思いをしなくていいの\n\n# textboxarrow 0 3\n# chara 401111\n@鹿目まどか\nここには、\nこんなにたくさんの仲間がいる\n\n# textboxarrow 0 3\n# voice 4011 \"madoka_0020\"\n# chara 401111\n@鹿目まどか\n一人でがんばらなくても…\n全部、分かち合えるんだよ！\n\n# textboxarrow 0 3\n# voice 4011 \"madoka_0020\"\n# chara 401111\n@鹿目まどか\nそれに、みんなすごく強いんだから！\nだから、ほむらちゃん…\n\n# textboxarrow 0 1\n# voice 5013 \"homura_0034\"\n# chara 501311\n@暁美ほむら\n私を…許してくれるの…？\nあなた達と敵対した…\nこんな私を…\n\n# textflame 0 0\n@\nうなずくマスター\nキラープリンセス達\n\n# textflame 1 1\n# textboxarrow 0 3\n# voice 4011 \"madoka_0042\"\n# chara 401111\n@鹿目まどか\nほむらちゃん…\n戦お…みんなと一緒に\n\n# textflame 0 0\n@\nほむらに手を差し出すまどか\n\n# textflame 1 1\n# textboxarrow 0 1\n# voice 5013 \"homura_0003\"\n# chara 501311\n# face 501311 \"happy\"\n@暁美ほむら\n…う…うん！\n\n# textflame 0 0\n@\n握り合った二人の手から、\n神々しい光が放たれた\n\n# textflame 1 1\n# textboxarrow 0 3\n# chara 401111\n@鹿目まどか\n二人の魔法が合わされば…\nきっと勝てる！\n\n# se \"SE_0602\"\n# textboxarrow 0 3\n# chara 401111\n# face 401111 \"happy\"\n@鹿目まどか\nこれは私達二人の新しい力…\n『約束の光』だよ！\n\n# textflame 0 0\n@\nそれはまさしく、\n二人が新たなるスキルに\n目覚めた瞬間だった\n\n# textflame 1 1\n# textboxarrow 0 1\n# voice 5013 \"homura_0005\"\n# chara 501311\n@暁美ほむら\nわかったわ、まどか…\n私も…信じてみる…\n仲間を…！\n\n# textflame 0 0\n@\nほむらの目に、\n明るい光が差し始めた\n\n# textflame 1 1\n# textboxarrow 0 1\n# chara 501311\n@暁美ほむら\nだから、ずっと…\n\n# textboxarrow 0 3\n# voice 4011 \"madoka_0003\"\n# chara 401111\n@鹿目まどか\nうん…ずっと…\n一緒だよ\nいつまでも…\n\n# imageset 0 \"c_401111_501311\"\n# imagealpha 0 0 0\n# voice 5013 \"homura_0005\"\n# serif 0\n# textboxarrow 0 1\n# chara 501311\n@暁美ほむら\n約束だからね…\n\n# imagealpha 0 1 0\n# imagepos 0 0 0 \n# fadein \"white\" 3\n# voice 5013 \"madoka_kyara_0015\"\n# textwindow \"close\"\n\n# textwindow \"nomal\"\n# textflame 0 0\n@\n寄り添い合う二人\n最強の魔女・ワルプルギスの夜は、\nもうそこまで迫っていた…"
	}
]