[
	{
		"ID": 413020133,
		"script": ";;3_3\n# script \"lisp\"\n# background \"201_border\"\n# bgmfile \"bgm291\" \"BgmLostRagnarokSideStory\" 0\n# textwindow \"nomal\"\n# body 3201911\n# pos 3201911 3\n# scale 3201911 0.8 0\n# alpha 3201911 0 0\n# mask 3201911 off\n# body 3301811\n# pos 3301811 3\n# scale 3301811 0.8 0\n# mask 3301811 off\n# face 3301811 \"angry\"\n# entry 32019112 3201911\n# pos 32019112 5\n# scale 32019112 0.8 0\n# alpha 32019112 0 0\n# brightness 32019112 0.6 0\n# entry 32019113 3201911\n# pos 32019113 1\n# scale 32019113 0.8 0\n# alpha 32019113 0 0\n# brightness 32019113 0.7 0\n# body 3820001\n# pos 3820001 3\n# scale 3820001 0.8 0\n# alpha 3820001 0 0\n# mask 3820001 off\n# layer 3820001 1\n# body 3810001\n# pos 3810001 3\n# scale 3810001 0.8 0\n# alpha 3810001 0 0\n# layer 3810001 1\n# entry 38100012 3810001\n# pos 38100012 1\n# scale 38100012 0.8 0\n# alpha 38100012 0 0\n# entry 38100013 3810001\n# pos 38100013 5\n# scale 38100013 0.8 0\n# alpha 38100013 0 0\n# imageset 4 \"c3201911\"\n# imagealpha 4 0 0\n# imagelayer 4 5\n# textflame 1 1\n# textboxarrow 0 2\n# voice 330181 \"forcas_t_0029\"\n@フォルカス\nこれでトドメだ、シユウ！\n\n# se \"SE_10437\"\n# envbody 1000 6 0\n# effectstart 1000\n# textsize 23\n# textflame 0 0\n@\nそれはこの世のどの色よりも赤き炎―\n\n# textflame 0 0\n@\n舞うはウリエルの白き翼―\n\n# textflame 0 0\n@\n構えられしは銀に輝く鋭き槍―\n\n# textflame 0 0\n@\n天空まで舞い上がりし神の炎は\n高き目線で焦がすべき対象を捉え…\n\n# se \"SE_9118\"\n# imageset 3 \"black\"\n# imagealpha 3 0 0\n# imagelayer 3 1\n# textflame 0 0\n@\n一気に下降する！\n\n# textwindow \"close\"\n# leftout 3301811 0.3\n# waitandnext 0.3\n\n# imagealpha 3 1 0\n# imagepos 3 0 30\n# imageleftin 3 0.5\n# textwindow \"close\"\n# waitandnext 0.5\n\n# move 3301811 4 0\n# alpha 3301811 0 0\n# alpha 3201911 1 0\n# mask 3301811 on\n# waitandnext 0.5\n\n# imagealpha 3 0 0.5\n# imagerightout 3 0.5\n# waitandnext 0.5\n\n# textwindow \"nomal\"\n# textflame 0 0\n@\n…だが\n\n# textflame 1 1\n# textboxarrow 0 2\n# voice 320191 \"chihyu_a_0005\"\n@シユウ\nふはははははっ！\nわかってる、しってるぞぉぉぉ！\nそのわざはぁぁぁっ！\n\n# textwindow \"close\"\n# alpha 3301811 1 0\n# rightin 3301811 0.3\n# face 3201911 \"usual\"\n# waitandnext 0.1\n\n# se \"SE_5255\"\n# face 3301811 \"surprise\"\n# move 3201911 1 0.2\n# waitandnext 0.1\n\n# alpha 3201911 0 0.3\n# waitandnext 0.3\n\n;;シユウの固有演出を描写しています\n# textwindow \"nomal\"\n# textflame 0 0\n@\nフォルカスの目の前から\n赤く色の点った目の残像とともに\nシユウの姿は消えた\n\n;;以下、シユウの立ち絵を左右交互に出しながら\n# imagealpha 3 1 0\n# imagepos 3 0 30\n# imageleftin 3 0.5\n# textwindow \"close\"\n# waitandnext 0.5\n\n# se \"SE_5255\"\n# effectskip 1000\n# move 3301811 3 0\n# alpha 3301811 0 0\n# alpha 3201911 1 0\n# scale 3201911 0.6 0\n# scale 32019112 0.7 0\n# scale 32019113 0.8 0\n# mask 3301811 off\n# brightness 3201911 0.5 0\n# face 3201911 \"angry\"\n# waitandnext 0.5\n\n# imagealpha 3 0 0.5\n# imagerightout 3 0.5\n# waitandnext 0.5\n\n# textwindow \"nomal\"\n# textflame 1 1\n# textboxarrow 0 1\n@シユウ\nざんねんだったなぁっ！\n\n# se \"SE_5255\"\n# alpha 3201911 0 1\n# alpha 32019112 1 0.8\n# textflame 1 1\n# textboxarrow 0 3\n@シユウ\nこっちだぁぁっ！\n\n# se \"SE_5255\"\n# move 3201911 3 0\n# alpha 32019113 1 0.8\n# alpha 32019112 0 1\n# textflame 1 1\n# textboxarrow 0 1\n@シユウ\nこっちだぁぁぁぁっ！\n\n# imagepos 4 0 0\n# imagescale 4 3 0\n# se \"SE_5255\"\n# brightness 3201911 1 0\n# brightness 32019112 0.8 0\n# scale 3201911 1 0\n# scale 32019112 0.9 0\n# alpha 32019113 0 1\n# alpha 32019112 1 0.8\n# textflame 1 1\n# textboxarrow 0 3\n@シユウ\nこっちだあああああぁぁぁぁぁっ！\n\n# imagealpha 4 1 0.3\n# imagescale 4 1 0.3\n# fadein \"black\" 0.5\n# se \"SE_5206\"\n# textflame 0 0\n@\n気づくとフォルカスの目の前に\nシユウの姿があった\n\n# alpha 32019112 0 0\n# alpha 3201911 1 0\n# textflame 1 1\n# textboxarrow 0 2\n@シユウ\nぶっつぶすぞおおおおぉぉぉぉぉっ！\n\n# se \"SE_4100\"\n# textflame 0 0\n@\n青き軌跡とともに\n斧が一気に降り下ろされる！\n\n# subfillrect 1 \"black\" 0.5 0 1\n# waitandnext 0.5\n\n# imagealpha 4 0 0\n# scale 3201911 0.8 0\n# se \"SE_4601\"\n# effectbody 700 1 0 0 7\n# effectstart 700\n# alpha 3301811 1 0\n# alpha 3201911 0 0\n# move 3301811 3 0\n# waitandnext 0.3\n\n# subfillrect 1 \"black\" 0.5 1 0\n# waitandnext 0.3\n\n# shake 1 0.5\n# textflame 1 1\n# face 3301811 \"sad\"\n# textboxarrow 0 2\n# voice 330181 \"forcas_t_battle_0006\"\n@フォルカス\nぐぅっ！\n\n# alpha 3301811 0 0.5\n# alpha 3201911 1 0.5\n# face 3201911 \"usual\"\n# textflame 1 1\n# textboxarrow 0 2\n# voice 320191 \"chihyu_a_battle_0005\"\n@シユウ\nぐぬぬぬぬ…\nなんでとめるんだぁっ！\nもうちょっと、ちょっとだったぁっ！\n\n# alpha 3301811 1 0.5\n# alpha 3201911 0 0.5\n# face 3301811 \"normal\"\n# textflame 1 1\n# textboxarrow 0 2\n# voice 330181 \"forcas_t_battle_0005\"\n@フォルカス\nく、いつもより重い一撃…\n確かに、気合いが違うようです\n\n# alpha 3301811 0 0.5\n# alpha 3201911 1 0.5\n# face 3201911 \"angry\"\n# textflame 1 1\n# textboxarrow 0 2\n@シユウ\nくいものもらえるからな！\nほんきだ！！\n\n;;時間経過\n# textwindow \"close\"\n# fadeout \"black\" 1\n# waitandnext 1\n\n# move 3201911 2 0\n# move 3301811 4 0\n# mask 3301811 on\n# mask 3201911 on\n# alpha 3301811 1 0\n# waitandnext 0.1\n\n# fadein \"black\" 1\n# waitandnext 1\n\n# textwindow \"nomal\"\n# textflame 1 1\n# textboxarrow 0 3\n@フォルカス\nはぁはぁ…！\n\n# textflame 1 1\n# textboxarrow 0 1\n# voice 320191 \"chihyu_a_0038\"\n@シユウ\nぐ、ぐぐぐぐぐぅ…！\n\n# alpha 3301811 0 0.5\n# alpha 3201911 0 0.5\n# alpha 3820001 1 0.5\n# textflame 1 1\n# textboxarrow 0 2\n# voice 382000 \"demon_0026\"\n@ケイオスリオン兵\nや、やはり強い…！\nあの強さはハルモニアであればこそと\n思っていたが…\n\n# textflame 1 1\n# textboxarrow 0 2\n@ケイオスリオン兵\nしかし、今のシユウなら…\n\n# alpha 3820001 0 0.5\n# alpha 3810001 1 0.5\n# textflame 1 1\n# textboxarrow 0 2\n# voice 381000 \"angel_battle_0005\"\n@ハルモニア兵\n…く\n\n;;ハルモニア兵がシユウに襲いかかる\n# textflame 1 1\n# textboxarrow 0 2\n# voice 381000 \"angel_0029\"\n@ハルモニア兵\nフォルカス様ぁぁぁぁっ！\n\n# textwindow \"close\"\n# rightout 3810001 0.5\n# waitandnext 0.5\n\n# imagealpha 3 1 0\n# imagepos 3 0 30\n# imageleftin 3 0.5\n# textwindow \"close\"\n# waitandnext 0.5\n\n# alpha 3810001 0 0\n# alpha 3301811 1 0\n# alpha 3201911 1 0\n# waitandnext 0.5\n\n# imagealpha 3 0 0.5\n# imagerightout 3 0.5\n# waitandnext 0.5\n\n# textwindow \"nomal\"\n# face 3201911 \"surprise\"\n# textflame 1 1\n# textboxarrow 0 1\n# voice 320191 \"chihyu_a_0023\"\n@シユウ\nな、な、な、なんだ！？\n\n# face 3301811 \"surprise\"\n# textflame 1 1\n# textboxarrow 0 3\n@フォルカス\nいけない！\n到底敵う相手じゃない…！\n\n# face 3201911 \"angry\"\n# textflame 1 1\n# textboxarrow 0 1\n# voice 320191 \"chihyu_a_0029\"\n@シユウ\nやるきはみとめてやるぞ！\nがあぁぁぁぁぁぁ！\n\n;;赤フラッシュ\n;;ハルモニア兵立ち絵消し\n# textwindow \"close\"\n# leftout 3201911 0.4\n# waitandnext 0.3\n\n# imagealpha 3 1 0\n# imagepos 3 0 30\n# imagerightin 3 0.5\n# textwindow \"close\"\n# waitandnext 0.5\n\n# alpha 3301811 0 0\n# move 3201911 3 0\n# move 3810001 2 0\n# alpha 3201911 0 0\n# alpha 3810001 0 0\n# waitandnext 0.5\n\n# imagealpha 3 0 0.5\n# imageleftout 3 0.5\n# waitandnext 0.5\n\n# alpha 3201911 1 0\n# alpha 3810001 1 0\n# rightin 3201911 0.3\n# leftin 3810001 0.3\n# waitandnext 0.3\n\n# serif 0\n# textwindow \"normal\"\n# textboxarrow 0 0\n# se \"SE_9083\"\n# fadein \"red\" 0.5\n# shake 0 0.5\n# alpha 3810001 0 0.5\n# reversal 38100013 0\n@ハルモニア兵\nぐわっ！\n\n# alpha 38100012 1 0\n# alpha 38100013 1 0\n# rightin 38100013 0.3\n# leftin 38100012 0.3\n# waitandnext 0.3\n\n# textwindow \"nomal\"\n# textflame 1 1\n# textboxarrow 0 3\n@ハルモニア兵\nわたしも負けてはいられません！\n\n# face 3201911 \"happy\"\n# textflame 1 1\n# textboxarrow 0 2\n@シユウ\nお、なんだなんだ！\nいっぱいいっぱいくるぞっ！\n\n;;赤フラッシュ何回か\n;;ハルモニア兵立ち絵消し\n# textwindow \"close\"\n# se \"SE_9083\"\n# effectbody 701 1 300 0 7\n# effectstart 701\n# effectbody 702 1 -300 0 7\n# effectstart 702\n# waitandnext 0.2\n\n# shake 1 0.5\n# fadein \"red\" 0.5\n# waitandnext 0.3\n\n# se \"SE_3001\"\n# alpha 38100012 0 0.5\n# alpha 38100013 0 0.5\n# waitandnext 0.5\n\n# textwindow \"nomal\"\n# mask 3301811 off\n# move 3301811 3 0\n# alpha 3201911 0 0.5\n# alpha 3301811 1 0.5\n# face 3301811 \"sad\"\n# textflame 1 1\n# textboxarrow 0 2\n# voice 330181 \"forcas_t_0015\"\n@フォルカス\nく、みんな…\nその思い、その勇気\n無駄にはしません！\n\n# face 3301811 \"angry\"\n# textflame 1 1\n# textboxarrow 0 2\n# voice 330181 \"forcas_t_0029\"\n@フォルカス\nであぁぁぁぁぁぁっ！\n\n# se \"SE_9092\"\n# mask 3201911 off\n# fadein \"red\" 0.5\n# shake 0 0.5\n# face 3201911 \"surprise\"\n# alpha 3201911 1 0.5\n# alpha 3301811 0 0.5\n# textflame 1 1\n# textboxarrow 0 2\n# voice 320191 \"chihyu_a_0038\"\n@シユウ\nな、なんだってぇ！？\n\n# move 3810001 3 0\n# alpha 3201911 0 0.5\n# alpha 3820001 1 0.5\n# textflame 1 1\n# textboxarrow 0 2\n# voice 382000 \"demon_battle_0005\"\n@ケイオスリオン兵\nく、このままではベルゼブブが…\n我々も参加を！\n\n;;ハルモニア兵\n;;ザッと壁を作る感じで立ち絵を並べてください\n# textwindow \"close\"\n# alpha 3820001 0 0.5\n# waitandnext 0.5\n\n# alpha 3810001 1 0\n# alpha 38100012 1 0\n# alpha 38100013 1 0\n# leftin 38100012 0.5\n# leftin 3810001 0.5\n# rightin 38100013 0.5\n# waitandnext 1.5\n\n# alpha 3810001 0 0.5\n# alpha 38100012 0 0.5\n# alpha 38100013 0 0.5\n# alpha 3820001 1 0.5\n# textwindow \"nomal\"\n# textflame 1 1\n# textboxarrow 0 2\n@ケイオスリオン兵\n貴様らぁ！！\n\n# alpha 3810001 1 0.5\n# alpha 38100012 1 0.5\n# alpha 38100013 1 0.5\n# alpha 3820001 0 0.5\n# textboxarrow 0 2\n@ハルモニア兵\nここから先、通しはしない！\n\n# alpha 3810001 0 0.5\n# alpha 38100012 0 0.5\n# alpha 38100013 0 0.5\n# alpha 3820001 1 0.5\n# textflame 1 1\n# textboxarrow 0 2\n@ケイオスリオン兵\nええいシユウ、離脱しろ分が悪い！\n撤退だ！\n\n# mask 3201911 off\n# alpha 3820001 0 0.5\n# alpha 3201911 1 0.5\n# textflame 1 1\n# textboxarrow 0 2\n@シユウ\nがあああああああ！\nにげればいいんだろ、にげればあ！\n\n;;時間経過\n# textwindow \"close\"\n# fadeout \"black\" 1\n# waitandnext 1\n\n# alpha 3201911 0 0\n# alpha 3301811 1 0\n# alpha 3810001 1 0\n# move 3810001 2 0\n# move 3301811 4 0\n# face 3301811 \"sad\"\n# waitandnext 0.1\n\n# bgmfile \"bgm273\" \"BgmLostRagnarokEvent\" 0\n# fadein \"black\" 1\n# waitandnext 1\n\n# textwindow \"nomal\"\n# textflame 0 0\n@\nフォルカスはつい先ほどまで\n槍を振るっていた場所に目をやる\n\n# textflame 0 0\n@\n地面には深手を負い、うずくまる\nハルモニア兵の姿があった\n\n# textflame 1 1\n# textboxarrow 0 3\n# voice 330181 \"forcas_t_0018\"\n@フォルカス\n適わぬと最初から\nわかっていたでしょうに\n本当にあなた達は…\n\n# textflame 1 1\n# textboxarrow 0 1\n@ハルモニア兵\nフォルカス様は我が国の\n“ラグナロク”の実現への要\n\n# textflame 1 1\n# textboxarrow 0 1\n@ハルモニア兵\n兵の数がままならない昨今だからこそ\n一騎当千のあなたを\nより失うわけにはいかないのです\n\n# textflame 1 1\n# textboxarrow 0 1\n@ハルモニア兵\nそれに戒律にもこうあります\n友を愛し、友のために戦いなさい\n\n# textflame 1 1\n# textboxarrow 0 3\n@フォルカス\n友か…\n\n# face 3301811 \"sad\"\n# move 3301811 4 0\n# textwindow \"moya\"\n# textflame 1 1\n# textboxarrow 0 0\n@フォルカス\n形勢を変えようと\n身を投げ打ってくれた兵たち…\n\n# textflame 1 1\n# textboxarrow 0 0\n@フォルカス\n戒律のもと散っていった\nこの者達のためにも\n私も戒律と対峙しなければらない…\n\n# textflame 1 1\n# textboxarrow 0 0\n@フォルカス\nミカエル様に仕えるものとして\nそうあるべき…\n\n# textflame 1 1\n# textboxarrow 0 0\n@フォルカス\nだがまずは友のために戦う\nハルモニアに帰還次第、\nヴァナルガンドと話をしなければ\n\n# textflame 1 1\n# serif 0\n# textwindow \"nomal\"\n# textboxarrow 0 1\n@ハルモニア兵\n…フォルカスさま\nお怪我の方は大丈夫ですか\nお手当をいたしましょう\n\n;;モノローグ\n# face 3301811 \"normal\"\n# textflame 0 0\n@\n槍を杖にフォルカスは立ち上がり、\n兵をそっと手で制した\n\n# bgmfile \"bgm271\" \"BgmLostRagnarokEvent\" 0\n# textflame 1 1\n# textboxarrow 0 3\n@フォルカス\n先に伝達を\n後ろの部隊に警戒するよう\n話をしてきなさい\n\n# textflame 1 1\n# textboxarrow 0 3\n@フォルカス\nそしてそのまま先行して\nヴァナルガンドに今回のことを\n報告するように\n\n# textflame 1 1\n# textboxarrow 0 1\n@ハルモニア兵\n…では、ご命令どおりに\n\n# textflame 1 1\n# textboxarrow 0 1\n@ハルモニア兵\nフォルカスさまもお気をつけて\n大天使様のご意思の下に\n\n# face 3301811 \"happy\"\n# textflame 1 1\n# textboxarrow 0 3\n@フォルカス\n大天使様のご意思の下に\n\n;;兵消す\n# alpha 3810001 0 0.5\n# waitandnext 0.5\n\n;;モノローグ\n# move 3301811 3 0.5\n# textflame 0 0\n@\nそう言ってフォルカスは微笑み\n兵の背中を伺うように横目で見た\n\n# textflame 0 0\n@\nと、そこには…\n\n# serif 0\n# textwindow \"close\"\n# face 3301811 \"normal\"\n# serif 1\n@イミテーション\nひ、ひぃ…\nまさか俺たちを追って…！\n\n# serif 1\n@イミテーション\nいやだよ！\nまた擬人区に逆戻りだよ\nごほっ、ごほっ！\n\n# serif 1\n@イミテーション\n大丈夫か！\nほら、布を口にお当て！\n\n# serif 1\n# textwindow \"close\"\n# serif 0\n# textwindow \"nomal\"\n# textflame 1 1\n# textboxarrow 0 2\n# voice 330181 \"forcas_t_0028\"\n@フォルカス\nイミテーションが…\nどうしてここに？\n\n# serif 0\n# textwindow \"close\"\n# serif 1\n@イミテーション\nハルモニアの擬人区から\n逃げてきたんだよ！ \nあの“まやかしの天界”から！\n\n# serif 1\n@イミテーション\nもう少しでケイオスリオンだった\nっていうのに、\nあんたなんてことをしてくれたんだ\n\n# serif 1\n@イミテーション\nそうだよ、\nせっかくあのお姉ちゃんに\nケイオスリオンなら誰でも…\n\n# serif 1\n@イミテーション\n誰でも受け入れてくれるって\n聞いて旅してきたのに！！\n\n# serif 1\n# textwindow \"close\"\n# serif 0\n# textwindow \"nomal\"\n# face 3301811 \"surprise\"\n# textflame 1 1\n# textboxarrow 0 2\n@フォルカス\nこんな戦場に…\nお姉ちゃん…？\n\n# face 3301811 \"angry\"\n# textflame 1 1\n# textboxarrow 0 2\n@フォルカス\nその話、よく聞かせてください…"
	}
]