[
	{
		"ID": 413011053,
		"script": ";;モラベガマルチ_EP2（モラルタ視点）\n;;//背景：研究所\n;;//警告アラーム\n;;//赤フラッシュ点滅\n# script \"lisp\"\n# background \"red_corridor\"\n# bgmfile \"bgm276\" \"BgmLostRagnarokEvent\" 0\n# sedelay \"SE_0710\" 0.5\n;;モラルタ\n# body 3104011\n# pos 3104011 4\n# scale 3104011 0.8 0\n# alpha 3104011 0 0\n# layer 3104011 2\n;;ベガルタ\n# body 3104111\n# pos 3104111 1\n# scale 3104111 0.8 0\n# alpha 3104111 0 0\n# layer 3104111 1\n# face 3104111 \"angry\"\n;;アルマス\n# body 3103811\n# pos 3103811 3\n# scale 3103811 0.8 0\n# alpha 3103811 0 0\n# brightness 3103811 0 0\n# layer 3103811 23\n;;レヴァ\n# body 100211\n# pos 100211 3\n# scale 100211 0.8 0\n# alpha 100211 0 0\n# brightness 100211 0 0\n# layer 100211 23\n;;マサムネ\n# body 100111\n# pos 100111 3\n# scale 100111 0.9 0\n# alpha 100111 0 0\n# brightness 100111 0 0\n# layer 100111 23\n;;ティル\n# body 24\n# pos 24 3\n# scale 24 0.9 0\n# alpha 24 0 0\n# brightness 24 0 0\n# layer 24 23\n# imageset 3 \"bg_white\"\n# imagealpha 3 0 0\n# imagelayer 3 4\n# imagescale 3 2 0\n# serif 0\n# textwindow \"close\"\n# serif 1\n# textwindow \"close\"\n# waitandnext 0.5\n\n# fadeout \"red\" 0.5\n# waitandnext 0.5\n\n# fadein \"red\" 0.5\n# waitandnext 0.5\n\n# waitandnext 0.3\n\n# fadeout \"red\" 0.5\n# waitandnext 0.5\n\n# fadein \"red\" 0.5\n# waitandnext 0.5\n\n# waitandnext 0.3\n\n# voice 1040 \"morallta_battle_0002\"\n# alpha 3104011 1 0.5\n# alpha 3104111 1 0.5\n# serif 0\n# textwindow \"normal\"\n# textflame 1 1\n# textboxarrow 0 3\n# chara 3104011\n@モラ\nそれそれ～♪\nこんな忌々しい実験施設なんて\nぶっ壊しちゃえ～！\n\n# voice 1041 \"beagallta_battle_0004\"\n# textflame 1 1\n# textboxarrow 0 1\n# chara 3104111\n@ベガ\n壊れろ…滅べっ…\nクソクソクソクソ\nクソ忌々しい設備だらけだ！\n\n# serif 1\n# textwindow \"normal\"\n# textboxarrow 1 0\n@研究員\nやめろ！お前達っ…！\nまずい、とても近づけない…\n\n# serif 1\n# textwindow \"normal\"\n# textboxarrow 1 0\n@研究員\n問題ない\n第１７隔壁を閉鎖しろ\nあの二人を分断する\n\n;;//隔壁によってモラルタとベガルタが引き離される\n# se \"SE_5215\"\n# face 3104111 \"surprise\"\n# serif 1\n# textwindow \"close\"\n# serif 0\n# textwindow \"close\"\n# move 3104111 1 0.5\n# alpha 3104111 0 0.5\n# shake 0 0.5\n# waitandnext 1.5\n\n# voice 1040 \"morallta_0022\"\n# face 3104011 \"surprise\"\n# move 3104011 3 0.5\n# serif 0\n# textwindow \"normal\"\n# textflame 1 1\n# textboxarrow 0 2\n# chara 3104011\n@モラ\nあれっ？\nベガ…！？\nベガ、どこに行ったんだよ！？\n\n# serif 1\n# textwindow \"normal\"\n# textboxarrow 1 0\n@研究員\n分断は成功だ\n十分に引き離してから取り押さえろ\n\n# voice 1040 \"morallta_0015\"\n# face 3104011 \"sad\"\n# serif 1\n# textwindow \"close\"\n# serif 0\n# textwindow \"normal\"\n# textflame 1 1\n# textboxarrow 0 2\n# chara 3104011\n@モラ\nベガ！ベガベガベガベガベガ！！\nもう、どこに行ったの！？\nヤだよ！離ればなれは嫌だ！\n\n# voice 1040 \"morallta_0016\"\n# textflame 1 1\n# textboxarrow 0 2\n# chara 3104011\n@モラ\nねえ…返事してよっ\nねえってば！ねえベガぁっ…？\nどこに行っちゃったのぉ…\n\n;;//モラルタが倒れる\n# serif 0\n# textwindow \"close\"\n# alpha 3104011 0 0.5\n# waitandnext 0.3\n\n# se \"SE_3001\"\n# shake 0 0.5\n# waitandnext 1\n\n# serif 0\n# textwindow \"normal\"\n# textflame 1 1\n# textboxarrow 0 0\n# chara 3104011\n@モラ\nベガがいない…\nベガがいないよぉ…！\n\n# textflame 1 1\n# textboxarrow 0 0\n# chara 3104011\n@モラ\n嫌だよ怖いよ\n一人にしないでよぉ…！\n\n# serif 1\n# textwindow \"normal\"\n# textboxarrow 1 0\n@研究員\n所長の狙い通りだ\n元々一つだった物質を二つに分けて\n埋め込まれているから…\n\n# serif 1\n# textwindow \"normal\"\n# textboxarrow 1 0\n@研究員\n一定以上の距離を開けると\nたちまち不安定になる\nこれなら捕縛は簡単だな\n\n# voice 1040 \"morallta_0015\"\n# alpha 3104011 1 0.5\n# serif 0\n# textwindow \"normal\"\n# textflame 1 1\n# textboxarrow 0 2\n# chara 3104011\n@モラ\nお願いだよベガぁ…\nどこにいるのぉ…？\n\n;;//背景：収容所\n# fadeout \"black\" 1.5\n# waitandnext 1.5\n\n# bgm \"bgm004\" 0\n# imageset 1 \"bg_black\"\n# imagealpha 1 0 0\n# imagelayer 1 2\n# imagescale 1 2 0\n# alpha 3104011 0 0\n# mask 3104011 off\n# serif 0\n# textwindow \"close\"\n# background \"006_jail\"\n# waitandnext 0.6\n\n# imagepos 1 0 30\n# serif 1\n# textwindow \"normal\"\n# fadein \"black\" 1\n# textboxarrow 1 0\n@研究員\nお前はここに一人っきりでいろ！\n永遠にな\n\n;;//背景：黒\n# se \"SE_0690\"\n# serif 0\n# textwindow \"close\"\n# serif 1\n# textwindow \"close\"\n# imagealpha 1 1 1\n# shake 0 0.5\n# alpha 3104011 0 0.5\n# waitandnext 1.5\n\n# voice 1040 \"morallta_0038\"\n# serif 0\n# textwindow \"normal\"\n# layer 3104011 23\n# alpha 3104011 1 0.5\n# textflame 1 1\n# textboxarrow 0 2\n# chara 3104011\n@モラ\nあああああああああああああ…！\n苦しいっ…熱いっ…怖いよっ…\n怖いよベガぁっ…！\n\n# voice 1040 \"morallta_0025\"\n# face 3104011 \"angry\"\n# textflame 1 1\n# textboxarrow 0 2\n# chara 3104011\n@モラ\nわたち暗いところ嫌いなのっ…俺？\nいや私だって…違うよボクだよ！\nなに言ってんの、ワタシィィィ…\n\n# face 3104011 \"sad\"\n# textflame 1 1\n# textboxarrow 0 2\n# chara 3104011\n@モラ\n怖い痛い苦しい寂しい\n恐ろしい悲しいおぞましい\n\n# voice 1040 \"morallta_0016\"\n# textflame 1 1\n# textboxarrow 0 2\n# chara 3104011\n@モラ\n気持ち悪い気色悪いキモイ\n臭い汚い汚らわしい気味が悪い…\n\n# face 3104011 \"angry\"\n# textflame 1 1\n# textboxarrow 0 2\n# chara 3104011\n@モラ\n一人は…\n嫌だよぉぉぉぉぉぉっ…\n\n;;//背景：収容所\n;;//ドアが開く音\n# se \"SE_0690\"\n# serif 0\n# textwindow \"close\"\n# imagealpha 1 0 1\n# waitandnext 1.5\n\n# voice 1040 \"morallta_0022\"\n# face 3104011 \"surprise\"\n# imageset 0 \"black\"\n# imagealpha 0 0 0\n# imagelayer 0 1\n# layer 3104011 2\n# serif 0\n# textwindow \"normal\"\n# textflame 1 1\n# textboxarrow 0 2\n# chara 3104011\n@モラ\n…えっ？\nドアが…開いた！ベガ！？\nベガなの！？ベガなんでしょ！？\n\n;;//モラルタが部屋の外に飛び出す\n;;//背景：研究所\n;;//アルマスが立っている（逆光やシルエットでアルマスとわからないようにぼかす）\n;;――場面転換――\n# imagealpha 0 1 0\n# imagepos 0 0 30\n# imageleftin 0 0.5\n# serif 0\n# textwindow \"close\"\n# serif 1\n# textwindow \"close\"\n# waitandnext 1\n\n# background \"red_corridor\"\n# waitandnext 0.6\n\n# imagealpha 0 0 0.5\n# imagerightout 0 0.5\n# waitandnext 1.5\n\n# fadeout \"white\" 0.5\n# waitandnext 0.5\n\n# alpha 3103811 0.01 0\n# imagepos 3  0 30\n# imagealpha 0 0 0\n# imagealpha 3 1 0\n# alpha 3104011 1 0\n# alpha 100211 0.01 0\n# alpha 100111 0.01 0\n# alpha 24 0.01 0\n# waitandnext 0.1\n\n# fadein \"white\" 1\n# waitandnext 1\n\n# serif 0\n# textwindow \"normal\"\n# textflame 1 1\n# textboxarrow 0 0\n# chara 3104011\n@モラ\nベガ！\n…あの後ろ姿…違う…誰？\n\n# serif 1\n# textwindow \"normal\"\n# textboxarrow 1 2\n@？？？\n…………\n\n;;//アルマス？が走り去る\n# se \"SE_5575\"\n# serif 1\n# textwindow \"close\"\n# alpha 3103811 0 0.5\n# alpha 100211 0 0.5\n# alpha 100111 0 0.5\n# alpha 24 0 0.5\n# waitandnext 1\n\n# bgmfile \"bgm276\" \"BgmLostRagnarokEvent\" 0\n# voice 1040 \"morallta_0010\"\n# face 3104011 \"angry\"\n# imagealpha 3 0 1\n# textflame 1 1\n# textboxarrow 0 2\n# chara 3104011\n@モラ\nちょっと待ってよ！\n…あ、あそこにいるのは\nてめぇら！よくもやってくれたな！\n\n# serif 1\n# textwindow \"normal\"\n# textboxarrow 1 0\n@研究員\nバカな！？\nどうやって部屋から出たんだ！？\nすぐに捕らえ直し――\n\n# voice 1040 \"morallta_0004\"\n# face 3104011 \"happy\"\n# serif 0\n# textwindow \"normal\"\n# textflame 1 1\n# textboxarrow 0 2\n# chara 3104011\n@モラ\nあははははっ\nてめぇら、皆殺しだよ！\n\n# serif 1\n# textwindow \"normal\"\n# textboxarrow 1 0\n@研究員\nギャアアアアアア…！\n\n# serif 1\n# textwindow \"normal\"\n# textboxarrow 1 0\n@所長\n待て！俺を殺したらベガルタの\n居場所は分からなくなるぞ！\n\n# voice 1040 \"morallta_0012\"\n# face 3104011 \"normal\"\n# serif 0\n# textwindow \"normal\"\n# textflame 1 1\n# textboxarrow 0 2\n# chara 3104011\n@モラ\nは～い！\nそんなの気にしてないから～\n\n# voice 1040 \"morallta_0005\"\n# face 3104011 \"angry\"\n# serif 0\n# textwindow \"normal\"\n# textflame 1 1\n# textboxarrow 0 2\n# chara 3104011\n@モラ\nだって…てめぇを食らって脳みそ\n直接覗けば良いんだからなぁ！！\n\n# serif 1\n# textwindow \"normal\"\n# textboxarrow 1 0\n@所長\nアギャアアアアアアアアア！？\nた…たしゅけてへぇ…\n\n;;//鮮血演出\n;;//暗転挟む\n# se \"SE_9161\"\n# fadein \"red\" 0.5\n# shake 0 0.5\n# serif 1\n# textwindow \"close\"\n# serif 0\n# textwindow \"close\"\n# waitandnext 1\n\n# fadeout \"black\" 1.5\n# waitandnext 1.5\n\n# waitandnext 0.6\n\n# voice 1040 \"morallta_0013\"\n# serif 0\n# textwindow \"normal\"\n# fadein \"black\" 1\n# textflame 1 1\n# textboxarrow 0 2\n# chara 3104011\n@モラ\nハア…ハア…\nベガ、今、行くからね\n\n;;//背景：収容所\n;;――場面転換――\n# imagealpha 0 1 0\n# imagepos 0 0 30\n# imageleftin 0 0.5\n# serif 0\n# textwindow \"close\"\n# serif 1\n# textwindow \"close\"\n# waitandnext 1\n\n# bgm \"bgm004\" 0\n# alpha 3104011 0 0\n# move 3104011 4 0\n# move 3104111 2 0\n# mask 3104011 on\n# background \"006_jail\"\n# waitandnext 0.6\n\n# imagealpha 0 0 0.5\n# imagerightout 0 0.5\n# waitandnext 0.5\n\n# se \"SE_0690\"\n# alpha 3104011 1 0.51\n# serif 0\n# textwindow \"normal\"\n# textflame 1 1\n# textboxarrow 0 3\n# chara 3104011\n@モラ\nベガ！ここにいるんだろっ？\n\n# voice 1041 \"beagallta_0016\"\n# face 3104111 \"surprise\"\n# alpha 3104111 1 0.3\n# leftin 3104111 0.5\n# textflame 1 1\n# textboxarrow 0 1\n# chara 3104111\n@ベガ\nモラ…？\nモラなの…？\nうわああああああああん！\n\n# voice 1040 \"morallta_0004\"\n# face 3104111 \"sad\"\n# face 3104011 \"normal\"\n# textflame 1 1\n# textboxarrow 0 3\n# chara 3104011\n@モラ\n大丈夫、もう大丈夫だよ\nベガ、一緒に外に出よう\n\n# voice 1041 \"beagallta_0020\"\n# face 3104111 \"normal\"\n# textflame 1 1\n# textboxarrow 0 1\n# chara 3104111\n@ベガ\n本当に大丈夫…？\nもう、モラと引き離されたり\nしない？\n\n# voice 1040 \"morallta_0003\"\n# face 3104011 \"happy\"\n# textflame 1 1\n# textboxarrow 0 3\n# chara 3104011\n@モラ\nもちろん！\n私達はいつも一緒だよ！\n邪魔する奴は誰もいないからねっ\n\n# face 3104111 \"sad\"\n# textflame 1 1\n# textboxarrow 0 1\n# chara 3104111\n@ベガ\nでも、私、モラの足手まといに\nなるかもしれない…\n\n# voice 1040 \"morallta_0004\"\n# textflame 1 1\n# textboxarrow 0 3\n# chara 3104011\n@モラ\nそんなこと気にしなくて良いんだよ\nほら、こっちこっち！\n\n;;//モラルタとベガルタが走っていく\n;;――場面転換――\n# se \"SE_5575\"\n# imagealpha 0 1 0\n# imagepos 0 0 30\n# imageleftin 0 0.5\n# serif 0\n# textwindow \"close\"\n# serif 1\n# textwindow \"close\"\n# waitandnext 1\n\n# face 3104111 \"normal\"\n# face 3104011 \"normal\"\n# background \"red_corridor\"\n# waitandnext 0.6\n\n# voice 1040 \"morallta_0028\"\n# imagealpha 0 0 0.5\n# imagerightout 0 0.5\n# serif 0\n# textwindow \"normal\"\n# textflame 1 1\n# textboxarrow 0 3\n# chara 3104011\n@モラ\n外に出よう！\n広い広い外にっ\nあの崖を登って地上の世界に！\n\n# voice 1041 \"beagallta_0022\"\n# textflame 1 1\n# textboxarrow 0 1\n# chara 3104111\n@ベガ\n外に出たら…\nなにをするの…？\n\n# voice 1040 \"morallta_0004\"\n# textflame 1 1\n# textboxarrow 0 3\n# chara 3104011\n@モラ\nそれは外に出てから考えよう！\n\n# textflame 1 1\n# textboxarrow 0 3\n# chara 3104011\n@モラ\n大丈夫！\n私達ならなんだってできるし\nどこにだって行けるよ！\n\n;;//背景：崖\n# voice 1040 \"morallta_0029\"\n# face 3104011 \"happy\"\n# imageset 4 \"c_3104011_3104111\"\n# imagealpha 4 0 0\n# imagelayer 4 5\n# imageset 1 \"bg_black\"\n# imagealpha 1 0 0\n# imagelayer 1 2\n# imagescale 1 2 0\n# textflame 1 1\n# textboxarrow 0 3\n# chara 3104011\n@モラ\nここを登れば良さそうだね\nベガ、行こう！\n背中はみんなに任せよー！\n\n;;一枚絵ボイス\n;;モラ　　「ベガ、行こう！\n;;背中はみんなに任せよー！」\n;;ID:morallta_unit_0005\n;;morallta_unit_0005_1\n# imagealpha 4 1 0\n# imagealpha 1 1 0\n# imagepos 4 0 0 \n# imagepos 1 0 0\n# fadein \"white\" 3\n# voice 1040 \"morallta_unit_1005\"\n# textwindow \"close\"\n\n# waitandnext 1.5\n\n# bgmfile \"bgm276\" \"BgmLostRagnarokEvent\" 1.5\n# imagealpha 4 0 1.5\n# waitandnext 2.5\n\n# serif 1\n# textwindow \"normal\"\n# textboxarrow 1 0\n@？？？\nそうか…\n\n# serif 1\n# textwindow \"normal\"\n# textboxarrow 1 0\n@？？？\n彼女達は外に出たんだね\nとても嬉しいよ\n\n# serif 1\n# textwindow \"normal\"\n# textboxarrow 1 0\n@？？？\nこれからが、本当に楽しみだ\n\n"
	}
]