[
	{
		"ID": 413011011,
		"script": ";;モラルタ_EP1\n;;//背景：荒廃している街中\n# script \"lisp\"\n# background \"ground_surface_break\"\n# bgmfile \"bgm276\" \"BgmLostRagnarokEvent\" 0\n;;異族\n# body 810004\n# pos 810004 3\n# scale 810004 0.8 0\n# alpha 810004 0 0\n# mask 810004 off\n# layer 810004 5\n;;悪魔\n# body 910013\n# pos 910013 3\n# scale 910013 0.8 0\n# mask 910013 off\n# layer 910013 4\n;;幻獣\n# body 900016\n# pos 900016 3\n# scale 900016 0.8 0\n# alpha 900016 0 0\n# mask 900016 off\n# layer 900016 3\n;;モラルタ\n# body 3104011\n# pos 3104011 4\n# scale 3104011 0.8 0\n# alpha 3104011 0 0\n# face 3104011 \"angry\"\n# layer 3104011 1\n;;ベガルタ\n# body 3104111\n# pos 3104111 2\n# scale 3104111 0.8 0\n# alpha 3104111 0 0\n# layer 3104111 2\n# face 3104111 \"usual\"\n# serif 0\n# textwindow \"close\"\n# serif 1\n# textwindow \"normal\"\n# textboxarrow 1 2\n# chara 910013\n@悪魔\nグアアアアアアア！\n\n# alpha 910013 0 0.5\n# alpha 900016 1 0.5\n# serif 1\n# textwindow \"normal\"\n# textboxarrow 1 2\n# chara 900016\n@幻獣\nグルルルルルルルル！\n\n;;@天使（異族でも良いかも）\n# alpha 810004 1 0.5\n# alpha 900016 0 0.5\n# serif 1\n# textwindow \"normal\"\n# textboxarrow 1 2\n# chara 810004\n@天使\nギイイイイイイイイイ！\n\n# serif 0\n# textwindow \"normal\"\n# textboxarrow 0 0\n@男\n逃げろぉっ！\nもう…この町はダメだぁっ…！\n\n# textboxarrow 0 0\n@女\nイヤアアア…！\n誰か助けてぇっ…！\n\n;;//魔獣達に追われて人々が逃げ惑う\n# serif 1\n# textwindow \"close\"\n# serif 0\n# textwindow \"close\"\n# alpha 810004 0 0.5\n# waitandnext 1.5\n\n# serif 0\n# textwindow \"normal\"\n# alpha 3104111 1 0.5\n# alpha 3104011 1 0.5\n# textflame 1 1\n# textboxarrow 0 3\n# chara 3104011\n@モラ\n…………\n\n# textflame 1 1\n# textboxarrow 0 1\n# chara 3104111\n@ベガ\nお姉ちゃぁん…！\n家が…家が燃えてるよぉっ…\n\n# textflame 1 1\n# textboxarrow 0 3\n# chara 3104011\n@モラ\nそれより走って！\nお父さんの手を放しちゃダメだよっ\n\n# textflame 1 1\n# textboxarrow 0 3\n# chara 3104011\n@モラ\n私もお母さんの手を放さないから…\n大丈夫だよ、きっと…\n\n# textflame 1 1\n# textboxarrow 0 1\n# chara 3104111\n@ベガ\n本当っ…？\n本当に大丈夫なのっ…？\n怖いよ、お姉ちゃん…\n\n# textflame 1 1\n# textboxarrow 0 3\n# chara 3104011\n@モラ\nお父さんもお母さんも、\n私だっているんだから大丈夫！\nほら、しっかり走って！\n\n# face 3104111 \"normal\"\n# textflame 1 1\n# textboxarrow 0 1\n# chara 3104111\n@ベガ\nうん…\n\n# serif 0\n# move 3104011 4 0\n# textwindow \"moya\"\n# textboxarrow 0 0\n# chara 3104011\n@モラ\n私はお姉ちゃんなんだから、\nしっかりしないと…\nきっと大丈夫だよ…\n\n# serif 1\n# textboxarrow 1 0\n@幻獣\nグルルルルルルルルル！\n\n# face 3104111 \"surprise\"\n# face 3104011 \"surprise\"\n# serif 0\n# textwindow \"normal\"\n# textflame 1 1\n# textboxarrow 0 3\n# chara 3104011\n@モラ\nキャアアアアア！\nちっ…近づくなぁっ…！\nあっち行けぇっ…\n\n# face 3104111 \"usual\"\n# imageset 0 \"bg_black\"\n# imagealpha 0 0 0\n# imagelayer 0 1\n# imagescale 0 2 0\n# imageset 1 \"mov2_3_overlay\"\n# imagealpha 1 0 0\n# imagelayer 1 2\n# imagescale 1 1.2 0\n# imageset 2 \"mov2_3_sword\"\n# imagealpha 2 0 0\n# imagelayer 2 3\n# imagescale 2 1.2 0\n# imageset 3 \"bg_white\"\n# imagealpha 3 0 0\n# imagelayer 3 4\n# imagescale 3 2 0\n# textflame 1 1\n# textboxarrow 0 1\n# chara 3104111\n@ベガ\nヤダヤダヤダヤダッ…！\n怖いよ、こっちに来ないでよぉっ…\n\n;;//幻獣や魔獣が襲い掛かる\n;;//斬撃演出（血しぶき演出ある？）\n# se \"SE_9160\"\n# fadein \"black\" 0.5\n# serif 1\n# textwindow \"close\"\n# serif 0\n# textwindow \"close\"\n# imagepos 0 0 30\n# imagepos 1 0 30\n# imagepos 2 0 30\n# imagealpha 0 1 0\n# imagealpha 1 1 0\n# imagealpha 2 1 0\n# waitandnext 1\n\n# face 3104111 \"surprise\"\n# face 3104011 \"surprise\"\n# imagealpha 0 0 0.3\n# imagealpha 1 0 1\n# imagealpha 2 0 1\n# serif 0\n# textwindow \"normal\"\n# textflame 1 1\n# textboxarrow 0 3\n# chara 3104011\n@モラ\nえっ…？\nお母さん…？お父さん…？\n\n# face 3104111 \"usual\"\n# face 3104011 \"sad\"\n# textflame 1 1\n# textboxarrow 0 1\n# chara 3104111\n@ベガ\nお姉ちゃん…お父さんが…\nお母さんがぁっ…！\n\n# face 3104111 \"sad\"\n# face 3104011 \"normal\"\n# textflame 1 1\n# textboxarrow 0 3\n# chara 3104011\n@モラ\n大丈夫だよ…\n絶対に手を放さないでいれば、\nきっと…\n\n# textflame 1 1\n# textboxarrow 0 3\n# chara 3104011\n@モラ\nほら、ちゃんと\nお母さんの手はここに…\n\n# face 3104011 \"surprise\"\n# textflame 1 1\n# textboxarrow 0 3\n# chara 3104011\n@モラ\nあれ…？\nお母さん…手しかない…\n\n# textflame 1 1\n# textboxarrow 0 3\n# chara 3104011\n@モラ\n腕から先が…\nなくなってるよぉぉぉぉっ…！？\n\n# face 3104011 \"sad\"\n# textflame 1 1\n# textboxarrow 0 3\n# chara 3104011\n@モラ\n私達、死ぬんだ…\nここでみんな…\n殺されちゃうんだぁっ！！\n\n# face 3104111 \"usual\"\n# textflame 1 1\n# textboxarrow 0 1\n# chara 3104111\n@ベガ\nお姉ちゃん！？\nしっかりして！\nしっかりしてよぉっ…！\n\n;;//背景：黒\n# imagealpha 0 1 1\n# serif 0\n# move 3104011 4 0\n# textwindow \"moya\"\n# textboxarrow 0 0\n# chara 3104011\n@モラ\nこんな地獄みたいな世界…\nもう、嫌だよ…\nごめんね、私、お姉ちゃんなのに…\n\n;;//背景：収容所\n# fadeout \"black\" 1.5\n# waitandnext 1.5\n\n# bgm \"bgm005\" 0\n# serif 1\n# textwindow \"close\"\n# background \"red_corridor\"\n# move 3104111 2 0\n# move 3104011 4 0\n# alpha 3104011 1 0\n# imagealpha 0 0 0\n# face 3104011 \"surprise\"\n# face 3104111 \"normal\"\n# waitandnext 0.6\n\n# serif 0\n# textwindow \"normal\"\n# fadein \"black\" 1\n# textflame 1 1\n# textboxarrow 0 3\n# chara 3104011\n@モラ\n！？\n…あれ、ここは？\n\n# face 3104111 \"happy\"\n# textflame 1 1\n# textboxarrow 0 1\n# chara 3104111\n@ベガ\nお姉ちゃん！良かった…\nもう起きてくれないのかと\n心配したよぉ…\n\n# face 3104011 \"sad\"\n# textflame 1 1\n# textboxarrow 0 3\n# chara 3104011\n@モラ\n私、気絶してたんだ…\nごめんね\n怖かったよね\n\n# textflame 1 1\n# textboxarrow 0 1\n# chara 3104111\n@ベガ\nお姉ちゃんが無事で…\n良かった…\n\n# textflame 1 1\n# textboxarrow 0 3\n# chara 3104011\n@モラ\nねえ…\nここ、どこ？\n\n# face 3104111 \"sad\"\n# textflame 1 1\n# textboxarrow 0 1\n# chara 3104111\n@ベガ\n私にも良く分からないの…\n知らない人達に連れてこられて…\n\n# textflame 1 1\n# textboxarrow 0 3\n# chara 3104011\n@モラ\n周りにもたくさん人がいる…\n私達と同じように化け物から逃げて\nきたのかな…？\n\n# textboxarrow 0 0\n@男\nハア…\nなんでこんなことに…\n\n# textboxarrow 0 0\n@女\nちょっと！\nいつまでこんな狭苦しいところに\n閉じ込めておくつもりよ！\n\n;;//研究者達が姿を現す\n# serif 1\n# textboxarrow 1 0\n@所長\nやあやあ、ようこそ！\n\n# serif 1\n# textboxarrow 1 0\n@所長\nよくぞ私達の実験室に\n来てくれました\n勇敢なる皆さん！\n\n# serif 1\n# textboxarrow 1 0\n@所長\n皆さんにはこれから人類の可能性を\n探求するための尊い\n実験台となっていただきます！\n\n# serif 1\n# textboxarrow 1 0\n@所長\nこの実験が成功した暁には、\n人類史に新たな一頁が\n記されることでしょう\n\n# serif 1\n# textboxarrow 1 0\n@所長\n実に素晴らしい！\n\n# serif 0\n# textboxarrow 0 0\n@男\nおい、てめえ！\n訳の分からねえこと\n言ってんじゃねえぞ！！\n\n# serif 0\n# textboxarrow 0 0\n@女\nあの…ここは魔物から逃げてきた\n人達の避難所じゃないんですか…？\n\n# face 3104111 \"usual\"\n# serif 1\n# textwindow \"close\"\n# serif 0\n# textwindow \"normal\"\n# textflame 1 1\n# textboxarrow 0 1\n# chara 3104111\n@ベガ\nお姉ちゃん、怖いよぉっ…\n\n# face 3104011 \"normal\"\n# textflame 1 1\n# textboxarrow 0 3\n# chara 3104011\n@モラ\n大丈夫…大丈夫だからねっ…\n私がついてるからっ\n\n# face 3104011 \"sad\"\n# serif 0\n# move 3104011 4 0\n# textwindow \"moya\"\n# chara 3104011\n@モラ\nなんなの…？\nなにがどうなってるの？\n\n# face 3104011 \"angry\"\n# serif 0\n# move 3104011 4 0\n# textwindow \"moya\"\n# chara 3104011\n@モラ\nでも…妹は守ってみせる…\n私、お姉ちゃんだから！"
	}
]