[
	{
		"ID": 414023013,
		"script": ";;-----------------------------------------\n;;【PUNK】ロストラグナロク_サイドストーリー5章\n;;【EP1バトル後】\n;;スクリプト最後の背景：擬人区（夜）（※もしくはハルモニア首都門前）\n;;-----------------------------------------\n# script \"lisp\"\n# background \"400_angel_town_night\"\n# bgmfile \"bgm271\" \"BgmLostRagnarokEvent\" 0\n;;フライクーゲル\n# body 3500211\n# pos 3500211 3\n# scale 3500211 0.8 0\n# layer 3500211 2\n# alpha 3500211 1 0\n# mask 3500211 on\n# face 3500211 \"normal\"\n;;ティファレト\n# body 171\n# pos 171 3\n# scale 171 0.8 0\n# layer 171 2\n# alpha 171 0 0\n# mask 171 on\n# face 171 \"normal\"\n;;ロンギヌス\n# body 3300111\n# pos 3300111 3\n# scale 3300111 0.8 0\n# layer 3300111 2\n# alpha 3300111 0 0\n# mask 3300111 on\n# face  3300111 \"normal\"\n;;フォルカス\n# body 3301811\n# pos 3301811 3\n# scale 3301811 0.8 0\n# layer 3301811 2\n# alpha 3301811 0 0\n# mask 3301811 on\n# face 3301811 \"normal\"\n;;ハルモニア兵\n# body 3810001\n# pos 3810001 3\n# scale 3810001 0.8 0\n# alpha 3810001 0 0\n;;ハルモニア兵\n# entry 938100018 3810001\n# pos 938100018 1\n# scale 938100018 0.8 0\n# alpha 938100018 0 0\n;;ハルモニア兵\n# entry 938100019 3810001\n# pos 938100019 5\n# scale 938100019 0.8 0\n# alpha 938100019 0 0\n;;【EP1バトル後】\n;;背景：擬人区（夜）（※もしくはハルモニア首都門前）\n;;----------------------------------------------------------\n# textflame 1 1\n# textboxarrow 0 2\n# mask 3500211 off\n# voice 350021 \"furaikugeru_t_battle_0002\"\n@フライクーゲル\nウェルダンッ\n\n;;モノローグ\n# textflame 0 0\n@\n門前のハルモニア兵を\n焼き尽くしたフォルカスの元へ\n追いつくフライクーゲル\n\n# alpha 3500211 0 0.5\n# face 171 \"sad\"\n# alpha 171 1 0.5\n# mask 171 off\n# textflame 1 1\n@ティファレト\nお、お疲れ様です…\n\n;;モノローグ\n# textflame 0 0\n@\nそして背負われたティファレト\n\n;;モノローグ\n@\n思うように動かぬ四肢を\nフライクーゲルに任せている\n\n# alpha 171 0 0.5\n# alpha 3300111 1 0.5\n# mask 3300111 off\n# textflame 1 1\n# voice 330011 \"ronginusu_t_0003\"\n@ロンギヌス\n襲われていた\n他の擬人区は解放しました\nここが最後ですね\n\n;;モノローグ\n# textflame 0 0\n@\nロンギヌスが\nフライクーゲル達の背を守るように\nやってくる\n\n# alpha 3300111 0 0.5\n# face 3301811 \"usual\"\n# alpha 3301811 1 0.5\n# mask 3301811 off\n# textflame 1 1\n# voice 330181 \"forcas_t_0028\"\n@フォルカス\n予想以上にミカエルの動きが早い…\n先手を打つはずが\nこんな…！！\n\n# alpha 3301811 0 0.5\n# face  3300111 \"normal\"\n# alpha 3300111 1 0.5\n@ロンギヌス\n…\n\n# serif 1\n@イミテーション\nあ、あんた………\n\n# alpha 3300111 0 0.5\n# face 171 \"sad\"\n# alpha 171 1 0.5\n# textflame 1 1\n# voice 5032 \"tiphereth_t_0015\"\n@ティファレト\nご無事、ですか…？\n\n# serif 1\n@イミテーション\n何度か、来てくれていた人だよな…？\n『一緒に畑を耕して暮らさないか』\nって…\n\n# face 171 \"surprise\"\n# textflame 1 1\n# voice 5032 \"tiphereth_t_0022\"\n@ティファレト\n覚えて、いらっしゃるんですか…？\n\n# bgm \"stop\"\n# serif 1\n@イミテーション\n…すまなかった\n\n# textflame 1 1\n@ティファレト\nえ？\n\n# bgmfile \"bgm290\" \"BgmLostRagnarokEvent\" 0\n# serif 1\n@イミテーション\nこんなことになるまで\n気づけなかったが\nあんたの言葉に耳を貸さず…\n\n# serif 1\n@イミテーション\nあんたはこうして\n俺達を救ってくれたのに…\n\n# face 171 \"sad\"\n# textflame 1 1\n@ティファレト\n…\n\n@ティファレト\nいいのです\n\n@ティファレト\nわからないことがある\n信じられないことがある\nだから同じものを視ることが出来ない\n\n@ティファレト\nあなたも、私も\n\n@ティファレト\nあなたは違うものを視ていた\n私はあなたに声を届けられなかった\n\n# voice 5032 \"tiphereth_t_0031\"\n@ティファレト\n不甲斐ないです\n\n# serif 1\n@イミテーション\nそんな…\n\n# face 171 \"normal\"\n# textflame 1 1\n# voice 5032 \"tiphereth_t_0003\"\n@ティファレト\nだから、これから\n共に生きることを目指して\n頑張りましょう\n\n@ティファレト\n私は\n手も足も使い物にはなりませんが\n\n@ティファレト\nこれからは\n言葉を交わして\n\n# serif 1\n@イミテーション\n………ッ\nすまない…\nありがとう…！！\n\n# serif 1\n# textwindow \"close\"\n# serif 0\n# move 171 4 0.5\n# move 3500211 2 0\n# face 3500211 \"usual\"\n# alpha 3500211 1 0.5\n# mask 3500211 on\n# mask 171 on\n# textflame 1 1\n# textboxarrow 0 1\n# voice 350021 \"furaikugeru_t_0002\"\n@フライクーゲル\n…ティファレト\n\n# face 171 \"sad\"\n# textboxarrow 0 3\n@ティファレト\nはい？\n\n;;モノローグ\n# textflame 0 0\n@\nフライクーゲルは\nティファレトを背中に感じながら\n声をかける\n\n# textflame 1 1\n# textboxarrow 0 1\n@フライクーゲル\nきみは\n自分の力の無さに嘆いていたけど…\nきっとそんなことないよ\n\n# face 171 \"surprise\"\n# textboxarrow 0 3\n# voice 5032 \"tiphereth_t_0024\"\n@ティファレト\nい、いきなりなんですかぁ\n\n# textboxarrow 0 1\n@フライクーゲル\n信じる力がある\nそれだけで、救われる人がいる\n\n@フライクーゲル\nきっと、それでいいと思うよ\n\n# face 171 \"normal\"\n# textboxarrow 0 3\n# voice 5032 \"tiphereth_t_0003\"\n@ティファレト\n………はいっ\n\n;;演出：視点がフォルカスとロンギヌスに移る\n# bgmfile \"bgm293\" \"BgmLostRagnarokSideStory\" 0\n# alpha 3500211 0 0.5\n# alpha 171 0 0.5\n# move 3300111 2 0\n# face  3300111 \"normal\"\n# alpha 3300111 1 0.5\n# mask 3300111 on\n# move 3301811 4 0\n# face  3301811 \"normal\"\n# alpha 3301811 1 0.5\n# mask 3301811 on\n# textboxarrow 0 1\n# voice 330011 \"ronginusu_t_0009\"\n@ロンギヌス\n…もはや天使の仮面を被る必要すら\nミカエルにはなくなったのでしょうね\n\n# textboxarrow 0 3\n@フォルカス\n私達が離れたことで\n手段を選ばなくなった…\nいや、選ぶ必要がなくなったのか…\n\n# textboxarrow 0 1\n@ロンギヌス\nイミテーション達に罪はありません\nこの虐殺の真の目的は…\n\n# textboxarrow 0 3\n@ロンギヌス\nこれ以上イミテーションが\n他国に渡ることを止める為…\n\n# textboxarrow 0 1\n@ロンギヌス\nそしてイミテーション達が\n反乱分子に与することを防ぐ為…\n\n# face 3301811 \"usual\"\n# textboxarrow 0 3\n# voice 330011 \"ronginusu_t_0026\"\n@フォルカス\n堕ちたな…\n\n# face  3300111 \"sad\"\n# textboxarrow 0 1\n@ロンギヌス\n正気ではありません\nこのような指令\n兵達の中に疑問を持つ者がいても…\n\n# alpha 3300111 0 0.5\n# alpha 3301811 0 0.5\n# face 3500211 \"usual\"\n# alpha 3500211 1 0.5\n# face 171 \"sad\"\n# alpha 171 1 0.5\n# textboxarrow 0 1\n@フライクーゲル\n…ラッパを鳴らしたのかも\nしれないね\n\n# face 171 \"surprise\"\n# textboxarrow 0 3\n# voice 5032 \"tiphereth_t_0022\"\n@ティファレト\n………あの、ラッパを…？\n\n# voice 350021 \"furaikugeru_t_0032\"\n# textboxarrow 0 1\n@フライクーゲル\nわたしやヴァナルガンドのように\n何の疑問も持てず\n命令通り動くように\n\n# alpha 171 0 0.5\n# face  3301811 \"usual\"\n# alpha 3301811 1 0.5\n# textboxarrow 0 3\n@フォルカス\n私達も、ああなる可能性が…？\n\n# textboxarrow 0 1\n@フライクーゲル\nきみたちは真面目だったから？\nどうだろうね\n\n# face 3500211 \"normal\"\n@フライクーゲル\nま、そうなれば\n…わたしが止めるさ\n\n;;モノローグ\n# textflame 0 0\n@\nいつもの通りの軽口だが\n瞳には、先の戦いにおいての自責と\n決意が込められていた\n\n# alpha 3500211 0 0.5\n# alpha 3301811 0 0.5\n# move 171 3 0\n# face 171 \"angry\"\n# alpha 171 1 0.5\n# mask 171 off\n# textflame 1 1\n# textboxarrow 0 2\n# voice 5032 \"tiphereth_t_0024\"\n@ティファレト\nそ、それでは\n擬人区の方々は私の里へ避難を…！\n\n@ティファレト\n私達は\nいち早くミカエルを止めなければ…！\n\n# alpha 171 0 0.5\n# face 3500211 \"usual\"\n# alpha 3500211 1 0.5\n# face 3301811 \"normal\"\n# alpha 3301811 1 0.5\n# textboxarrow 0 3\n@フォルカス\nわかりました。了解です\n\n# face 3500211 \"normal\"\n# textboxarrow 0 1\n@フライクーゲル\nフォルカス\nこういう時は“オフコース”さ\n\n# face 3301811 \"surprise\"\n# textboxarrow 0 3\n@フォルカス\nお、お、おふ？\nおふ、おふこーす…\n\n# alpha 3500211 0 0.5\n# face  3300111 \"normal\"\n# alpha 3300111 1 0.5\n# textboxarrow 0 1\n@ロンギヌス\nラジャーでもいいと思いますよ\n\n# voice 330181 \"forcas_t_0023\"\n# textboxarrow 0 3\n@フォルカス\nら、らじゃー！？\nなんだ！？\nどっちだ！？\n\n# alpha 3300111 0 0.5\n# move 171 2 0\n# face 171 \"normal\"\n# alpha 171 1 0.5\n# textboxarrow 0 1\n# voice 5032 \"tiphereth_t_0028\"\n@ティファレト\nふぉ、フォルカスらしければ\nどちらでも…\n\n# face 3301811 \"normal\"\n# textboxarrow 0 3\n@フォルカス\n～～～ッ！\nわかりました！　了解です！\n\n# alpha 171 0 0.5\n# alpha 3301811 0 0.5\n# alpha 3810001 1 0.5\n# alpha 938100018 1 0.5\n# alpha 938100019 1 0.5\n# voice 381000 \"angel_unit_0008\"\n# textboxarrow 0 2\n@ハルモニア兵\nいたぞ！\nセイントキラーズだ！\n\n# alpha 3810001 0 0.5\n# alpha 938100018 0 0.5\n# alpha 938100019 0 0.5\n# move 3301811 3 0\n# face 3301811 \"surprise\"\n# alpha 3301811 1 0.5\n# mask 3301811 off\n@フォルカス\n！\n\n# alpha 3301811 0 0.5\n# alpha 3810001 1 0.5\n# alpha 938100018 1 0.5\n# alpha 938100019 1 0.5\n@ハルモニア兵\n討ち取れ！\nミカエル様の為に！！\n\n;;モノローグ\n# textflame 0 0\n@\n砕かれた門の先…首都内から\nハルモニア兵達が\n大挙して向かってくる\n\n# bgmfile \"bgm294\" \"BgmLostRagnarokSideStory\" 0\n# alpha 3810001 0 0.5\n# alpha 938100018 0 0.5\n# alpha 938100019 0 0.5\n# face 3301811 \"normal\"\n# alpha 3301811 1 0.5\n# textflame 1 1\n@フォルカス\n私らしく、行こうか\n\n;;モノローグ\n# textflame 0 0\n@\n槍の尾の旗を高く掲げ\nフォルカスは押し寄せる\nハルモニア兵へ宣言する\n\n# textflame 1 1\n@フォルカス\nセイントキラーズの名の下に───\n\n@フォルカス\n───正義の反旗を翻す"
	}
]