[
	{
		"ID": 414020100,
		"script": ";;----------------------------------------------\n;;414020100\n;;２章 輪廻の斬ル姫【OP】\n;;----------------------------------------------\n# script \"lisp\"\n# background \"bg_black\"\n# bgmfile \"bgm293\" \"BgmLostRagnarokSideStory\" 0\n;;ロンギヌス\n# body 3300111\n# pos 3300111 2\n# scale 3300111 0.8 0\n# layer 3300111 2\n# mask 3300111 on\n# alpha 3300111 0 0\n;;フォルカス\n# body 3301811\n# pos 3301811 3\n# scale 3301811 0.8 0\n# layer 3301811 1\n# mask 3301811 on\n# alpha 3301811 0 0\n;;カーテンフェード\n# imageset 0 \"black\"\n# imagealpha 0 0 0\n# imagelayer 0 1\n;;◆背景：黒----------------------------------------------\n# textflame 0 0\n# textboxarrow 0 0\n# voice 330011 \"ronginusu_t_0002\"\n# chara 3300111\n@ロンギヌス\n例えば明日\n世界が終わるとしたら\n\n# textflame 0 0\n# textboxarrow 0 0\n# chara 3300111\n@ロンギヌス\n最期に何をしようかと\n一度は考えたこと\nありますよね\n\n# textflame 0 0\n# textboxarrow 0 0\n# chara 3300111\n@ロンギヌス\n私はきっと\nいつもと変わらぬ\n…ありふれた日常を\n\n;;◆背景：洞の地下・不思議な空間--------------------------\n# textwindow \"close\"\n# fadeout \"white\" 1.0\n# waitandnext 1.0\n\n# background \"101_cave\"\n# waitandnext 0.5\n\n# fadein \"white\" 1.0\n# waitandnext 1.3\n\n;;フォルカス\n# alpha 3301811 1 0.5\n# waitandnext 0.5\n\n# textwindow \"normal\"\n# textflame 1 1\n# textboxarrow 0 2\n# face 3301811 \"surprise\"\n# voice 330181 \"forcas_t_0022\"\n# chara 3301811\n@フォルカス\nこの場所は…!?\nここは…一体\n\n;;ロンギ合流\n# textwindow \"close\"\n# move 3301811 4 0.5\n# alpha 3300111 1 0.5\n# waitandnext 0.5\n\n# textwindow \"normal\"\n# textflame 1 1\n# textboxarrow 0 1\n# voice 330011 \"ronginusu_t_0005\"\n# chara 3300111\n@ロンギヌス\nさあ\n終焉を告げる前に懺悔を終えて…\n\n# textflame 1 1\n# textboxarrow 0 1\n# face 3300111 \"angry\"\n# chara 3300111\n@ロンギヌス\n“第二章”を始めましょう"
	}
]