[
	{
		"ID": 415023031,
		"script": ";;【EP3バトル前】\n;;背景：王座の間（立ち絵なし）\n# background \"300_devil_room\"\n# bgmfile \"bgm293\" \"BgmLostRagnarokSideStory\" 0\n# body 3200411\n# pos 3200411 3\n# scale 3200411 0.8 0\n# mask 3200411 off\n# alpha 3200411 0 0\n# body 3401311\n# pos 3401311 3\n# mask 3401311 off\n# scale 3401311 0.8 0\n# alpha 3401311 0 0\n# body 3102311\n# pos 3102311 3\n# mask 3102311 off\n# scale 3102311 0.8 0\n# alpha 3102311 0 0\n# body 3201911\n# pos 3201911 4\n# scale 3201911 0.8 0\n# alpha 3201911 0 0\n# body 167\n# pos 167 3\n# layer 167 3\n# scale 167 0.8 0\n# alpha 167 0 0\n# textwindow \"nomal\"\n# textflame 0 0\n@パラシュ\n期待されるのは\n嫌いじゃなかった\n\n@パラシュ\nそれに応えられるボクを追い求めた\n\n@パラシュ\n仕事を与えられることも\n嬉しかった\n\n@パラシュ\nそれをこなすボクを突き詰めた\n\n@パラシュ\n常にボク自身を見つめ続け\n審問し続けた\n\n@パラシュ\nボクが宿すアスタロスは\n怠惰と審問を司る悪魔\n過去と未来を見通す悪魔\n\n@パラシュ\nだからこそ手段は選ばない\n怠けることなどもってのほか\n\n@パラシュ\nそうしなければ未来は見えない\nボクが極めた過去が\nボクの見る未来になるんだ\n\n@パラシュ\n他者を構う暇など\nあるわけもなかった\n\n# textwindow \"close\"\n# fadeout \"black\" 0.5\n# waitandnext 0.5\n\n# bgmfile \"bgm295\" \"BgmLostRagnarokBattle003\" 0\n# background \"300_devil_daytime01\"\n# alpha 3401311 1 0\n# waitandnext 0.5\n\n# se \"SE_5784\"\n# fadein \"black\" 0.5\n# waitandnext 0.5\n\n# voice 340131 \"aphrodite_a_0006\"\n# textflame 1 1\n# textwindow \"nomal\"\n# textboxarrow 0 2\n@アフロディーテ\nやはり戦場は\n良いですわね\n好いですわね\n\n@アフロディーテ\n愛が溢れている\nそれでこそ\n愛、あればこそ\n\n# textflame 0 0\n;;モノローグ\n@\nアフロディーテは\n稲妻を纏いながら\nゆっくりと艶やかに歩んでくる\n\n# textflame 1 1\n# alpha 3401311 0 0.5\n# alpha 3102311 1 0.5\n@アスカロン\nあ、アフロディーテ\n今まで、どこに…！？\n\n;;モノローグ\n# textflame 0 0\n@\n素通りされるアスカロン\n\n# voice 310231 \"ascalon_a_0022\"\n# face 3102311 \"surprise\"\n# textflame 1 1\n@アスカロン\nあ、あ、アフロディーテ…！？\n\n# voice 340131 \"aphrodite_a_0005\"\n# alpha 3102311 0 0.5\n# alpha 3401311 1 0.5\n# face 3401311 \"happy\"\n@アフロディーテ\n愛は幻想と言う人もいるけれど\nだからこそ儚く\nその刹那こそ奇跡の輝き…\n\n# textflame 0 0\n;;モノローグ\n@\nうっとりと陶酔したアフロディーテに\nはっきりと無視されるアスカロン\n\n# textflame 1 1\n# alpha 3401311 0 0.5\n# alpha 3102311 1 0.5\n# face 3102311 \"sad\"\n@アスカロン\nううっ、ううううっ\n\n# face 3102311 \"shy\"\n@アスカロン\n美しいアフロディーテ！\n\n# voice 340131 \"aphrodite_a_0032\"\n# alpha 3102311 0 0.5\n# alpha 3401311 1 0.5\n# face 3401311 \"surprise\"\n@アフロディーテ\n呼びました？\n\n# voice 310231 \"ascalon_a_0013\"\n# alpha 3401311 0 0.5\n# alpha 3102311 1 0.5\n# face 3102311 \"angry\"\n@アスカロン\n変わりませんねっ！\n\n# voice 340131 \"aphrodite_a_0004\"\n# alpha 3102311 0 0.5\n# alpha 3401311 1 0.5\n# face 3401311 \"happy\"\n@アフロディーテ\nふふっ\nわたしの美しさが？\n\n# alpha 3401311 0 0.5\n# alpha 3102311 1 0.5\n# face 3102311 \"happy\"\n@アスカロン\nや、もう、はい\nそうですね！\n美しい美しい！\n\n# alpha 3401311 1 0.5\n# alpha 3102311 0 0.5\n@アフロディーテ\nわたしも\nそう思っていたところなんですの\n\n# alpha 3401311 0 0.5\n# alpha 3102311 1 0.5\n@アスカロン\n…う、美しいアフロディーテ\n今まで、どこへ…！？\n\n# alpha 3102311 0 0.5\n# alpha 3401311 1 0.5\n# face 3401311 \"happy\"\n@アフロディーテ\n天使を見つけましたの\n\n# voice 310231 \"ascalon_a_0022\"\n# mask 3201911 on\n# mask 3102311 on\n# move 3102311 2 0\n# move 3201911 4 0\n# alpha 3401311 0 0.5\n# alpha 3201911 1 0.5\n# alpha 3102311 1 0.5\n# textboxarrow 0 1\n# face 3102311 \"surprise\"\n# face 3201911 \"surprise\"\n@アスカロン\nえ？\n\n# voice 320191 \"chihyu_a_0022\"\n# textboxarrow 0 3\n@シユウ\nてんし…？\n\n;;↓文字並びが悪い場合は整形して下さい\n# textflame 1 1\n# textboxarrow 0 2\n# alpha 3201911 0 0.5\n# alpha 3102311 0 0.5\n# alpha 3401311 1 0.5\n@アフロディーテ\n『“美”の意を持つ生命の樹にして\n“慈愛”の聖母と接触すべし』\nそう、ルシファー様から言い渡されて\n\n# face 3401311 \"shy\"\n@アフロディーテ\nまさに一目惚れ\n\n# voice 340131 \"aphrodite_a_0015\"\n@アフロディーテ\nしかしわたしは悪魔\n愛しきあなたは天使ならば\n身分違い・禁断の恋\n\n# face 3401311 \"happy\"\n@アフロディーテ\nルシファー様の真意\nようやくわかりましたわ\n\n# mask 3102311 off\n# move 3102311 3 0\n# alpha 3401311 0 0.5\n# alpha 3102311 1 0.5\n# face  \"sad\"\n@アスカロン\nわー、全然わからない\n\n# voice 340131 \"aphrodite_a_0027\"\n# alpha 3102311 0 0.5\n# alpha 3401311 1 0.5\n@アフロディーテ\nわたしをその気にさせる為\nでしょうね\n不器用なんだから、ルシファー様もっ\n\n# alpha 3401311 0 0.5\n# alpha 167 1 0.5\n@フェイルノート\nその気…？\n\n# alpha 3401311 1 0.5\n# alpha 167 0 0.5\n@アフロディーテ\n…闘いましょう\n愛の為に\n\n# voice 340131 \"aphrodite_a_0028\"\n# face 3401311 \"angry\"\n@アフロディーテ\n加勢しましょう\n愛ゆえに\nわたしも\n\n# alpha 3401311 0 0.5\n# alpha 3200411 1 0.5\n@パラシュ\n…なんだって…！？\n\n# alpha 3200411 0 0.5\n# alpha 3401311 1 0.5\n@アフロディーテ\n天使を堕とし\nその愛を我が物に！\nその願いを叶えんが為\n\n@アフロディーテ\n総武会に復帰致します\n\n# se \"SE_0607\"\n# serif 0\n# textwindow \"close\"\n# serif 1\n@実況者\nおぉーッとぉ！\nアフロディーテ！\n美しきアフロディーテェェェッ！！\n\n# serif 1\n@実況者\n突如の来訪！からの\n突如の復帰宣言！\nこんなこと許されるのか！？\n\n# serif 1\n@実況者\n許されます！許される行為です！\nルールなどあってないようなもの！\n本大会の決着は───\n\n# serif 1\n# textwindow \"close\"\n# serif 0\n# textwindow \"nomal\"\n# textboxarrow 0 2\n@アフロディーテ\n───決着は\nその闘争心が尽きるまで\n\n# voice 340131 \"aphrodite_a_0005\"\n@アフロディーテ\nふふふっ♪\n\n# serif 0\n# textwindow \"close\"\n# serif 1\n# textwindow \"nomal\"\n@実況者\nイレギュラーな存在の勝ち抜き！\n予想のつかない大混戦！\nそして初代優勝者の途中復帰！\n\n# serif 1\n@実況者\n今までこんなにも\n波乱が巻き起こる\n総武会があったでしょうか！\n\n# serif 1\n@実況者\nいや！！ない！！\n\n# serif 1\n@実況者\n残る問題は\n初代優勝者アフロディーテが\nどちらにつくのか！？\n\n# serif 1\n@実況者\n奔放なクイーンは\n果たしてどちらに！？\n\n# serif 1\n# textwindow \"close\"\n# serif 0\n# textwindow \"nomal\"\n# textboxarrow 0 2\n# textflame 1 1\n@アフロディーテ\nご存知かと思うけれど…\n\n# voice 340131 \"aphrodite_a_0004\"\n@アフロディーテ\nわたし\n美と愛の味方なんですの\n\n# face 3401311 \"normal\"\n@アフロディーテ\nそして、今にも消えゆきそうな\n瞬く愛のきらめき、ときめきこそ\n稲光に似て、わたしに相応しい\n\n# move 3201911 5 0\n# move 3102311 1 0\n# alpha 3401311 0 0.5\n# alpha 167 1 0.5\n# alpha 3102311 1 0.5\n# alpha 3201911 1 0.5\n# face 3201911 \"sad\"\n# face 3102311 \"sad\"\n# textboxarrow 0 3\n# voice 320191 \"chihyu_a_0009\"\n@シユウ\nえー、もう、ちょっと\nアフロディーテがなにいってるか\nぜんぜんわからないぞ\n\n# textboxarrow 0 1\n@アスカロン\nシユウ、だいじょうぶ\nわたしもです\n\n# voice 4019 \"failnaught_a_0002\"\n# textboxarrow 0 2\n@フェイルノート\nあの人、いつもこんな感じなの？\n\n# voice 310231 \"ascalon_a_0008\"\n# textboxarrow 0 1\n@アスカロン\nいつもこんな感じです\n\n# voice 4019 \"failnaught_a_0039\"\n# textboxarrow 0 2\n@フェイルノート\nいつもこんな感じなのね…\n\n# textboxarrow 0 2\n# alpha 3401311 1 0.5\n# alpha 167 0 0.5\n# alpha 3102311 0 0.5\n# alpha 3201911 0 0.5\n@アフロディーテ\nつまりは\nより儚くも懸命に輝く愛を\n間近で見ていたい…\n\n@アフロディーテ\nわたしは\nパラシュの味方になりましょう\n\n# face 3200411 \"surprise\"\n# alpha 3401311 0 0.5\n# alpha 3200411 1 0.5\n# textboxarrow 0 2\n@パラシュ\n………ッ！？\n\n# se \"SE_0607\"\n# alpha 3200411 0 0.5\n# serif 0\n# textwindow \"close\"\n# serif 1\n@実況者\nこ・れ・は！　大番狂わせーッ！！\n\n# serif 1\n@実況者\nまだまだ勝敗は\nわからなくなってきたゾォー！\n\n# serif 1\n@実況者\nこういうことがあるから\nケイオスリオンの勝敗予想賭博は\nやめられない！！\n\n# serif 1\n@実況者\nでも公営ギャンブルですので\nご安心くださいネ！\n\n# alpha 3401311 1 0.5\n# alpha 3200411 1 0.5\n# move 3401311 4 0\n# move 3200411 2 0\n# mask 3401311 on\n# mask 3200411 on\n# serif 1\n# textwindow \"close\"\n# serif 0\n# textflame 1 1\n# textwindow \"nomal\"\n# textboxarrow 0 3\n# face 3200411 \"sad\"\n@アフロディーテ\n不服そうね？\n\n# voice 320041 \"parashu_a_0007\"\n# textboxarrow 0 1\n@パラシュ\n………ボクには\n愛が、ないんじゃなかったの\n\n# face 3401311 \"normal\"\n# textboxarrow 0 3\n@アフロディーテ\nまだね\nここには、ないみたい\n\n@アフロディーテ\nでもようやく見えましたわ\nあなたの、愛\n\n# textboxarrow 0 1\n# face 3200411 \"surprise\"\n@パラシュ\n…？\n\n# face 3401311 \"happy\"\n# textboxarrow 0 3\n@アフロディーテ\n“師弟愛”\n\n# textboxarrow 0 1\n@パラシュ\n………！！\n\n# textboxarrow 0 3\n@アフロディーテ\n実を言えば、この試合\nずぅーっと聞いていました\nずぅーっと見ていました\n\n@アフロディーテ\nあなたを\nあなた達を\n\n# voice 340131 \"aphrodite_a_0041\"\n@アフロディーテ\nだけれど感じてしまって\nいてもたっても\n\n# textboxarrow 0 1\n@パラシュ\n…\n\n# face 3200411 \"angry\"\n@パラシュ\nいい気なものじゃないか\n\n@パラシュ\n君との闘いのあと\nボクがどれだけ屈辱的だったか…\n\n# textboxarrow 0 3\n# face 3401311 \"happy\"\n@アフロディーテ\nだから、共に闘うことは出来ない？\n\n# textboxarrow 0 1\n@パラシュ\n…\n\n# voice 340131 \"aphrodite_a_0004\"\n# textboxarrow 0 3\n@アフロディーテ\n…ふふっ♪\n\n;;モノローグ\n# textflame 0 0\n@\n無言で顔をそむけるパラシュに\nアフロディーテは\n妖艶に微笑みかけ、口を開く\n\n# bgm \"stop\"\n# textflame 1 1\n# textboxarrow 0 3\n@アフロディーテ\nあなた\n\n@アフロディーテ\n…手段を選ぶ子\n………だったかしら？\n\n# textboxarrow 0 1\n@パラシュ\n………ボクの何を知って\n\n# face 3200411 \"surprise\"\n;;モノローグ\n# textflame 0 0\n@\n言いかけ、止まるパラシュ\n\n;;モノローグ\n@\n彼女の脳裏によみがえる\nルシファーの言葉\n\n# bgm \"bgm004\" 0\n;;モノローグ\n@\n『彼を知り\n己を知れば\n百戦危うからず』\n\n;;モヤモヤ\n# textflame 1 1\n# serif 0\n# move 3200411 2 0\n# textwindow \"moya\"\n# textboxarrow 0 0\n@パラシュ\n相手に触れ、相手を見て\n知り、そこに感じ入る\nアフロディーテ\n\n;;モヤモヤ\n@パラシュ\n仲間の呼吸を捉え、足並みを揃えて\n個では引き出せない力を発揮する\nフェイルノート達\n\n;;モヤモヤ\n@パラシュ\n自分ばかりに固執して\n敵を知ろうとも、興味を持つことすら\n捨てていたボク…！\n\n# voice 320041 \"parashu_a_0015\"\n# serif 0\n# textflame 1 1\n# textwindow \"nomal\"\n# textboxarrow 0 1\n@パラシュ\nボクは、ボクを\n追い求めて\n突き詰めて…\n\n# face 3200411 \"normal\"\n@パラシュ\n追い詰めて、いたのか\n\n;;モノローグ\n# textflame 0 0\n@\nアフロディーテは\nパラシュに近づき、ささやく\n\n# textflame 1 1\n# voice 340131 \"aphrodite_a_0003\"\n# face 3401311 \"normal\"\n# textboxarrow 0 3\n@アフロディーテ\nそう、自分への愛を持ち…\nそして敵であっても\n愛を持たなければ\n\n# textboxarrow 0 1\n@パラシュ\n…\n\n# voice 320041 \"parashu_a_0005\"\n# face 3200411 \"happy\"\n@パラシュ\n…ふふっ\n\n# voice 320041 \"parashu_a_0006\"\n@パラシュ\nあははははっ！\n\n# face 3401311 \"surprise\"\n# textboxarrow 0 3\n@アフロディーテ\nあら\n笑顔もかわいい\n\n# voice 320041 \"parashu_a_0002\"\n# textboxarrow 0 1\n@パラシュ\n君の愛の言葉に嘘はないね\n\n# face 3200411 \"normal\"\n@パラシュ\n尊敬するよ\nすごいな\n\n# voice 340131 \"aphrodite_a_0030\"\n# textboxarrow 0 3\n@アフロディーテ\nそれはご丁寧に\n\n# textboxarrow 0 1\n@パラシュ\nボクは愛なんて信じちゃいない\n\n# voice 320041 \"parashu_a_0028\"\n@パラシュ\nただ…\n\n# bgmfile \"bgm079_080\" \"BgmFTcollabo001\" 0\n@パラシュ\n闘いにも、仕事にも必要だよね\n競争相手にも\n協力相手にも…\n\n@パラシュ\n愛が無くても\n反目してても…\n\n# face 3200411 \"angry\"\n@パラシュ\n“信頼関係”っていうのがさ\n\n;;モノローグ\n# textflame 0 0\n@\nパラシュはアフロディーテを背に\n大斧を構えなおす\n\n# face 3401311 \"happy\"\n# textflame 1 1\n# textboxarrow 0 3\n@アフロディーテ\nそうでなくては\n\n@アフロディーテ\nわたしは\n頼ってくれる子\n嫌いじゃなくてよ？\n\n# textboxarrow 0 1\n@パラシュ\n聞き流そう\n\n# voice 340131 \"aphrodite_a_0007\"\n# textboxarrow 0 3\n@アフロディーテ\nつれなぁい\n\n# textboxarrow 0 1\n@パラシュ\n弁明も弁解も必要ないよ\n\n@パラシュ\n君の力は\n信じられる\n\n;;モノローグ\n# textflame 0 0\n@\nパラシュは\nアフロディーテに背を向けながら\nそう言った\n\n;;モノローグ\n@\nパラシュの背後で\nアフロディーテの優しい微笑みが\n感じられた、気がした\n\n# voice 310231 \"ascalon_a_0019\"\n# move 3102311 3 0\n# mask 3102311 off\n# alpha 3401311 0 0.5\n# alpha 3200411 0 0.5\n# alpha 3102311 1 0.5\n# textboxarrow 0 2\n# textflame 1 1\n# face 3102311 \"angry\"\n@アスカロン\n…試合、再開ですか？\n\n;;モノローグ\n# textflame 0 0\n@\nパラシュとアフロディーテの\n視線の先には\nアスカロン達\n\n# mask 3200411 off\n# move 3200411 3 0\n# alpha 3102311 0 0.5\n# alpha 3200411 1 0.5\n# textboxarrow 0 2\n# textflame 1 1\n# face 3200411 \"normal\"\n@パラシュ\n待たせたけれど\nそうしてもらえるかい？\n\n@パラシュ\n面倒、かけるけれど\n\n;;モノローグ\n# textflame 0 0\n@\nアスカロンは剣を構え直し…\n\n# se \"SE_5205\"\n# textflame 1 1\n# move 3102311 1 0\n# mask 3102311 on\n# alpha 3102311 1 0.5\n# alpha 167 1 0.5\n# alpha 3201911 1 0.5\n# alpha 3200411 0 0.5\n# textboxarrow 0 1\n# face 3201911 \"angry\"\n@アスカロン\n望むところです\n\n# textboxarrow 0 3\n@シユウ\nあそびたりなかったところだ！\n\n# voice 4019 \"failnaught_a_0007\"\n# textboxarrow 0 2\n@フェイルノート\n改めて\nいい試合にしましょうか\n\n# face 3200411 \"normal\"\n# textboxarrow 0 2\n# alpha 3102311 0 0.5\n# alpha 167 0 0.5\n# alpha 3201911 0 0.5\n# alpha 3200411 1 0.5\n@パラシュ\n…\n\n# face 3200411 \"happy\"\n@パラシュ\nまいったな\n\n@パラシュ\n悪い気はしない\n\n# voice 320041 \"parashu_a_0005\"\n# face 3200411 \"angry\"\n@パラシュ\n───期待に応えてみせるよ\n"
	}
]