[
	{
		"ID": 415023033,
		"script": ";;【EP3バトル後】\n;;背景：戦場・夕方\n# bgm \"bgm005\" 0\n# background \"300_devil_daytime01\"\n# body 3200411\n# pos 3200411 4\n# scale 3200411 0.8 0\n# body 3401311\n# pos 3401311 4\n# scale 3401311 0.8 0\n# alpha 3401311 0 0\n# body 3102311\n# pos 3102311 2\n# scale 3102311 0.8 0\n# alpha 3102311 0 0\n# body 3201911\n# pos 3201911 4\n# scale 3201911 0.8 0\n# alpha 3201911 0 0\n# body 167\n# pos 167 2\n# layer 167 3\n# scale 167 0.8 0\n# textwindow \"nomal\"\n# textflame 1 1\n# textboxarrow 0 3\n@パラシュ\nボクらの\n勝ちだ\n\n# textboxarrow 0 1\n@フェイルノート\n………\n\n# voice 4019 \"failnaught_a_0007\"\n# rightin unit_id time\n# textboxarrow 0 1\n@フェイルノート\n…本気に、なったのね\n\n# voice 340131 \"aphrodite_a_0005\"\n# alpha 3401311 1 0.5\n# alpha 3200411 0 0.5\n# textboxarrow 0 3\n@アフロディーテ\n何のことかしら\n\n# alpha 167 0 0.5\n# voice 320191 \"chihyu_a_0038\"\n# alpha 3401311 0 0.5\n# alpha 3200411 0 0.5\n# alpha 3201911 1 0.5\n# alpha 3102311 1 0.5\n# textboxarrow 0 3\n# face 3201911 \"sad\"\n# face 3102311 \"sad\"\n@シユウ\nぐううぅっっ…！\nしょだい、ゆうしょうしゃ…\nさすがだぞ…！\n\n# voice 310231 \"ascalon_a_0026\"\n# textboxarrow 0 1\n@アスカロン\nパラシュも…\n相変わらず…！\n\n# alpha 3102311 0 0.5\n# alpha 3201911 0 0.5\n# textflame 0 0\n;;モノローグ\n@\nアフロディーテの加勢は大きかった\n\n;;モノローグ\n@\n先の闘いで疲弊していた\nアスカロン達の足の遅さを見抜き\nアフロディーテが狙い撃つ\n\n;;モノローグ\n@\nその援護を受け\nパラシュが各個撃破を成す\n\n;;モノローグ\n@\nパラシュの思い切りの良さに\nフェイルノートの指揮も\n間に合わず…\n\n;;モノローグ\n@\nパラシュとアフロディーテは\nアスカロン達を破ることに成功する\n\n# voice 340131 \"aphrodite_a_0004\"\n# textflame 1 1\n# textboxarrow 0 3\n# alpha 3401311 1 0.5\n# alpha 3200411 1 0.5\n# move 3200411 2 0\n# face 3401311 \"happy\"\n@アフロディーテ\n愛の勝利ですわね\n\n# voice 320041 \"parashu_a_0028\"\n# textboxarrow 0 1\n@パラシュ\nうん、まあ、ちがうかな\n\n# voice 340131 \"aphrodite_a_0008\"\n# face 3401311 \"sad\"\n# textboxarrow 0 3\n@アフロディーテ\nつれなぁい\n\n# face 3200411 \"sad\"\n# textboxarrow 0 1\n@パラシュ\n…ボクだけなら\n敗けていたんだ\n\n@パラシュ\n醜い、やり方さ\n\n# voice 340131 \"aphrodite_a_0003\"\n# face 3401311 \"usual\"\n# textboxarrow 0 3\n@アフロディーテ\n勝利には、どんな勝利であれ\n一片の醜さもありませんわ？\n\n@アフロディーテ\nそこにあるのは仕事の結果\n\n# voice 340131 \"aphrodite_a_0005\"\n@アフロディーテ\n真に美しきは\n勝利へ向かう高潔な意志\n\n@アフロディーテ\nそれ以上に美しきは\n愛を求めて\nもがく強さ\n\n# face 3200411 \"normal\"\n# textboxarrow 0 1\n@パラシュ\n…\n\n# textboxarrow 0 3\n@アフロディーテ\n敗けようと\n捨てられようと\n\n;;モノローグ\n# textflame 0 0\n@\nアフロディーテは\nパラシュに優しく\nそして力強く言葉をかける\n\n# voice 320041 \"parashu_a_0002\"\n# textflame 1 1\n# textboxarrow 0 1\n@パラシュ\n…君というヒトが\n少し知れた気がする\n\n# textboxarrow 0 3\n@アフロディーテ\n愛が生まれそうかしら\n\n# textboxarrow 0 1\n@パラシュ\nそれはないね\n\n# voice 340131 \"aphrodite_a_0019\"\n# textboxarrow 0 3\n@アフロディーテ\nそれは残念\n\n# textboxarrow 0 1\n@パラシュ\n求める愛が\nこの先に\nまだあるんだ\n\n@パラシュ\nボクには、まだ\n\n# voice 340131 \"aphrodite_a_0004\"\n# textboxarrow 0 3\n@アフロディーテ\n…ふふっ\n\n# voice 340131 \"aphrodite_a_0020\"\n@アフロディーテ\n高まりますわ♪\n\n@アフロディーテ\nあなたへの、期待がね？\n\n# se \"SE_4816\"\n# bgm \"stop\"\n;;モノローグ\n# textflame 0 0\n@\nパラシュは\nアフロディーテに笑いかけると\n大斧を地に降ろす\n\n# voice 320041 \"parashu_a_0030\"\n# bgmfile \"bgm293\" \"BgmLostRagnarokSideStory\" 0\n# textboxarrow 0 1\n# textflame 1 1\n@パラシュ\n…アスカロン\nありがとう\n\n# voice 310231 \"ascalon_a_0022\"\n# textboxarrow 0 2\n# textflame 1 1 \n# move 3102311 3 0\n# mask 3102311 off\n# alpha 3102311 1 0.5\n# alpha 3200411 0 0.5\n# alpha 3401311 0 0.5\n@アスカロン\n…なんのことです…？\n\n# alpha 3102311 0 0.5\n# alpha 3200411 1 0.5\n# alpha 3401311 1 0.5\n# textboxarrow 0 1\n@パラシュ\n王都を守り\nひいてはボクの師でもある\nルシファーの国を守った\n\n@パラシュ\n君達は\n王都を襲ったトレイセーマとの戦闘で\n深手を負った\n\n@パラシュ\n礼と、詫びを言うのが筋だと\n今頃になって気づいた\n\n# voice 4019 \"failnaught_a_0009\"\n# move 167 3 0\n# textboxarrow 0 2\n# mask 167 off\n# alpha 167 1 0.5\n# alpha 3200411 0 0.5\n# alpha 3401311 0 0.5\n@フェイルノート\n勝負のあとの\n今になって言われると\n皮肉に聞こえるわ\n\n# voice 320041 \"parashu_a_0028\"\n# alpha 167 0 0.5\n# alpha 3200411 1 0.5\n# alpha 3401311 1 0.5\n# textboxarrow 0 1\n@パラシュ\n礼というか、詫びというか\nそういったものになるかは\nわからないけど…\n\n@パラシュ\nこの勝利を\n譲らせてくれないかい\n\n# voice 4019 \"failnaught_a_0022\"\n# mask 3102311 on\n# move 3102311 1 0\n# alpha 3201911 1 0.5\n# alpha 3102311 1 0.5\n# alpha 167 1 0.5\n# alpha 3200411 0 0.5\n# alpha 3401311 0 0.5\n# face 3201911 \"surprise\"\n# textboxarrow 0 2\n@フェイルノート\n…！？\n\n# voice 320191 \"chihyu_a_0021\"\n# textboxarrow 0 3\n@シユウ\nシユウたちの\nかちでイイっていうのかっ？？\n\n# alpha 3201911 0 0.5\n# alpha 3102311 0 0.5\n# alpha 167 0 0.5\n# alpha 3200411 1 0.5\n# alpha 3401311 1 0.5\n# textboxarrow 0 1\n@パラシュ\nボクは正式な試合であれば\n一度、敗けている\n\n# textboxarrow 0 1\n@パラシュ\nアフロディーテがいなければ\n\n# textboxarrow 0 3\n@アフロディーテ\n…律儀ですわねえ\n\n# alpha 3200411 0 0.5\n# alpha 3401311 0 0.5\n# alpha 3102311 1 0.5\n# textboxarrow 0 2\n# textflame 1 1 \n# move 3102311 3 0\n# mask 3102311 off\n# face 3102311 \"surprise\"\n@アスカロン\nだ、だけど、いいんですか\nパラシュの望みは\nあなたの闘いは…！？\n\n# voice 320041 \"parashu_a_0003\"\n# alpha 3200411 1 0.5\n# alpha 3401311 1 0.5\n# alpha 3102311 0 0.5\n# textboxarrow 0 1\n@パラシュ\n敵を知り、己を知った\n\n@パラシュ\n敵の強さを知り\n己の弱さを知った\n\n@パラシュ\nそして、ボク自身の\n怠惰を悔いた\n\n@パラシュ\nこれはボクへの審問\n勝利よりも求めるべき\n自分への審判\n\n# textboxarrow 0 3\n@アフロディーテ\n…\n\n# textboxarrow 0 1\n@パラシュ\nその代わりと言ってはなんだけど…\n\n# alpha 3200411 0 0.5\n# alpha 3401311 0 0.5\n# alpha 167 1 0.5\n# textboxarrow 0 2\n@フェイルノート\n何かしら\n\n# mask 3200411 off\n# move 3200411 3 0\n# textboxarrow 0 2\n# alpha 167 0 0.5\n# alpha 3200411 1 0.5\n@パラシュ\n君達の理想を\n教えて欲しい\n\n@パラシュ\nこれから君達が\nどう、進んでいこうとしているのか\n\n# alpha 3200411 0 0.5\n# alpha 167 1 0.5\n@フェイルノート\n…\n\n@フェイルノート\n“王道を敷く”\n\n# textboxarrow 0 2\n# alpha 167 0 0.5\n# alpha 3200411 1 0.5\n# face 3200411 \"surprise\"\n@パラシュ\n王道…\n\n# alpha 3200411 0 0.5\n# alpha 167 1 0.5\n@フェイルノート\n理想郷までの最短ルートを取る\nそして平和への地盤固めを\n\n# voice 320041 \"parashu_a_0009\"\n# alpha 167 0 0.5\n# alpha 3200411 1 0.5\n@パラシュ\n…平和…こんな、国中\n争いが絶えず混沌としている中\nそんなものが得られるとでも…？\n\n# mask 3102311 on\n# move 3201911 4 0\n# move 3102311 2 0\n# alpha 3200411 0 0.5\n# alpha 3102311 1 0.5\n# alpha 3201911 1 0.5\n# face 3201911 \"angry\"\n# face 3102311 \"angry\"\n# textboxarrow 0 1\n@アスカロン\nその為に\nジャイアント・キリングを成し遂げる\n\n# textboxarrow 0 3\n@シユウ\nきょじんごろしだなっ！\nルシファーをたおす！\n\n# alpha 3201911 0 0.5\n# alpha 3102311 0 0.5\n# alpha 3200411 1 0.5\n# textboxarrow 0 2\n@パラシュ\n…！\n\n# alpha 3200411 0 0.5\n# alpha 167 1 0.5\n@フェイルノート\n争いが絶えないのなら\n闘いが終わらないのなら\n進むべき道は一つでしょう？\n\n# voice 320041 \"parashu_a_0022\"\n# textboxarrow 0 1\n# mask 3200411 on\n# move 3200411 2 0\n# alpha 167 0 0.5\n# alpha 3200411 1 0.5\n# alpha 3401311 1 0.5\n@パラシュ\n何…？\n\n# textboxarrow 0 3\n@アフロディーテ\n…\n\n# alpha 167 1 0.5\n# alpha 3200411 0 0.5\n# alpha 3401311 0 0.5\n# textboxarrow 0 2\n@フェイルノート\n───闘いの、決着をつけるのよ\n\n# se \"SE_0742\"\n# textwindow \"close\"\n# fadeout \"black\" 0.5\n# waitandnext 0.5\n\n# alpha 167 0 0\n# background \"bg_black\"\n# waitandnext 0.5\n\n# fadein \"black\" 0.5\n# waitandnext 0.5\n\n# textwindow \"nomal\"\n# textflame 1 1\n# textboxarrow 0 0\n@ルシファー\n貴様の望みとは、なんだ？\n\n@パラシュ\nえ、ですから…\n\n@ルシファー\n我と同じ望みを持つ者など\n要らぬ\n\n@パラシュ\n…！？\n\n@ルシファー\n貴様の理想は、そうではなかろう\n\n# se \"SE_0742\"\n# textwindow \"close\"\n# fadeout \"black\" 0.5\n# waitandnext 0.8\n\n# fadein \"black\" 0.5\n# waitandnext 0.5\n\n# textwindow \"nomal\"\n# textflame 1 1\n# textboxarrow 0 0\n@ルシファー\n彼を知り\n己を知れば\n百戦危うからず\n\n@ルシファー\n闘いの常道すら\n貴様は見失っている\n\n@ルシファー\n───期待、はずれよ\n\n# textwindow \"close\"\n# fadeout \"black\" 0.5\n# waitandnext 0.8\n\n# fadein \"black\" 0.5\n# waitandnext 0.5\n\n# se \"SE_0742\"\n# textwindow \"nomal\"\n# textflame 1 1\n# textboxarrow 0 0\n@パラシュ\n必死だよ、ボクも\n\n@パラシュ\n最短で勝つ\nその道しか今のボクにはない\n\n@パラシュ\nその為の手段は問わない\n\n@パラシュ\nボクは、期待に応えるんだ\n\n# textwindow \"close\"\n# fadeout \"black\" 0.5\n# waitandnext 0.5\n\n# background \"300_devil_daytime01\"\n# face 3200411 \"normal\"\n# mask 3200411 off\n# move 3200411 3 0\n# alpha 3200411 1 0.5\n# waitandnext 0.5\n\n# fadein \"black\" 0.5\n# waitandnext 0.5\n\n# textwindow \"nomal\"\n# textflame 1 1\n# textboxarrow 0 2\n@パラシュ\n…\n\n@パラシュ\nそう、か\n\n@パラシュ\n功績には褒章を\n与えられた力には成果\n\n@パラシュ\n闘いが始まれば\n決着を…\n\n# voice 320041 \"parashu_a_0040\"\n# bgm \"stop\"\n@パラシュ\nそうだ、ようやくわかった\n\n# textflame 1 1 \n# move 3102311 3 0\n# mask 3102311 off\n# alpha 3200411 0 0.5\n# alpha 3102311 1 0.5\n# textboxarrow 0 2\n# voice 310231 \"ascalon_a_0022\"\n@アスカロン\nえ？\n\n# mask 3200411 on\n# move 3200411 2 0\n# textboxarrow 0 1\n# alpha 3102311 0 0.5\n# alpha 3401311 1 0.5\n# alpha 3200411 1 0.5\n@パラシュ\nボクの、本当の理想\n\n# voice 340131 \"aphrodite_a_0005\"\n# textboxarrow 0 3\n@アフロディーテ\n………ふふっ\n聞かせてくれる？\n\n# bgmfile \"bgm294\" \"BgmLostRagnarokSideStory\" 0\n# textboxarrow 0 1\n@パラシュ\n…師匠はボクに\n教えを説いていたわけじゃない\n\n@パラシュ\nそもそも暴虐の王\n全ては闘争の為の御膳立て\n\n@パラシュ\nだとすれば\nボクは闘いを求められていたんだ\nそれに、答えなければ\n\n@パラシュ\n───師を超える\nそれが、ボクの理想だ\n\n# face 3401311 \"happy\"\n# textboxarrow 0 3\n@アフロディーテ\n…でしょうね\n\n# voice 320041 \"parashu_a_0004\"\n# textboxarrow 0 1\n@パラシュ\n愛が見えた？\n\n# textboxarrow 0 3\n@アフロディーテ\n深くも、ウブな愛がね\n\n# voice 4019 \"failnaught_a_0039\"\n# textboxarrow 0 2\n# alpha 167 1 0.5\n# alpha 3401311 0 0.5\n# alpha 3200411 0 0.5\n@フェイルノート\nなるほどね\n\n@フェイルノート\nそれなら丁度\n行き先は一緒\n\n@フェイルノート\nどうかしら？\n私の手駒達と\n共に進むというのは？\n\n# voice 320041 \"parashu_a_0028\"\n# textboxarrow 0 1\n# alpha 167 0 0.5\n# alpha 3401311 1 0.5\n# alpha 3200411 1 0.5\n@パラシュ\n…うん\n\n@パラシュ\nそうだった\n\n# face 3200411 \"angry\"\n@パラシュ\nボクは理想を達成する為なら\n手段を選ばないんだ\n\n# face 3200411 \"normal\"\n@パラシュ\n一緒に行こう\n\n# voice 320191 \"chihyu_a_0021\"\n# move 3102311 2 0\n# mask 3102311 on\n# textboxarrow 0 3\n# alpha 3401311 0 0.5\n# alpha 3200411 0 0.5\n# alpha 3102311 1 0.5\n# alpha 3201911 1 0.5\n# face 3201911 \"happy\"\n# face 3102311 \"happy\"\n@シユウ\nだいかんげいだぞ！\n\n# textboxarrow 0 1\n@アスカロン\nパラシュ…！\n\n# move 3200411 4 0\n# alpha 3201911 0 0.5\n# alpha 3200411 1 0.5\n# textboxarrow 0 3\n@パラシュ\nボクがルシファーを倒す\n\n# voice 310231 \"ascalon_a_0005\"\n# textboxarrow 0 1\n@アスカロン\n負けませんよ！\n\n# textboxarrow 0 3\n@パラシュ\n敗けないさ\nボクらなら\n\n# voice 310231 \"ascalon_a_0003\"\n# textboxarrow 0 1\n@アスカロン\n…はいっ！\n\n# textboxarrow 0 3\n@パラシュ\n期待はしない\n\n@パラシュ\nだけど、成果から見て\n信頼には足るからね\n\n# alpha 3200411 0 0.5\n# alpha 3102311 0 0.5\n# textflame 0 0\n@\nパラシュは目を逸らしながら\n皮肉っぽく笑い…\n\n# textflame 1 1\n# move 3200411 2 0\n# textboxarrow 0 1\n# alpha 3401311 1 0.5\n# alpha 3200411 1 0.5\n@パラシュ\n…アフロディーテ\n\n# voice 340131 \"aphrodite_a_0032\"\n# face 3401311 \"surprise\"\n# textboxarrow 0 3\n@アフロディーテ\nはぁい？\n\n# textboxarrow 0 1\n@パラシュ\n君は、ボクの味方だって\n言ってくれたね\n\n# textboxarrow 0 3\n# face 3401311 \"usual\"\n@アフロディーテ\nわたしは\n美と愛の味方ですわよ？\n\n# textboxarrow 0 1\n@パラシュ\n奔放だね\n\n# voice 340131 \"aphrodite_a_0003\"\n# face 3401311 \"happy\"\n# textboxarrow 0 3\n@アフロディーテ\nだからこそ\n愛溢れる所には\nわたしがいる\n\n# alpha 3200411 0 0.5\n# alpha 3102311 1 0.5\n# move 3102311 2 0\n# mask 3102311 on\n# face 3102311 \"sad\"\n# textboxarrow 0 1\n@アスカロン\nはぁ…\n\n# face 3401311 \"usual\"\n# textboxarrow 0 3\n@アフロディーテ\n美しき終わりが見える所に\nわたしを置く\n\n# voice 310231 \"ascalon_a_0022\"\n# textboxarrow 0 1\n# face 3102311 \"surprise\"\n@アスカロン\nあ、あなたも\n一緒に闘ってくれるんですか…！？\nう、美しいアフロディーテ…！\n\n# voice 340131 \"aphrodite_a_0008\"\n# face 3401311 \"sad\"\n# textboxarrow 0 3\n@アフロディーテ\nあ、もうその呼び名は美しくないから\nやめてよろしくってよ？\n\n# voice 310231 \"ascalon_a_0017\"\n# face 3102311 \"sad\"\n# textboxarrow 0 1\n@アスカロン\nううっ、うううっ！！\n\n# textboxarrow 0 3\n# face 3401311 \"usual\"\n@アフロディーテ\n愛を手に入れる為\nそしてその為に国一個をひっくり返す\nその滅びに向かう美しさ…！\n\n@アフロディーテ\nフェイルノート\nあなたの弱さ儚さから来る\nその知性と、滲み出る恐怖\n\n# move 167 2 0\n# alpha 3102311 0 0.5\n# alpha 167 1 0.5\n# textboxarrow 0 1\n@フェイルノート\nあ、ええ、どうも\n\n# textboxarrow 0 3\n@アフロディーテ\nそれでも溢れる野心と勇気\nピンと張りつめた糸のよう\n極めて細い綱渡りのよう…\n\n@アフロディーテ\nそしてそれは\n親しき仲間の為…\n\n# voice 340131 \"aphrodite_a_0041\"\n# face 3401311 \"happy\"\n@アフロディーテ\nあああっ\n\n@アフロディーテ\n愛\nしてますわね\n\n# textboxarrow 0 1\n@フェイルノート\n…\n\n# voice 4019 \"failnaught_a_0004\"\n@フェイルノート\nきっと、あなたの為にもなるわ\n\n# face 3401311 \"surprise\"\n# textboxarrow 0 3\n@アフロディーテ\nあら？\n\n# textboxarrow 0 1\n@フェイルノート\n飽きたでしょう？\nいい加減\n勝ちの見えた闘いは\n\n# voice 340131 \"aphrodite_a_0005\"\n# textboxarrow 0 3\n# face 3401311 \"happy\"\n@アフロディーテ\n………ふふふっ\n確かに\n\n@アフロディーテ\n滾りますわ♪\n\n# voice 320041 \"parashu_a_0006\"\n# face 3200411 \"happy\"\n# alpha 167 0 0.5\n# alpha 3200411 1 0.5\n# textboxarrow 0 1\n@パラシュ\n………あははっ\n\n# face 3401311 \"surprise\"\n# textboxarrow 0 3\n@アフロディーテ\nなあに？\n\n# textboxarrow 0 1\n@パラシュ\nいや。結局、知ってみれば\nみんな同じ所を\n目指していたんだなって思って\n\n# face 3201911 \"surprise\"\n# textboxarrow 0 3\n# alpha 3401311 0 0.5\n# alpha 3201911 1 0.5\n@シユウ\nおなじところ？\n\n# textboxarrow 0 1\n@パラシュ\n闘争と暴虐の中でも\nこうやって寄り合える\n\n@パラシュ\n目的はどうあれ\n敗けたくないんだ\n\n@パラシュ\n自分に\n\n@パラシュ\n相手に\n\n@パラシュ\n終わらせたいんだ、闘いを\n決着をつけたいんだ、すべてに\n\n@パラシュ\n───勝ちたいんだ。みんな\n\n# alpha 3201911 0 0.5\n# alpha 3200411 0 0.5\n;;モノローグ\n# textflame 0 0\n@\nかくして…\n\n;;モノローグ\n@\nフェイルノートの下に\nカルマキラーズ四姫が揃う\n\n# textboxarrow 0 2\n# move 167 3 0\n# alpha 167 1 0.5\n# textflame 1 1\n@フェイルノート\n駒は揃った\n\n# voice 310231 \"ascalon_a_0026\"\n# move 3201911 4 0\n# move 3102311 2 0\n# face 3201911 \"angry\"\n# face 3102311 \"angry\"\n# alpha 167 0 0.5\n# alpha 3102311 1 0.5\n# alpha 3201911 1 0.5\n# textboxarrow 0 1\n@アスカロン\n相手は\n私達カルマキラーズの創造主\n\n# voice 320191 \"chihyu_a_0013\"\n# textboxarrow 0 3\n@シユウ\nあいてにとって\nふそくはないなっ！\n\n# voice 320041 \"parashu_a_0007\"\n# alpha 3102311 0 0.5\n# alpha 3201911 0 0.5\n# alpha 3200411 1 0.5\n# mask 3200411 off\n# move 3200411 3 0\n# textboxarrow 0 2\n@パラシュ\n天使に出来て\n悪魔に出来ないことはないよ\n\n# face 3102311 \"surprise\"\n# textboxarrow 0 1\n# alpha 3102311 1 0.5\n# alpha 3201911 1 0.5\n# alpha 3200411 0 0.5\n@アスカロン\n何の話です？\n\n# alpha 3102311 0 0.5\n# alpha 3201911 0 0.5\n# alpha 3200411 1 0.5\n# textboxarrow 0 2\n@パラシュ\nハルモニアは\n国主ミカエルを討ち倒した\nらしい\n\n# voice 340131 \"aphrodite_a_0013\"\n# move 3401311 3 0\n# mask 3401311 off\n# face 3401311 \"happy\"\n# alpha 3200411 0 0.5\n# alpha 3401311 1 0.5\n# textboxarrow 0 2\n@アフロディーテ\n………アラァ♪\n\n# face 3201911 \"surprise\"\n# textboxarrow 0 3\n# move 167 2 0\n# alpha 3401311 0 0.5\n# alpha 3201911 1 0.5\n# alpha 167 1 0.5\n@シユウ\nセイントキラーズがか…！？\nフォルカスもか…！？\n\n# textboxarrow 0 1\n@フェイルノート\n…どうやって\n\n# textboxarrow 0 3\n# move 3200411 4 0\n# alpha 3201911 0 0.5\n# alpha 3200411 1 0.5\n@パラシュ\n方法まではね\nだけど、ボクらには\nそれを考える策士がいるだろう？\n\n# textboxarrow 0 1\n@フェイルノート\n手段は選ばないけれど？\n\n# textboxarrow 0 3\n@パラシュ\n望むところだね\n\n;;モノローグ\n# textflame 0 0\n@\nフェイルノートは\n少し思案を巡らせ…\n\n# textflame 1 1\n# textboxarrow 0 1\n@フェイルノート\n…私が駒を進めてみせるわ\n\n@フェイルノート\n…囲んで攻めて\nチェックメイトに\n\n@フェイルノート\nちょっと卑怯かしらね？\n\n# voice 320041 \"parashu_a_0032\"\n# textboxarrow 0 3\n@パラシュ\nゲーム的には定石\n正道だろうね\n人道的には邪道だろうけど…\n\n# mask 3401311 off\n# move 3401311 4 0\n# alpha 3200411 0 0.5\n# alpha 3401311 1 0.5\n@アフロディーテ\nわたしたち悪魔となればね？\n\n# alpha 167 0 0.5\n# move 3201911 4 0\n# move 3102311 2 0\n# alpha 3201911 1 0.5\n# alpha 3102311 1 0.5\n# alpha 3401311 0 0.5\n# textboxarrow 0 3\n# face 3201911 \"angry\"\n@シユウ\nくらいつくしてやる！\n\n# face 3102311 \"angry\"\n# textboxarrow 0 1\n@アスカロン\n邪道でさえも\n王道に築き上げましょう\n\n# voice 310231 \"ascalon_a_0029\"\n@アスカロン\n勝って、進むんです\n\n# alpha 3201911 0 0.5\n# alpha 3102311 0 0.5\n;;モノローグ\n# textflame 0 0\n@\nフェイルノートは\n少女のように無邪気に\nそれでいて不相応なほど落ち着いて…\n\n# move 167 3 0\n;;モノローグ\n@\n４人の姫に手を差し伸べる\n\n# voice 4019 \"failnaught_a_0004\"\n# textflame 1 1\n# textboxarrow 0 2\n# alpha 167 1 0.5\n@フェイルノート\n───最後のゲームを\n始めましょうか\n"
	}
]