[
	{
		"ID": 50042202,
		"script": "# script \"lisp\"\n# background \"foot_mountain_village\"\n# bgm \"bgm003\" 0\n# body 500422\n# mask 500422 off\n# pos 500422 3\n# textboxarrow 0 2\n# chara 500422\n@ブラフマーストラ\nもう、ダメね！マスター！\n身体、硬すぎよ？\n\n# chara 500422\n@ブラフマーストラ\nしょうがないなぁ、\n一から教えてあげるわ…\n文字通り、手取り足取りね\n\n# chara 500422\n@ブラフマーストラ\nもっと伸ばして！\nそんなに痛くないでしょ！？\nもう…大袈裟なんだから！\n\n# face 500422 \"happy\"\n# chara 500422\n@ブラフマーストラ\nお！？\nいいわよ、その調子！\n\n# voice 5004 \"burafumasutora_0040\"\n# chara 500422\n@ブラフマーストラ\nできたじゃない、マスター！\nいい感じ、姿勢も美しいわ！\n\n# select \"ヨガって…いいな…心が清々しくなる\" \"select_label_01\" \"ヨガって案外気持ちいいもんなんだな\" \"select_label_02\" \"意外と面倒見いいね？知らなかった\" \"select_label_03\"\nできたじゃない、マスター！\nいい感じ、姿勢も美しいわ！\n\n# label \"select_label_01\"\n# labeljump \"select_label_end\"\n# face 500422 \"normal\"\n# chara 500422\n@ブラフマーストラ\nお？わかってきたじゃない、\nマスター！\nじゃあ、次のステップ行っちゃう？\n\n# label \"select_label_02\"\n# labeljump \"select_label_end\"\n# face 500422 \"normal\"\n# chara 500422\n@ブラフマーストラ\nふふ、じゃあ…\nもっと気持ちいい世界…覗いちゃう？\n\n# label \"select_label_03\"\n# labeljump \"select_label_end\"\n# face 500422 \"normal\"\n# chara 500422\n@ブラフマーストラ\nあら？今頃、気付いたの？\nまったく見る目ないんだから、アハハ\n\n# label \"select_label_end\"\n# chara 500422\n@ブラフマーストラ\nじゃあ、マスターの身体も\nいい感じに柔らかくなってきたし、\nそろそろ仕上げといきますか\n\n# chara 500422\n@ブラフマーストラ\n次に鍛えるのは…精神よ！\n“瞑想”で雑念を取り払うの！\n\n# chara 500422\n@ブラフマーストラ\nいつも戦いの中に身を置いてんだもん\n日頃から精神も鍛えとかなきゃ？\nて事で、やってみよ！\n\n# textflame 0 0\n@\n雑念を取り払えと彼女は言っているが\nどうもマスターはといえば…\n\n# textflame 0 0\n@\n彼女の大胆な衣装からのぞく\n“健康美”に\n目がいってしまっている…"
	}
]