[
	{
		"ID": 50085202,
		"script": "# script \"lisp\"\n# background \"town\"\n# bgm \"bgm006\" 0\n# body 500851\n# pos 500851 5\n# mask 500851 off\n# textboxarrow 0 2\n# chara 500851\n# move 500851 3 1\n#se \"SE_0665\"\n# face 500851 \"angry\"\n# voice 5008 \"bashosen_kyara_1010\"\n# textflame 1 1\n@芭蕉扇\n待ちなさい！\nあなた！！\n\n# chara 500851\n# voice 5008 \"bashosen_0016\"\n@芭蕉扇\n私と結婚するの！？\nしないの！？\nどっちなの！？\n\n# textflame 0 0\n@\nウェディングドレスとは言え、\nキル姫の脚力にとうとう\n追いつかれるマスター\n\n# textflame 1 1\n# chara 500851\n# face 500851 \"sad\"\n# voice 5008 \"bashosen_0013\"\n@芭蕉扇\nあなたという御人は、\n一体どれほど女を待たせれば\n気が済むのか…\n\n# chara 500851\n# face 500851 \"angry\"\n# voice 5008 \"bashosen_kyara_1007\"\n@芭蕉扇\nほら！\n早く私に結婚の誓いの\nキスをしなさい！！\n\n# textflame 0 0\n@\n迫られるマスター\nすぐさま返事が出来ない彼に、\n彼女が寂しそうに告げた\n\n# bgm \"bgm003\" 0\n# chara 500851\n# textflame 1 1\n# face 500851 \"sad\"\n# voice 5008 \"bashosen_unit_1011\"\n@芭蕉扇\n本当のところ、\nあなたは私のこと…\n\n# chara 500851\n@芭蕉扇\n…どう思ってるのです？\n\n# chara 500851\n@芭蕉扇\n高飛車で傲慢、\n独占欲が強くてヒステリー\n気が強く好戦的ですぐに怒る…\n\n# chara 500851\n# voice 5008 \"bashosen_0015\"\n@芭蕉扇\nそんな女は…\nやっぱり結婚に向かないと\n思ってるの…？\n\n# textflame 0 0\n@\n彼女が寂し気に\nマスターの顔を覗き込む\n\n# select \"高飛車だけど…思いやりもあるよ\" \"select_label_01\" \"独占欲は強いけど…純粋だと思ってる\" \"select_label_02\" \"すぐに怒るけど…優しさも人一倍だよ\" \"select_label_03\"\n彼女が寂し気に\nマスターの顔を覗き込む\n\n# label \"select_label_01\"\n# labeljump \"select_label_end\"\n# face 500851 \"sad\"\n# textflame 1 1\n# chara 500851\n@芭蕉扇\n思いやり…？本当に…？\n\n# label \"select_label_02\"\n# labeljump \"select_label_end\"\n# face 500851 \"sad\"\n# textflame 1 1\n# chara 500851\n@芭蕉扇\n純粋…？この私が…？\n\n# label \"select_label_03\"\n# labeljump \"select_label_end\"\n# face 500851 \"sad\"\n# textflame 1 1\n# chara 500851\n@芭蕉扇\n優しい…？嘘じゃなくて…？\n\n# label \"select_label_end\"\n# chara 500851\n# face 500851 \"sad\"\n@芭蕉扇\n本当にそう思ってる…？\n思ってくれている…？\n\n# chara 500851\n# face 500851 \"normal\"\n# voice 5008 \"bashosen_0037\"\n@芭蕉扇\n…ということは、\n他の姫ではなく\n私と結婚してくれるのね…？\n\n# textflame 0 0\n@\n真剣な眼差しで、\n見つめてくる彼女\n\n@\n大きな決断を迫られる\nマスターだった\n"
	}
]