[
	{
		"ID": 50131304,
		"script": "# script \"lisp\"\n# background \"ghost_town\"\n# bgm \"bgm002\" 0\n# body 501311\n# mask 501311 off\n# pos 501311 3\n# textboxarrow 0 2\n# chara 501311\n# textflame 0 0\n@\nあれから数日後─\n\n@\nほむらを探しているマスター\n\n# textflame 1 1\n# chara 501311\n# voice 5013 \"homura_kyara_1004\"\n@暁美ほむら\n…あら\n\n# textflame 0 0\n@\n彼女は、先日２人で入った\nカフェにいた\n\n# textflame 1 1\n# chara 501311\n@暁美ほむら\nあなたが言ったのよ？\n\"果報は寝て待て\"って\n\n# chara 501311\n# face 501311 \"amazed\"\n# voice 5013 \"homura_0033\"\n@暁美ほむら\n大丈夫よ\nただ、ぼーっと\n待ってるわけじゃないから\n\n# textflame 0 0\n@\nそう言うと、\n彼女のソウルジェムが\n輝き始めた\n\n# textflame 1 1\n# chara 501311\n# face 501311 \"angry\"\n@暁美ほむら\n\"来たるべき時\"に備え、\nちゃんと力は蓄えているわ\n\n#se \"SE_0602\"\n# chara 501311\n@暁美ほむら\n新奥義…\n『時を越えた願い』は\n完成している\n\n# textflame 0 0\n@\nその光に大きさに驚くマスター\n\n# textflame 1 1\n# face 501311 \"normal\"\n# chara 501311\n@暁美ほむら\nもう焦ったりはしない…\n\n# chara 501311\n@暁美ほむら\n\"時\"を見極め…\n今度こそ確実に勝利する\n\n# chara 501311\n# face 501311 \"happy\"\n# voice 5013 \"homura_0004\"\n@暁美ほむら\nそう思わせてくれたのは…\nあなたよ\n\n# chara 501311\n# face 501311 \"amazed\"\n@暁美ほむら\n私は、ずっと一人で戦ってきた…\n数多の世界を飛び越え、\nずっと一人で…\n\n# chara 501311\n# face 501311 \"sad\"\n@暁美ほむら\nそれは…孤独な戦いだったわ\n\n# chara 501311\n# face 501311 \"amazed\"\n@暁美ほむら\nでも、この世界に来て、\nあなたと出逢った…\n\n# chara 501311\n# face 501311 \"normal\"\n@暁美ほむら\nあなたの存在は…\n\n# chara 501311\n# face 501311 \"amazed\"\n# voice 5013 \"homura_0015\"\n@暁美ほむら\n……\n\n# textflame 0 0\n@\nそう言ったきり、\n口をつぐんだほむら\n\n# select \"え？なに…？\" \"select_label_01\" \"僕の存在は…？\" \"select_label_02\" \"ちゃんと聞くよ\" \"select_label_03\"\nそう言ったきり、\n口をつぐんだほむら\n\n# label \"select_label_01\"\n# labeljump \"select_label_end\"\n# textflame 1 1\n# chara 501311\n# face 501311 \"normal\"\n@暁美ほむら\n……別に\n\n# label \"select_label_02\"\n# labeljump \"select_label_end\"\n# textflame 1 1\n# chara 501311\n# face 501311 \"amazed\"\n@暁美ほむら\n…自分で考えたら？\n\n# label \"select_label_03\"\n# labeljump \"select_label_end\"\n# textflame 1 1\n# chara 501311\n# face 501311 \"amazed\"\n@暁美ほむら\n…やっぱり、やめた\n\n# label \"select_label_end\"\n# textflame 0 0\n@\nえぇっ！\n\n@\n驚くマスターを尻目に、\n素っ気なく店を出る彼女\n\n@\nなんだったの？\nと、マスターがその背中に\n声を掛ける\n\n;;吹き出しもやもや\n# textflame 1 1\n# textwindow \"moya\"\n# textboxarrow 0 0\n# chara 501311\n# face 501311 \"normal\"\n@暁美ほむら\nあなたの存在は…\n\n;;吹き出しもやもや\n# chara 501311\n# face 501311 \"happy\"\n@暁美ほむら\n私に力と安堵をくれる\n\n;;吹き出しもやもや\n# chara 501311\n@暁美ほむら\nあなたがいてくれる限り、\n私は…\n\n;;吹き出しもやもや\n# chara 501311\n@暁美ほむら\nこの世界でも戦っていけるわ\n\n# textwindow \"nomal\"\n# textboxarrow 0 2\n# textflame 0 0\n@\n…と胸に想ったほむらが、\n急に立ち止まり、振り向いた\n\n# textflame 1 1\n# chara 501311\n# face 501311 \"amazed\"\n@暁美ほむら\n……\n\n# textflame 0 0\n@\nな…なに？\n恐る恐る尋ねるマスター\n\n# textflame 1 1\n# chara 501311\n# face 501311 \"normal\"\n@暁美ほむら\n今日も…頼んだわよ\n\n# textflame 0 0\n@\nえ？な、なにを…？\n\n# textflame 1 1\n# chara 501311\n@暁美ほむら\n……\n\n# imageset 0 \"c501311\"\n# imagealpha 0 0 0\n# textflame 0 0\n@\nその問いには答えず、\nスタスタと歩いて行ってしまう\nほむらだった\n\n# imagealpha 0 1 0\n# imagepos 0 0 0 \n# voice 5013 \"homura_kyara_0018\"\n# fadein \"white\" 3\n# textwindow \"close\"\n"
	}
]