[
	{
		"ID": 50211201,
		"script": "# script \"lisp\"\n# background \"forest\"\n# bgm \"bgm006\" 0\n# textboxarrow 0 2\n# body 502111\n# mask 502111 off\n# pos 502111 3\n# face 502111 \"usual\"\n# voice 5021 \"sefer_0001\"\n# textflame 1 1\n@セファー\nマスター、少しよろしいでしょうか？\n\n@セファー\nこれは、わたくしが今までに\n書き溜めてきた「全知の書」です\n\n@セファー\nこの中には魔術や戦術、\n世界の謎など、様々なことが\n書き記されております\n\n# voice 5021 \"sefer_event_1004\"\n@セファー\nしかし、このページを\nご覧になって下さい\nまだ真っ白でしょ？\n\n@セファー\nなぜだか、分かりますか？\n\n# voice 5021 \"sefer_0004\"\n@セファー\nここは、新しく\nわたくしのマスターになった…\n\n\n# face 502111 \"smile1\"\n@セファー\nそう、あなたのことを\n書き記すためのページなのです\n\n# voice 5021 \"sefer_0020\"\n@セファー\nということで、マスター\n\n@セファー\n好きな食べ物は？\n血液型は？\n好きな女性のタイプは？\n\n# textflame 0 0\n@\n突然、活き活きとし始め、\n矢継ぎ早に質問してくる彼女\n\n# textflame 1 1\n# face 502111 \"happy\"\n@セファー\nキル姫の中で言ったら、\n誰がタイプですか？\n# voice 5021 \"sefer_0020\"\n\n# textflame 0 0\n@\nらんらんと目を輝かせて、\n質問攻めにしてくる\n\n@\n「みんな、平等だよ」\nと、答えるマスター\n\n# textflame 1 1\n# voice 5021 \"sefer_0027\"\n# face 502111 \"smile1\"\n@セファー\nまたまたぁ\nそんな優等生発言して\n\n# voice 5021 \"sefer_0001\"\n# face 502111 \"usual\"\n@セファー\nマスター、わたくしが知りたいのは、\nそんな建前ではなく\nあなたの芯の部分です\n\n@セファー\n…ということなので\n\n# face 502111 \"smile2\"\n@セファー\nあなたのこと…\n隅から隅まで、\n取材させて頂きます！\n\n# textflame 0 0\n@\nこうして彼女の密着取材が始まった"
	}
]