[
	{
		"ID": 50351214,
		"script": ";;-----------------------------------------\n;;【PK】カヤ　キャラクエストシナリオ第１稿\n;;【EP3】\n;;スクリプト最後の背景：森（昼）\n;;背景：201_room\n;;-----------------------------------------\n# script \"lisp\"\n# background \"201_room\"\n# bgmfile \"bgm272\" \"BgmLostRagnarokEvent\" 0\n;;-----------------------------------------\n;;カヤ\n# body 503511\n# pos 503511 3\n# scale 503511 0.8 0\n# layer 503511 2\n# alpha 503511 0 0\n# mask 503511 off\n;;-----------------------------------------\n;;カヤ一枚絵\n# imageset 0 \"c503511\"\n# imagelayer 0 3\n# imagealpha 0 0 0\n;;-----------------------------------------\n;;【EP3】\n;;ドアの開く音と共に、やって来るカヤ\n# se \"SE_0676\"\n# voice 5035 \"kaya_0002\"\n# move 503511 3 0\n# face 503511 \"happy\"\n# alpha 503511 1 0\n# mask 503511 off\n# textflame 1 1\n# textboxarrow 0 2\n@カヤ\nいたいた\nねえ、ちょっといい？\n\n;;モノローグ\n# textflame 0 0\n@\nどこかいたずらっぽい笑みを浮かべ\nカヤはマスターに問いかける\n\n# textflame 1 1\n# textboxarrow 0 2\n@カヤ\nお姉さん、ちょっと\n行きたいところがあるの\n…できれば、二人で\n\n;;モノローグ\n# textflame 0 0\n@\n幸い、時間はある\nいいよ、と端的に答えるマスター\n\n# voice 5035 \"kaya_0004\"\n# textflame 1 1\n# textboxarrow 0 2\n@カヤ\nよかった\nじゃあ、行こっか\n\n;;暗転\n;;場所変わり、時間経過（街中）\n# textwindow \"close\"\n# fadeout \"black\" 1\n# waitandnext 1.2\n\n# background \"town\"\n# waitandnext 0.2\n\n# fadein \"black\" 1\n# waitandnext 1\n\n# textboxarrow 0 2\n# textwindow \"normal\"\n@カヤ\nへえ…\nキミはいつもこの道を通って\n買い物をするんだね\n\n# face 503511 \"surprise\"\n# textboxarrow 0 2\n@カヤ\nあ、美味しそうな果物\nあれは何？？\n\n;;モノローグ\n# face 503511 \"normal\"\n# textflame 0 0\n@\n遺跡に連れ出されると思っていた\nマスターは、戸惑いながら\nカヤにいつもの道を案内する\n\n;;モノローグ\n@\nカヤの横顔を見ると、好奇心に\n満ちた目を様々なものに向けている\nしかし、なぜ…とマスターは思う\n\n# face 503511 \"happy\"\n# textflame 1 1\n# textboxarrow 0 2\n@カヤ\nいいからいいから\nキミがよく行く場所を\n案内してほしいんだ\n\n# textboxarrow 0 2\n@カヤ\n次は、どんなところ？\n\n;;時間経過と場所移動（情緒をもって）\n;;背景：森の中\n# textwindow \"close\"\n# fadeout \"black\" 1\n# waitandnext 1.2\n\n# background \"forest\"\n# move 503511 3 0\n# face 503511 \"happy\"\n# alpha 503511 1 0\n# mask 503511 off\n# waitandnext 0.2\n\n# fadein \"black\" 1\n# waitandnext 1\n\n# voice 5035 \"kaya_0020\"\n# textboxarrow 0 2\n# textwindow \"normal\"\n@カヤ\nんー…気持ちいい風\nキミは、ここでいつも心を\n落ち着けているんだね\n\n;;モノローグ\n# textflame 0 0\n@\n今日はどうしたの？\nマスターは、疑問を素直にぶつける\n\n# face 503511 \"normal\"\n# textflame 1 1\n# textboxarrow 0 2\n@カヤ\nキミはいつもまっすぐだなあ\n\n# textboxarrow 0 2\n@カヤ\nキミのことを、知りたいなって\n…そう思ったの\n\n;;モノローグ\n# textflame 0 0\n@\n意外な返答に、言葉を失うマスター\n\n# voice 5035 \"kaya_0005\"\n# face 503511 \"happy\"\n# textflame 1 1\n# textboxarrow 0 2\n@カヤ\nあはは\nそんなにびっくりしなくても\nいいでしょ\n\n# face 503511 \"sad\"\n# textboxarrow 0 2\n@カヤ\n…私ね、元の世界に未練があった\n残してきた仲間たちがいたから\n\n# textboxarrow 0 2\n@カヤ\nもちろんこの世界の遺跡には興味が\nあったし、そのことを考えないように\nするための材料には事欠かなかったよ\n\n# textboxarrow 0 2\n@カヤ\n…それでも、たまによぎったの\n元の世界の仲間たちの顔が\n\n;;モノローグ\n# textflame 0 0\n@\n寂しい？\nカヤに問いかけるマスター\n\n# face 503511 \"normal\"\n# textflame 1 1\n# textboxarrow 0 2\n@カヤ\n…寂しいのとは少し違うかな\n\n# textboxarrow 0 2\n@カヤ\nでも、今はこの世界で\n生きていくことを\nちゃんと考え始めているよ\n\n# face 503511 \"happy\"\n# textboxarrow 0 2\n@カヤ\nどうしてだと思う？\n\n;;モノローグ\n# textflame 0 0\n@\n少しいたずらっぽく問いかけてくる\nカヤに覗き込まれ、\nマスターが返事に困っていると\n\n# face 503511 \"normal\"\n# textflame 1 1\n# textboxarrow 0 2\n@カヤ\n…キミが私を“仲間”と\n呼んでくれたから\n\n# textboxarrow 0 2\n@カヤ\nあの言葉をくれたから、私は\nこの世界にいていいんだって\n初めて思えるようになったの\n\n# textboxarrow 0 2\n@カヤ\n初めてこの世界に\n受け入れてもらえた…\n\n# voice 5035 \"kaya_0005\"\n# face 503511 \"happy\"\n# textboxarrow 0 2\n@カヤ\nなんて言ったら大げさかな\n…らしくないのは\nわかってるんだけどね\n\n;;モノローグ\n# textflame 0 0\n@\nらしくないかどうかはわからない\nまだまだカヤのことを知らないと、と\nマスターは答える\n\n# voice 5035 \"kaya_0002\"\n# textflame 1 1\n# textboxarrow 0 2\n@カヤ\nそうだね\nねえ…私は、キミの力になりたい\nこの世界で受け入れてくれた、キミの\n\n# textboxarrow 0 2\n@カヤ\nだから、知りたくなった\n…はは…ほんと、らしくない\n\n;;モノローグ\n# textflame 0 0\n@\nらしくなくたっていい\n本音を話してくれるようになって\n嬉しい、とマスターはカヤに告げる\n\n# face 503511 \"normal\"\n# textflame 1 1\n# textboxarrow 0 2\n@カヤ\n…そっか\nやっぱり、キミって温度高めだね\n\n# voice 5035 \"kaya_0036\"\n# textboxarrow 0 2\n@カヤ\nこの力、キミのために役立ててほしい\n改めてよろしくね…マスター\n\n;;モノローグ\n# textflame 0 0\n@\nカヤの差し出す\nその手を握り返すマスター\n\n;;モノローグ\n@\nカヤの手から、そして瞳の奥の光から\nカヤの強い覚悟が伝わってくる\n\n;;モノローグ\n# face 503511 \"happy\"\n@\nふと、柔らかく微笑み\n握った手を離すカヤ\n\n# textflame 1 1\n# textboxarrow 0 2\n@カヤ\nさて、キミのことを\nもっと聞かせてほしいな\n\n# textboxarrow 0 2\n@カヤ\nこの好奇心が逃げることはないけど、\n早く知りたいって、思うんだ\n\n# textboxarrow 0 2\n@カヤ\n…ほんと、らしくない\n観測に焦りは禁物なのにね\n\n;;モノローグ\n# textflame 0 0\n@\n言葉とは裏腹に、笑みを\n浮かべているカヤの顔は晴れやかで、\n吸い込まれるような魅力があった\n\n# textflame 1 1\n# textboxarrow 0 2\n@カヤ\nさあ、聞かせて\nキミの、ここまで重ねてきた歴史を\n\n;;★６\n;;背景：晴天。緑溢れるような森の中\n;;\n;;表情：満面の笑み。どこかいたずらっぽさのあるお姉さん的魅力。\n;;\n;;構図：マスターの顔を覗き込んでいるような構図。膝に手をつき、上目遣い。\n;;\n;;ボイス：kaya_kyara_1026\n;;「…さて、キミが重ねてきた歴史…。…お姉さんが紐解いてあげる」\n;;※ボイスカットを依頼しております。\n;;ホワイトアウト\n# textflame 0 0\n# imagealpha 0 1 0\n# imagepos 0 0 0\n# fadein \"white\" 3\n# buttonsout 0 0\n# textwindow \"close\"\n# voice 5035 \"kaya_kyara_1026\"\n\n# frameout 0 1\n\n# waitandnext 0.8\n\n# fadeout \"black\" 1.5\n# waitandnext 1.5"
	}
]