[
	{
		"ID": 510013213,
		"script": ";;-----------------------------------------\n;;マサムネ2-3\n;;-----------------------------------------\n# script \"lisp\"\n# background \"forest\"\n# bgmfile \"bgm401\" \"BgmIntegralNoahEvent\" 0\n;;-----------------------------------------\n# body 5100131\n# pos 5100131 3\n# scale 5100131 0.8 0\n# layer 5100131 2\n# alpha 5100131 1 0\n# mask 5100131 off\n;;-----------------------------------------\n;;カーテンフェード\n# imageset 0 \"black\"\n# imagealpha 0 0 0\n# imagelayer 0 1\n;;一枚絵\n# imageset 1 \"c5100131\"\n# imagelayer 1 3\n# imagealpha 1 0 0\n;;-----------------------------------------\n# textflame 1 1\n# textboxarrow 0 2\n# face 5100131 \"angry\"\n# voice 510013 \"masamune_iz_battle_0004\"\n@マサムネ\nはぁぁぁぁっ！！\n乱れ散れ！！\n\n# textflame 0 0\n@\n高い戦闘能力を発揮し、\n敵を次々に打ち倒していく\nが――\n\n# textflame 1 1\n# textboxarrow 0 2\n# voice 510013 \"masamune_iz_battle_0005\"\n@マサムネ\nくっ…！\n\n# textflame 0 0\n@\n敵の数が多く\n徐々に窮地に陥るマサムネ\n\n# textflame 1 1\n# textboxarrow 0 2\n@マサムネ\nはぁ…はぁ…！\n\n# textflame 1 1\n# textboxarrow 0 2\n@マサムネ\nこんなところで…\n散るわけにはいかぬ！\n\n# textflame 1 1\n# textboxarrow 0 2\n@マサムネ\n約束したのだ！\n彼女と！！\n\n# textflame 1 1\n# textboxarrow 0 2\n@マサムネ\n共に理想の世界を創ると！！\n\n# textflame 0 0\n@\nだが敵の攻撃は、\n容赦なく降り注ぎ…\n\n# textflame 1 1\n# textboxarrow 0 2\n# voice 510013 \"masamune_iz_0038\"\n@マサムネ\nはぁ…はぁ…！\nくっ…そぉぉぉぉぉぉっ！！\n\n# textflame 0 0\n@\n一人で磨き、削り上げてきた\nマサムネと言う刃が、\n折れそうになった、その時……、\n\n# bgm \"stop\"\n# textflame 1 1\n# textboxarrow 0 2\n# face 5100131 \"surprise\"\n@マサムネ\n！！\n\n# bgmfile \"bgm403\" \"BgmIntegralNoahEvent\" 0\n# fadein \"white\" 0.2\n# textflame 0 0\n@\n敵の武器が跳ね上がる\n\n# textflame 1 1\n# textboxarrow 0 2\n@マサムネ\nそ、そなた達は……\n\n# textflame 0 0\n@\nマサムネを救ったのは、\n隊の姫たちだった\n\n# textflame 0 0\n@\n行くよぉぉぉぉっ！\n連携技を駆使し、\n敵を倒していく姫たち\n\n# textflame 0 0\n@\nさらにマスターの\n采配が加わることで、\n彼女たちはより強さを発揮する\n\n# textflame 1 1\n# textboxarrow 0 2\n# voice 510013 \"masamune_iz_0022\"\n@マサムネ\n…なんということだ\n\n# textflame 0 0\n@\n皆が戦う様子を見て、\nマサムネは思う\n\n# textflame 1 1\n# textboxarrow 0 2\n@マサムネ\n一人で鍛えなくとも…\n隊の中に強固な信頼関係があれば、\nそれは大きな力になるのか\n\n# textflame 0 0\n@\n――と、その時\n\n# textflame 0 0\n@\nマサムネ！！\nマスターの声がこだました\n\n# textflame 1 1\n# textboxarrow 0 2\n@マサムネ\n…！？\n\n# textflame 0 0\n@\n頼む！君の力も貸してくれ！！\nマスターの嘆願が、彼女の耳に…\nそして心に響いた\n\n# textflame 1 1\n# textboxarrow 0 2\n# face 5100131 \"sad\"\n# voice 510013 \"masamune_iz_0028\"\n@マサムネ\n拙者の力を\n必要としてくれる人がいる…\n\n# textflame 1 1\n# textboxarrow 0 2\n# face 5100131 \"angry\"\n@マサムネ\nならば、この刃…\n\n# textflame 1 1\n# textboxarrow 0 2\n@マサムネ\nそなたの為に磨き上げよう！！\n\n# textflame 0 0\n@\n一閃！！\n\n# textflame 0 0\n@\n新たな力に目覚めた\nマサムネによって、\n敵軍は壊滅させられるのだった\n\n# textflame 0 0\n@\nそして――\n\n;;暗転挟む\n# imagealpha 0 1 0\n# imagepos 0 0 30\n# imageleftin 0 0.5\n# textwindow \"close\"\n# waitandnext 0.5\n\n# alpha 5100131 0 0\n# waitandnext 0.2\n\n# imagealpha 0 0 0.5\n# imagerightout 0 0.5\n# waitandnext 0.5\n\n# textwindow \"nomal\"\n# textflame 0 0\n@\n戦闘後、マサムネは\nマスターと語り合っていた\n\n# alpha 5100131 1 0.5\n# textflame 1 1\n# textboxarrow 0 2\n# face 5100131 \"sad\"\n# voice 510013 \"masamune_iz_0001\"\n@マサムネ\n拙者は…間違っていたのか\n\n# textflame 1 1\n# textboxarrow 0 2\n@マサムネ\nたった一人の力で\n鍛え上げた鋼の意志こそが、\n強く美しいと信じていた\n\n# textflame 1 1\n# textboxarrow 0 2\n@マサムネ\nだが…\n\n# textflame 1 1\n# textboxarrow 0 2\n@マサムネ\nそなたの率いる隊を目にして思った\n\n# textflame 1 1\n# textboxarrow 0 2\n@マサムネ\n誰かとの関わりで生まれる\n意志や共通の理想…\n\n# textflame 1 1\n# textboxarrow 0 2\n# face 5100131 \"normal\"\n# voice 510013 \"masamune_iz_0003\"\n@マサムネ\nそれもまた強く美しい\n\n# textflame 0 0\n@\n君はどっちの道を進むの？\nマスターが尋ねる\n\n# textflame 1 1\n# textboxarrow 0 2\n@マサムネ\nそれは……\n\n# textflame 1 1\n# textboxarrow 0 2\n@マサムネ\nこれからの拙者次第だ\n\n# textflame 1 1\n# textboxarrow 0 2\n@マサムネ\n一人で歩むか、\n皆と共に歩むか…\n\n# textflame 1 1\n# textboxarrow 0 2\n@マサムネ\nともかく今は…\nそなたと共に歩き、\n見つけたい\n\n# textflame 1 1\n# textboxarrow 0 2\n# face 5100131 \"happy\"\n# voice 510013 \"masamune_iz_0005\"\n@マサムネ\n拙者の進むべき道を\n\n# textflame 0 0\n@\nマスターを見つめるマサムネ\n\n# textflame 0 0\n@\nその目は、\n迷いはあれど濁りは無く、\n美しく澄み切っていた\n\n;;■一枚絵指定\n;;★５\n;;背景：森（夜）。　夜の花畑がありましたら、そちらでお願いいたします。\n;;表情：納得したような表情で、かすかに微笑んでいます。\n;;構図：座ってマスターと話しているイメージです。刀を地面に刺して、構図イメージのように触れています。\n;;一枚絵ボイス：「己の意志で磨き上げた一色でなく、個と個が混ざり合い、新たに生まれる調和の色か…。\n;;うむ…それもまた美しきものだな」\n# textflame 0 0\n# imagealpha 1 1 0\n# imagepos 1 0 0\n# fadein \"white\" 3\n# buttonsout 0 0\n# textwindow \"close\"\n# voice 510013 \"masamune_iz_kyara_0025\"\n\n# frameout 0 1\n\n# waitandnext 0.8\n\n# fadeout \"black\" 1.5\n# waitandnext 1.5"
	}
]