[
	{
		"ID": 510383212,
		"script": ";;-----------------------------------------\n;;■異族化アルマス　キャラクエ　シナリオ\n;;【ＥＰ２】\n;;スクリプト最後の背景：平原\n;;背景：街中その２\n;;-----------------------------------------\n# script \"lisp\"\n# background \"town\"\n# bgmfile \"bgm400\" \"BgmIntegralNoahEvent\" 0\n;;-----------------------------------------\n;;異族化アルマス\n# body 5103831\n# pos 5103831 3\n# scale 5103831 0.8 0\n# layer 5103831 2\n# alpha 5103831 0 0\n# mask 5103831 off\n;;-----------------------------------------\n;;異族化アルマス一枚絵\n# imageset 0 \"c5103831\"\n# imagelayer 0 3\n# imagealpha 0 0 0\n;;-----------------------------------------\n;;【ＥＰ２】\n# move 5103831 3 0\n# face 5103831 \"normal\"\n# alpha 5103831 1 0\n# mask 5103831 off\n# textflame 1 1\n# textboxarrow 0 2\n@アルマス\nなに？　ここ……\n\n;;モノローグ\n# textflame 0 0\n@\n姫たちに連れられやってきたのは、\n喫茶店だった\n\n# textflame 1 1\n# textboxarrow 0 2\n@アルマス\n………\n\n;;モノローグ\n# textflame 0 0\n@\nだまって紅茶を口にするアルマス\n\n;;モノローグ\n@\nケーキも食べようよ！\nアルマスのお祝いなんだし！\nと、テンションの高い姫たち\n\n# textflame 1 1\n# textboxarrow 0 2\n@アルマス\nじゃあ……\nチョコレートケーキを\n\n;;モノローグ\n# textflame 0 0\n@\nケーキも運ばれてきて、\n姫たちはわいわいとお喋りに\n花を咲かせる\n\n# textflame 1 1\n# textboxarrow 0 2\n@アルマス\n………\n\n;;モノローグ\n# textflame 0 0\n@\n最初は特に会話にも入らず、\n淡々と過ごしていた彼女\n\n;;モノローグ\n@\nだが…\n\n# voice 510383 \"almace_iz_0022\"\n# face 5103831 \"surprise\"\n# textflame 1 1\n# textboxarrow 0 2\n@アルマス\n…え？ケーキ…？\n\n# voice 510383 \"almace_iz_0003\"\n# face 5103831 \"normal\"\n# textboxarrow 0 2\n@アルマス\nうん、好きだよ\n\n# textboxarrow 0 2\n@アルマス\nやっぱり…\nチョコレートかな\n\n;;モノローグ\n# textflame 0 0\n@\n徐々にみんなと打ち解け始める\n\n# face 5103831 \"happy\"\n# textflame 1 1\n# textboxarrow 0 2\n@アルマス\n……あ\n\n# textboxarrow 0 2\n@アルマス\nおいしい\n\n# voice 510383 \"almace_iz_0004\"\n# textboxarrow 0 2\n@アルマス\n……ふふ\n\n;;モノローグ\n# textflame 0 0\n@\nあ、笑うんだ\nとアルマスを見て言う姫たち\n\n# face 5103831 \"normal\"\n# textflame 1 1\n# textboxarrow 0 2\n@アルマス\nなによ、それ\n\n;;モノローグ\n# textflame 0 0\n@\n他愛もない話で盛り上がる\n\n# voice 510383 \"almace_iz_0005\"\n# face 5103831 \"happy\"\n# textflame 1 1\n# textboxarrow 0 2\n@アルマス\nチョコを『ちょこ』っと、\nちょうだいって…\n絶・おもしろいこと言うんだね\n\n;;モノローグ\n# textflame 0 0\n@\nみんなに笑顔がこぼれる\n\n;;モノローグ\n@\nその様子を見ながら\n安心するマスター\n\n;;モノローグ\n@\nだが…\n\n# face 5103831 \"sad\"\n# textflame 1 1\n# textboxarrow 0 2\n@アルマス\n………\n\n;;モノローグ\n# textflame 0 0\n@\nそれ以降の、\nアルマスの表情が気になる\n\n# textflame 1 1\n# textboxarrow 0 2\n@アルマス\n………\n\n;;モノローグ\n# textflame 0 0\n@\nどことなく元気が無いようにも\n見えるのだ\n\n# voice 510383 \"almace_iz_0022\"\n# face 5103831 \"surprise\"\n# textflame 1 1\n# textboxarrow 0 2\n@アルマス\n…え？マスター…？\n\n;;モノローグ\n# textflame 0 0\n@\nマスターはそっと、\n彼女を外に誘い出した\n\n# face 5103831 \"normal\"\n# textflame 1 1\n# textboxarrow 0 2\n@アルマス\n……どうしたの？\n\n;;モノローグ\n# textflame 0 0\n@\nさっきまでは笑顔だったのに…\nどうしちゃったの？\nと尋ねるマスター\n\n# face 5103831 \"surprise\"\n# textflame 1 1\n# textboxarrow 0 2\n@アルマス\n…！\n\n# face 5103831 \"normal\"\n# textboxarrow 0 2\n@アルマス\n…よく見てるんだね\n\n# textboxarrow 0 2\n@アルマス\nいいわ、話してあげる\n\n;;モノローグ\n# textflame 0 0\n@\n彼女が、その理由を語り出した\n\n# textflame 1 1\n# textboxarrow 0 2\n@アルマス\n私は剪定者…\n\n# textboxarrow 0 2\n@アルマス\n世界のために\n平等に人々を剪定しないと\nならないの\n\n# face 5103831 \"angry\"\n# textboxarrow 0 2\n@アルマス\nでも、これ以上、馴れ合ったら\n私はきっと平等に見れなくなる\n\n# textboxarrow 0 2\n@アルマス\nだから、不必要に\n仲良くならないようにしないと…\n\n;;モノローグ\n# textflame 0 0\n@\nそんなアルマスに対して、\nそこまで固く考えなくても\nいいんじゃないかと言うマスター\n\n# voice 510383 \"almace_iz_0009\"\n# face 5103831 \"normal\"\n# textflame 1 1\n# textboxarrow 0 2\n@アルマス\n私の正義を否定する気？\n\n;;モノローグ\n# alpha 5103831 0 0.5\n# textflame 0 0\n@\nいや、そんなつもりじゃ…\n慌てて弁解しようとするが、\n彼女は背を向けて、行ってしまった\n\n# textwindow \"close\"\n# fadeout \"black\" 1\n# waitandnext 1.2\n\n# background \"plain\"\n# waitandnext 0.2\n\n# fadein \"black\" 1\n# waitandnext 1\n\n;;モノローグ\n# bgmfile \"bgm401\" \"BgmIntegralNoahEvent\" 0\n# textwindow \"normal\"\n@\n次の日――\n\n;;モノローグ\n@\nマスターの隊は、\n道中で盗賊に襲われる\n\n;;モノローグ\n@\nだが…\n\n# voice 510383 \"almace_iz_battle_0004\"\n# move 5103831 3 0\n# face 5103831 \"angry\"\n# alpha 5103831 1 0.5\n# mask 5103831 off\n# textflame 1 1\n# textboxarrow 0 2\n@アルマス\n枯れ落ちろ！\n\n;;モノローグ\n# textflame 0 0\n@\n難なく盗賊を倒し、\n縛り上げるアルマス\n\n;;モノローグ\n@\nそして、次の瞬間―\n\n# voice 510383 \"almace_iz_unit_0009\"\n# textflame 1 1\n# textboxarrow 0 2\n@アルマス\n世界に不要な魂…\n命の芽を摘んであげるわ\n\n;;モノローグ\n# textflame 0 0\n@\n殺そうと\n剣を振り上げた\n\n;;モノローグ\n@\n何も殺すことはないよ！\n慌てて、止めに入るマスター\n\n# textflame 1 1\n# textboxarrow 0 2\n@アルマス\n生かす理由がないわ\n\n;;モノローグ\n# textflame 0 0\n@\nと、マスターを押しのける\n\n;;モノローグ\n@\n剣を向けられ、\n家族がいるんだ！と、\n命乞いをする盗賊\n\n# voice 510383 \"almace_iz_0009\"\n# face 5103831 \"normal\"\n# textflame 1 1\n# textboxarrow 0 2\n@アルマス\nだからなに？\n\n;;モノローグ\n# textflame 0 0\n@\n剣を振り下ろすアルマス\n\n;;モノローグ\n@\n待て！\n盗賊を庇うマスター\n\n;;モノローグ\n@\nそして、アルマスの剣が、\nマスターの腕を掠めた\n\n# face 5103831 \"surprise\"\n# textflame 1 1\n# textboxarrow 0 2\n@アルマス\nあっ…\n\n;;モノローグ\n# textflame 0 0\n@\nマスターの傷を見て、\n目を見開く彼女\n\n# face 5103831 \"normal\"\n# textflame 1 1\n# textboxarrow 0 2\n@アルマス\n………\n\n;;モノローグ\n# textflame 0 0\n@\nこんな傷、大したことないよ\nと、マスターは笑ってみせるが…\n\n# textflame 1 1\n# textboxarrow 0 2\n@アルマス\n………\n\n;;モノローグ\n# alpha 5103831 0 0.5\n# textflame 0 0\n@\n剣を収め、彼女は\n無言で立ち去っていった\n\n# textwindow \"close\"\n# fadeout \"black\" 1\n# waitandnext 1.2\n\n# background \"plain\"\n# waitandnext 0.2\n\n# fadein \"black\" 1\n# waitandnext 1\n\n;;モノローグ\n# bgmfile \"bgm409\" \"BgmIntegralNoahEvent\" 0\n# textwindow \"normal\"\n@\n数日後――\n\n# move 5103831 3 0\n# face 5103831 \"sad\"\n# alpha 5103831 1 0.5\n# mask 5103831 off\n# textflame 1 1\n# textboxarrow 0 2\n@アルマス\n………\n\n;;モノローグ\n# textflame 0 0\n@\n彼女は一人、\n花畑で佇んでいる\n\n# face 5103831 \"surprise\"\n# textflame 1 1\n# textboxarrow 0 2\n@アルマス\n…！\n\n;;モノローグ\n# textflame 0 0\n@\nやあ\nと現れ、隣に座るマスター\n\n# face 5103831 \"sad\"\n# textflame 1 1\n# textboxarrow 0 2\n@アルマス\n………\n\n;;モノローグ\n# textflame 0 0\n@\nなにしてたの？\nと尋ねるマスターに、\nアルマスはポツリとつぶやく\n\n# textflame 1 1\n# textboxarrow 0 2\n@アルマス\nこの前、マスターを\n傷つけたことを思い出してた\n\n# textboxarrow 0 2\n@アルマス\nもし、あの時、\nマスターを斬ってしまってたら…\n\n# textboxarrow 0 2\n@アルマス\nマスターや他のみんなが\nいなくなったらって思ったら、\n絶・気分が悪くなっただろうなって…\n\n# textboxarrow 0 2\n@アルマス\n…この感覚って\nなんだろう？\n\n;;モノローグ\n# textflame 0 0\n@\nマスターは微笑みながら返す\nそれは絆なんだと思う…と\n\n# face 5103831 \"surprise\"\n# textflame 1 1\n# textboxarrow 0 2\n@アルマス\nキズナ……\n\n;;モノローグ\n# textflame 0 0\n@\nアルマスは思い出す\n\n;;モノローグ\n@\n一緒にケーキを食べた姫たちを…\n一緒に笑い合った姫たちを…\n\n# face 5103831 \"sad\"\n# textflame 1 1\n# textboxarrow 0 2\n@アルマス\nなんか、温かい感じがする\n\n;;モノローグ\n# textflame 0 0\n@\n戸惑いの表情を見せる彼女に\nそれは悪いものじゃないと\n語りかけるマスター\n\n# textflame 1 1\n# textboxarrow 0 2\n@アルマス\nううん\nきっとこれは私にとって\n悪いことなんだと思う\n\n# textboxarrow 0 2\n@アルマス\n…だって、この絆のせいで\nアナタを斬ることができなかった\n\n# textboxarrow 0 2\n@アルマス\n本当なら、あのとき\nアナタごと、あの男を\n斬るべきだったのに…\n\n;;モノローグ\n# textflame 0 0\n@\nあの男というのは\n盗賊のことだろう\n\n# face 5103831 \"angry\"\n# textflame 1 1\n# textboxarrow 0 2\n@アルマス\n絆が増えていけば、\n増えた分だけ\n剪定できなくなる\n\n# textboxarrow 0 2\n@アルマス\n私の正義が崩れていく…\n\n;;モノローグ\n# textflame 0 0\n@\n壊すだけが正義じゃないと思う\nそんなマスターの言葉を聞き、\n不思議そうな表情をするアルマス\n\n;;モノローグ\n@\nマスターはさらに続ける\n剪定することが、\n世界を救うことになるかもしれない\n\n;;モノローグ\n@\nでも、剪定する以外にも\n世界を救う方法が\nあるかもしれないんじゃないかな？\n\n# face 5103831 \"sad\"\n# textflame 1 1\n# textboxarrow 0 2\n@アルマス\n…そんなこと、\n考えたこともなかった\n\n;;モノローグ\n# textflame 0 0\n@\nもしかしたら\n見つからないかもしれない\n\n;;モノローグ\n@\nそれでも、少しでも可能性があるなら\n諦めずに探していきたいんだ\n\n;;モノローグ\n@\n熱く語るマスターを見て、\nアルマスの表情が緩む\n\n# voice 510383 \"almace_iz_0033\"\n# face 5103831 \"happy\"\n# textflame 1 1\n# textboxarrow 0 2\n@アルマス\n…わかった\n少しだけ、アナタを信じてみる\n\n# face 5103831 \"normal\"\n# textboxarrow 0 2\n@アルマス\nでも、その方法が見つからなかったり\n新しい世界に相応しくないと思ったら\n剪定する\n\n# textboxarrow 0 2\n@アルマス\nそれが例え、\nアナタや他の姫たちだったとしても\n\n;;モノローグ\n# textflame 0 0\n@\nマスターは表情を引き締めて\n大きく頷く\n\n# face 5103831 \"happy\"\n# textflame 1 1\n# textboxarrow 0 2\n@アルマス\nただ今だけは、\nマスターと繋がっていたい\n\n# textboxarrow 0 2\n@アルマス\n絶、そう思うわ\n\n;;モノローグ\n# textflame 0 0\n@\n…と、\nマスターの肩に寄り掛かる\n\n;;モノローグ\n@\n触れ合った場所から、\n強い繋がりと、\n温もりを感じるアルマスだった\n\n;;■一枚絵指定\n;;★５\n;;背景：花畑（昼）\n;;表情：ジッと見つめるようなイメージです。\n;;　　　イメージ画像では頬が赤いのですが、今回は照れの要素は入れない形でお願いできますでしょうか。\n;;構図：マスターの肩に寄りかかり、繋がりとぬくもりを感じているイメージです。\n;;　　　マスターを見上げているような感じです。\n;;一枚絵ボイス：アルマス「…人との繋がりが、こんなに温かいものだったなんて。\n;;　　　　　　　　　　　　ありがとう。アナタのおかげで、知ることができた。\n;;　　　　　　　　　　　　でも、その繋がりを断つことが私の使命だとしても、\n;;　　　　　　　　　　　　ただ、今だけはアナタとの繋がりを感じていたい…」　almace_iz_kyara_0025\n;;ホワイトアウト\n# textflame 0 0\n# imagealpha 0 1 0\n# imagepos 0 0 0\n# fadein \"white\" 3\n# buttonsout 0 0\n# textwindow \"close\"\n# voice 510383 \"almace_iz_kyara_0025\"\n\n# frameout 0 1\n\n# waitandnext 0.8\n\n# fadeout \"black\" 1.5\n# waitandnext 1.5"
	}
]