[
	{
		"ID": 6002061,
		"script": ";;6話戦闘前\n;;中庭\n# sclipt \"lisp\"\n# background \"courtyard\"\n# bgm \"bgm004\" 0\n# body 58\n# pos 58 1\n# scale 58 0.8 0\n# alpha 58 0 0\n# mask 59 off\n# body 59\n# pos 59 3\n# scale 59 0.8 0\n# mask 59 off\n# alpha 59 0 0\n# imageset 0 \"black\"\n# imagealpha 0 0 0\n# imagelayer 0 1\n# textflame 0 0\n@\nケラウノスと手分けして\nラブリュスを捜すマスター\n\n# textwindow \"close\"\n# imagealpha 0 1 0\n# imagepos 0 0 30\n# imageleftin 0 0.5\n# waitandnext 1\n\n;;渡り廊下\n# imagerightout 0 0.5\n# background \"connecting_corridor_daytime\"\n# textflame 0 0\n# textwindow \"nomal\"\n@\nしかし彼女の姿は\nなかなか見つからなかった\n\n# textwindow \"close\"\n# imagealpha 0 1 0\n# imagepos 0 0 30\n# imageleftin 0 0.5\n# waitandnext 1\n\n;;教室（guild01）\n# imagerightout 0 0.5\n# background \"classroom04_daytime\"\n# textflame 0 0\n# textwindow \"nomal\"\n@マスター\nハア…ハア…\nさすがにこんなところには\nいないかな…？\n\n;;ラブリュス登場\n# textflame 0 0\n# alpha 58 1 0.5\n# face 58 \"sad\"\n@マスター\nあの背中はラブリュスっ？\n\n# textflame 1 1\n# textboxarrow 0 1\n# chara 200351\n# face 58 \"surprise\"\n@ラブリュス\nあっ…\n\n# textboxarrow 0 2\n# move 58 3 0.5\n# mask 58 off\n# chara 200351\n# face 58 \"happy\"\n@ラブリュス\nや～ん\n心配かけちゃった？\n\n# chara 200351\n# voice 2003 \"loveryus_0020\"\n@ラブリュス\nなんでもないんだよ～\n学院のアイドル、\nラブリュスちゃんはいつも笑顔なの♪\n\n# chara 200351\n# voice 2003 \"loveryus_0004\"\n# face 58 \"normal\"\n@ラブリュス\n心配しなくて良いから\nキミは先に戻ってて～\n\n# textflame 0 0\n@マスター\n…そうはいかないよ\n\n# textflame 0 0\n@マスター\nラブリュス、\n無理してるじゃないか\n\n# textflame 0 0\n@マスター\nそんな嘘の笑顔じゃ\nみんなを幸せになんかできないよっ\n\n# textflame 1 1\n# textboxarrow 0 2\n# chara 200351\n# voice 20035 \"loveryus_event_1008\"\n# face 58 \"sad\"\n@ラブリュス\nそんな…\nわたし嘘なんて…\n嘘なんて…\n\n# textflame 0 0\n@マスター\nねえ、ラブリュス\nこの前も似たようなことが\nあったよね？\n\n# textflame 0 0\n@マスター\nさっきの生徒と昔、\nなにかあったの？\n良かったら聞かせて欲しい\n\n# textflame 0 0\n@マスター\nキミが一生懸命努力してるのは\n知ってるから、\n力になりたいんだ！\n\n# textflame 1 1\n# textboxarrow 0 2\n# chara 200351\n@ラブリュス\nマスター…\n\n# chara 200351\n@ラブリュス\n…………\n\n# chara 200351\n@ラブリュス\n…あの子達の言う通りなんだ\nわたし、昔は地味で目立たない\n生徒だったの\n\n# fadeout \"black\" 0.5\n# waitandnext 1\n\n;;回想シーン\n;;ラブリュス地味バージョン\n;;背景黒\n# fadein \"black\" 0.5\n# background \"classroom03_daytime\"\n# alpha 58 0 0\n# alpha 59 1 0\n# textboxarrow 0 0\n# chara 200351\n# fillrect \"pink\" 0 0 0.2\n@ラブリュス\n昔のわたしは地味で目立たなくて…\nキラキラした世界に\n憧れるだけの女の子だった…\n\n# chara 200351\n@ラブリュス\nそんな自分を変えたくて\n進学を機に\n学院のアイドルを目指したの\n\n# chara 200351\n@ラブリュス\n過去の自分と決別して、\n昔の友達とも\nつき合わないようにして\n\n# chara 200351\n@ラブリュス\nアイドルとしての立ち居振る舞いとか\n一生懸命練習した\n\n# chara 200351\n@ラブリュス\nどんなときでも\n笑顔を見せられるよう、\n毎日、鏡の前で訓練して…\n\n# chara 200351\n@ラブリュス\nそうして学院のアイドル\nラブリュスちゃんが生まれたの！\n\n# fadeout \"black\" 0.5\n# waitandnext 1\n\n;;回想終了\n;;ラブリュス元に戻す\n;;教室\n# fadein \"black\" 0.5\n# background \"classroom04_daytime\"\n# alpha 59 0 0\n# alpha 58 1 0\n# fillrect \"pink\" 0 0 0\n# textboxarrow 0 2\n# chara 200351\n# face 58 \"normal\"\n@ラブリュス\nアイドルになって、\nすごく目立つようになったら、\n\n# chara 200351\n@ラブリュス\nみんなが\nチヤホヤしてくれるようになって\n\n# chara 200351\n# voice 2003 \"loveryus_0004\"\n# face 58 \"happy\"\n@ラブリュス\n毎日、\nとっても楽しくて\n充実してるの！\n\n# chara 200351\n# face 58 \"sad\"\n@ラブリュス\n昔の友達は、わたしが\n避けるようになったのもあって\n少しずつ離れていったけど…\n\n# chara 200351\n# face 58 \"normal\"\n@ラブリュス\nそれでも全然寂しくない！\nだって、わたしは\n学院のアイドルだもん♪\n\n# chara 200351\n# face 58 \"happy\"\n@ラブリュス\nわたしの笑顔で\nみんなが幸せになってくれるの♪\nだからちっとも寂しくないんだ！\n\n# chara 200351\n@ラブリュス\nちっとも寂しくない\n\n# chara 200351\n# face 58 \"normal\"\n@ラブリュス\n孤独なんかじゃないっ\n\n# chara 200351\n# voice 2003 \"loveryus_0038\"\n# face 58 \"sad\"\n@ラブリュス\nそれなのに…それなのにっ…\n\n# textflame 0 0\n@マスター\nラブリュス…？\n\n# textflame 1 1\n# textboxarrow 0 2\n# chara 200351\n@ラブリュス\n時々、\n胸に穴が開いたような\n気持ちになるの…\n\n# chara 200351\n@ラブリュス\n無性に\n悲しくなるときがあるのっ…\n\n# chara 200351\n# voice 2003 \"loveryus_0014\"\n@ラブリュス\nなんで！？\nこんな、こんなの違う！\nこんなはずないっ！\n\n# chara 200351\n@ラブリュス\nわたし…\n寂しがってなんか\nいないのにぃぃぃっ…！\n\n# fadeout \"black\" 0.5\n# body 200341\n# pos 200341 3\n# scale 200341 0.8 0\n# alpha 200341 0 0\n# mask 200341 off\n# brightness 200341 0.2 0\n# waitandnext 1\n\n# shakeloop 0\n# fadein \"black\" 0.5\n# alpha 58 0 0\n# alpha 200341 1 0\n# face 200341 \"angry\"\n# fillrect \"black\" 0 0 0.2\n# textflame 0 0\n@\nラブリュスの体から真っ黒な\n霧が噴き出した\n"
	}
]