[
	{
		"ID": 6002073,
		"script": "# script \"lisp\"\n# body 500131\n# mask 500131 off\n# pos 500131 3\n# scale 500131 0.8 0\n# textflame 1 1\n# textboxarrow 0 2\n# face 500131 \"sad\"\n# chara 500131\n@ケラウノス\n分かってたよ…\n自分が孤立しているって…\n"
	}
]