[
	{
		"ID": 6002011,
		"script": ";;OP\n;;空\n# sclipt \"lisp\"\n# background \"mov2_1\"\n# bgm \"bgm002\" 0\n# textflame 0 0\n@\n夏休みが終わり、\n新たな学園生活が始まった\n\n# textflame 0 0\n@\n校内では生徒達が\nお互いの夏休みについて\nお喋りに興じている\n\n# textflame 0 0\n# imageset 0 \"black\"\n# imagealpha 0 0 0\n# imagelayer 0 1\n@\nそんな中、\nマスターはまたしても\n理事長室に呼ばれた\n\n# imagealpha 0 1 0\n# imagepos 0 0 30\n# imageleftin 0 0.5\n# textwindow \"close\"\n# waitandnext 1\n\n;;理事長室\n;;デュリン登場\n# sedelay \"SE_0673\" 0.1\n# bgm \"bgm006\" 0\n# imagerightout 0 0.5\n# background \"presidentroom\"\n# body 0\n# pos 0 3\n# mask 0 off\n# textwindow \"nomal\"\n# textflame 1 1\n# textboxarrow 0 2\n# chara 0\n# face 0 \"serious\"\n# voice 9999 \"durin_0020\"\n@デュリン\n来たわね！\n突然だけど問題よ！\n秋といえばなんの秋！？\n\n# textflame 0 0\n@マスター\nええと…\n食欲の秋かな？\n\n# textflame 0 0\n@マスター\nあ、そうだ\nチョコあるけど食べる？\n\n# textflame 1 1\n# textboxarrow 0 2\n# chara 0\n# face 0 \"happy\"\n# voice 9999 \"durin_0041\"\n@デュリン\nそう！\nこの季節にはチョコの甘さと\nほろ苦さがピッタリ！\n\n# jump 0\n# chara 0\n# face 0 \"angry\"\n@デュリン\nやっぱり食欲の秋よね～\nって、違うわよ！\n\n# textflame 0 0\n@マスター\nノリツッコミだ…\n\n# textflame 1 1\n# textboxarrow 0 2\n# body 62\n# pos 62 3\n# mask 62 off\n# alpha 62 0 0\n# chara 0\n# voice 9999 \"durin_0007\"\n@デュリン\n秋といえば\nスポーツの秋でしょ！\n\n;;デュリン学ラン姿になる\n# fadein \"white\" 1\n# alpha 0 0 0.3\n# alpha 62 1 0.3\n# chara 0\n# face 62 \"angry\"\n# voice 9999 \"durin_0028\"\n@デュリン\nもうじき３校合同体育祭が\n行われるのよ！\n\n# chara 0\n@デュリン\nアンタも気合い入れなさいよね！\n\n# textflame 0 0\n@マスター\n…それで、\nその合同体育祭に\nなにか問題があるの？\n\n# textflame 1 1\n# textboxarrow 0 2\n# chara 0\n# face 62 \"normal\"\n# voice 9999 \"durin_0039\"\n@デュリン\nあら、\n少しはマスターとしての\n自覚が出てきたみたいね\n\n# textflame 1 1\n# textboxarrow 0 2\n# chara 0\n@デュリン\nまだ問題ってほどのことでも\nないんだけど…\n\n# textflame 1 1\n# textboxarrow 0 2\n# chara 0\n@デュリン\n合同体育祭ではいつも\n牙克城学院とラグナロク女学院が\n優勝争いをしているの\n\n# textflame 0 0\n@マスター\n聖ユグドラシル姫学院は？\n\n# textflame 1 1\n# textboxarrow 0 2\n# chara 0\n# voice 9999 \"durin_0004\"\n# face 62 \"usual\"\n@デュリン\n聖ユグはお嬢様が多いから\n怪我をせず楽しくやれれば良いって\n雰囲気よ\n\n# textflame 0 0\n@マスター\nなるほど\nその優勝争いに問題が？\n\n# textflame 1 1\n# textboxarrow 0 2\n# chara 0\n# face 62 \"occur\"\n# voice 9999 \"durin_0027\"\n@デュリン\n競い合うのは良いんだけど\n元気が良すぎるのも\n困りものなのよね\n\n# chara 0\n# face 62 \"angry\"\n@デュリン\n夏休みのときみたく妙な事件が\n起きたりしたら\n生徒が怪我するかもしれないでしょ！\n\n# chara 0\n# face 62 \"normal\"\n@デュリン\n特に牙克城学院は\n元気な生徒が多いから\n\n# chara 0\n# face 62 \"angry\"\n# voice 9999 \"durin_0001\"\n@デュリン\nアンタ！\n牙克城学院に行って、\nそれとなーく見回りなさい！\n\n# textflame 0 0\n@マスター\n今度は\n牙克城学院か…\n\n# textflame 1 1\n# textboxarrow 0 2\n# chara 0\n# face 62 \"usual\"\n@デュリン\n向こうの生徒会には\n話を通しておくから！\n\n# chara 0\n# face 62 \"normal\"\n@デュリン\nそれと…\n\n# jump 62\n# chara 0\n# face 62 \"angry\"\n# voice 9999 \"durin_0044\"\n@デュリン\nアンタも体育祭に向けて\n少しは運動しなさいよ！\n\n# chara 0\n# face 62 \"usual\"\n# voice 9999 \"durin_0004\"\n@デュリン\nアタシも今から走り込んで\nおかなくっちゃ！\n\n;;デュリンが飛び去る\n# leftout 62 0.8\n# textflame 0 0\n@マスター\n…理事長、走る意味あるのかな？\n\n# fadeout \"black\" 0.5\n# waitandnext 0.8\n\n;;第１話戦闘前\n;;校内\n# fadein \"black\" 0.3\n# background \"courtyard\"\n# body 500151\n# pos 500151 3\n# scale 500151 0.8 0\n# alpha 500151 0 0\n# mask 500151 off\n# textflame 0 0\n@マスター\nここが城学こと、\n牙克城学院か\n\n# textflame 0 0\n@マスター\n３校の中でも個性豊かな生徒が\n多いって聞いたけど…\n\n# textflame 0 0\n@マスター\nそういえば、\n前に会ったグリダヴォルも\nここの生徒だったっけ？\n\n;;ケラウノス登場\n# textflame 1 1\n# textboxarrow 0 2\n# alpha 500151 1 0.5\n# chara 500151\n# face 500151 \"happy\"\n# voice 5001 \"keraunosu_0004\"\n@髪の長い女の子\nねぇねぇ、キミ！\n髪きれいだね～\nどんなシャンプー使ってるの？\n\n# textboxarrow 0 0\n@おとなしそうな少女\nえ…\nあの…そのっ…\n\n# textboxarrow 0 2\n# chara 500151\n# voice 5001 \"keraunosu_0003\"\n@髪の長い女の子\nうんうん！\n立ち話もなんだから\n近くでお茶していこうよ～\n\n# textflame 0 0\n@マスター\nあれってナンパ…\n学院で堂々とやるのはすごいな\n\n# textflame 1 1\n# textboxarrow 0 2\n# chara 500151\n# face 500151 \"surprise\"\n# voice 50015 \"keraunosu_event_1008\"\n@髪の長い女の子\nん～？\nひょっとしてキミ、\n私のこと見てた？\n\n# textflame 0 0\n@\n髪の長い女の子が\nマスターに気づき、\n近づいて来た\n\n# textflame 0 0\n@マスター\nあ、いや…\nたまたま目に止まっただけなんだ\n\n# textflame 1 1\n# textboxarrow 0 2\n# chara 500151\n# face 500151 \"normal\"\n# voice 5001 \"keraunosu_0003\"\n@髪の長い女の子\nそっか～…\n\n# textboxarrow 0 2\n# chara 500151\n# face 500151 \"happy\"\n# voice 5001 \"keraunosu_0004\"\n@髪の長い女の子\nそれって運命だよ♪\n私、ケラウノスって言うんだ！\n\n# textboxarrow 0 2\n# chara 500151\n@ケラウノス\nそれじゃ、\nどこかでゆっくり――\n\n# textboxarrow 0 2\n# chara 500151\n# face 500151 \"surprise\"\n@ケラウノス\nあ！\n\n# textboxarrow 0 2\n# chara 500151\n# face 500151 \"happy\"\n# voice 5001 \"keraunosu_0004\"\n@ケラウノス\nそこのキミ！かわいいね～\n前に私と会ったこと\nあるでしょっ？\n\n;;ケラウノスが立ち去る\n# se \"SE_5575\"\n# textflame 0 0\n# rightout 500151 1\n# alpha 500151 0 0.7\n@\nケラウノスと名乗った少女は\nすぐに別の生徒へ声を掛け、\n走っていってしまった\n\n# textflame 0 0\n@マスター\n個性豊かとは聞いていたけど、\nいきなりすごい子に会ったなあ…\n\n# textflame 0 0\n# imageset 0 \"black\"\n# imagealpha 0 0 0\n# imagelayer 0 1\n@マスター\nおっと\nそんなことより\nまずは生徒会室に行かないと\n\n# textwindow \"close\"\n# imagealpha 0 1 0\n# imagepos 0 0 30\n# imageleftin 0 0.5\n# waitandnext 1\n\n;;場面転換\n;;中庭\n# imagerightout 0 0.5\n# background \"courtyard\"\n# textwindow \"nomal\"\n# textflame 1 1\n# textboxarrow 0 0\n@運動部の生徒Ａ\n城学ー！\nファイッオー！\nファイッオー！\n\n# textboxarrow 0 0\n@運動部の生徒Ｂ\nもう一本、行くよーっ！\n\n# textboxarrow 0 0\n@文化部の生徒Ａ\nええっ？\nその薬品、まずいんじゃ…\n\n# textboxarrow 0 0\n@文化部の生徒Ｂ\n大丈夫！\nいける！\n\n# textboxarrow 0 0\n@文化部の生徒Ｂ\n…たぶん\n\n# textflame 0 0\n@\n生徒会室を目指すマスター\n\n# textflame 0 0\n@\n校内のあちこちから聞こえてくる\n活発なやり取りに\n牙克城学院独特の雰囲気を感じる\n\n# textflame 1 1\n# textboxarrow 0 0\n@文化部の生徒Ａ\nキャーーー！\nやっぱりその薬品―\n\n;;爆発の演出\n# se \"SE_0664\"\n# fadein \"red\" 0.3\n# shake 0 0.5\n# textboxarrow 0 0\n@文化部の生徒Ｂ\nあ！\nごめ～ん\n手が滑った\n\n# textflame 0 0\n@マスター\n…………\n\n# textflame 0 0\n@マスター\nこの学院、\n大丈夫なのかな…？\n\n# textwindow \"close\"\n# imagealpha 0 1 0\n# imagepos 0 0 30\n# imageleftin 0 0.5\n# waitandnext 1\n\n;;場面転換\n;;渡り廊下\n# imagerightout 0 0.5\n# background \"connecting_corridor_daytime\"\n# textwindow \"nomal\"\n# textflame 0 0\n@マスター\n…まずい\n迷ったみたいだ\n\n# textflame 0 0\n@マスター\n誰かに生徒会室への道を\n教えてもらおう\n\n# textflame 0 0\n@\n周りに他の生徒がいないか\n見回すマスター\n\n# textflame 0 0\n@\n校舎の片隅で\nなにかを覗き込んでいる生徒を\n見つけた\n\n# textflame 0 0\n@マスター\nあの子に聞いてみよう\nあの、すみません\nちょっと道を…\n\n# textflame 1 1\n@おとなしそうな女の子\nどうして…\nどうしてなの…？\n\n# textflame 0 0\n@マスター\nあの…？\nなんだか様子が変だな\nなにを見ているんだろう？\n\n# textflame 0 0\n@\n少女が覗いている先を見てみる\nマスター\n\n# textflame 0 0\n@\nそこには生徒をナンパしている\nケラウノスの姿があった\n\n;;ケラウノス登場\n;;背景中庭\n# fadein \"white\" 1\n# background \"courtyard\"\n# textflame 1 1\n# textboxarrow 0 2\n# pos 500151 3\n# alpha 500151 1 0.3\n# chara 500151\n# face 500151 \"happy\"\n# voice 5001 \"keraunosu_0004\"\n@ケラウノス\n君の肌、つやつやだね～\nちょっと触らせてよ♪\n\n;;背景渡り廊下に戻す\n;;ケラウノス退場\n# fadein \"white\" 1\n# background \"connecting_corridor_daytime\"\n# bgm \"bgm031\" 0\n# alpha 500151 0 0\n# textboxarrow 0 0\n@おとなしそうな女の子\n私のことかわいいって…\n言ってたのにっ…\nなんで別の子にあんなこと…！\n\n# fadeout \"black\" 0.5\n# waitandnext 1\n\n;;大人しそうな女の子が異族化する\n# shakeloop 0\n# fadein \"black\" 0.5\n# fillrect \"black\" 0 0 0.2\n# textflame 0 0\n@\n少女の体から黒い霧が噴き出し\n彼女を包み込んだ\n\n# textflame 1 1\n# textboxarrow 0 0\n@大人しそうな女の子\n許せない…\n許せないんだからアアア！\n"
	}
]