[
	{
		"ID": 60052201,
		"script": ";;【ケーリュケイオン_02】\n;;【EP1】(フリ)\n;;※背景は昼でお願いします\n# script \"lisp\"\n# background \"town\"\n# bgm \"bgm002\" 0\n# body 600521\n# mask 600521 off\n# pos 600521 3\n# textflame 1 1\n# textboxarrow 0 2\n# chara 600521\n# voice 6005 \"keryukeion_kyara_1023\"\n# face 600521 \"happy\"\n@ケーリュケイオン\nマスター♪\n一緒にご飯食べよ？\n\n# voice 6005 \"keryukeion_0022\"\n# face 600521 \"angry\"\n@ケーリュケイオン\n…あ！…もぅ！\n\n# textflame 0 0\n@\nマスターともっと仲良くなりたいと\n考えているケーリュケイオン\nだが…\n\n# textflame 1 1\n# textboxarrow 0 2\n# chara 600521\n@ケーリュケイオン\nいっつも邪魔が入るんだから！\nまぁ隊で行動してるから、\nしょうがないけど…\n\n# voice 6005 \"keryukeion_0027\"\n# face 600521 \"sad\"\n@ケーリュケイオン\nでも…たまには\n２人きりになりたいじゃんよ…\n\n# voice 6005 \"keryukeion_0012\"\n# face 600521 \"angry\"\n@ケーリュケイオン\nいや！２人きりになるだけじゃダメ！\n他の姫が入り込めないような\n深い関係にならないと…！\n\n# voice 6005 \"keryukeion_0022\"\n# face 600521 \"surprise\"\n@ケーリュケイオン\n…きゃっ！\n…なんだ、カドケウスか\n脅かさないでよ、もぅ！\n\n@ケーリュケイオン\nべ…別に！独り言よ、独り言！\nつ、次の戦闘の作戦を考えてたの！\nあっち、行って！\n\n# voice 6005 \"keryukeion_0027\"\n# face 600521 \"happy\"\n@ケーリュケイオン\nあー、びっくりした…\nでも、そう…『作戦』よね\nマスターとラブラブ大作戦！\n\n# voice 6005 \"keryukeion_0004\"\n# face 600521 \"shy\"\n@ケーリュケイオン\n私のキラーズは、眠りと夢の神！\nみんなを寝かしつけて、\nその後マスターと２人っきりで…\n\n@ケーリュケイオン\n# face 600521 \"happy\"\nきゃっ♪\n\n# textflame 0 0\n@\nどうしたの？顔が赤いよ\n…と、現れるマスター\n\n# textflame 1 1\n# textboxarrow 0 2\n# chara 600521\n# voice 6005 \"keryukeion_0023\"\n# face 600521 \"surprise\"\n@ケーリュケイオン\nきゃーっ！マ、マスター！\n脅かさないでよ、もぅ！\n\n# face 600521 \"angry\"\n@ケーリュケイオン\n独り言よ、独り言！\n次の戦闘の作戦！！\nあっち、行ってよ～！\n\n# voice 6005 \"keryukeion_0004\"\n# face 600521 \"happy\"\n@ケーリュケイオン\nあー、びっくりした…\nうふ♪でも待っててね、マスター\nラブラブ大作戦、スタートよ！"
	}
]