[
	{
		"ID": 60064103,
		"script": ";;【EP3】(オチ)\n# script \"lisp\"\n# background \"town\"\n# bgm \"bgm003\" 0\n# body 600641\n# pos 600641 3\n# mask 600641 off\n# textflame 1 1\n# textboxarrow 0 2\n# chara 600641\n# face 600641 \"usual\"\n# voice 6006 \"misutoru_0009\"\n@ミストルティン\nあ、あの…\n\n# textflame 0 0\n@\n年の頃は、１５～６だろうか\n羨望の眼差しで\nミストルティンを見ている少女\n\n# textflame 1 1\n# textboxarrow 0 2\n# chara 600641\n@ミストルティン\nどうしたんですか…？\n\n# textflame 0 0\n@\nあ、ごめんなさい\n私も…お姉さんみたいに\n綺麗だったらな…って\n\n# textflame 1 1\n# textboxarrow 0 2\n# chara 600641\n# face 600641 \"surprise\"\n# voice 6006 \"misutoru_0023\"\n@ミストルティン\n…えっ？\n\n# face 600641 \"sad\"\n@ミストルティン\nそんな…とんでもないです、\n私なんて…\n\n# face 600641 \"usual\"\n@ミストルティン\n…？あ…あのぉ…\nどうかしたんですか…？\n\n# textflame 0 0\n@\n何か訳ありな様子の少女に、\nミストルティンが尋ねる\n\n# textflame 1 1\n# textboxarrow 0 2\n# chara 600641\n# voice 6006 \"misutoru_0028\"\n@ミストルティン\nなるほど、好きな男の子が…\nでも告白できずにいるんですね\n\n# textflame 0 0\n@\nその人はモテるから…\n私なんかじゃ釣り合いが取れない\n…と落ち込んだ様子で話す少女\n\n# textflame 1 1\n# textboxarrow 0 2\n# chara 600641\n# face 600641 \"sad\"\n@ミストルティン\nその気持ち…すごくわかります\n私も…自信が無いから…\n\n@ミストルティン\n私が着ているこのドレスだって、\n人に勧められて着たものだし\n\n@ミストルティン\n私は、自分から\n何かをしたという事がありません\n\n# face 600641 \"usual\"\n@ミストルティン\nでも、あなたは…\nしたい事があるんじゃないですか？\n\n# textflame 0 0\n@\n私…その人とお付き合いがしたい…\n顔を真っ赤にして、少女が答える\n\n# textflame 1 1\n# textboxarrow 0 2\n# chara 600641\n# voice 6006 \"misutoru_0034\"\n@ミストルティン\nかっこいいです、\n自分のしたい事が\nハッキリと言えるなんて\n\n# face 600641 \"shy\"\n# voice 6006 \"misutoru_0004\"\n@ミストルティン\n実は私も…\n将来、なりたい自分があるんです\n\n@ミストルティン\nそれは…隊のみんなを率いたい\n\n@ミストルティン\nいつも人に頼りきりだから…\n本当は…\nみなさんをちゃんと仕切って、\n\n@ミストルティン\n導いてあげられるような…\nそんな強い存在になりたいんです\n\n# textflame 0 0\n@\nそれって…お嫁さんみたいだね\n少女が答える\n\n# textflame 1 1\n# textboxarrow 0 2\n# chara 600641\n# face 600641 \"surprise\"\n# voice 6006 \"misutoru_0024\"\n@ミストルティン\nえ？どうして…ですか？\n\n# textflame 0 0\n@\nだってお嫁さんになったら、\n家を守って、子供たちや\n家族を仕切っていくから\n\n@\nあどけない笑顔で少女が答える\n\n# textflame 1 1\n# textboxarrow 0 2\n# chara 600641\n# face 600641 \"happy\"\n@ミストルティン\nあは、確かにそうですね\n\n# textflame 0 0\n@\n私…素敵なお嫁さんになれるかな\n\n# textflame 1 1\n# textboxarrow 0 2\n# chara 600641\n# face 600641 \"usual\"\n@ミストルティン\nなれます！だから…\n自信をもって下さい\n\n# textflame 0 0\n@\nありがとう\n\n@\nそう言って、少女は去って行った\n\n# textflame 1 1\n# textboxarrow 0 2\n# chara 600641\n# face 600641 \"happy\"\n# voice 6006 \"misutoru_0005\"\n@ミストルティン\nうふふふふ\n\n# textflame 0 0\n@\n洋服屋に戻る\nミストルティンとマスター\n\n# textflame 0 0\n@\nマスターは気になっていることを\n彼女に尋ねてみた\n\n# select \"どうしたの？嬉しそうな顔して\" \"select_label_01\" \"それは何の笑いかな？\" \"select_label_02\" \"あれ？元気が戻った感じ？\" \"select_label_03\"\nマスターは気になっていることを\n彼女に尋ねてみた\n\n# label \"select_label_01\"\n# labeljump \"select_label_end\"\n# textflame 1 1\n# textboxarrow 0 2\n# chara 600641\n@ミストルティン\n少し、自信をもらいました\n\n# label \"select_label_02\"\n# labeljump \"select_label_end\"\n# textflame 1 1\n# textboxarrow 0 2\n# chara 600641\n@ミストルティン\n自信と…勇気を分けてもらったんです\n\n# label \"select_label_03\"\n# labeljump \"select_label_end\"\n# textflame 1 1\n# textboxarrow 0 2\n# chara 600641\n@ミストルティン\n元気と…少しの自信と…です\n\n# label \"select_label_end\"\n# textflame 1 1\n# textboxarrow 0 2\n# chara 600641\n# face 600641 \"usual\"\n@ミストルティン\n小さな恋の戦士に\n勇気をもらった気がします\n\n@ミストルティン\n私も…変わりたい\nこれからは、自分から\n行動を起こすように心がけます\n\n# voice 6006 \"misutoru_0001\"\n@ミストルティン\nということで、\nマ、マスター…\n\n# face 600641 \"shy\"\n@ミストルティン\nお、お姫様抱っこ…\nしてくれませんか…？\n\n# textflame 0 0\n@\nそれは初めての\n彼女からの誘いだった\n\n# se \"SE_0602\"\n@\nその変化は、彼女に新スキル\n『シャイネスブーケ』を\nもたらしていた\n\n# textflame 1 1\n# textboxarrow 0 2\n# chara 600641\n# voice 6006 \"misutoru_0013\"\n@ミストルティン\nダメ…ですか？\n\n# textflame 0 0\n@\nいいよ\n\n@\n手を差し出すマスター\n\n@\n受け身じゃなく、\n彼女からマスターに近づいたのも\n初めてのことだっ…\n\n# textflame 1 1\n# textboxarrow 0 2\n# chara 600641\n# face 600641 \"surprise\"\n# voice 6006 \"misutoru_0023\"\n@ミストルティン\nあぁっ！！\n\n# imageset 0 \"c600641\"\n# imagealpha 0 0 0\n# textflame 0 0\n@\n緊張のあまり、よろめく彼女\n\n# textflame 0 0\n@\nこの分じゃ先が思いやられるな\n…と、優しい目で見守る\nマスターだった\n\n# imagealpha 0 1 0\n# imagepos 0 0 0 \n# fadein \"white\" 3\n# voice 6006 \"misutoru_kyara_0012\"\n# textwindow \"close\"\n;;一枚絵ボイス：ミストルティン「ひゃああああ！？　…マスター…？すいません、ちょっと驚いただけです…」\n"
	}
]