[
	{
		"ID": 60085202,
		"script": "# script \"lisp\"\n# background \"lake\"\n# bgm \"bgm003\" 0\n# textboxarrow 0 2\n# body 600851\n# mask 600851 off\n# pos 600851 3\n# textflame 1 1\n# textsize 28\n# face 600851 \"normal\"\n# voice 6008 \"guridavoru_0036\"\n@グリダヴォル\nカウンターに焼きそば出てるよ～！\n3卓様と8卓様ね！\n\n# textsize 24\n# textflame 0 0\n@\n海の家の盛況っぷりは\n予想を遥かに超えていた\n\n# textflame 1 1\n# chara 600851\n# face 600851 \"surprise\"\n# voice 6008 \"guridavoru_0004\"\n@グリダヴォル\n最近ずっとこんな調子で…\nホント人手不足だったから\nマスターは救世主だよ～\n\n# chara 600851\n# face 600851 \"happy\"\n@グリダヴォル\nあ、は～い！！\n今うかがいますね～\n少々お待ちください♪\n\n# textflame 0 0\n@\n押し寄せるお客とオーダーを\n物ともせず、\n\n@\n笑顔のグリダヴォルは\nところ狭しと駆けまわる\n\n# textflame 1 1\n# chara 600851\n# face 600851 \"surprise\"\n# voice 6008 \"guridavoru_0036\"\n@グリダヴォル\nごめん、12卓さんのオーダー\n誰かお願い！誰か～\n\n# chara 600851\n@グリダヴォル\nドリンクも出てるよ～誰か～！\nあぁれれ…？\n\n# textflame 0 0\n@\nスタッフの雰囲気が良くない\nあきらかなオーバーワークで\n疲れが溜まってきているようだ\n\n# textflame 1 1\n# voice 6008 \"guridavoru_0017\"\n@グリダヴォル\nあわわ…\nどうしようマスター…\n\n# chara 600851\n@グリダヴォル\nこのままだとお店の雰囲気\n悪くなっちゃうよ！\n\n# select \"動けるメンバーでフォローしよう\" \"select_label_01\" \"疲れたメンバーを休ませよう\" \"select_label_02\" \"みんなに声をかけて回ろう\" \"select_label_03\"\nこのままだとお店の雰囲気\n悪くなっちゃうよ！\n\n# face 600851 \"normal\"\n# label \"select_label_01\"\n# labeljump \"select_label_end\"\n# textflame 1 1\n# chara 600851\n@グリダウォル\nみんなの分も…私頑張るよ！\n\n# face 600851 \"happy\"\n# label \"select_label_02\"\n# labeljump \"select_label_end\"\n# textflame 1 1\n# chara 600851\n@グリダウォル\nその分、私達が動かないとね！\n\n# face 600851 \"happy\"\n# label \"select_label_03\"\n# labeljump \"select_label_end\"\n# textflame 1 1\n# chara 600851\n@グリダウォル\nうん、それなら私に任せて！\n\n# label \"select_label_end\"\n# chara 600851\n# face 600851 \"usual\"\n@グリダヴォル\nまずは深呼吸…っと\nすぅーー……はぁーー……\n\n# textsize 34\n# chara 600851\n# face 600851 \"happy\"\n# voice 6008 \"guridavoru_0020\"\n@グリダヴォル\nよしっ！！\n\n# textsize 24\n# chara 600851\n@グリダヴォル\nご注文大変お待たせしましたっ！\nはい、は～い！承りましたっ！\n\n# chara 600851\n# voice 6008 \"guridavoru_0033\"\n@グリダヴォル\nそこフォローはいるよ～\n今のうちに休憩回しちゃおっか！\n\n# chara 600851\n@グリダヴォル\nはい、かき氷、お待ちどうさまです♪\n次、そちらうかがいま～す！\n\n# textflame 0 0\n@\n疲れた体にムチを打って、\nグリダヴォルは誰よりも声を出し\n更に笑顔を振りまいていく\n\n# textflame 1 1\n# chara 600851\n# voice 6008 \"guridavoru_0005\"\n@グリダヴォル\nどんどん行くよ～！\nグリダヴォル、フル回転！\n\n# textflame 0 0\n@\n海の家の空気は、\n変わり始めていた"
	}
]