[
	{
		"ID": 6009023,
		"script": ";;【EP2】戦闘後\n# script \"lisp\"\n# background \"courtyard\"\n# bgm \"bgm003\" 0\n# body 300351\n# pos 300351 4\n# scale 300351 0.8 0\n# body 114\n# pos 114 5\n# scale 114 0.8 0\n# body 115\n# pos 115 2\n# scale 115 0.8 0\n# body 116\n# pos 116 2\n# scale 116 0.8 0\n# layer 300351 3\n# layer 115 2\n# layer 114 1\n# alpha 114 0 0\n# alpha 116 0 0\n# textflame 0 0\n# chara 300351\n# face 115 \"mad\"\n# face 300351 \"usual\"\n# body 500421\n# alpha 500421 0 0\n@マスター\n２人ともケンカはやめようよ！\n少し落ち着いてさ…ね？\n\n# alpha 300351 1 0.5\n# textflame 1 1\n# textboxarrow 0 3\n# chara 300351\n# face 300351 \"sad\"\n@方天画戟\n…ちっ、マスターにそんなこと\n言われると、なんか妙に\n気が萎えちまうんだよな…\n\n;;//もやもや吹き出し\n# textflame 0 0\n# textwindow \"moya\"\n@マスター\nやった！方天画戟は\n落ち着いてくれた！\n…ブラフマーストラも…\n\n# alpha 115 1 0.5\n# textflame 1 1\n# textboxarrow 0 1\n# chara 115\n@ブラフマーストラ\n…………\n\n# emotionbody 200 13 115 -100 220\n# effectpattern 200 1 0\n# effectstart 200\n# bgmfile \"bgm165\" \"BgmPJZero001\" 0.7\n# textboxarrow 0 1\n# chara 115\n# voice 5004 \"burafumasutora_0004\"\n# face 115 \"angry\"\n# face 300351 \"surprise\"\n@ブラフマーストラ\nはっ！笑わせんじゃないよ…\nどうしてアタシがマスター、アンタの\n言う事なんて聞かなきゃいけない？\n\n# effectskip 200\n# textflame 0 0\n# textwindow \"nomal\"\n@マスター\nえっ！？\n\n# textflame 1 1\n# textboxarrow 0 1\n# chara 115\n# face 300351 \"angry\"\n@ブラフマーストラ\nアタシに言うこと聞かせたきゃ\n竜でも連れてくるんだねぇ…\nもちろん、本物の竜をさ！\n\n# textflame 0 0\n@マスター\n竜って…伝説上の生き物でしょ！？\n本物なんて、居るわけないんじゃ…\n\n# textflame 1 1\n# textboxarrow 0 1\n# chara 115\n# face 115 \"normal\"\n@ブラフマーストラ\n居ないから、つまりアタシが\n“成る”しかねーってことだよォ\n\n# textboxarrow 0 1\n# chara 115\n# face 115 \"angry\"\n@ブラフマーストラ\n最強ってのは、つまり竜…！\n\n# textboxarrow 0 1\n# chara 115\n@ブラフマーストラ\nアタシが最強になれば\nそれは竜になるってことと\n同じなんだからねぇ…！\n\n;;//もやもや吹き出し\n# move 114 4 0\n# textflame 0 0\n# textwindow \"moya\"\n@マスター\nそ、そんな…！\n異族化を止めたはずなのに\n止まらないことがあるなんて…\n\n# bgmfile \"bgm172\" \"BgmPJZero003\" 0.7\n# textwindow \"normal\"\n# alpha 116 1 0.5\n# alpha 115 0 0.5\n# alpha 300351 0 0.5\n# alpha 114 1 0.5\n# textflame 1 1\n# textboxarrow 0 1\n# chara 116\n# face 116 \"angry\"\n@？？？？\n…言って聞かないなら\n体張って聞かせれば\nいいんじゃない？\n\n# textboxarrow 0 3\n# chara 114\n# face 114 \"happy\"\n@オティヌス\nグラム！やった、来てくれたんだ！！\n\n# textflame 0 0\n@マスター\nグラム！？\n…確か“鳳凰天”のリーダーの…\n\n# textflame 0 0\n@マスター\n“竜殺し”グラム…！\n"
	}
]