[
	{
		"ID": 6010203,
		"script": ";;バトル終了\n# script \"lisp\"\n# background \"walpurgis\"\n# bgm \"bgm003\" 0\n# body 31\n# pos 31 3\n# mask 31 off\n# scale 31 0.8 0\n# alpha 31 0 0\n# textflame 0 0\n@\nあの時の少女の言葉を思い出し、\n異族が浄化できたことを、\nきちんと確認する\n\n;;ホワイトフラッシュ\n# fadeout \"white\" 1\n\n;;広場 中庭\n# fadein \"white\" 0.5\n# background \"courtyard\"\n# textwindow \"close\"\n\n# serif 0\n# textflame 0 0\n# textwindow \"nomal\"\n# textboxarrow 0 0\n@マスター\nよかった、戻ってこられた\n\n;;ヤグルシ表示\n# serif 1\n# textboxarrow 1 2\n# alpha 31 1 0.5\n# chara 31\n# face 31 \"sad\"\n# voice 2017 \"yagurushi_0037\"\n@少女\nう、うーん…\n\n# serif 0\n# textboxarrow 0 0\n@マスター\n大丈夫？\n\n# serif 1\n# textboxarrow 1 2\n# chara 31\n# face 31 \"happy\"\n# voice 2017 \"yagurushi_0004\"\n@少女\nあ～、すっきりした～\n\n# serif 1\n# textboxarrow 1 2\n# chara 31\n# face 31 \"surprise\"\n# voice 2017 \"yagurushi_0022\"\n@少女\n…って、え、君、誰！？\n\n# serif 0\n# textboxarrow 0 0\n@マスター\nえ、覚えてないの…？\n\n# serif 1\n# textboxarrow 1 2\n# chara 31\n# face 31 \"happy\"\n# voice 20175 \"yagurushi_g_kyara_1005\"\n@少女\nあ、わかった！\nマスター！　マスターでしょ！？\n\n# serif 1\n# textboxarrow 1 2\n# chara 31\n# voice 2017 \"yagurushi_0020\"\n@少女\n初めて会うのにわかっちゃうなんて\nすごいでしょ！\n\n# serif 1\n# textboxarrow 1 2\n# chara 31\n# voice 2017 \"yagurushi_0007\"\n@少女\nだって、\nヤグはやればできる子だから～！\n\n# serif 1\n# textboxarrow 1 2\n# chara 31\n# voice 2017 \"yagurushi_0006\"\n# face 31 \"happy\"\n@少女\n…な～んてね♪\n本当は理事長先生が\n言ってたからだよ\n\n# textflame 0 0\n@\nさっき会ったことを\nどうして覚えていないのか\n気になったが…\n\n# serif 0\n# textboxarrow 0 0\n@マスター\nよかった\n元気になったみたいで\n\n# serif 0\n# textboxarrow 0 0\n@マスター\nさっきまで\nすごく落ち込んでいるみたい\nだったから\n\n# serif 1\n# textboxarrow 1 2\n# chara 31\n# face 31 \"surprise\"\n# voice 20175 \"yagurushi_kyara_1006\"\n@少女\n落ち込んでた？\nヤグが？\n\n# serif 1\n# textboxarrow 1 2\n# chara 31\n# voice 2017 \"yagurushi_0028\"\n@少女\nよく覚えてないけど、\nもしそう見えたのなら…\n\n# serif 1\n# textboxarrow 1 2\n# chara 31\n# face 31 \"happy\"\n@少女\n…ううん、なんでもな～い\nだって君には関係ない話だもの\n\n# serif 0\n# textboxarrow 0 0\n@マスター\n確かに関係ないよね\n\n# serif 0\n# textboxarrow 0 0\n@マスター\nでも、思うんだ\n\n# serif 0\n# textboxarrow 0 0\n@マスター\n関係ないからこそ、\n話しやすいことも\nあるんじゃないかって\n\n# serif 1\n# textboxarrow 1 2\n# chara 31\n# face 31 \"normal\"\n# voice 20175 \"yagurushi_g_kyara_1001\"\n@少女\n君、お節介焼きって\n言われるでしょ～？\n\n# serif 1\n# textboxarrow 1 2\n# chara 31\n# voice 2017 \"yagurushi_0030\"\n# face 31 \"shy\"\n@少女\n…でも、ありがと\nけっこううれしい、かも\n\n# serif 1\n# textboxarrow 1 2\n# chara 31\n# face 31 \"normal\"\n# voice 2017 \"yagurushi_0002\"\n@少女\nヤグの話、聞いてくれる？\n\n# serif 1\n# textboxarrow 1 2\n# chara 31\n# voice 20175 \"yagurushi_kyara_1028\"\n@少女\n…ヤグにはなにをするにも、\nどこに行くにも、\nいつも一緒の人がいるの\n\n# serif 1\n# textboxarrow 1 2\n# chara 31\n# face 31 \"happy\"\n@少女\nヤグはその人が大好きなの\n\n# serif 1\n# textboxarrow 1 2\n# chara 31\n# face 31 \"sad\"\n@少女\nでも…\n\n;;回想突入\n# fadeout \"black\" 1\n\n;;学院教室\n# fadein \"black\" 0.5\n# background \"classroom02_afternoon\"\n# bgm \"bgm003\" 0.3\n# bgm \"bgm004\" 0.3\n# body 37\n# pos 37 1\n# mask 37 off\n# scale 37 0.8 0\n# alpha 37 0 0\n# move 31 5 0\n# face 31 \"normal\"\n# serif 0\n# textwindow \"close\"\n# serif 1\n# textwindow \"close\"\n# fillrect \"pink\" 0 0 0.2\n\n# serif 0\n# textflame 1 1\n# textwindow \"nomal\"\n# textboxarrow 0 3\n# chara 31\n# face 31 \"surprise\"\n@少女\nお姉ちゃん、待って！\nどこ行くの…！？\n\n;;アイムール表示\n# serif 1\n# textboxarrow 1 1\n# alpha 37 1 0.5\n# chara 37\n# face 37 \"mad\"\n@姉\n…\n\n# textflame 0 0\n@\nとても冷めた眼差しを少女に向けるが\nすぐに視線を逸らし、\n\n# textboxarrow 1 0\n# leftout 37 0.8\n# alpha 37 0 0.5\n# textflame 0 0\n@\nなにも言わず、\nどこかへ行ってしまう\n\n;;アイムール消す\n# serif 0\n# textflame 1 1\n# textboxarrow 0 2\n# move 31 3 0.5\n# chara 31\n# face 31 \"cry\"\n@少女\nお姉ちゃん、待って！\nヤグを…\nヤグを置いていかないで…！！\n\n;;回想終了\n# fadeout \"black\" 1\n# fillrect \"pink\" 0 0 0.2\n\n;;広場中庭\n# fillrect \"pink\" 0 0 0\n# fadein \"black\" 0.5\n# background \"courtyard\"\n# face 31 \"sad\"\n# serif 0\n# textwindow \"close\"\n# serif 1\n# textwindow \"close\"\n\n# serif 1\n# textwindow \"nomal\"\n# textboxarrow 1 2\n# chara 31\n# face 31 \"sad\"\n@少女\nえへへ、ヤグ、\n嫌われちゃったんだよね…？\n\n# serif 0\n# textflame 0 0\n# textwindow \"nomal\"\n# textboxarrow 0 0\n@マスター\n…ごめん\n\n# serif 0\n# textboxarrow 0 0\n@マスター\n僕が話を聞くなんて\n余計なことを言ったせいで…\n君につらいことを思い出させた\n\n# bgm \"stop\"\n# serif 0\n# textboxarrow 0 0\n@マスター\n本当にごめん…\n\n# bgm \"bgm002\" 0.3\n# serif 1\n# textboxarrow 1 2\n# chara 31\n# voice 2017 \"yagurushi_0004\"\n# face 31 \"happy\"\n# jump 31\n@少女\nもぉ～、\n君ってばやさしすぎぃ～！\n\n# serif 0\n# textboxarrow 0 0\n@マスター\nなっ！？\nいきなり抱きついてきて\nどうしたの！？\n\n# serif 1\n# textboxarrow 1 2\n# chara 31\n# voice 2017 \"yagurushi_0005\"\n@少女\nそんなの、\nうれしかったからに\n決まってるよ～！\n\n# serif 1\n# textboxarrow 1 2\n# chara 31\n# voice 2017 \"yagurushi_0030\"\n@少女\nありがとぉ～、\nヤグの力になってくれて！\n\n# serif 1\n# textboxarrow 1 2\n# chara 31\n# voice 2017 \"yagurushi_0004\"\n@少女\n話したら気持ちが\nすっごく楽になったよ～！\n\n# serif 0\n# textboxarrow 0 0\n@マスター\n気を遣わせちゃって…\nやさしいのは君の方だ\n\n# serif 1\n# textboxarrow 1 2\n# chara 31\n# voice 20175 \"yagurushi_event_1005\"\n@少女\nそんなことないよ～\nこれはヤグの本心だよ、マスター！\n\n# serif 0\n# textboxarrow 0 0\n@マスター\nえ、今、僕のことマスターって…\n\n# serif 1\n# textboxarrow 1 2\n# chara 31\n# face 31 \"shy\"\n# voice 2017 \"yagurushi_0037\"\n@少女\nだ、だって君は\nマスターなんだから、\nマスターって呼ばなきゃでしょ～！？\n\n# textflame 0 0\n@\nそう告げる彼女は耳の先まで\n真っ赤になって、\nとても恥ずかしそうだ\n\n;;長文なので２つにわける？\n# serif 1\n# textboxarrow 1 2\n# chara 31\n# face 31 \"surprise\"\n@少女\nヤグのことは名前で呼んで…\nって、自己紹介してなかったぁ！？\nあのね、ヤグはヤグルシっていうの～！\n\n# textflame 0 0\n@\nその時、授業開始のチャイムが鳴り響く\n\n# serif 1\n# textboxarrow 1 2\n# chara 31\n# voice 2017 \"yagurushi_0001\"\n@ヤグルシ\nって遅刻だよぉ！？\nそれじゃ、マスター、またね～！\n\n# serif 0\n# textboxarrow 0 0\n@マスター\nちょっと待ってヤグルシ！\n最後に教えて。\nラグナロク女学院ってどこ！？\n\n# serif 1\n# textboxarrow 1 2\n# chara 31\n# face 31 \"happy\"\n# voice 20175 \"yagurushi_unit_1005\"\n@ヤグルシ\nそれなら、案内してあげる～！\nヤグ、ラグナロク女学院に\n通ってるんだ～！\n\n# serif 0\n# textboxarrow 0 0\n@マスター\n迷惑かけてごめんね\n\n# serif 1\n# textboxarrow 1 2\n# chara 31\n# voice 2017 \"yagurushi_0001\"\n@ヤグルシ\n違うよ～、マスター\nそういう時は～、\n『ありがとう』だよ～？\n\n# serif 0\n# textboxarrow 0 0\n@マスター\n…そっか。そうだね\nありがとう、ヤグルシ\n\n# serif 1\n# textboxarrow 1 2\n# chara 31\n# voice 2017 \"yagurushi_0004\"\n@ヤグルシ\nふふ、どういたしまして～！\n"
	}
]