[
	{
		"ID": 6020402,
		"script": ";;【指定】bgm025\n;;4話戦闘後\n# script \"lisp\"\n# background \"tree_cavern\"\n# bgm \"bgm025\" 0\n# body 400131\n# pos 400131 5\n# face 400131 \"nutual\"\n# scale 400131 0.8 0\n# body 400151\n# pos 400151 1\n# scale 400151 0.8 0\n# textflame 1 1\n# textboxarrow 0 1\n# chara 400151\n# voice 40015 \"arutemisu_k_0014\"\n# face 400151 \"angry\"\n@ラスト\nちっ…！\nちょこまかと…！\n\n# textboxarrow 0 3\n# chara 400131\n@アルテミス\nよし、充分に時間は稼いだ\n\n# textboxarrow 0 3\n# chara 400131\n# face 400131 \"angry\"\n@アルテミス\n皆、急ぎマスターの元へ！\n\n# textflame 0 0\n# rightout 400131 0.5\n# alpha 400131 0 0.1\n# move 400151 3 0.7\n# mask 400151 off\n@\nマスターと合流すべく、\n全速力で向かうアルテミス達\n\n# textflame 0 0\n@\n警戒しているラストを\n置き去りにするには\n充分な速度だった\n\n# textflame 1 1\n# textboxarrow 0 2\n# chara 400151\n# face 400151 \"normal\"\n@ラスト\n…………\n\n# textboxarrow 0 2\n# chara 400151\n# face 400151 \"angry\"\n@ラスト\n絶対に逃がさない…！\n"
	}
]