[
	{
		"ID": 60291214,
		"script": ";;-----------------------------------------\n;;エンメル3-3\n;;-----------------------------------------\n# script \"lisp\"\n# background \"plain\"\n# bgmfile \"bgm270\" \"BgmLostRagnarokEvent\" 0\n;;-----------------------------------------\n;;エンメル\n# body 207\n# pos 207 3\n# scale 207 0.8 0\n# layer 207 2\n# alpha 207 1 0\n# mask 207 off\n;;-----------------------------------------\n;;エンメル一枚絵\n# imageset 0 \"c602911\"\n# imagelayer 0 3\n# imagealpha 0 0 0\n;;-----------------------------------------\n;;背景：草原\n# textflame 1 1\n# textboxarrow 0 2\n# face 207 \"happy\"\n# voice 6029 \"emmer_0004\"\n@エンメル\nいい天気ね、マスター！\n風が気持ちいいわ\n\n# textflame 0 0\n@\nエンメルに誘われ、\n散歩に来たマスター\n\n# textflame 0 0\n@\n隣を歩くエンメルの足取りは軽く、\nスキップでもしそうな勢いである\n\n# textflame 1 1\n# textboxarrow 0 2\n# voice 6029 \"emmer_0001\"\n@エンメル\n気分転換って大事よね\nいつも戦ってばかりだと\n気が滅入るもの。そう思わない？\n\n# textflame 0 0\n@\nそれはそうだ\n常に気が張り詰めていては、いつか\n破裂してしまう\n\n# textflame 0 0\n@\n唐突な誘いではあったが、\nエンメルの気遣いに感謝をする\nマスター\n\n# textflame 1 1\n# textboxarrow 0 2\n@エンメル\nお礼なんかいいのよ\n兄さんはいつも、決めたら\n立ち止まらなくなるタイプだったから\n\n# textflame 0 0\n@\n兄さん？\nと聞き返すマスター\n\n# textflame 1 1\n# textboxarrow 0 2\n# face 207 \"normal\"\n@エンメル\nああ…元の世界にね、いるの\n私の兄さんが\n\n# textflame 0 0\n@\n元の世界に未練があるの、と\n問いかけるマスター\n\n# textflame 1 1\n# textboxarrow 0 2\n# face 207 \"sad\"\n# voice 6029 \"emmer_0028\"\n@エンメル\n未練…はないかな\nでも、あなたといると思い出すの\n兄さんのことを\n\n# textflame 1 1\n# textboxarrow 0 2\n@エンメル\n年齢も外見もタイプも全然違うのにね\n…不思議\n\n# textflame 1 1\n# textboxarrow 0 2\n# face 207 \"normal\"\n@エンメル\n…うん！\n兄さんはきっと大丈夫\n私、信じているから\n\n# textflame 1 1\n# textboxarrow 0 2\n# voice 6029 \"emmer_0004\"\n@エンメル\nさ、この話題はこれでおしまい！\nねえマスター、お腹空かない？\n\n# textflame 0 0\n@\n朝から何も食べていないことに\n気づくマスター\n\n# textflame 1 1\n# textboxarrow 0 2\n# face 207 \"happy\"\n@エンメル\nこの間のお礼に…はい！！\n\n# textflame 0 0\n@\nエンメルの手には、\n弁当の包みが握られていた\n\n# textflame 1 1\n# textboxarrow 0 2\n@エンメル\n座って食べよう？\nあなたのために作ったの\n喜んでもらえるといいけど\n\n# textflame 0 0\n@\n腰を下ろし、エンメルの作った弁当を\n眺めるマスター\n\n# textflame 0 0\n@\n見た目がものすごく個性的だ\n\n# textflame 1 1\n# textboxarrow 0 2\n@エンメル\n遠慮しないで、さあどうぞ！\n\n# textflame 0 0\n@\n弁当を一口、口に運ぶ\n感想を告げる前に\nむせてしまうマスター\n\n# textflame 1 1\n# textboxarrow 0 2\n# face 207 \"surprise\"\n# voice 6029 \"emmer_0022\"\n@エンメル\nあ…あれ…？\n…そういえば…\n味見しなかった…かも…\n\n# textflame 1 1\n# textboxarrow 0 2\n@エンメル\n…！！\n…これは…\n\n# textflame 0 0\n@\n気持ちは嬉しい、と返すマスター\nしかし、エンメルはすっかり\n落ち込んでしまったようだ\n\n# textflame 1 1\n# textboxarrow 0 2\n# face 207 \"sad\"\n# voice 6029 \"emmer_0031\"\n@エンメル\nはあ…良かれと思ったのに…\nごめんなさい…\n\n# textflame 1 1\n# textboxarrow 0 2\n# voice 6029 \"emmer_0027\"\n@エンメル\n…慣れないことは\nするものじゃないわね\n\n# textflame 0 0\n@\nきっと、まだこの世界の調味料に\n慣れていないからだ、とマスターは\n慌ててフォローする\n\n# textflame 0 0\n@\nそして、マスターはこっそりと\n持って来た調味料を取り出す\n\n# textflame 1 1\n# textboxarrow 0 2\n# face 207 \"surprise\"\n# voice 6029 \"emmer_0022\"\n@エンメル\nえ…それ…？\n\n# textflame 0 0\n@\n朝、たまたま料理をするエンメルを\n見かけて、万が一の時のために\n持って来たことを告げるマスター\n\n# textflame 1 1\n# textboxarrow 0 2\n# voice 6029 \"emmer_0028\"\n@エンメル\nあれ…料理したことないって\nバレてたの？\n恥ずかしいなあ…もう…\n\n# textflame 0 0\n@\n持って来た調味料をエンメルの弁当に\nそっと添え、再び口に運ぶマスター\n\n# textflame 0 0\n@\n思った通り、味が整う\nエンメルにもそれを勧めるマスター\n\n# textflame 1 1\n# textboxarrow 0 2\n# face 207 \"normal\"\n# voice 6029 \"emmer_0004\"\n@エンメル\n…うん\nこれなら、食べられなくない…\nかな\n\n# textflame 1 1\n# textboxarrow 0 2\n@エンメル\n…あなたには敵わないわ\nいつも、私のことを助けてくれる\n\n# textflame 0 0\n@\n仲間なんだから助けるのは当たり前\nもっと頼っていいよ、とマスター\n\n# textflame 1 1\n# textboxarrow 0 2\n@エンメル\n頼ってばかりじゃダメだけど…\nそうよね、この世界に\nもう少し慣れるまでは…\n\n# textflame 1 1\n# textboxarrow 0 2\n@エンメル\nもう少し、頼らせてもらおうかしら\n\n# textflame 0 0\n@\nもちろん、とマスターは言う\n\n# textflame 1 1\n# textboxarrow 0 2\n# voice 6029 \"emmer_0002\"\n@エンメル\n戦うことだけじゃなくて…日常でも\nあなたは、助けてくれるのね\n\n# textflame 0 0\n@\n仲間だから\nそうマスターは力強く告げる\n\n# textflame 1 1\n# textboxarrow 0 2\n# face 207 \"happy\"\n@エンメル\nありがとう\n…その気持ちに、応えたいって思うわ\n\n# textflame 1 1\n# textboxarrow 0 2\n@エンメル\nこの力、あなたのために振るいます\nそう、ここに誓う…\n\n# textflame 1 1\n# textboxarrow 0 2\n# voice 6029 \"emmer_0001\"\n@エンメル\nだから、これからもよろしくね\nマスター\n\n# textflame 0 0\n@\nそう言い放つエンメルの笑顔が\nあまりにも眩しく、マスターは\n目を細める\n\n# textflame 0 0\n@\nそして、照れ隠しのように\n一緒に弁当を食べよう、と\n慌ててエンメルに言うマスター\n\n# textflame 1 1\n# textboxarrow 0 2\n# voice 6029 \"emmer_0005\"\n@エンメル\nふふ、そうね\n\n# textflame 0 0\n@\n穏やかな時間をエンメルと\n二人で過ごすマスター\n\n# textflame 0 0\n@\nその穏やかさと、空腹が満たされた\n心地よさで、眠くなってしまう\nマスターであった\n\n# textflame 1 1\n# textboxarrow 0 2\n@エンメル\n少し眠る？\nいいわ、私がそばについてるから\n\n# textflame 1 1\n# textboxarrow 0 2\n@エンメル\nだから、安心して？\n\n;;★６\n;;ボイス：emmer_chara_0011\n;;「困った時にあなたを捜している自分に気がついたわ。こんなこと知ったら兄さんは怒るでしょうね、ふふっ」\n# textflame 0 0\n# imagealpha 0 1 0\n# imagepos 0 0 0\n# fadein \"white\" 3\n# buttonsout 0 0\n# textwindow \"close\"\n# voice 6029 \"emmer_kyara_0026\"\n\n# frameout 0 1\n\n# waitandnext 0.8\n\n# fadeout \"black\" 1.5\n# waitandnext 1.5"
	}
]