[
	{
		"ID": 60291211,
		"script": ";;-----------------------------------------\n;;エンメル1-1\n;;-----------------------------------------\n# script \"lisp\"\n# background \"forest\"\n# bgmfile \"bgm270\" \"BgmLostRagnarokEvent\" 0\n;;-----------------------------------------\n;;エンメル\n# body 207\n# pos 207 3\n# scale 207 0.8 0\n# layer 207 2\n# alpha 207 1 0\n# mask 207 off\n# body 810004\n# pos 810004 2\n# scale 810004 0.8 0\n# layer 810004 3\n# alpha 810004 0 0\n# reversal 810004 0\n# entry 810099 810004\n# pos 810099 4\n# scale 810099 0.8 0\n# layer 810099 3\n# alpha 810099 0 0\n;;-----------------------------------------\n;;背景：森の中\n# textflame 1 1\n# textboxarrow 0 2\n# face 207 \"angry\"\n# voice 6029 \"emmer_0029\"\n@エンメル\nはああああっ！\n\n# textflame 0 0\n@\nエンメルの放った術が異族をなぎ倒す\n\n;;更にやってくる異族たち\n# alpha 207 0 0.5\n# textwindow \"close\"\n# waitandnext 0.5\n\n# alpha 810004 1 0.5\n# waitandnext 0.3\n\n# alpha 810099 1 0.5\n# waitandnext 1\n\n# alpha 207 1 0.5\n# alpha 810004 0 0.5\n# alpha 810099 0 0.5\n# textwindow \"nomal\"\n# textflame 1 1\n# textboxarrow 0 2\n@エンメル\nマスター、下がってて\nここは、私が\n\n# textflame 0 0\n@\n異族の群れに囲まれ、\n他の姫たちと分断されてしまった\nマスターとエンメル\n\n# textflame 0 0\n@\nエンメルの術は強力だ\nしかし、この数が相手では分が悪い\n\n# textflame 1 1\n# textboxarrow 0 2\n@エンメル\n…大丈夫\nあなたのことは、何があっても守るわ\n\n# textflame 0 0\n@\nマスターの考えを察知したかのように\n柔らかく声をかけてくるエンメル\nだが――\n\n# textflame 1 1\n# textboxarrow 0 2\n# face 207 \"surprise\"\n@エンメル\n！？\n\n# textflame 0 0\n@\n異族たちが一斉に\n襲い掛かってくる\n\n# textflame 1 1\n# textboxarrow 0 2\n# face 207 \"angry\"\n# voice 6029 \"emmer_battle_0005\"\n@エンメル\nくっ…！！\n\n# textflame 0 0\n@\nマスターを庇いつつ\n迫り来る異族を倒していくエンメル\n\n# textflame 1 1\n# textboxarrow 0 2\n# voice 6029 \"emmer_battle_0003\"\n@エンメル\nはあああああああああっ！！\n\n# textflame 0 0\n@\n完全に包囲されている中\nエンメルが血路を拓いていく\n\n# textflame 0 0\n@\nなんとか突破できたものの\nマスターを庇っていたため\n傷を受けてしまったエンメル\n\n# textflame 0 0\n@\n心配そうに\nエンメルに声をかけるマスター\nしかし、エンメルは気丈に言葉を返す\n\n# textflame 1 1\n# textboxarrow 0 2\n@エンメル\n心配は無用よ\n私はあなたを守る存在だもの\nあなたのために、戦う…\n\n# textflame 1 1\n# textboxarrow 0 2\n# voice 6029 \"emmer_0001\"\n@エンメル\n“キル姫”とは、\nそういうものなのでしょう？\n\n# textflame 0 0\n@\n確かに、その通りだが…\n今のエンメルはどこか\n焦っているようにも見える\n\n# textflame 0 0\n@\n無理もない\n異なる世界で異なる役割を\n背負わされたわけなのだから\n\n# textflame 0 0\n@\nだが…今のエンメルはあまりにも\n危なっかしく見える\nマスターは思っていることを口にした\n\n# textflame 0 0\n@\n無茶をするべきじゃない\n今は、怪我の治療をするべきだ、と\n\n# textflame 0 0\n@\nいつもはエンメルが守ってくれる\nでも、怪我をしたときくらいは\nエンメルを守りたい、と\n\n# textflame 1 1\n# textboxarrow 0 2\n# face 207 \"normal\"\n# voice 6029 \"emmer_0004\"\n@エンメル\n…ありがとう\nでも、私のことは気にしないで\n\n# textflame 1 1\n# textboxarrow 0 2\n# face 207 \"sad\"\n@エンメル\n…………\n\n# textflame 1 1\n# textboxarrow 0 2\n@エンメル\nさあ、他の姫たちと合流しましょう\nきっとみんなもマスターを\n捜しているはずよ\n\n# textflame 0 0\n@\n憂いを帯びた表情で\n歩を進めるエンメル\n\n# textflame 0 0\n@\nそんなエンメルに\nどう声をかけていいかわからず、\n\n# textflame 0 0\n@\n後を追うことしかできない\nマスターであった"
	}
]