[
	{
		"ID": 60301213,
		"script": ";;-----------------------------------------\n;;ツヴァイ2-3\n;;-----------------------------------------\n# script \"lisp\"\n# background \"plain\"\n# bgm \"bgm035\" 0\n;;-----------------------------------------\n# body 603011\n# pos 603011 3\n# scale 603011 0.8 0\n# layer 603011 2\n# mask 603011 off\n# alpha 603011 1 0\n;;-----------------------------------------\n;;一枚絵\n# imageset 1 \"c603011\"\n# imagealpha 1 0 0\n# imagelayer 1 3\n;;-----------------------------------------\n# textflame 1 1\n# textboxarrow 0 2\n# face 603011 \"normal\"\n# voice 6030 \"zwei_0032\"\n@ツヴァイ\nふう、おしまい\n\n# textflame 0 0\n@\nマスターがツヴァイに\n助けてくれたことのお礼を\n言う\n\n# textflame 1 1\n# textboxarrow 0 2\n# voice 6030 \"zwei_0028\"\n@ツヴァイ\nただの気まぐれ\nあなたも『闘う』のなら、\n少し信用できるかも、だから\n\n# textflame 0 0\n@\nその顔から、少しだけ警戒心が\n抜けていたのをマスターは見て取った\n\n# textflame 0 0\n@\n気まぐれで助けてくれるなんて、\nまるで猫みたいだね、と\nマスターは言う\n\n# textflame 1 1\n# textboxarrow 0 2\n# face 603011 \"happy\"\n# voice 6030 \"zwei_0004\"\n@ツヴァイ\n気まぐれにね、にゃーん\n\n# textflame 0 0\n@\nツヴァイの顔がほころんでいる\n初めて見せるその笑顔に\n思わずマスターの表情も緩む\n\n# textflame 1 1\n# textboxarrow 0 2\n# face 603011 \"angry\"\n# voice 6030 \"zwei_0009\"\n@ツヴァイ\nかんちがいしないで\n…ぜんぶ信用したわけじゃない\n…でも…\n\n# textflame 1 1\n# textboxarrow 0 2\n# face 603011 \"normal\"\n@ツヴァイ\nあなたが『闘い続ける』なら\nちょっと信用してあげてもいいよ\n\n# textflame 0 0\n@\nツヴァイの方から、\nおずおずと小さな手を差し出してくる\n\n# textflame 0 0\n@\nその手を取り、ぎゅっと握りしめる\nすると、先ほどよりもほころんだ\nツヴァイの顔がマスターの目に映った\n\n# textflame 1 1\n# textboxarrow 0 2\n# face 603011 \"happy\"\n# voice 6030 \"zwei_0005\"\n@ツヴァイ\nひとまず、よろしくね\n\n# textflame 0 0\n@\nふと、マスターが空を見上げると\n抜けるような青空が広がっている\n\n# textflame 1 1\n# textboxarrow 0 2\n# voice 6030 \"zwei_0021\"\n@ツヴァイ\nああ…青空…\nこっちの世界で、初めて\n見たような気がするな\n\n# textflame 0 0\n@\nツヴァイは目を細め、じっと\n青空を見つめている\nそしてぽつりと呟いた\n\n# textflame 1 1\n# textboxarrow 0 2\n# voice 6030 \"zwei_0030\"\n@ツヴァイ\n…ありがとうね\n\n# textflame 0 0\n@\nそれがなにに対してなのか\nマスターにはわからなかった\n\n# textflame 0 0\n@\nマスターも、どういたしまして、と\nぽつりと呟く\n\n# textflame 1 1\n# textboxarrow 0 2\n@ツヴァイ\n…………\n\n# textflame 0 0\n@\nそれが届いたのかどうかわからないが\nツヴァイは笑顔を青空に向け\n満足そうにこう言った\n\n# textflame 1 1\n# textboxarrow 0 2\n# voice 6030 \"zwei_0005\"\n@ツヴァイ\n青空…きれいだね\n\n# textflame 0 0\n@\nその言葉の響きに、\nこの世界で生きていく決意が\n含まれていたような気がした\n\n# textflame 0 0\n@\n相変わらず掴み所はないが、\nきっとこれからツヴァイと\nうまくやっていけるはず\n\n# textflame 0 0\n@\n隣の笑顔と、青空を交互に見ながら\nマスターはそう確信したのであった\n\n;;一枚絵表示\n;;★５\n;;背景：草原（昼）\n;;表情：信頼感を含んだ優しい感じの軽い笑みを浮かべています\n;;構図：前を歩くツヴァイが振り向いてこちらを見ている感じです\n;;一枚絵ボイス\n;;★５「猫のなつかせ方？　んー…そういうふうに、従わせようって考えないこと、かな」\n;;（ALC台本のファイル名：zwei_chara_0013）\n;;※台本未FIX\n# textflame 0 0\n# imagealpha 1 1 0\n# imagepos 1 0 0\n# fadein \"white\" 3\n# buttonsout 0 0\n# textwindow \"close\"\n# voice 6030 \"zwei_kyara_0017\"\n\n# frameout 0 1\n\n# waitandnext 0.8\n\n# fadeout \"black\" 1.5\n# waitandnext 1.5"
	}
]