[
	{
		"ID": 6060106,
		"script": ";;【EP3】革命乙女～再臨～:戦闘後/背景：遺跡（夜）\n# script \"lisp\"\n# background \"bog\"\n# bgm \"bgm004\" 0\n# body 75\n# pos 75 4\n# scale 75 0.8 0\n# body 103611\n# pos 103611 2\n# scale 103611 0.8 0\n# body 100221\n# pos 100221 3\n# scale 100221 0.8 0\n# body 302511\n# pos 302511 1\n# scale 302511 0.8 0\n# body 502711\n# pos 502711 5\n# scale 502711 0.8 0\n# alpha 75 0 0\n# alpha 103611 0 0\n# textflame 1 1\n# textboxarrow 0 2\n# chara 100221\n@レーヴァテイン\nねえ…もうやめたら…？\nいくら欠片を集めても…\n元には戻らないわよ\n\n# textflame 0 0\n@考古学奏官\n…諦めきれないんだ\nせめて、石像の欠片を全て集めて\nあげたくて…\n\n# textflame 1 1\n# textboxarrow 0 2\n# chara 100221\n# face 100221 \"sad\"\n@レーヴァテイン\nはぁ…\nあなたって本当、面倒くさい\n\n# textboxarrow 0 2\n# chara 100221\n# face 100221 \"normal\"\n@レーヴァテイン\nエンシェントの二人は\n仲間のことなんか\nどうでもよさそうだけど…\n\n# textflame 0 0\n@考古学奏官\nそういえば…\nなんであんなに平気な顔を\nしていられるんだっ？\n\n# textflame 0 0\n@考古学奏官\n仲間が…\n殺されたんだぞ！\n\n# textflame 0 0\n@考古学奏官\nおい、聞いてるのか！？\nこの石像は…封印された君達の仲間\nじゃなかったのかよっ\n\n# textflame 1 1\n# textboxarrow 0 3\n# chara 502711\n# voice 5027 \"freischotz_0013\"\n# face 502711 \"sad\"\n@フライシュッツ\nうぅ～…\nそんな怖い顔したら、お姉ちゃん\n悲しくなっちゃう～…\n\n# textboxarrow 0 1\n# chara 302511\n# voice 3025 \"minerva_0002\"\n# face 302511 \"sad\"\n@ミネルヴァ\nあなたの怒りはもっともです\nですが、早計でもありますね\n\n# textboxarrow 0 1\n# chara 302511\n# voice 3025 \"minerva_0004\"\n# face 302511 \"normal\"\n@ミネルヴァ\n私達は時を待っていました\n今夜は良い月です\nこれなら申し分ないでしょう\n\n# textflame 0 0\n@考古学奏官\nなにを言っているんだ…？\n\n# textflame 1 1\n# textboxarrow 0 3\n# chara 502711\n# voice 5027 \"freischotz_unit_0005\"\n# face 502711 \"normal\"\n@フライシュッツ\nスイハちゃんとダモクレスちゃんを\nそろそろ起こそうって話よ～♪\n\n# textflame 0 0\n@考古学奏官\n二人を起こす！？\nでも…石像は粉々に…\n\n# textflame 1 1\n# textboxarrow 0 1\n# chara 302511\n# face 302511 \"surprise\"\n@ミネルヴァ\nあなたは私達が“なに”と\n戦っていたとお思いですか？\nそれこそ神々の誤算\n\n# textboxarrow 0 1\n# chara 302511\n# face 302511 \"normal\"\n@ミネルヴァ\nさあ、あの言葉を今一度、\nお願いします\n\n# imageset 0 \"black\"\n# imagealpha 0 0 0\n# imagelayer 0 1\n# textflame 0 0\n@考古学奏官\nあの言葉…？\nまさか…\n「七つの光は御旗とともに」！\n\n# bgm \"stop\"\n# se \"SE_5548\"\n# fadeout \"black\" 2\n# waitandnext 3\n;;//画面フラッシュ\n;;//暗転\n\n;;――場面転換――\n# fadein \"black\" 0.5\n# imagealpha 0 1 0\n# imagepos 0 0 30\n# imageleftin 0 0\n# serif 0\n# textwindow \"close\"\n# serif 1\n# textwindow \"close\"\n# waitandnext 0.5\n\n# alpha 100221 0 0\n# alpha 302511 0 0\n# alpha 502711 0 0\n# textflame 1 1\n# textwindow \"nomal\"\n# textboxarrow 0 0\n# se \"SE_9169\"\n@古文書\n――ラグナロクが突然、\nリベリオンに斬りかかった理由\nそれは本人にすら分からなかった\n\n# textboxarrow 0 0\n@古文書\n互いに仲裁が入り、\nうやむやになってしまったが、\n\n# textboxarrow 0 0\n@古文書\n後から思えばそれは\n重大な真実を示唆していたのだ\n\n# textboxarrow 0 0\n@古文書\nともあれ私達は\nラグナロクに協力を要請した――\n\n;;//背景：街中\n# se \"SE_4779\"\n# imageset 1 \"bg_white\"\n# imagealpha 1 0 0\n# imagescale 1 10 0\n# serif 1\n# textwindow \"close\"\n# serif 0\n# textwindow \"close\"\n# fillrect \"white\" 2.3 0 1\n# waitandnext 2.7\n\n# imagepos 1 0 0\n# imagealpha 1 1 0\n# fillrect \"white\" 1 1 0\n# waitandnext 0.1\n\n# background \"foot_mountain_village\"\n# alpha 75 1 0\n# alpha 103611 1 0\n# imagealpha 0 0 1\n# imagealpha 1 0 1\n# waitandnext 1.1\n\n# bgm \"bgm005\" 0.7\n# serif 1\n# textwindow \"close\"\n# serif 0\n# textwindow \"nomal\"\n# textflame 1 1\n# textboxarrow 0 1\n# chara 103611\n@ラグナロク\n断るわ\n\n# textflame 0 0\n@フレンネル\n即答か…\nできれば理由を聞かせてもらいたい\n\n# textflame 1 1\n# textboxarrow 0 1\n# chara 103611\n# face 103611 \"angry\"\n@ラグナロク\n私の魂がその男を警戒しているの…\n得体の知れない感覚…そんなものを\n感じる相手とは組めない\n\n# textboxarrow 0 3\n# chara 75\n# voice 9979 \"rebellion_0026\"\n# face 75 \"irregular\"\n@リベリオン\nチッ…\n俺もてめえを見てると\nなんでか苛立ってきやがる\n\n# textflame 0 0\n@フレンネル\nリベリオン、煽らないでくれっ\n\n# textflame 1 1\n# textboxarrow 0 1\n# chara 103611\n# face 103611 \"usual\"\n@ラグナロク\n運命の歯車は\n噛み合わなかったみたいね\n\n# textflame 0 0\n@フレンネル\n待ってくれ！\nこれは君達にとっても大切な\nことなんだっ\n\n# textflame 1 1\n# textboxarrow 0 1\n# chara 103611\n# face 103611 \"angry\"\n@ラグナロク\n“予言”のこと？\n運命は自分の力で切り拓くものよ\n私達は私達の意志で神々を倒す\n\n# textboxarrow 0 3\n# chara 75\n# voice 9979 \"rebellion_0042\"\n# face 75 \"sad\"\n@リベリオン\n…これ以上は時間の無駄だ\nフレンネル、行くぞ\n\n;;//リベリオンがその場を立ち去る\n# face 103611 \"normal\"\n# se \"SE_0719\"\n# alpha 75 0 1\n# textboxarrow 0 0\n# waitandnext 1\n\n# textflame 0 0\n@フレンネル\nリベリオン、おいっ…？\n\n;;//背景：平原\n;;――場面転換――\n# move 302511 2 0\n# move 75 3 0\n# imagealpha 0 1 0\n# imagepos 0 0 30\n# imageleftin 0 0.5\n# serif 0\n# textwindow \"close\"\n# serif 1\n# textwindow \"close\"\n# waitandnext 1\n\n# alpha 103611 0 0\n# alpha 75 1 0\n# background \"plain\"\n# imagealpha 0 0 0.5\n# imagerightout 0 0.5\n# serif 0\n# textwindow \"nomal\"\n# textflame 0 0\n# face 75 \"normal\"\n@フレンネル\nリベリオン！これからどうする\nつもりだっ？\nラグナロクの協力もなしに…\n\n# textflame 1 1\n# textboxarrow 0 2\n# chara 75\n@リベリオン\n仕方ねぇだろ\n俺達だけでどうにかする\nその方法を考えるしかねえ\n\n# textflame 0 0\n@フレンネル\nそんなことを言われても…\n\n# alpha 302511 1 0.5\n# move 75 4 0.5\n# textflame 1 1\n# textboxarrow 0 1\n# chara 302511\n# face 302511 \"angry\"\n@ミネルヴァ\nそれは少々、早計ですね\n\n# textflame 0 0\n@フレンネル\n君は…私達を追ってきたのか？\n\n# textflame 1 1\n# textboxarrow 0 1\n# chara 302511\n# voice 3025 \"minerva_0002\"\n# face 302511 \"normal\"\n@ミネルヴァ\n少し、話を聞いて下さいませんか\nちょっとした昔話です\n\n# textboxarrow 0 3\n# chara 75\n# face 75 \"sad\"\n@リベリオン\n…勝手にしろ\n"
	}
]