[
	{
		"ID": 6060108,
		"script": ";;4話戦闘後ここから\n;;//背景：荒野\n# script \"lisp\"\n# bgm \"bgm011\" 0\n# background \"wild\"\n# body 302511\n# pos 302511 2\n# scale 302511 0.8 0\n# body 103511\n# pos 103511 4\n# scale 103511 0.8 0\n# textflame 1 1\n# textboxarrow 0 1\n# chara 302511\n# face 302511 \"angry\"\n@ミネルヴァ\nまったく…\n\n# textboxarrow 0 1\n# chara 302511\n# face 302511 \"sad\"\n@ミネルヴァ\nダモクレスが\nむやみに異族を追うから\n囲まれてしまったではありませんか…\n\n# textboxarrow 0 3\n# voice 1035 \"damocles_0031\"\n# face 103511 \"shy\"\n# chara 103511\n@ダモクレス\nごめ～ん\nみんなバラバラになっちゃったね～\n\n# body 103611\n# pos 103611 3\n# scale 103611 0.8 0\n# alpha 103611 0 0\n# textboxarrow 0 1\n# chara 302511\n@ミネルヴァ\n私達は元々、連携して戦うことが\n得意ではないとはいえ…\nそれより早く突破口を開かないと\n\n;;//？？？＝ラグナロク\n# imageset 4 \"mov2_3\"\n# imagealpha 4 0 0\n# layer 103611 4\n# layer 302511 3\n# layer 103511 2\n# alpha 103611 1 0.5\n# move 302511 1 0.5\n# move 103511 5 0.5\n# textboxarrow 0 2\n# voice 1036 \"ragnarok_battle_0004\"\n# face 302511 \"surprise\"\n# face 103511 \"surprise\"\n# face 103611 \"angry\"\n@？？？\n邪魔ッ！！\n\n# se \"SE_5582\"\n# alpha 103611 0 0.5\n# waitandnext 0.5\n\n;;//ラグナロクが異族を斬り伏せる\n# textboxarrow 0 0\n# imagealpha 4 1 0.5\n# imagescale 4 1 0\n# imagepos 4 0 -130\n# alpha 302511 0 0.5\n# alpha 103511 0 0.5\n# alpha 103611 0 0.5\n# waitandnext 1\n\n# se \"SE_9017\"\n# effectbody 100 1 10 10\n# effectstart 100\n# se \"SE_5815\"\n# shake 0 0.5\n# fadein \"white\" 0.5\n# waitandnext 1\n\n# se \"SE_7005\"\n# fadein \"red\" 0.5\n# imagealpha 4 0 2\n# serif 1\n# textwindow \"toge\"\n# textboxarrow 0 0\n# se \"SE_5743\"\n@異族の群れ\nグギャアアアアアア…\n\n# alpha 302511 1 0.5\n# alpha 103511 1 0.5\n# serif 1\n# textwindow \"close\"\n# serif 0\n# textwindow \"surprise\"\n# textboxarrow 0 1\n# chara 302511\n@ミネルヴァ\nあれは…見覚えのない\nキラープリンセスですね…\n８人目が生み出されたのでしょうか\n\n# textboxarrow 0 3\n# voice 1035 \"damocles_0023\"\n# chara 103511\n@ダモクレス\nうっそ～っ！？\nあのお姉さん、一人で異族の群れに\n飛び込んでいったよ～っ\n\n# textboxarrow 0 1\n# voice 3025 \"minerva_0037\"\n# face 302511 \"angry\"\n# chara 302511\n@ミネルヴァ\n無謀です！\n早く助けに…\nしかし、この戦力差では…\n\n# textboxarrow 0 3\n# voice 1035 \"damocles_0029\"\n# face 103511 \"angry\"\n# chara 103511\n@ダモクレス\nよーし！\nクレスも行っくよ～\nなんだか力が湧いてきた～！\n\n# se \"SE_5575\"\n# textboxarrow 0 0\n# alpha 103511 0 0.5\n# waitandnext 1\n\n# imageset 1 \"bg_white\"\n# imagealpha 1 0 0\n# imagescale 1 10 0\n# textboxarrow 0 1\n# face 302511 \"surprise\"\n# chara 302511\n@ミネルヴァ\nダモクレスっ？\n…そういえば、不思議と体が軽い\n…彼女の力なのでしょうか？\n\n# se \"SE_5235\"\n# layer 302511 5\n# imagescale 1 10 0\n# serif 1\n# textwindow \"close\"\n# serif 0\n# textwindow \"close\"\n# fillrect \"white\" 2.3 0 1\n# waitandnext 3\n\n# face 302511 \"normal\"\n# move 302511 3 0\n# mask 302511 off\n# imagepos 1 0 0\n# imagealpha 1 1 0\n# fillrect \"white\" 1 1 0\n# waitandnext 0.1\n\n# bgm \"bgm004\" 0\n# fillrect \"pink\" 0 0 0.3\n# brightness 302511 0.6 0\n# waitandnext 1\n\n# serif 0\n# textwindow \"nomal\"\n# textflame 1 1\n# textboxarrow 0 2\n# chara 302511\n@ミネルヴァ\n私達は導かれるように\n異族の群れと戦い、\n勝利を収めました\n\n# textboxarrow 0 2\n# chara 302511\n@ミネルヴァ\n彼女の側にいると自身の力が高まり\nかつ安定するのを感じたんです\n\n# textboxarrow 0 2\n# chara 302511\n@ミネルヴァ\n戦いの後、\n私達は自然と彼女の下に集い\nその名を尋ねました\n\n# imageset 0 \"black\"\n# imagealpha 0 0 0\n# imagelayer 0 1\n# fadein \"white\" 0.5\n# brightness 302511 1 0\n# face 302511 \"sad\"\n# chara 302511\n@ミネルヴァ\nところが…\n\n;;//背景：平原\n# imagealpha 0 1 0\n# imagepos 0 0 30\n# imageleftin 0 0.5\n# serif 0\n# textwindow \"close\"\n# serif 1\n# textwindow \"close\"\n# waitandnext 1\n\n# alpha 302511 0 0\n# alpha 103611 1 0\n# mask 103611 off\n# background \"plain\"\n# imagealpha 0 0 0.5\n# imagealpha 1 0 0\n# imagerightout 0 0.5\n# serif 0\n# textwindow \"nomal\"\n# textboxarrow 0 2\n# voice 1036 \"ragnarok_0031\"\n# face 103611 \"sad\"\n@？？？\n私の名前…？\n…ごめん\n分からないの\n\n# textboxarrow 0 2\n# face 103611 \"normal\"\n@？？？\nあなた達の好きに呼んで良いから\nそれより…この世界のことを教えて\n\n# textboxarrow 0 2\n@？？？\n私はここで為さなければならない\n《使命》がある…はずなの…\n\n# se \"SE_4823\"\n# layer 302511 5\n# imagescale 1 10 0\n# serif 1\n# textwindow \"close\"\n# serif 0\n# textwindow \"close\"\n# fillrect \"white\" 2.3 0 1\n# waitandnext 3\n\n# face 302511 \"sad\"\n# alpha 103611 0 0\n# alpha 302511 1 0\n# mask 302511 off\n# imagepos 1 0 0\n# imagealpha 1 1 0\n# fillrect \"white\" 1 1 0\n# waitandnext 0.1\n\n# bgm \"stop\"\n# fillrect \"pink\" 0 0 0.3\n# brightness 302511 0.6 0\n# waitandnext 1\n\n# serif 0\n# textwindow \"nomal\"\n# textflame 1 1\n# textboxarrow 0 2\n# chara 302511\n@ミネルヴァ\n驚いたことに彼女は記憶喪失でした\n自分が何者かも分からないまま\nそれでも戦っていたのです\n\n# textboxarrow 0 2\n# chara 302511\n# face 302511 \"normal\"\n@ミネルヴァ\n彼女は胸に宿した\n《使命感》の正体を知るため、\n\n# textboxarrow 0 2\n# chara 302511\n@ミネルヴァ\nこの世界のことを私達に\n聞いてきました\n\n# textboxarrow 0 2\n# chara 302511\n# face 302511 \"surprise\"\n@ミネルヴァ\n私達はそれに答えられる限り\n答えたのですが、途中で彼女が\n声を上げたんです\n\n;;//背景：平原（夜）\n# imagealpha 0 1 0\n# imagepos 0 0 30\n# imageleftin 0 0.5\n# serif 0\n# textwindow \"close\"\n# serif 1\n# textwindow \"close\"\n# waitandnext 1\n\n# bgmfile \"bgm214_03\" \"BgmAncientKillers001\" 0\n# fadein \"white\" 0.5\n# alpha 302511 0 0\n# alpha 103611 1 0\n# mask 103611 off\n# background \"plain_night\"\n# imagealpha 0 0 0.5\n# imagealpha 1 0 0\n# imagerightout 0 0.5\n# serif 0\n# textwindow \"nomal\"\n# textboxarrow 0 2\n# se \"SE_9022\"\n# voice 1036 \"ragnarok_0027\"\n# face 103611 \"surprise\"\n@？？？\nあなた達はこのままで良いと\n思っているの？\n\n# textboxarrow 0 2\n# face 103611 \"normal\"\n@？？？\n異族を作ったのもあなた達を\n生み出したのも全て神々の勝手な\n都合にすぎない\n\n# textboxarrow 0 2\n# face 103611 \"angry\"\n@？？？\nこんな理不尽な扱いはないわ\n元凶は神々そのものだというのに！\n\n# brightness 302511 1 0\n# alpha 103611 0 0.5\n# alpha 302511 1 0.5\n# textboxarrow 0 2\n# face 302511 \"sad\"\n# chara 302511\n@ミネルヴァ\nそれは…でも、異族を狩る以外に\nなにができるというんですか？\n\n# alpha 103611 1 0.5\n# alpha 302511 0 0.5\n# textboxarrow 0 2\n@？？？\n神々に反旗を翻すのよ\nこの理不尽な軛から人々を、そして\nあなた達を解放するの\n\n# serif 1\n# textwindow \"normal\"\n@キラープリンセス達\n神々に反旗をっ…？\n\n# se \"SE_4823\"\n# layer 302511 5\n# imagescale 1 10 0\n# serif 1\n# textwindow \"close\"\n# serif 0\n# textwindow \"close\"\n# fillrect \"white\" 2.3 0 1\n# waitandnext 3\n\n# face 302511 \"normal\"\n# alpha 103611 0 0\n# alpha 302511 1 0\n# mask 302511 off\n# imagepos 1 0 0\n# imagealpha 1 1 0\n# fillrect \"white\" 1 1 0\n# waitandnext 0.1\n\n# fillrect \"pink\" 0 0 0.3\n# brightness 302511 0.6 0\n# waitandnext 1\n\n# serif 0\n# textwindow \"nomal\"\n# textflame 1 1\n# textboxarrow 0 2\n# chara 302511\n# face 302511 \"surprise\"\n@ミネルヴァ\n思いも寄らない言葉\n生みの親である神々に対し\n反旗を翻すなど\n\n# textboxarrow 0 2\n# chara 302511\n# face 302511 \"sad\"\n@ミネルヴァ\nとても受け入れられない\n初めは皆、そう思いました\nでも…\n\n# imagealpha 0 1 0\n# imagepos 0 0 30\n# imageleftin 0 0.5\n# serif 0\n# textwindow \"close\"\n# serif 1\n# textwindow \"close\"\n# waitandnext 1\n\n# face 302511 \"normal\"\n# fadein \"white\" 0.5\n# brightness 302511 1 0\n# mask 302511 on\n# move 302511 1 0\n# alpha 103511 1 0\n# background \"plain_night\"\n# imagealpha 0 0 0.5\n# imagealpha 1 0 0\n# imagerightout 0 0.5\n# serif 0\n# textwindow \"nomal\"\n# textboxarrow 0 3\n# voice 1035 \"damocles_0004\"\n# face 103511 \"angry\"\n# chara 103511\n@ダモクレス\nう～ん…\nクレス、やってみたい！\n\n# textboxarrow 0 1\n# voice 3025 \"minerva_0009\"\n# face 302511 \"surprise\"\n# chara 302511\n@ミネルヴァ\nダモクレス…？\nキミは、ことの重大さを\n理解しているんですか？\n\n# textboxarrow 0 3\n# face 103511 \"usual\"\n# chara 103511\n@ダモクレス\n分かってるよ～っ\nクレス、ずっともやもやしてたんだ\nなにか違う気がするって…\n\n# textboxarrow 0 3\n# chara 103511\n@ダモクレス\nでも、このお姉さんに言われて\nビックリしたけど、ドキドキした！\nもやもやが吹っ飛んだよ～っ\n\n# textboxarrow 0 3\n# face 103511 \"happy\"\n# chara 103511\n@ダモクレス\nクレスは神様のこと大好き！\n愛があれば反旗を翻しても\n問題ないよね☆\n\n# textboxarrow 0 1\n# face 302511 \"sad\"\n# chara 302511\n@ミネルヴァ\nこの子は…\nでも…そうですね…\n\n# se \"SE_4823\"\n# layer 302511 5\n# imagescale 1 10 0\n# serif 1\n# textwindow \"close\"\n# serif 0\n# textwindow \"close\"\n# fillrect \"white\" 2.3 0 1\n# waitandnext 3\n\n# face 302511 \"sad\"\n# alpha 103511 0 0\n# move 302511 3 0\n# mask 302511 off\n# imagepos 1 0 0\n# imagealpha 1 1 0\n# fillrect \"white\" 1 1 0\n# waitandnext 0.1\n\n# mask 302511 off\n# fillrect \"pink\" 0 0 0.3\n# brightness 302511 0.6 0\n# waitandnext 1\n\n# serif 0\n# textwindow \"nomal\"\n# textflame 1 1\n# textboxarrow 0 2\n# chara 302511\n@ミネルヴァ\n私達は自分自身に問いかけました\n自身の正義を執行するには\nなにをなすべきか\n\n# textboxarrow 0 2\n# chara 302511\n@ミネルヴァ\n葛藤し、答えを見出したのです\n生みの親にただ従うのではなく、\n自らの正義に基づいて行動すると\n\n# body 502711\n# pos 502711 5\n# scale 502711 0.8 0\n# alpha 502711 0 0\n# textboxarrow 0 2\n# chara 302511\n# face 302511 \"angry\"\n@ミネルヴァ\n私達は彼女の下に集い\n神々に反旗を翻すことを\n決意しました\n\n# imagealpha 0 1 0\n# imagepos 0 0 30\n# imageleftin 0 0.5\n# serif 0\n# textwindow \"close\"\n# serif 1\n# textwindow \"close\"\n# waitandnext 1\n\n# fadein \"white\" 0.5\n# brightness 302511 1 0\n# move 302511 1 0\n# mask 103611 on\n# mask 302511 on\n# alpha 103511 0 0\n# alpha 502711 1 0\n# alpha 103611 1 0\n# layer 502711 2\n# layer 103611 4\n# layer 302511 3\n# background \"plain_night\"\n# imagealpha 0 0 0.5\n# imagealpha 1 0 0\n# imagerightout 0 0.5\n# serif 0\n# textwindow \"nomal\"\n# textboxarrow 0 1\n# face 302511 \"normal\"\n# face 103611 \"normal\"\n# chara 302511\n@ミネルヴァ\n私達の指揮を執って下さい\nそのためにも、あなたの名前を\n知りたいのですけど…\n\n# textboxarrow 0 3\n@フライシュッツ\nなにか覚えてることな～い？\nお姉ちゃんに教えて～\n\n# textboxarrow 0 2\n# voice 1036 \"ragnarok_0028\"\n# face 103611 \"sad\"\n@？？？\n覚えていること…\nそう言われても…\n\n# textboxarrow 0 2\n# face 103611 \"surprise\"\n@？？？\nあっ、ラグナロク…\n\n# alpha 103511 1 0.5\n# alpha 502711 0 0.5\n# textboxarrow 0 3\n# voice 1035 \"damocles_0027\"\n# face 103511 \"surprise\"\n# chara 103511\n@ダモクレス\nラグナロク？\nなにそれ～っ？\n\n# textboxarrow 0 1\n# face 302511 \"surprise\"\n# chara 302511\n@ミネルヴァ\nラグナロクとは\n“神々の運命”という意味です\nなぜ、その言葉を？\n\n# textboxarrow 0 2\n# face 103611 \"sad\"\n@？？？\n分からない…\nでも、不意に頭に浮かんできたの\n…うん、きっと“運命”なのね\n\n# textboxarrow 0 2\n# face 103611 \"angry\"\n@ラグナロク\n私は今から“神々の運命を決める者”\nラグナロクと名乗って\n神々に反旗を翻す！\n\n# se \"SE_4823\"\n# layer 302511 5\n# imagescale 1 10 0\n# serif 1\n# textwindow \"close\"\n# serif 0\n# textwindow \"close\"\n# fillrect \"white\" 2.3 0 1\n# waitandnext 3\n\n# face 302511 \"angry\"\n# alpha 103511 0 0\n# alpha 103611 0 0\n# move 302511 3 0\n# imagepos 1 0 0\n# imagealpha 1 1 0\n# fillrect \"white\" 1 1 0\n# waitandnext 0.1\n\n# mask 302511 off\n# fillrect \"pink\" 0 0 0.3\n# brightness 302511 0.6 0\n# waitandnext 1\n\n# serif 0\n# textwindow \"nomal\"\n# textflame 1 1\n# textboxarrow 0 2\n# chara 302511\n@ミネルヴァ\nそうして私達はラグナロクとともに\n神々との戦いに身を投じたのです\n\n;;【指定】BGM停止　長めのフェードアウトでお願いします。２～３秒//背景：平原※【指定】bgm198　無音で違和感があったらこのBGM入れてみてください\n# body 75\n# pos 75 4\n# scale 75 0.8 0\n# alpha 75 0 0\n# imagealpha 0 1 0\n# imagepos 0 0 30\n# imageleftin 0 0.5\n# serif 0\n# textwindow \"close\"\n# serif 1\n# textwindow \"close\"\n# waitandnext 1\n\n# face 75 \"normal\"\n# bgmfile \"bgm198\" \"Bgm3Tcollabo002\" 3\n# fadein \"white\" 0.5\n# brightness 302511 1 0\n# mask 302511 on\n# alpha 75 1 0\n# move 302511 1 0\n# background \"plain\"\n# imagealpha 0 0 0.5\n# imagealpha 1 0 0\n# imagerightout 0 0.5\n# serif 0\n# textwindow \"nomal\"\n# textboxarrow 0 1\n# face 302511 \"normal\"\n# chara 302511\n@ミネルヴァ\nラグナロクは人々を、そして私達を\n神々の軛から解放するため常に先頭に\n立って戦っています\n\n# textboxarrow 0 1\n# face 302511 \"sad\"\n# chara 302511\n@ミネルヴァ\nそんな彼女を…見捨てないで下さい\n\n# textflame 0 0\n@フレンネル\n見捨てるだなんて…\nむしろ見捨てられたのは\nこちらの方だよ…\n\n# textflame 1 1\n# textboxarrow 0 3\n# voice 9979 \"rebellion_0034\"\n# face 75 \"irregular\"\n@リベリオン\nチッ…面倒くせぇ奴だなぁ…\n似たような奴のことを\n思い出しちまったじゃねえか\n\n# textflame 0 0\n@フレンネル\nリベリオン…？\n\n# textflame 1 1\n# textboxarrow 0 3\n# face 75 \"normal\"\n@リベリオン\nもういっぺんラグナロクと\n会ってみようぜ\n\n;;//轟音//画面揺れ\n# shake 1 2\n# se \"SE_0637\"\n# waitandnext 3\n# face 302511 \"surprise\"\n# face 75 \"surprise\"\n\n# bgm \"bgm030\" 0\n# textboxarrow 0 3\n# voice 9979 \"rebellion_0023\"\n@リベリオン\nなんだ！？\n\n# textflame 0 0\n@フレンネル\n向こうでものすごい土煙が上がって\nいるぞ！あっちは…ラグナロク達が\nいる方角じゃないか！？\n\n# textflame 1 1\n# textboxarrow 0 3\n# face 75 \"irregular\"\n@リベリオン\nくそっ…今度はどんな異族が\n出てきたっていうんだ？\n\n# textboxarrow 0 1\n# face 302511 \"angry\"\n# chara 302511\n@ミネルヴァ\nこの感じ…違います…あれは神々…\nガブリエルです！\nまさか自らラグナロクを狙って！？\n\n# textboxarrow 0 3\n# voice 9979 \"rebellion_0020\"\n# face 75 \"smile\"\n@リベリオン\nいよいよ親玉が登場か\n面白くなってきやがった！\n\n# textboxarrow 0 3\n# face 75 \"normal\"\n@リベリオン\nフレンネル、お前はここに残ってろ\n一緒に来られても足手まといだ\n\n# textflame 0 0\n@フレンネル\n…分かった\n死ぬなよ、リベリオン\n\n# fadeout \"black\" 2\n# waitandnext 3\n;;//暗転\n\n;;――場面転換――\n# bgm \"stop\"\n# fadein \"black\" 0.5\n# imagealpha 0 1 0\n# imagepos 0 0 30\n# serif 0\n# textwindow \"close\"\n# serif 1\n# textwindow \"close\"\n# waitandnext 0.5\n\n# alpha 75 0 0\n# alpha 302511 0 0\n# textflame 1 1\n# textwindow \"nomal\"\n# textboxarrow 0 0\n# se \"SE_9169\"\n@古文書\n――ガブリエルとの初めての戦い\nそれこそが“終わりの始まり”に\nおける最大の転換点だった\n"
	}
]