[
	{
		"ID": 710026031,
		"script": ";;----------------------------------------------\n;;710026031\n;;EP3前半:相対\n;;----------------------------------------------\n# script \"lisp\"\n# background \"plain\"\n# bgm \"bgm005\" 0\n;;メルリヌス\n# body 602411\n# pos 602411 2\n# scale 602411 0.8 0\n# layer 602411 3\n# mask 602411 on\n# alpha 602411 1 0\n# face 602411 \"usual\"\n;;ダーインスレイブ\n# body 102811\n# pos 102811 4\n# scale 102811 0.8 0\n# layer 102811 1\n# mask 102811 on\n# alpha 102811 1 0\n;;フォルカス\n# body 301811\n# pos 301811 4\n# scale 301811 0.8 0\n# layer 301811 2\n# mask 301811 on\n# alpha 301811 0 0\n;;カーテンフェード\n# imageset 0 \"black\"\n# imagealpha 0 0 0\n# imagelayer 0 1\n;;回想フィルター\n# imageset 2 \"bg_white_circle\"\n# imagealpha 2 0 0\n;;◆背景（大陸外縁に近い村～丘を想定）\n# textflame 1 1\n# textboxarrow 0 3\n# voice 1028 \"dainsleif_0039\"\n# chara 102811\n@ダーインスレイヴ\nふむ…\n魔獣エキドナ…\n\n# alpha 301811 1 0.3\n# alpha 102811 0 0.3\n# textflame 1 1\n# textboxarrow 0 3\n# voice 3018 \"forcas_0013\"\n# chara 301811\n@フォルカス\n私達の探している怪物と\nメルリヌスの追っている魔獣…\nそれが、同一のものだと？\n\n# textflame 1 1\n# textboxarrow 0 1\n# voice 6024 \"merlinus_0032\"\n# face 602411 \"normal\"\n# chara 602411\n@メルリヌス\nそうに違いないわ\nだって、わたしは…\n\n;;◆回想\n# textwindow \"close\"\n# se \"SE_0742\"\n# fadeout \"white\" 1.0\n# waitandnext 1.0\n\n# face 602411 \"normal\"\n# face 301811 \"normal\"\n# face 102811 \"normal\"\n# alpha 602411 0 0\n# alpha 301811 0 0\n# alpha 102811 0 0\n# imagepos 2 0 0\n# imagelayer 2 1\n# imagescale 2 1.2 0\n# imagealpha 2 1 0\n# background \"crystal_castle\"\n# waitandnext 0.5\n\n# fadein \"white\" 1.0\n# waitandnext 1.3\n\n;;ここはメルリ非表示\n# textwindow \"normal\"\n# textflame 1 1\n# textboxarrow 0 0\n# voice 6024 \"merlinus_0028\"\n# chara 602411\n@メルリヌス\nそう…わたしは\n王様に仕える英雄として\n魔獣討伐の任務にあたっていたの\n\n# textflame 1 1\n# textboxarrow 0 0\n# chara 602411\n@メルリヌス\nそして、あと一歩というところまで\nエキドナを追い詰めた\nところが、どういうわけか…\n\n# textflame 1 1\n# textboxarrow 0 0\n# chara 602411\n@メルリヌス\n突然エキドナは『こちらの世界』に\n飛ばされてしまった…\nそして…\n\n# textflame 1 1\n# textboxarrow 0 0\n# chara 602411\n@メルリヌス\nエキドナを追いかけたわたしも\n同じように『こちらの世界』…\nこの場所にたどり着いたのよ\n\n;;◆背景（大陸外縁に近い村～丘を想定）\n;;回想風ここまで、背景戻して\n# textwindow \"close\"\n# fadeout \"white\" 1.0\n# waitandnext 1.0\n\n# face 602411 \"usual\"\n# face 301811 \"normal\"\n# alpha 602411 1 0\n# alpha 301811 1 0\n# imagealpha 2 0 0\n# background \"plain\"\n# waitandnext 0.5\n\n# fadein \"white\" 1.0\n# waitandnext 1.3\n\n# textwindow \"normal\"\n# textflame 1 1\n# textboxarrow 0 1\n# voice 6024 \"merlinus_0003\"\n# chara 602411\n@メルリヌス\n『こちらの世界』に着いてからも\nわたしはエキドナを探し続けてたわ\nでも…\n\n# alpha 301811 0 0.3\n# alpha 102811 1 0.3\n# textflame 1 1\n# textboxarrow 0 3\n# voice 1028 \"dainsleif_0019\"\n# chara 102811\n@ダーインスレイヴ\n逃げられてしまったのか？\n\n# textflame 1 1\n# textboxarrow 0 1\n# face 602411 \"sad\"\n# voice 6024 \"merlinus_0008\"\n# chara 602411\n@メルリヌス\nまあ、残念ながら…ね\n\n# textflame 1 1\n# textboxarrow 0 1\n# face 602411 \"usual\"\n# chara 602411\n@メルリヌス\n…見て\nそこにエキドナがいたの\n\n# textwindow \"close\"\n# alpha 602411 0 0.5\n# alpha 102811 0 0.5\n# waitandnext 0.5\n\n# textwindow \"normal\"\n# textflame 0 0\n@\nメルリヌスが指し示した、丘の影…\n茂る草の燃え焦げた跡には\n紅い布の切れ端が落ちていた\n\n# textwindow \"close\"\n# pos 301811 4\n# pos 602411 2\n# alpha 301811 1 0.5\n# alpha 602411 1 0.5\n# face 301811 \"surprise\"\n# face 602411 \"normal\"\n# waitandnext 0.5\n\n# textwindow \"normal\"\n# textflame 1 1\n# textboxarrow 0 3\n# voice 3018 \"forcas_0028\"\n# chara 301811\n@フォルカス\nなんです、この布は…\nはためくように軽いのに\nやけに頑丈な…\n\n# alpha 301811 0 0.3\n# alpha 102811 1 0.3\n# textflame 1 1\n# textboxarrow 0 3\n# voice 1028 \"dainsleif_0040\"\n# face 102811 \"surprise\"\n# chara 102811\n@ダーインスレイヴ\n見たことのない素材だ…\n異世界の、魔獣の持ち物か？\n\n# textflame 1 1\n# textboxarrow 0 1\n# voice 6024 \"merlinus_0007\"\n# face 602411 \"usual\"\n# chara 602411\n@メルリヌス\nそういうことよ\n倒しきれなかった魔獣は\n次にいつ、どこに現れるか…\n\n# textflame 1 1\n# textboxarrow 0 3\n# voice 1028 \"dainsleif_0022\"\n# face 102811 \"angry\"\n# chara 102811\n@ダーインスレイヴ\nさて、再び異族が迫ってきたぞ\n話の続きはやつらを片付けてからだ"
	}
]