[
	{
		"ID": 710026033,
		"script": ";;----------------------------------------------\n;;710026033\n;;EP3後半:相対\n;;----------------------------------------------\n# script \"lisp\"\n# background \"plain\"\n# bgm \"bgm005\" 0\n;;メルリヌス\n# body 602411\n# pos 602411 2\n# scale 602411 0.8 0\n# layer 602411 3\n# mask 602411 on\n# alpha 602411 1 0\n# face 602411 \"usual\"\n;;ダーインスレイブ\n# body 102811\n# pos 102811 4\n# scale 102811 0.8 0\n# layer 102811 1\n# mask 102811 on\n# alpha 102811 0 0\n;;フォルカス\n# body 301811\n# pos 301811 4\n# scale 301811 0.8 0\n# layer 301811 2\n# mask 301811 on\n# alpha 301811 1 0\n;;カーテンフェード\n# imageset 0 \"black\"\n# imagealpha 0 0 0\n# imagelayer 0 1\n;;◆背景（大陸外縁に近い村～丘を想定）\n# textflame 1 1\n# textboxarrow 0 3\n# voice 3018 \"forcas_0039\"\n# chara 301811\n@フォルカス\nなるほど…その怪物…いえ\n魔獣を倒すことは、メルリヌスの\n重要な任務の一つなのですね\n\n# textflame 1 1\n# textboxarrow 0 1\n# voice 6024 \"merlinus_0032\"\n# face 602411 \"amazed\"\n# chara 602411\n@メルリヌス\nま、そんなところね\nエキドナを倒さずに帰るなんて\nさすがに英雄失格でしょ\n\n# textflame 1 1\n# textboxarrow 0 3\n# voice 3018 \"forcas_0002\"\n# face 301811 \"usual\"\n# chara 301811\n@フォルカス\nつまり、エキドナを打倒すれば\nあなたの帰路が開ける…と\nいうことですか\n\n# textflame 1 1\n# textboxarrow 0 1\n# face 602411 \"usual\"\n# voice 6024 \"merlinus_0003\"\n# chara 602411\n@メルリヌス\nそうよ…\nあれを見つけて倒せば\nわたしは帰れる\n\n# textflame 1 1\n# textboxarrow 0 1\n# face 602411 \"normal\"\n# chara 602411\n@メルリヌス\n…ってわたしが言ったら\nあなたは信じる？\n\n# shake 0 0.3\n# textflame 1 1\n# textboxarrow 0 3\n# voice 3018 \"forcas_0023\"\n# face 301811 \"surprise\"\n# chara 301811\n@フォルカス\nえっ？\n…ええっ？\n\n# textflame 1 1\n# textboxarrow 0 1\n# voice 6024 \"merlinus_0004\"\n# face 602411 \"smile\"\n# chara 602411\n@メルリヌス\nさて、どうかしら？\nふふっ…\n\n# textflame 1 1\n# textboxarrow 0 3\n# face 301811 \"worry\"\n# chara 301811\n@フォルカス\n…………\n\n# alpha 301811 0 0.3\n# alpha 102811 1 0.3\n# textflame 1 1\n# textboxarrow 0 3\n# voice 1028 \"dainsleif_0019\"\n# face 102811 \"happy\"\n# chara 102811\n@ダーインスレイヴ\nなんて顔をしてるんだ\nフォルカス\n\n# textflame 1 1\n# textboxarrow 0 1\n# voice 6024 \"merlinus_0008\"\n# face 602411 \"sad\"\n# chara 602411\n@メルリヌス\nだけど困ったわ…\nこの世界ではわたし、英雄の力を\n思うように使えないみたいなの\n\n# textflame 1 1\n# textboxarrow 0 3\n# face 102811 \"normal\"\n# chara 102811\n@ダーインスレイヴ\n…だが、魔獣は民に害なす\nわたし達共通の敵だ\nそこで…\n\n# bgmfile \"bgm297\" \"BgmCUcollabo001\" 0\n# textflame 1 1\n# textboxarrow 0 3\n# voice 1028 \"dainsleif_0004\"\n# face 102811 \"happy\"\n# chara 102811\n@ダーインスレイヴ\nどうだ、メルリヌス？\n一緒にエキドナを探さないか？\n戦いの呼吸も合うようだし…\n\n# textflame 1 1\n# textboxarrow 0 1\n# voice 6024 \"merlinus_0005\"\n# face 602411 \"smile\"\n# chara 602411\n@メルリヌス\nうーん…そうね\nいいんじゃない？\n臨時同盟も面白そう♪\n\n# textflame 1 1\n# textboxarrow 0 3\n# face 102811 \"normal\"\n# chara 102811\n@ダーインスレイヴ\n良し…手を結ぶは難くない\n異世界から来たおぬしのその風貌\nまったくの他人とも思えぬしな…\n\n# textflame 1 1\n# textboxarrow 0 3\n# face 102811 \"happy\"\n# voice 1028 \"dainsleif_0005\"\n# chara 102811\n@ダーインスレイヴ\nそうだろう、フォルカス？\n\n;;ダーインとメルリヌスOUTしてからフォルカスつぶやき\n# textwindow \"close\"\n# alpha 102811 0 0.5\n# alpha 602411 0 0.5\n# waitandnext 0.5\n\n# pos 301811 3\n# mask 301811 off\n# alpha 301811 1 0.5\n# waitandnext 0.5\n\n;;もわもわ\n# move 301811 3 0\n# textwindow \"moya\"\n# textboxarrow 0 0\n# voice 3018 \"forcas_0027\"\n# face 301811 \"worry\"\n# chara 301811\n@フォルカス\n（本当にあの人を信用しても\n良いのでしょうか…？）"
	}
]