[
	{
		"ID": 717021001,
		"script": "# script \"lisp\"\n# bgmfile \"bgm203\" \"BgmGakuen004\" 0\n# background \"presidentroom\"\n# body 0\n# pos 0 3\n# mask 0 off\n# face 0 \"happy\"\n# emotionbody 5904 10 0 0 150\n# effectpattern 5904 4 0\n# effectstart 5904\n# body 102531\n# pos 102531 3\n# scale 102531 0.8 0\n# mask 102531 off\n# alpha 102531 0 0\n# body 500341\n# pos 500341 3\n# alpha 500341 0 0\n# scale 500341 0.8 0\n# body 302021\n# pos 302021 4\n# alpha 302021 0 0\n# scale 302021 0.8 0\n# body 98\n# pos 98 4\n# scale 98 0.8 0\n# body 99\n# pos 99 3\n# scale 99 0.8 0\n# body 100\n# pos 100 2\n# scale 100 0.8 0\n# alpha 98 0 0\n# alpha 99 0 0\n# alpha 100 0 0\n# body 102511\n# alpha 102511 0 0\n# body 500331\n# alpha 500331 0 0\n# body 302011\n# alpha 302011 0 0\n# voicedelay 9999 \"durin_0021\" 0.5\n# textflame 0 0\n# textalign \"center\"\n@\n恒例イベント\nファンキル学園開催！\n今回のファンキル学園は…\n\n# effectskip 5904\n# se \"SE_0607\"\n# background \"courtyard_evening\"\n# fadein \"white\" 1\n# alpha 102531 1 0\n# alpha 0 0 0\n# textflame 0 0\n# textalign \"center\"\n# textsize 34\n# voicedelay 1025 \"muramasa_0042\" 1\n@\n[FF0000]ムラマサ[-]が主役！\n\n# se \"SE_5594\"\n# fadein \"white\" 0.5\n# background \"kitchen_room_daytime\"\n# alpha 102531 0 0\n# alpha 98 1 0\n# alpha 100 1 0\n# voice 5003 \"yatanokagami_0033\"\n# textflame 0 0\n# textalign \"center\"\n@\nムラマサの悩みを\n[FF0000]八咫鏡[-]がチョコ作りで解決！\n\n# emotionbody 6001 11 98 100 200\n# effectpattern 6001 1 0\n# effectstart 6001\n# emotionbody 6002 11 100 -85 240\n# effectpattern 6002 2 0\n# effectstart 6002\n# textsize 24\n# move 100 1 0.5\n# move 98 5 0.5\n# alpha 99 1 0.5\n# face 99 \"happy\"\n# face 98 \"surprise\"\n# face 100 \"surprise\"\n# textflame 0 0\n# textalign \"center\"\n# voicedelay 3020 \"pisear_0039\" 0.5\n@\n[FF0000]ピサール[-]の一言が\nムラマサを救う！？\nムラマサの成長譚をお見逃しなく\n\n# effectskip 6002\n# effectskip 6001\n# envbody 2001 11 0\n# effectpattern 2001 2 0\n# effectstart 2001\n# se \"SE_0602\"\n# fadein \"white\" 0.5\n# alpha 98 0 0\n# alpha 99 0 0\n# alpha 100 0 0\n# alpha 500341 1 0\n# mask 500341 off\n# textsize 28\n# textflame 0 0\n# textalign \"center\"\n# voice 5003 \"yatanokagami_0021\"\n@\n[FF0000]イベントストーリー1話クリア[-]で\n八咫鏡GET！\n\n# se \"SE_4780\"\n# fadein \"white\" 0.5\n# imageset 1 \"school_logo\"\n# imagealpha 1 0 0\n# pos 102531 2\n# pos 302021 4\n# mask 102531 on\n# alpha 302021 1 0\n# alpha 102531 1 0\n# alpha 500341 0 0\n# voice 1025 \"muramasa_0004\"\n# voicedelay 3020 \"pisear_unit_0012\" 0.5\n# textflame 0 0\n# textsize 24\n# textalign \"center\"\n@\nムラマサとピサールは\nガチャで新登場！\n[FF0000]5STEPで確定ガチャチケ！[-]\n\n# sedelay \"February_Gakuen_voice\" 0.2\n# effectskip 2001\n# fadein \"white\" 1\n# imagealpha 1 1 0\n# imagepos 1 0 0\n# textflame 0 0\n# textsize 32\n# textalign \"center\"\n@\nファンキル学園2月、開校！\n"
	}
]