[
	{
		"ID": 717070103,
		"script": "# script \"lisp\"\n# background \"sea_resort_day\"\n# bgmfile \"bgm255\" \"BgmSeaDate\" 0\n# body 2600811\n# pos 2600811 3\n# scale 2600811 0.8 0\n# body 2200811\n# pos 2200811 5\n# scale 2200811 0.8 0\n# body 2102311\n# pos 2102311 1\n# scale 2102311 0.8 0\n# layer 2600811 2\n# layer 2200811 4\n# layer 2102311 3\n# alpha 2600811 0 0\n# alpha 2200811 0 0\n# alpha 2102311 0 0\n# envbody 1000 8 0\n# effectpattern 1000 1 0\n# effectstart 1000\n# fadein \"white\" 3\n# textflame 0 0\n# textalign \"center\"\n# textsize 36\n# se \"SE_4706\"\n@\n海上編ユニット\n一挙に14体が新登場！\n\n# wait 3\n# body 2300411\n# pos 2300411 3\n# scale 2300411 0.8 0\n# body 2201611\n# pos 2201611 5\n# scale 2201611 0.8 0\n# body 2202011\n# pos 2202011 1\n# scale 2202011 0.8 0\n# layer 2300411 4\n# layer 2201611 2\n# layer 2202011 3\n# alpha 2300411 0 0\n# alpha 2201611 0 0\n# alpha 2202011 0 0\n# se \"SE_0009\"\n# fadein \"white\" 3\n# alpha 2600811 1 0\n# alpha 2200811 1 0\n# alpha 2102311 1 0\n# textalign \"center\"\n@\n光・炎・雷属性ガチャ\n\n# wait 3\n# se \"SE_0009\"\n# fadein \"white\" 3\n# move 2102311 4 0\n# alpha 2300411 1 0\n# alpha 2201611 1 0\n# alpha 2202011 1 0\n# alpha 2600811 0 0\n# alpha 2200811 0 0\n# alpha 2102311 0 0\n# textalign \"center\"\n@\n闇・氷・風属性ガチャ\n2つのガチャでGET!\n\n# se \"SE_0016\"\n# fadein \"white\" 1\n# move 2201611 2 0\n# alpha 2102311 1 0\n# alpha 2300411 0 0\n# alpha 2202011 0 0\n# face 2201611 \"smile\"\n# face 2102311 \"smile\"\n# voice 2016 \"shita_0021\"\n# voicedelay 1023 \"ascalon_0021\" 1\n# textalign \"center\"\n@\n[FF0000]STEP9まで毎ステップ\n海上編ユニット1体確定！\nおまけも充実！[-]\n\n# se \"SE_5677\"\n# textalign \"center\"\n# fadeout \"white\" 2\n# waitandnext 3\n@\n[FF0000]STEP9まで毎ステップ\n海上編ユニット1体確定！\nおまけも充実！[-]\n\n# bgmfile \"bgm240\" \"BgmSeaEventBattle\" 0\n# body 2100911\n# pos 2100911 5\n# scale 2100911 0.8 0\n# body 2500811\n# pos 2500811 3\n# scale 2500811 0.8 0\n# body 2300811\n# pos 2300811 1\n# scale 2300811 0.8 0\n# layer 2100911 3\n# layer 2500811 4\n# layer 2300811 2\n# alpha 2100911 0 0\n# alpha 2500811 0 0\n# alpha 2300811 0 0\n# alpha 2102311 0 0\n# se \"SE_0624\"\n# background \"sea_resort_evening\"\n# fadein \"white\" 3\n# textsize 32\n# textalign \"center\"\n# alpha 2300411 0 0\n# alpha 2201611 0 0\n# alpha 2202011 0 0\n@\n大型アップデート記念の\n7STEPUPガチャも開催中！\n\n# se \"SE_0554\"\n# fadein \"white\" 2\n# alpha 2100911 1 0\n# alpha 2500811 1 0\n# alpha 2300811 1 0\n# textalign \"center\"\n@\n7STEPUPガチャは\n[FF0000]姫型選択キラーズチケット[-]おまけも！\nお気に入りの海上編キル姫GET!\n\n# wait 3\n# se \"SE_0605\"\n# fadein \"white\" 3\n# background \"sea_fireworks\"\n# face 2100911 \"smile\"\n# face 2500811 \"smile\"\n# face 2300811 \"smile\"\n# voicedelay 1009 \"barumunku_0021\" 1\n# voice 5008 \"bashosen_0021\"\n# voicedelay 3008 \"gunguniru_0021\" 2\n# textsize 38\n# textalign \"center\"\n@\n海上編記念キャンペーンも開催中！\n詳細はお知らせをチェック！\n"
	}
]