[
	{
		"ID": 717100101,
		"script": "# script \"lisp\"\n# background \"halloween\"\n# bgmfile \"bgm069\" \"BgmHalloween001\" 0\n# fadein \"white\" 2\n# envbody 1000 8 0\n# effectpattern 1000 1 0\n# effectstart 1000\n# buttonsout 0 0\n# textflame 0 0\n# textalign \"center\"\n# textsize 36\n# body 103521\n# pos 103521 4\n# scale 103521 0.8 0\n# alpha 103521 0 0\n# body 602021\n# pos 602021 2\n# scale 602021 0.8 0\n# alpha 602021 0 0\n# textflame 0 0\n# textalign \"center\"\n# wait 1\n@\n[FF00FF]トリック・オア・トリート！？[-]\n今年の仮装パーティーには\n\n# sedelay \"SE_0635\" 1\n# se \"SE_0625\"\n# alpha 103521 1 1.6\n# alpha 602021 1 1.6\n# textalign \"center\"\n# wait 2\n@\nエンシェントキラーズから\nネスとダモクレスが\n初参加！！\n\n# se \"SE_4706\"\n# fadein \"white\" 0.5\n# textalign \"center\"\n# wait 1\n# voice 1035 \"damocles_0005\"\n# voicedelay 6020 \"ness_0005\" 1\n# face 602021 \"happy\"\n# face 103521 \"happy\"\n@\n遊んでくれないと\nイタズラしちゃうぞ！\n\n# se \"SE_5677\"\n# body 0\n# pos 0 3\n# alpha 0 0 0\n# body 300241\n# pos 300241 1\n# scale 300241 0.8 0\n# alpha 300241 0 0\n# body 202021\n# pos 202021 5\n# scale 202021 0.8 0\n# alpha 202021 0 0\n# body 500271\n# pos 500271 3\n# scale 500271 0.8 0\n# alpha 500271 0 0\n# fadeout \"black\" 2\n# waitandnext 2\n# textalign \"center\"\n@\n遊んでくれないと\nイタズラしちゃうぞ！\n\n# bgmfile \"bgm183\" \"BgmGakuen003\" 0\n# background \"courtyard\"\n# alpha 103521 0 0\n# alpha 602021 0 0\n# alpha 0 1 0\n# fadein \"black\" 1\n# textalign \"center\"\n@\n恒例イベント\n[FF0000]ファンキル学園開催！！[-]\n\n# effectskip 1901\n# background \"rooftop_evening\"\n# alpha 0 0 0\n# alpha 500271 1 0\n# alpha 300241 1 0\n# alpha 202021 1 0\n# layer 500271 1\n# fadein \"white\" 0.5\n# textalign \"center\"\n# se \"SE_4706\"\n# voice 5002 \"furaikugeru_0004\"\n# voicedelay 3002 \"toraidento_0006\" 1\n# wait 1\n@\n新ユニット\n３体追加！！\n\n# move 500271 2 0\n# move 202021 4 0\n# alpha 300241 0 0\n# fadein \"white\" 0.5\n# textalign \"center\"\n# se \"SE_4780\"\n# voice 2020 \"harpe_0004\"\n# wait 1\n@\n素直になれないフライクーゲルに\nハルパー先生が課題を…！？\n\n# mask 300241 off\n# move 300241 3 0\n# alpha 300241 1 0\n# alpha 500271 0 0\n# alpha 202021 0 0\n# fadein \"white\" 0.5\n# textalign \"center\"\n# se \"SE_5786\"\n@\nイベントストーリー1話\nクリアで\nトライデントGET！！\n\n# fadeout \"white\" 2\n# waitandnext 2\n# textalign \"center\"\n@\nイベントストーリー1話\nクリアで\nトライデントGET！！\n\n# envbody 1901 10 0\n# effectpattern 1901 1 0\n# effectstart 1901\n# se \"SE_0607\"\n# alpha 300241 0 0\n# alpha 602021 1 0\n# alpha 103521 1 0\n# fadein \"white\" 1\n# bgm \"bgm002\" 0\n# background \"halloween\"\n# textalign \"center\"\n# voice 1035 \"damocles_battle_0004\"\n# wait 1\n@\n新ユニット\n9ステップアップガチャで\n\n# background \"rooftop_evening\"\n# alpha 500271 1 0\n# alpha 202021 1 0\n# alpha 602021 0 0\n# alpha 103521 0 0\n# fadein \"white\" 0.5\n# textalign \"center\"\n# SE \"SE_0602\"\n# voice 20202 \"harpe_0021\"\n# face 202021 \"happy\"\n# face 500271 \"smile\"\n# wait 1\n@\n新ユニットをGETしよう！\n\n# sedelay \"SE_4781\" 0.5\n# effectskip 1901\n# body 2102311\n# pos 2102311 5\n# scale 2102311 0.8 0\n# alpha 2102311 0 0\n# body 2102511\n# pos 2102511 1\n# scale 2102511 0.8 0\n# alpha 2102511 0 0\n# body 2301811\n# pos 2301811 3\n# scale 2301811 0.8 0\n# alpha 2301811 0 0\n# body 2101411\n# pos 2101411 5\n# scale 2101411 0.8 0\n# alpha 2101411 0 0\n# body 2100211\n# pos 2100211 3\n# scale 2100211 0.8 0\n# alpha 2100211 0 0\n# body 2100111\n# pos 2100111 1\n# scale 2100111 0.8 0\n# alpha 2100111 0 0\n# fadeout \"white\" 2\n# waitandnext 2\n# textalign \"center\"\n@\n新ユニットをGETしよう！\n\n# se \"SE_0600\"\n# alpha 500271 0 0\n# alpha 202021 0 0\n# bgmfile \"bgm233\" \"BgmSeaEvent\" 0\n# background \"sea_beach_day\"\n# alpha 2102311 1 0\n# alpha 2301811 1 0\n# alpha 2102511 1 0\n# layer 2301811 1\n# fadein \"white\" 1\n# textalign \"center\"\n# face 2102311 \"smile\"\n# face 2301811 \"smile\"\n# face 2102511 \"smile\"\n# voice 1023 \"ascalon_0021\"\n# wait 1\n@\n海上編完結記念ガチャも開催！！\n\n# se \"SE_0009\"\n# textalign \"center\"\n# voice 3018 \"forcas_0020\"\n# wait 1\n@\n各ステップ毎\n海上編ユニット確定！！\n\n# se \"SE_5677\"\n# alpha 2102311 0 0\n# alpha 2301811 0 0\n# alpha 2102511 0 0\n# alpha 2101411 1 0\n# alpha 2100111 1 0\n# alpha 2100211 1 0\n# fadein \"white\" 0.5\n# textalign \"center\"\n# voicedelay 1001 \"masamune_0006\" 1\n# wait 1\n@\nストーリーもお見逃しなく！！\nCPも続々登場！！\n詳しくはお知らせをチェック！！\n"
	}
]