[
	{
		"ID": 718041301,
		"script": "# script \"lisp\"\n# background \"ancient_back\"\n# bgmfile \"bgm291\" \"BgmLostRagnarokSideStory\" 0\n# buttonsout 0 0\n# textwindow \"close\"\n# body 3600211\n# pos 3600211 2\n# scale 3600211 0.8 0\n# brightness 3600211 0 0\n# body 3400611\n# pos 3400611 4\n# scale 3400611 0.8 0\n# brightness 3400611 0 0\n# body 3301811\n# pos 3301811 4\n# scale 3301811 0.8 0\n# alpha 3301811 0 0\n# body 3201911\n# pos 3201911 2\n# scale 3201911 0.8 0\n# alpha 3201911 0 0\n# body 102621\n# pos 102621 2\n# scale 102621 0.8 0\n# alpha 102621 0 0\n# body 102721\n# pos 102721 4\n# scale 102721 0.8 0\n# alpha 102721 0 0\n# textwindow \"nomal\"\n# brightness 3400611 0 0\n# brightness 3600211 0 0\n# subfillrect 1 \"black\" 0 0 0.6\n# textflame 0 0\n# se \"SE_0644\"\n# textalign \"center\"\n@\n　\n新ユニット2体追加！\n\n# textwindow \"close\"\n# fadeout \"black\" 1\n# waitandnext 1\n\n# subfillrect 1 \"black\" 0 0.6 0\n# mask 3600211 off\n# mask 3400611 off\n# move 3400611 3 0\n# move 3600211 3 0\n# alpha 3400611 0 0\n# alpha 3600211 0 0\n# background \"201_beast_night\"\n# waitandnext 0.5\n\n# fadein \"black\" 1\n# waitandnext 1\n\n# se \"SE_0539\"\n# textwindow \"nomal\"\n# textalign \"center\"\n# alpha 3400611 1 0.5\n# brightness 3400611 1 0.8\n# textflame 0 0\n@\n[65f448]<<プラント>>　　　[-]\n梓弓・[65f448]獣刻[-]・メデューサ\n\n# wait 1\n# imageset 3 \"black\"\n# imagealpha 3 0 0\n# imagelayer 3 1\n# face 3400611 \"angry\"\n# voice 340061 \"azusa_ge_unit_0008\"\n# textflame 1 1\n# textboxarrow 0 2\n@梓弓\nこの瞳の色\nしかとその眼に焼き付けなさい\n\n# imagealpha 3 1 0\n# imagepos 3 0 30\n# imageleftin 3 0.5\n# serif 0\n# textwindow \"close\"\n# serif 1\n# textwindow \"close\"\n# waitandnext 0.6\n\n# alpha 3400611 0 0\n# background \"devil_world\"\n# waitandnext 0.5\n\n# se \"SE_0050\"\n# imagealpha 3 0 0.5\n# imagerightout 3 0.5\n# waitandnext 0.5\n\n# serif 0\n# textflame 0 0\n# textsize 22\n# alpha 3600211 1 0.5\n# textwindow \"nomal\"\n# brightness 3600211 1 0.8\n# textalign \"center\"\n@\n[FF0000]　<<ドミネイトプラグ>>[-]\nガンバンテイン・[FF0000]D. plug[-]・サルガタナス\n\n# wait 1\n# textflame 1 1\n# face 3600211 \"angry\"\n# voice 360021 \"ganbantein_a_unit_0009\"\n# textboxarrow 0 2\n@ガンバンテイン\nどんと・めいく・らいと・おぶ・みー\n…甘く見ないでよ\n\n# textwindow \"close\"\n# fadeout \"black\" 0.5\n# waitandnext 0.5\n\n# alpha 3600211 0 0\n# move 3400611 2 0\n# move 3600211 4 0\n# mask 3600211 on\n# mask 3400611 on\n# background \"101_plain_daytime\"\n# waitandnext 0.5\n\n# fadein \"black\" 0.5\n# waitandnext 0.5\n\n# alpha 3400611 1 0.5\n# alpha 3600211 1 0.5\n# move 3400611 4 0.3\n# move 3600211 2 0.3\n# waitandnext 0.3\n\n# se \"SE_0020\"\n# fadein \"white\" 0.5\n# textwindow \"nomal\"\n# textsize 27\n# textflame 0 0\n# textalign \"center\"\n@\nロストラグナロク編イベント\n[FF0000]「憂国の情景」[-]\n開幕！\n\n# textalign \"center\"\n@\n7STEPUP新ユニットガチャ\n登場！\n\n# se \"SE_0552\"\n# fadein \"white\" 0.5\n# voice 330181 \"forcas_t_0004\"\n# voicedelay 320191 \"chihyu_a_0005\" 0.5\n# face 3201911 \"happy\"\n# face 3301811 \"happy\"\n# alpha 3400611 0 0\n# alpha 3600211 0 0\n# alpha 3301811 1 0.5\n# alpha 3201911 1 0.5\n# textalign \"center\"\n@\nSTEP1は\nピックアップユニット\n[FF0000]1体確定！[-]\n\n# textwindow \"close\"\n# fadeout \"white\" 1\n# waitandnext 1\n\n# alpha 3301811 0 0\n# alpha 3201911 0 0\n# alpha 102621 1 0\n# alpha 102721 1 0\n# face 102721 \"usual\"\n# background \"town\"\n# bgmfile \"bgm203\" \"BgmGakuen004\" 0\n# waitandnext 0.5\n\n# se \"SE_0607\"\n# envbody 1005 10 0\n# effectpattern 1005 2 0\n# effectstart 1005\n# fadein \"white\" 1\n# waitandnext 1\n\n# textwindow \"nomal\"\n# textalign \"center\"\n@\n豪華なログインボーナスや\nお得なキャンペーン開催中！\n\n# voice 1027 \"solais_0005\"\n# voicedelay 1026 \"caladbolg_0004\" 0.6\n# face 102621 \"happy\"\n# face 102721 \"happy\"\n# textalign \"center\"\n@\n詳しくは\nお知らせをチェック！"
	}
]