[
	{
		"ID": 718110101,
		"script": "# background \"400_angel_pope_room\"\n# bgmfile \"bgm309\" \"BgmLostRagnarokBattle004\" 0 \n;;ティファレト\n# body 3503211\n# pos 3503211 3\n# scale 3503211 0.8 0\n# alpha 3503211 0 0\n# mask 3503211 off\n;;ガボー\n# body 3302111\n# pos 3302111 3\n# scale 3302111 0.8 0\n# alpha 3302111 0 0\n# mask 3302111 off\n;;アハト\n# body 202711\n# pos 202711 3\n# scale 202711 0.8 0\n# alpha 202711 0 0\n# mask 202711 off\n;;フィーア\n# body 602611\n# pos 602611 3\n# scale 602611 0.8 0\n# alpha 602611 0 0\n# mask 602611 off\n@？？？\n私は神の代弁者、\n神如き者\n\n@？？？\nあなた方に\n私の愛を与える必要はありません\n疾く、去りなさい\n\n# voice 350321 \"tiphereth_t_kyara_1001\"\n# textalign \"center\"\n# se \"SE_0575\"\n# alpha 3503211 1 0\n# fadein \"white\" 0.3\n@\n『ティファレト・聖鎖・ミカエル』\n主様の命を持って神の慈悲を与えます\n\n# se \"SE_0619\"\n# bgm \"stop\"\n# textalign \"center\"\n# textwindow \"close\"\n# fadeout \"black\" 1\n# waitandnext 1\n\n# voice 330211 \"gaebuide_ge_kyara_1001\"\n# bgmfile \"bgm278\" \"BgmLostRagnarokBattle002\" 0 \n# background \"beast_world\"\n# textwindow \"nomal\"\n# fadein \"black\" 0.5\n# alpha 3503211 0 0\n@？？？\nボーは、《穢れた翼》\n《掠め取る者》\nハーピーを獣刻されました\n\n# voice 330211 \"gaebuide_ge_kyara_2001\"\n@？？？\nあなたは姉…様、\nではないんですね…\n\n# textalign \"center\"\n# voice 330211 \"gaebuide_ge_unit_0008\"\n# se \"SE_0575\"\n# alpha 3302111 1 0\n# fadein \"white\" 0.3\n@\n『ガ・ボー・獣刻・ハーピー』\n穢れた翼の舞、見せてあげるっ\n\n# se \"SE_0003\"\n# textalign \"center\"\n# mask 3503211 on\n# mask 3302111 on\n# move 3503211 4 0\n# move 3302111 2 0\n# alpha 3503211 1 0\n# fadein \"white\" 0.3\n@\n新ユニットは\n[8000FF]5STEPUPガチャ[-]\nで登場！\n\n# se \"SE_0619\"\n# bgm \"stop\"\n# textwindow \"close\"\n# fadeout \"black\" 1\n# waitandnext 1\n\n# bgmfile \"bgm193\" \"Bgm3Tcollabo002\" 0 \n# textalign \"center\"\n# background \"dimensions\"\n# textwindow \"nomal\"\n# fadein \"black\" 0.5\n# alpha 3503211 0 0\n# alpha 3302111 0 0\n# textsize 36\n@\nタガタメコラボ\n[FF0000]開催！[-]\n\n# textsize 24\n# textalign \"center\"\n# se \"SE_0575\"\n# fadein \"white\" 0.3\n# alpha 202711 1 0\n# voice 2027 \"acht_kyara_1001\"\n@\n『アハト』\n…アナタは、\nソルの力になってくれる人、ですか？\n\n# textalign \"center\"\n# se \"SE_0575\"\n# fadein \"white\" 0.3\n# alpha 202711 0 0\n# alpha 602611 1 0\n# voice 6026 \"vier_kyara_0017\"\n@\n『フィーア』\nふふ、イイ感じね？\n\n# se \"SE_0003\"\n# textalign \"center\"\n# fadein \"white\" 0.3\n# alpha 202711 1 0\n# mask 202711 on\n# mask 602611 on\n# move 202711 2 0\n# move 602611 4 0\n# textsize 36\n@\n[8000FF]新ユニット[-]ガチャで\n[FF0000]登場！[-]\n\n# textsize 24\n# fadein \"white\" 0.3\n# face 202711 \"surprise\"\n# face 602611 \"surprise\"\n# voice 2027 \"acht_0041\"\n# voice 6026 \"vier_0041\"\n# textalign \"center\"\n@\nタガタメコラボガチャは\n[FF8000]STEP1[-]で\n[FF0000]ピックアップユニット確定！[-]"
	}
]