[
	{
		"ID": 719021401,
		"script": ";;-----------------------------------------\n;;2月中マイペ\n;;-----------------------------------------\n# script \"lisp\"\n# background \"dimensions\"\n# bgmfile \"bgm193\" \"Bgm3Tcollabo002\" 0 \n;;-----------------------------------------\n;;デュランダル\n# body 3100311\n# pos 3100311 2\n# scale 3100311 0.8 0\n# alpha 3100311 0 0\n# brightness 3100311 0.2 0\n;;セファー\n# body 3502111\n# pos 3502111 4\n# scale 3502111 0.8 0\n# alpha 3502111 0 0\n# brightness 3502111 0.2 0\n;;ロフィア\n# body 602811\n# pos 602811 3\n# scale 602811 0.8 0\n# alpha 602811 0 0\n# mask 602811 off\n;;アハト\n# body 202711\n# pos 202711 2\n# scale 202711 0.8 0\n# alpha 202711 0 0\n;;フィーア\n# body 602611\n# pos 602611 4\n# scale 602611 0.8 0\n# alpha 602611 0 0\n;;ルーシャ\n# body 503011\n# pos 503011 4\n# scale 503011 0.8 0\n# alpha 503011 0 0\n;;セツナ\n# body 103911\n# pos 103911 2\n# scale 103911 0.8 0\n# alpha 103911 0 0\n;;過去\n# body 602111\n# pos 602111 1\n# scale 602111 0.8 0\n# alpha 602111 0 0\n# body 601211\n# pos 601211 3\n# scale 601211 0.8 0\n# alpha 601211 0 0\n# body 202311\n# pos 202311 5\n# scale 202311 0.8 0\n# alpha 202311 0 0\n;;-----------------------------------------\n# imageset 0 \"black\"\n# imagealpha 0 0 0\n# imagelayer 0 1\n# imageset 1 \"bg_white_circle\"\n# imagealpha 1 0 0\n# imagelayer 1 4\n# imagescale 1 1.2 0\n# imageset 2 \"bg_white_circle\"\n# imagealpha 2 0 0\n# imagelayer 2 5\n# imagescale 2 1.4 0\n;;-----------------------------------------\n# envbody 11111 8 0\n# effectpattern 11111 1 0\n# effectstart 11111\n;;-----------------------------------------\n# fadein \"black\" 2\n# textwindow \"close\"\n# waitandnext 2\n\n# textwindow \"nomal\"\n# textflame 0 0\n# textalign \"center\"\n# textsize 30\n@\n[DC143C]誰ガ為のアルケミスト[-]\nコラボユニット登場！\n\n# alpha 602811 1 0\n# fadein \"white\" 0.5\n# se \"SE_5535\"\n# imagealpha 1 0 0\n# imagealpha 2 0 0\n# textalign \"center\"\n# textsize 36\n@\nロフィア\n\n# textflame 1 1\n# textsize 24\n# textboxarrow 0 2\n# face 602811 \"smile\"\n# voice 6028 \"rofia_kyara_0014\"\n@ロフィア\nまだまだ私にも\n可能性が詰まっているということだね\n\n# fadein \"white\" 0.5\n# se \"SE_0602\"\n# textflame 0 0\n# textalign \"center\"\n# textsize 30\n@\nコマンドスキル『[0000CD]オーバークロック[-]』\n味方を引き寄せ、さらに\n特定の属性であれば再度行動可能に！\n\n# face 602811 \"surprise\"\n# fadein \"white\" 0.5\n# se \"SE_0575\"\n# textflame 0 0\n# textalign \"center\"\n# textsize 30\n@\nファントム オブ アルケミスト\n限定クエスト[B22222]「ロフィア編」[-]登場！\n\n# face 602811 \"smile\"\n# voice 6028 \"rofia_0004\"\n# se \"SE_2501\"\n# textwindow \"nomal\"\n# textflame 0 0\n# textalign \"center\"\n# textsize 28\n@\n[00BFFF]タガタメ新ユニット\nピックアップガチャ[-]も登場！\n\n# alpha 602811 0 0\n# alpha 503011 1 0\n# alpha 103911 1 0\n# fadein \"white\" 0.5\n# textwindow \"nomal\"\n# textflame 0 0\n# textalign \"center\"\n# textsize 28\n@\nSTEP1で\nピックアップユニット\n[FF0000]1体確定[-]！\n\n# alpha 503011 0 0\n# alpha 103911 0 0\n# alpha 202711 1 0\n# alpha 602611 1 0\n# fadein \"white\" 0.5\n# textwindow \"nomal\"\n# textflame 0 0\n# textalign \"center\"\n# textsize 28\n@\nSTEP7で\n[FF69B4]タガタメユニットキラーズチケット[-]\nプレゼント！\n\n# alpha 202711 0 0\n# alpha 602611 0 0\n# alpha 602111 1 0\n# alpha 601211 1 0\n# alpha 202311 1 0\n# fadein \"white\" 0.5\n# textwindow \"nomal\"\n# textflame 0 0\n# textalign \"center\"\n# textsize 28\n@\n過去に登場した\nタガタメユニットも登場！！\n\n;;暗転(大)\n# bgm \"stop\"\n# textwindow \"close\"\n# fadeout \"black\" 2\n# se \"SE_0050\"\n# textalign \"center\"\n# waitandnext 2\n\n# alpha 602111 0 0\n# alpha 601211 0 0\n# alpha 202311 0 0\n# alpha 3100311 1 0\n# alpha 3502111 1 0\n# background \"profound\"\n# bgmfile \"bgm263\" \"BgmLostRagnarok001\" 0\n# imagealpha 1 1 0\n# imagepos 1 0 0\n# imagealpha 2 1 0\n# imagepos 2 0 0\n# fadein \"black\" 1\n# waitandnext 1.5\n\n# fadein \"white\" 0.8\n# imagealpha 1 0 0\n# imagepos 1 0 0\n# imagealpha 2 0 0\n# imagepos 2 0 0\n# voice 310031 \"durandaru_a_title_0001\"\n# voice 350211 \"sefer_a_title_0001\"\n# textwindow \"nomal\"\n# textflame 0 0\n# textalign \"center\"\n# textsize 28\n@\n[0000FF]ロストラグナロク[-]\n新ユニット2体登場！\n\n;;暗転挟む\n# imagealpha 0 1 0\n# imagepos 0 0 30\n# imageleftin 0 0.5\n# textwindow \"close\"\n# waitandnext 0.5\n\n# move 3100311 3 0\n# mask 3100311 off\n# alpha 3100311 0 0\n# move 3502111 3 0\n# mask 3502111 off\n# alpha 3502111 0 0\n# imagealpha 0 0 0.5\n# imagerightout 0 0.3\n# waitandnext 0.5\n\n# brightness 3100311 1 0\n# alpha 3100311 1 0\n# fadein \"white\" 0.8\n# se \"SE_5535\"\n# textwindow \"nomal\"\n# textflame 0 0\n# textalign \"center\"\n@\nデュランダル\n[DC143C]D. plug[-]\nアレス\n\n# alpha 3100311 0 0\n# brightness 3502111 1 0\n# alpha 3502111 1 0\n# fadein \"white\" 0.8\n# se \"SE_5535\"\n# textwindow \"nomal\"\n# textflame 0 0\n# textalign \"center\"\n# textsize 28\n@\nセファー\n[DC143C]D. plug[-]\nダンタリオン\n\n;;暗転挟む\n# imagealpha 0 1 0\n# imagepos 0 0 30\n# imageleftin 0 0.3\n# textwindow \"close\"\n# waitandnext 0.3\n\n# move 3100311 2 0\n# mask 3100311 on\n# brightness 3100311 1 0\n# move 3502111 4 0\n# mask 3502111 on\n# brightness 3502111 0.2 0\n# alpha 3502111 0 0\n# imagealpha 0 0 0.5\n# imagerightout 0 0.3\n# waitandnext 0.5\n\n# alpha 3100311 1 0\n# alpha 3502111 1 0\n# se \"SE_5514\"\n# fadein \"white\" 0.3\n# textwindow \"nomal\"\n# textflame 0 0\n# textalign \"center\"\n# textsize 30\n@\nデュエルスキル『[F4A460]踊り狂う双破[-]』\n周囲にいる特定属性の\n味方ユニットの全パラメータが上昇！\n\n# brightness 3100311 0.2 0.3\n# brightness 3502111 1 0.3\n# se \"SE_5514\"\n# fadein \"white\" 0.3\n# textflame 0 0\n# textalign \"center\"\n# textsize 30\n@\nコマンドスキル『[32CD32]誘滅の風衣[-]』\n必殺が上昇、さらに特定の属性を除く\n属性ごとの攻撃から一定まで耐える！\n\n# brightness 3100311 1 0.3\n# face 3100311 \"happy\"\n# face 3502111 \"happy\"\n# voice 350211 \"sefer_a_0021\"\n# voicedelay 310031 \"durandaru_a_0021\" 1.2\n# fadein \"white\" 0.6\n# textflame 0 0\n# textalign \"center\"\n# textsize 30\n@\n新ユニットはともに\n[FF0000]クラスチェンジ可能状態[-]で登場！\n\n# fadein \"white\" 0.6\n# textflame 0 0\n# textalign \"center\"\n# textsize 30\n@\n新ユニットピックアップガチャでは\nSTEP7で[FF69B4]新ユニットキラーズチケット[-]\nプレゼント！\n\n# alpha 3100311 0 0\n# alpha 3502111 0 0\n# fadein \"white\" 0.5\n# se \"SE_0504\"\n# textalign \"center\"\n@\n詳しくはお知らせをチェック！\n\n# bgm \"stop\"\n# fadeout \"black\" 1.5\n# textalign \"center\"\n# waitandnext 1.5\n@\n詳しくはお知らせをチェック！"
	}
]