[
	{
		"ID": 719080102,
		"script": ";;-----------------------------------------\n# script \"lisp\"\n# bgm \"bgm008\" 0\n# background \"wild\"\n;;-----------------------------------------\n;;\n# body 301821\n# pos 301821 3\n# scale 301821 0.8 0\n# layer 301821 3\n# mask 301821 off\n# alpha 301821 0 0\n;;-----------------------------------------\n# fadein \"black\" 3\n# textwindow \"close\"\n# waitandnext 4\n\n# textwindow \"nomal\"\n# textalign \"center\"\n# textsize 24\n# textflame 0 0\n@\nセブンスキラーズ\nクラスチェンジ開放！\n\n# fadein \"white\" 0.5\n# se \"SE_0517\"\n# alpha 301821 1 0\n# textwindow \"nomal\"\n# textalign \"center\"\n# textsize 36\n@\nフォルカス\n\n# fadein \"white\" 2\n# se \"SE_0803\"\n# background \"aerial_shoot\"\n# face 301821 \"angry\"\n# voice 3018 \"forcas_kyara_0019\"\n# textwindow \"nomal\"\n# textalign \"center\"\n# textsize 24\n@\n【　フローズンマスター　】\n【　ファランクス　】\n【　七耀蒼槍士　】\n\n# voice 3018 \"forcas_battle_0002\"\n# fadein \"white\" 0.5\n# se \"SE_0534\"\n# textwindow \"nomal\"\n# textalign \"center\"\n@\nセブンスクエスト\n七耀蒼槍士\nポイントクエストも登場！\n\n# face 301821 \"happy\"\n# voice 3018 \"forcas_kyara_0015\"\n# textwindow \"nomal\"\n# textalign \"center\"\n@\nキラーズイノセントなど\nクラスチェンジ素材をGET！\n\n# fadein \"white\" 0.5\n# se \"SE_0062\"\n# alpha 301821 0 0\n# textwindow \"nomal\"\n# textalign \"center\"\n# textsize 28\n# textflame 0 0\n@\n詳しくはお知らせをチェック！\n\n;;暗転大きめ\n# bgm \"stop\"\n# se \"SE_0619\"\n# fadeout \"black\" 1\n# waitandnext 1\n# textwindow \"nomal\"\n# textalign \"center\"\n# textsize 28\n@\n詳しくはお知らせをチェック！"
	}
]