[
	{
		"ID": 719083001,
		"script": ";;-----------------------------------------\n# script \"lisp\"\n# bgm \"bgm008\" 0\n# background \"wild\"\n;;-----------------------------------------\n;;\n# body 501731\n# pos 501731 3\n# scale 501731 0.8 0\n# layer 501731 3\n# mask 501731 off\n# alpha 501731 0 0\n;;-----------------------------------------\n# fadein \"black\" 3\n# textwindow \"close\"\n# waitandnext 4\n\n# textwindow \"nomal\"\n# textalign \"center\"\n# textsize 24\n# textflame 0 0\n@\nセブンスキラーズ\nクラスチェンジ開放！\n\n# fadein \"white\" 0.5\n# se \"SE_0517\"\n# alpha 501731 1 0\n# textwindow \"nomal\"\n# textalign \"center\"\n# textsize 36\n@\nグリモワール\n\n# fadein \"white\" 2\n# se \"SE_0803\"\n# background \"aerial_shoot\"\n# face 501731 \"angry\"\n# voice 5017 \"grimoire_unit_0009\"\n# textwindow \"nomal\"\n# textalign \"center\"\n# textsize 24\n@\n【　シャドウマスター　】\n【　サイキックシューター　】\n【　七耀銀銃士　】\n\n# voice 5017 \"grimoire_battle_0002\"\n# fadein \"white\" 0.5\n# se \"SE_0534\"\n# textwindow \"nomal\"\n# textalign \"center\"\n@\nセブンスクエスト\n七耀銀銃士\nポイントクエストも登場！\n\n# face 501731 \"happy\"\n# voice 5017 \"grimoire_kyara_0014\"\n# textwindow \"nomal\"\n# textalign \"center\"\n@\nキラーズイノセントなど\nクラスチェンジ素材をGET！\n\n# fadein \"white\" 0.5\n# se \"SE_0062\"\n# alpha 501731 0 0\n# textwindow \"nomal\"\n# textalign \"center\"\n# textsize 28\n# textflame 0 0\n@\n詳しくはお知らせをチェック！\n\n;;暗転大きめ\n# bgm \"stop\"\n# se \"SE_0619\"\n# fadeout \"black\" 1\n# waitandnext 1\n# textwindow \"nomal\"\n# textalign \"center\"\n# textsize 28\n@\n詳しくはお知らせをチェック！"
	}
]