[
	{
		"ID": 719031101,
		"script": ";;-----------------------------------------\n;;さくらマイペ\n# script \"lisp\"\n# background \"courtyard\"\n# bgmfile \"bgm183\" \"BgmGakuen003\" 0\n;;-----------------------------------------\n;;桜制服\n# body 145\n# pos 145 3\n# scale 145 0.8 0\n# alpha 145 0 0\n# mask 145 off\n# layer 145 3\n# body 146\n# pos 146 2\n# scale 146 0.8 0\n# alpha 146 0 0\n# mask 146 off\n# layer 146 5\n;;桜OP\n# body 148\n# pos 148 3\n# scale 148 0.8 0\n# alpha 148 0 0\n# mask 148 off\n# layer 148 3\n# body 149\n# pos 149 4\n# scale 149 0.8 0\n# alpha 149 0 0\n# mask 149 off\n# layer 149 5\n;;桜対包囲\n# body 143\n# pos 143 3\n# scale 143 0.8 0\n# alpha 143 0 0\n# mask 143 off\n# layer 143 3\n# body 144\n# pos 144 4\n# scale 144 0.8 0\n# alpha 144 0 0\n# mask 144 off\n# layer 144 5\n;;ロンギさくら\n# body 300191\n# pos 300191 3\n# scale 300191 0.8 0\n# alpha 300191 0 0\n;;ナーゲルさくら\n# body 100661\n# pos 100661 5\n# scale 100661 0.8 0\n# alpha 100661 0 0\n;;与一さくら\n# body 400571\n# pos 400571 1\n# scale 400571 0.8 0\n# alpha 400571 0 0\n;;学園フライクーゲル\n# body 500271\n# pos 500271 4\n# scale 500271 0.8 0\n# alpha 500271 0 0\n;;学園パラシュ\n# body 200481\n# pos 200481 2\n# scale 200481 0.8 0\n# alpha 200481 0 0\n;;-----------------------------------------\n# fadeout \"white\" 0.2\n# imageset 0 \"mov2_1\"\n# imagelayer 0 3\n# imagescale 0 3 0\n# imagealpha 0 0 0\n# imageset 1 \"kiri_02\"\n# imagelayer 1 3\n# imagealpha 1 0 0\n# imageset 2 \"kiri_02\"\n# imagelayer 2 3\n# imagealpha 2 0 0\n# imageset 3 \"kiri_02\"\n# imagelayer 3 3\n# imagealpha 3 0 0\n# imageset 4 \"bg_white\"\n# imagelayer 4 5\n# imagealpha 4 1 0\n# textwindow \"close\"\n# waitandnext 0.2\n\n# se \"SE_9022\"\n# imagealpha 0 1 0\n# imagealpha 1 1 0\n# imagealpha 2 1 0\n# imagealpha 3 1 0\n# imagepos 0 200 -650\n# imagepos 1 130 100\n# imagepos 2 -170 0\n# imagepos 3 -170 200\n# imagepos 4 0 0\n# fadein \"white\" 0.2\n# imagescale 0 2 0\n# waitandnext 0.2\n\n# envbody 2001 8 0\n# effectstart 2001\n# imagemoveto 1 400 0 2\n# imagemoveto 2 -400 0 2\n# imagemoveto 3 -400 0 2\n# imagescale 1 3 2\n# imagescale 2 3 2\n# imagescale 3 3 2\n# imagealpha 1 0 2\n# imagealpha 2 0 2\n# imagealpha 3 0 2\n# imagealpha 4 0 3\n# waitandnext 1\n\n# imagemoveto 0 200 300 2\n# waitandnext 1\n\n# fadeout \"white\" 1\n# waitandnext 1\n\n# alpha 148 1 0\n# alpha 149 1 0\n# imagealpha 0 0 0\n# waitandnext 0.2\n\n# se \"SE_4780\"\n# fadein \"white\" 1.5\n# waitandnext 1\n\n# se \"SE_4825\"\n# textwindow \"nomal\"\n# textalign \"center\"\n# textsize 32\n# textflame 0 0\n@\n[FF69B4]カードキャプターさくら[-]\n[32CD32]クリアカード編[-]\nコラボ復刻！\n\n# effectskip 2001\n# se \"SE_5677\"\n# fadein \"white\" 0.7\n# face 148 \"happy\"\n# voice 60231 \"ccsakura_g_0005\"\n# textwindow \"nomal\"\n# textalign \"center\"\n# textsize 27\n# textflame 0 0\n@\n過去に登場した\nコラボユニットのスキルと\nコラボ武具が強化！\n\n# textwindow \"nomal\"\n# textalign \"center\"\n# textsize 29\n# textflame 0 0\n@\nコラボ武具が入手できる\n[FF00FF]さくらコラボイベントクエスト[-]も\n復刻開催！\n\n# fadein \"white\" 0.7\n# alpha 148 0 0\n# alpha 149 0 0\n# alpha 145 1 0\n# alpha 146 1 0\n# face 145 \"happy\"\n# voice 60232 \"ccsakura_g_kyara_0017\"\n# voicedelay 9966 \"cckero_g_kyara_0019\" 3.4\n# textwindow \"nomal\"\n# textalign \"center\"\n# textsize 27\n# textflame 0 0\n@\nイベントストーリーをクリアして\n限定ユニットを手に入れよう！\n\n# fadeout \"black\" 1\n# waitandnext 0.8\n# textwindow \"nomal\"\n# textalign \"center\"\n# textsize 27\n# textflame 0 0\n@\nイベントストーリーをクリアして\n限定ユニットを手に入れよう！\n\n# textwindow \"close\"\n# alpha 145 0 0\n# alpha 146 0 0\n# waitandnext 0.2\n\n# fadein \"black\" 1\n# waitandnext 1\n\n# envbody 2002 11 0\n# effectpattern 2002 2 0\n# effectstart 2002\n# se \"SE_0503\"\n# fadein \"white\" 0.7\n# alpha 300191 1 0\n# alpha 100661 1 0\n# alpha 400571 1 0\n# textwindow \"nomal\"\n# textalign \"center\"\n# textsize 32\n# textflame 0 0\n@\nコラボ限定ユニットが登場！\n[FF00FF]さくらコラボ7STEPガチャ[-]\n\n# face 300191 \"happy\"\n# face 100661 \"happy\"\n# face 400571 \"happy\"\n# voice 3001 \"ronginusu_0006\"\n# voicedelay 1006 \"nageruring_0006\" 1\n# voicedelay 4005 \"yoichi_0006\" 2\n# textwindow \"nomal\"\n# textalign \"center\"\n# textsize 27\n# textflame 0 0\n@\n[FFA500]STEP1[-]で\n対象ユニット[FF0000]1体確定[-]！\nそして…\n\n# se \"SE_0008\"\n# fadein \"white\" 0.7\n# voice 3001 \"ronginusu_0005\"\n# voice 1006 \"nageruring_0005\"\n# voice 4005 \"yoichi_0004\"\n# textwindow \"nomal\"\n# textalign \"center\"\n# textsize 27\n# textflame 0 0\n@\n[FFA500]STEP7[-]で\n[FF0000]さくらコラボキラーズチケット[-]\nプレゼント！\n\n# fadeout \"black\" 1\n# waitandnext 0.8\n# textwindow \"nomal\"\n# textalign \"center\"\n# textsize 27\n# textflame 0 0\n@\n[FFA500]STEP7[-]で\n[FF0000]さくらコラボキラーズチケット[-]\nプレゼント！\n\n# textwindow \"close\"\n# alpha 300191 0 0\n# alpha 100661 0 0\n# alpha 400571 0 0\n# waitandnext 0.2\n\n# fadein \"black\" 1\n# waitandnext 1\n\n# fadein \"white\" 0.7\n# se \"SE_1032\"\n# alpha 143 1 0\n# alpha 144 1 0\n# textwindow \"nomal\"\n# textalign \"center\"\n# textsize 24\n# textflame 0 0\n@\n[FF8C00]さくらコラボ記念ログインボーナス[-]で\n豪華アイテムをGET！\n\n# face 143 \"happy\"\n# voice 60231 \"ccsakura_g_0006\"\n# voicedelay 9966 \"cckero_g_0029\" 1\n# textwindow \"nomal\"\n# textalign \"center\"\n# textsize 27\n# textflame 0 0\n@\n[00BFFF]コラボユニット[-]などが登場する\n特別なガチャチケットを\n手に入れよう！\n\n# textwindow \"nomal\"\n# textalign \"center\"\n# textsize 29\n# textflame 0 0\n@\n限定ユニット獲得の\n絶好の機会をお見逃しなく！\n\n# effectskip 2002\n# se \"SE_0647\"\n# fadein \"white\" 0.7\n# alpha 143 0 0\n# alpha 144 0 0\n# textwindow \"nomal\"\n# textalign \"center\"\n# textsize 27\n# textflame 0 0\n@\n他にも、コラボ記念の\nお得なキャンペーンなど\n詳しくはお知らせをチェック！\n\n# fadeout \"black\" 2\n# waitandnext 2\n# textwindow \"nomal\"\n# textalign \"center\"\n# textsize 27\n# textflame 0 0\n@\n他にも、コラボ記念の\nお得なキャンペーンなど\n詳しくはお知らせをチェック！"
	}
]