[
	{
		"ID": 719101001,
		"script": ";;-----------------------------------------\n# script \"lisp\"\n# background \"plain\"\n# bgmfile \"bgm040\" \"BgmBfcollabo001\" 0\n;;-----------------------------------------\n;;セレナ\n# body 101711\n# pos 101711 3\n# scale 101711 0.8 0\n# layer 101711 3\n# alpha 101711 0 0\n# mask 101711 off\n;;ルキナ\n# body 102211\n# pos 102211 3\n# scale 102211 0.8 0\n# layer 102211 5\n# mask 102211 off\n# alpha 102211 0 0\n# brightness 102211 0 0\n;;ミセル\n# body 201511\n# pos 201511 3\n# scale 201511 0.8 0\n# layer 201511 5\n# mask 201511 off\n# alpha 201511 0 0\n# brightness 201511 0 0\n;;ルナリス\n# body 301212\n# pos 301212 3\n# scale 301212 0.8 0\n# layer 301212 3\n# mask 301212 off\n# alpha 301212 0 0\n# brightness 301212 0 0\n;;パラシュ\n# body 3200411\n# pos 3200411 3\n# scale 3200411 0.8 0\n# layer 3200411 3\n# mask 3200411 off\n# alpha 3200411 0 0\n# brightness 3200411 0 0\n;;パラケルスス\n# body 3101311\n# pos 3101311 3\n# scale 3101311 0.8 0\n# layer 3101311 3\n# mask 3101311 off\n# alpha 3101311 0 0\n# brightness 3101311 0 0\n;;ヴォータン\n# body 301711\n# pos 301711 3\n# scale 301711 0.8 0\n# layer 301711 3\n# mask 301711 off\n# alpha 301711 0 0\n# body 301714\n# pos 301714 3\n# scale 301714 0.8 0\n# layer 301714 3\n# mask 301714 off\n# alpha 301714 0 0\n;;パラケルスス\n# body 101311\n# pos 101311 3\n# scale 101311 0.8 0\n# layer 101311 3\n# mask 101311 off\n# alpha 101311 0 0\n# body 101314\n# pos 101314 3\n# scale 101314 0.8 0\n# layer 101314 3\n# mask 101314 off\n# alpha 101314 0 0\n;;ガンバンテイン\n# body 600226\n# pos 600226 3\n# scale 600226 0.8 0\n# layer 600226 3\n# mask 600226 off\n# alpha 600226 0 0\n;;-----------------------------------------\n# imageset 0 \"black\"\n# imagealpha 0 0 0\n# imagelayer 0 1\n# imageset 1 \"bg_white_circle\"\n# imagealpha 1 0 0\n# imagepos 1 0 0\n# imagelayer 1 4\n# imagescale 1 1.4 0\n# imageset 2 \"bg_white_circle\"\n# imagealpha 2 0 0\n# imagepos 2 0 0\n# imagelayer 2 5\n# imagescale 2 1.5 0\n;;-----------------------------------------\n# envbody 11111 8 0\n# effectpattern 11111 1 0\n;;-----------------------------------------\n# fadein \"black\" 2\n# textwindow \"close\"\n# waitandnext 3\n\n# textwindow \"nomal\"\n# textflame 0 0\n# textalign \"center\"\n@\nPhantom of the Kill\n×\nBrave Frontier\n\n# se \"SE_0014\"\n# fadein \"white\" 0.8\n# textwindow \"nomal\"\n# textflame 0 0\n# textalign \"center\"\n# textsize 32\n@\nコラボ開催！\n\n# alpha 101711 1 0.5\n# textwindow \"nomal\"\n# textflame 0 0\n# textalign \"center\"\n# textsize 24\n@\nセレナ★6開放！\n復刻開催のクエストをクリアして\nユニットを手に入れよう！\n\n# face 101711 \"happy\"\n# voice 1017 \"selena_0041\"\n# textwindow \"nomal\"\n# textflame 0 0\n# textalign \"center\"\n# textsize 24\n@\nさらに\nブレフロ武具が★6強化可能に！\n\n# fadein \"white\" 0.5\n# alpha 101711 0 0\n# textflame 0 0\n# textalign \"center\"\n# textsize 32\n@\n詳しくは\nお知らせをチェック！\n\n;;暗転挟む\n# imagealpha 0 1 0\n# imagepos 0 0 30\n# imageleftin 0 0.5\n# textwindow \"close\"\n# waitandnext 0.5\n\n# background \"wild\"\n# waitandnext 0.2\n\n# imagealpha 0 0 0.5\n# imagerightout 0 0.5\n# waitandnext 0.5\n\n# move 3200411 4 0\n# mask 3200411 on\n# alpha 3200411 1 0.5\n# move 3101311 2 0\n# mask 3101311 on\n# alpha 3101311 1 0.5\n# se \"SE_1051\"\n# waitandnext 0.6\n\n# textwindow \"nomal\"\n# textflame 0 0\n# textalign \"center\"\n# textsize 32\n@\nクラスチェンジ開放ユニット追加！\n\n# alpha 3200411 0 0.5\n# alpha 3101311 0 0.5\n# move 201511 3 0\n# mask 201511 on\n# alpha 201511 1 0.5\n# move 102211 1 0\n# mask 102211 on\n# alpha 102211 1 0.5\n# move 301212 5 0\n# mask 301212 on\n# alpha 301212 1 0.5\n# se \"SE_1051\"\n# textwindow \"nomal\"\n# textflame 0 0\n# textalign \"center\"\n# textsize 32\n@\nクラスチェンジ開放ユニット追加！\n\n# alpha 201511 0 0.5\n# alpha 102211 0 0.5\n# alpha 301212 0 0.5\n# waitandnext 0.8\n# textwindow \"nomal\"\n# textflame 0 0\n# textalign \"center\"\n# textsize 32\n@\nクラスチェンジ開放ユニット追加！\n\n# brightness 3200411 1 0\n# brightness 3101311 1 0\n# waitandnext 0.2\n# textwindow \"nomal\"\n# textflame 0 0\n# textalign \"center\"\n# textsize 32\n@\nクラスチェンジ開放ユニット追加！\n\n# imagealpha 1 1 0.2\n# imagepos 1 0 0\n# move 3101311 3 0\n# mask 3101311 off\n# alpha 3101311 1 0.5\n# face 3101311 \"usual\"\n# effectstart 11111\n# se \"SE_0517\"\n# textwindow \"nomal\"\n# textflame 0 0\n# textalign \"center\"\n# textsize 24\n@\n　\nパラケルスス・D. plug・バフォメット\n\n# imagealpha 1 0 0\n# imagepos 1 0 0\n# face 3101311 \"angry\"\n# voice 310131 \"paracelsus_a_kyara_0015\"\n# fadein \"white\" 0.7\n# se \"SE_9040\"\n# textwindow \"nomal\"\n# textflame 0 0\n# textalign \"center\"\n@\nVertex3 開放！\n【 デュアルセイバー 】\n\n# imagealpha 1 1 0.2\n# imagepos 1 0 0\n# alpha 3101311 0 0.5\n# move 3200411 3 0\n# mask 3200411 off\n# alpha 3200411 1 0.5\n# se \"SE_0517\"\n# textwindow \"nomal\"\n# textflame 0 0\n# textalign \"center\"\n# textsize 24\n@\n　\nパラシュ・D. plug・アスタロス\n\n# imagealpha 1 0 0\n# imagepos 1 0 0\n# face 3200411 \"angry\"\n# voice 320041 \"parashu_a_unit_0009\"\n# fadein \"white\" 0.7\n# se \"SE_9040\"\n# textwindow \"nomal\"\n# textflame 0 0\n# textalign \"center\"\n@\n【 フレイムマスター 】\n【 バーサーカー 】\n【 暴魔鍛冶師 】\n\n# imagealpha 1 1 0.2\n# imagepos 1 0 0\n# alpha 3200411 0 0.5\n# alpha 102211 1 0.5\n# alpha 201511 1 0.5\n# alpha 301212 1 0.5\n# textwindow \"nomal\"\n# textflame 0 0\n# textalign \"center\"\n@\nさらに、\nブレフロコラボユニットの\nクラスチェンジも開放！\n\n# brightness 102211 1 0\n# imagealpha 1 0 0\n# imagepos 1 0 0\n# fadein \"white\" 0.5\n# se \"SE_0517\"\n# textwindow \"nomal\"\n# textflame 0 0\n# textalign \"center\"\n@\nルキナ\n【 フローズンマスター 】\n\n# brightness 201511 1 0\n# fadein \"white\" 0.5\n# se \"SE_0517\"\n# textwindow \"nomal\"\n# textflame 0 0\n# textalign \"center\"\n@\nミセル\n【 フレイムマスター 】\n\n# brightness 301212 1 0\n# fadein \"white\" 0.5\n# se \"SE_0517\"\n# textwindow \"nomal\"\n# textflame 0 0\n# textalign \"center\"\n@\nルナリス\n【 シャドウマスター 】\n\n# se \"SE_5535\"\n# fadein \"white\" 0.7\n# face 102211 \"smile\"\n# face 201511 \"happy\"\n# face 301212 \"happy\"\n# voice 1022 \"rukina_0004\"\n# voice 2015 \"miseru_0004\"\n# voice 3012 \"lunaris_0004\"\n# textwindow \"nomal\"\n# textflame 0 0\n# textalign \"center\"\n# textsize 30\n@\nピックアップ7STEPガチャ\n開催！\n\n# se \"SE_5535\"\n# fadein \"white\" 0.7\n# textwindow \"nomal\"\n# textflame 0 0\n# textalign \"center\"\n# textsize 30\n@\nSTEP7で[FF0000]ブレフロコラボ\n淘汰値５キラーズチケット[-]\nプレゼント！！\n\n# se \"SE_5535\"\n# fadein \"white\" 0.7\n# alpha 102211 0 0\n# alpha 201511 0 0\n# alpha 301212 0 0\n# move 3101311 2 0\n# mask 3101311 on\n# alpha 3101311 1 0\n# move 3200411 4 0\n# mask 3200411 on\n# alpha 3200411 1 0\n# face 3101311 \"normal\"\n# face 3200411 \"happy\"\n# voice 310131 \"paracelsus_a_0004\"\n# voice 320041 \"parashu_a_0005\"\n# textwindow \"nomal\"\n# textflame 0 0\n# textalign \"center\"\n# textsize 30\n@\nさらに、おまけで\nクラスチェンジ素材を大量ゲット！\n\n;;暗転大きめ\n# bgm \"stop\"\n# se \"SE_0619\"\n# fadeout \"black\" 1.5\n# waitandnext 1.3\n# textalign \"center\"\n# textsize 30\n@\nさらに、おまけで\nクラスチェンジ素材を大量ゲット！\n\n# alpha 3101311 0 0\n# alpha 3200411 0 0\n# effectskip 11111\n# textwindow \"close\"\n# background \"aerial_shoot\"\n# bgm \"bgm036\" 0\n# waitandnext 0.2\n\n# fadein \"black\" 1\n# waitandnext 1.5\n\n# textwindow \"nomal\"\n# textflame 0 0\n# textalign \"center\"\n# textsize 38\n@\n[FF0000]覚醒ユニット[-]\n2体登場！\n\n# imagealpha 1 1 0.5\n# imagepos 1 0 0\n# imagealpha 2 1 0.5\n# imagepos 2 0 0\n# se \"SE_2520\"\n# alpha 301711 1 0.5\n# textflame 0 0\n# textalign \"center\"\n# textsize 36\n@\nヴォータン\n[FF0000]覚醒！[-]\n\n# se \"SE_9182\"\n# fadein \"white\" 0.7\n# alpha 301711 0 0\n# alpha 301714 1 0\n# envbody 1002 11 0\n# effectpattern 1002 2 0\n# effectstart 1002\n# imagealpha 1 0 0\n# imagealpha 2 0 0\n# textalign \"center\"\n# textsize 36\n@\nヴォータン\n[FF0000]覚醒！[-]\n\n# imageset 0 \"black\"\n# imagealpha 0 0 0\n# imagelayer 0 1\n# voice 3017 \"wotan_unit_0009\"\n# textflame 1 1\n# textsize 24\n# textboxarrow 0 2\n@ヴォータン\n私に砕けないものはない！\n\n;;暗転挟む\n# imagealpha 0 1 0\n# imagepos 0 0 30\n# imageleftin 0 0.3\n# textwindow \"close\"\n# waitandnext 0.3\n\n# effectskip 1002\n# alpha 301714 0 0\n# waitandnext 0.2\n\n# imagealpha 0 0 0.3\n# imagerightout 0 0.3\n# waitandnext 0.3\n\n# imagealpha 1 1 0.5\n# imagepos 1 0 0\n# imagealpha 2 1 0.5\n# imagepos 2 0 0\n# se \"SE_2520\"\n# alpha 101311 1 0.5\n# textwindow \"nomal\"\n# textflame 0 0\n# textalign \"center\"\n# textsize 36\n@\nパラケルスス\n[FF0000]覚醒！[-]\n\n# se \"SE_9182\"\n# fadein \"white\" 0.7\n# alpha 101311 0 0\n# alpha 101314 1 0\n# envbody 1002 11 0\n# effectpattern 1002 2 0\n# effectstart 1002\n# imagealpha 1 0 0\n# imagealpha 2 0 0\n# textalign \"center\"\n# textsize 36\n@\nパラケルスス\n[FF0000]覚醒！[-]\n\n# voice 1013 \"paracelsus_kyara_0014\"\n# textflame 1 1\n# textsize 24\n# textboxarrow 0 2\n@パラケルスス\n探求なくして進化はない…\nまだまだ途上だよ\n\n;;暗転挟む\n# imagealpha 0 1 0\n# imagepos 0 0 30\n# imageleftin 0 0.3\n# textwindow \"close\"\n# waitandnext 0.3\n\n# effectskip 1002\n# alpha 101314 0 0\n# waitandnext 0.2\n\n# imagealpha 0 0 0.3\n# imagerightout 0 0.3\n# waitandnext 0.3\n\n# textwindow \"nomal\"\n# textflame 0 0\n# textalign \"center\"\n# textsize 32\n@\nイベントクエスト\n「淘汰の彼方に」開催！\nさらに…\n\n# se \"SE_2520\"\n# fadein \"white\" 0.7\n# alpha 600226 1 0\n# textflame 0 0\n# textalign \"center\"\n# textsize 36\n@\nガンバンテイン\n神器登場！\n\n# fadein \"white\" 0.5\n# voice 6002 \"ganbantein_kyara_0014\"\n# textflame 0 0\n# textalign \"center\"\n# textsize 32\n@\n神器探求\n「制魔杖・ガンバンテイン」開催！\n\n# fadein \"white\" 0.5\n# alpha 600226 0 0\n# textflame 0 0\n# textalign \"center\"\n# textsize 32\n@\nこちらも詳しくは\nお知らせをチェック！\n\n;;暗転(大)\n# bgm \"stop\"\n# fadeout \"black\" 2\n# se \"SE_0050\"\n# textwindow \"nomal\"\n# textalign \"center\"\n# textsize 32\n# waitandnext 2\n@\nこちらも詳しくは\nお知らせをチェック！"
	}
]