[
	{
		"ID": 740070014,
		"script": ";;ツクヨミ上級接触時\n# script \"lisp\"\n# body 602211\n# pos 602211 3\n# scale 602211 0.8 0\n# textflame 1 1\n# textboxarrow 0 2\n# chara 602211\n# mask 602211 off\n# face 602211 \"angry\"\n# voice 6022 \"tsukuyomi_unit_0008\"\n@ツクヨミ\n少し…本気になろうかな"
	}
]