[
	{
		"ID": 810301,
		"script": ";;1_3_1　背景：内壁関所\n;;※関所前に辿り着き、馬を降りる黒奏官。\n# script \"lisp\"\n# background \"005_Checkpoint\"\n# bgmfile \"bgm164\" \"BgmPJZero001\" 0\n# body 41\n# pos 41 3\n# scale 41 0.8 0\n# voice 9983 \"kokusohkan_0026\"\n# textboxarrow 0 2\n@黒奏官\nリベリオンめ…\nこんなにも早く、\n内壁に辿り着こうとは…\n\n# body 10\n# pos 10 3\n# scale 10 0.8 0\n# alpha 10 0 0\n# body 12\n# pos 12 1\n# scale 12 0.8 0\n# alpha 12 0 0\n# reversal 10 0\n# reversal 12 0\n@黒奏官\n…まったく\n王立軍はなにをしている\n\n;;※内壁の警備兵二名が、黒奏官の前に立ちはだかる。\n# alpha 10 1 0.5\n# alpha 12 1 0.5\n# leftin 10 0.5\n# leftin 12 0.5\n# move 41 5 0.5\n# textboxarrow 0 1\n@警備兵Ａ\n止まれ\n…先ほどのルシドラの教会の者か？\nいかがした？\n\n# textboxarrow 0 3\n@黒奏官\nプライドでは足止め出来んか…\n王都に戻り、\n態勢を整えざるを得まい\n\n# textboxarrow 0 2\n@警備兵Ｂ\nおい、聞いているのか？\n…止まれ！\n今一度、認証を…\n\n# se \"SE_4000\"\n# textboxarrow 0 3\n@黒奏官\n…邪魔だ\n\n;;※小刀で、警備兵Ｂの首を一突きにする黒奏官。\n# se \"SE_4815\"\n# fadein \"red\" 0.5\n# shake 1 0.5\n# textboxarrow 0 0\n# waitandnext 1\n\n# textboxarrow 0 2\n@警備兵Ｂ\nガッ…！？\n…ガハッ…！！\n\n# textboxarrow 0 0\n# se \"SE_3001\"\n# alpha 10 0 0.5\n# waitandnext 1\n\n# se \"SE_5205\"\n# textboxarrow 0 1\n# move 12 2 0.5\n@警備兵Ａ\nき、貴様！？\nなにを…！？\n\n# textboxarrow 0 3\n@黒奏官\n我は、教皇直属の黒奏官…\n緊急の命につき、\n関を通らせてもらう\n\n@黒奏官\nこれは王政府も承認済みの特命だ\n\n# textboxarrow 0 1\n@警備兵Ａ\nき、貴様…！\nこのような真似をして…\n\n# textboxarrow 0 3\n@黒奏官\nこれ以上の問答は無用\n下っ端相手に割く時間はない…\nお前も逝け\n\n;;※俊敏な動きで警備兵に襲い掛かる黒奏官。\n# se \"SE_9118\"\n# move 41 3 0.3\n# move 12 1 0.3\n# textboxarrow 0 0\n# shake 0 0.5\n# waitandnext 1\n\n# textboxarrow 0 1\n@警備兵Ａ\nう、うぉっ…！？\n\n\n# bgm \"stop\"\n# serif 1\n# textwindow \"normal\"\n@？？？\n…無茶苦茶な人ね、アナタ\n\n# voice 9983 \"kokusohkan_0022\"\n# body 100221\n# pos 100221 3\n# scale 100221 0.8 0\n# alpha 100221 0 0\n# layer 100221 4\n# textboxarrow 0 2\n@黒奏官\n！？\n\n# serif 1\n# textwindow \"close\"\n# serif 0\n# textwindow \"normal\"\n# subfillrect 1 \"black\" 0.2 0 1\n# se \"SE_4601\"\n# effectbody 700 1 0 0\n# effectstart 700\n# waitandnext 0.3\n\n# fadein \"red\" 0.3\n# subfillrect 1 \"black\" 0.2 1 0\n# shake 1 0.3\n;;※飛び散る火花…弾き飛ばされる黒奏官の小刀。ディーン隊のレーヴァテインが姿を現す。\n# move 41 5 0.5\n# alpha 100221 1 0.5\n# textboxarrow 0 0\n# waitandnext 0.7\n\n# body 6\n# pos 6 1\n# scale 6 0.8 0\n# alpha 6 0 0\n# textboxarrow 0 2\n# face 100221 \"angry\"\n# voice 1002 \"revatein_0027\"\n@レーヴァテイン\nラグナロク教会の名を\n汚すような真似は、\nよしてほしいわ\n\n;;※姿を現すディーン。\n# alpha 12 0 0.5\n# face 6 \"sad\"\n# alpha 6 1 0.5\n# textboxarrow 0 1\n@ディーン\nお人よしだな、レーヴァテイン\nそんなことコイツに\n期待するだけ無駄だよ\n\n# textboxarrow 0 3\n@黒奏官\nディーン中奏…\n\n# bgmfile \"bgm166\"\"BgmPJZero001\" 0\n# face 6 \"angry\"\n# textboxarrow 0 1\n@ディーン\nまだ白黒ついてねぇんだ…\n逃がしてたまるかよ\n\n# textboxarrow 0 3\n@黒奏官\n…サイラス少奏のことか？\n彼の死は、キラープリンセスの\n暴走によるものだと…\n\n# textboxarrow 0 1\n@ディーン\n確かに、直接手を\n下しちゃいないのかもしれない\n\n@ディーン\nだが、サイラスは\nアンタの監視下にあったはず…\n\n# face 6 \"sad\"\n@ディーン\nヤツを見殺しにしたことに\n変わりはないだろ\n\n# voice 9983 \"kokusohkan_0027\"\n# textboxarrow 0 3\n@黒奏官\n…それで、すべてを棒に振り、\n仇討ちというわけか…？\n\n# face 6 \"angry\"\n# voice 9997 \"deen_0011\"\n# textboxarrow 0 1\n@ディーン\n棒に振る…？\n冗談じゃねぇ…今の俺は\nそのためだけに生きてるんだよ\n\n# textboxarrow 0 3\n@黒奏官\n…君の心情は理解できる\nだが、その先はどうするつもりだ？\n\n# face 6 \"normal\"\n# textboxarrow 0 1\n@ディーン\n…どういう意味だ？\n\n# textboxarrow 0 3\n@黒奏官\n君が為そうとしていることは、\nラグナロク教会に背を向ける行為…\n\n@黒奏官\n追放どころか、\n確実に粛清の対象となる\n\n@黒奏官\nそんな状況を…\n死んだサイラス少奏は\n望んでいるというのか？\n\n# face 6 \"sad\"\n# voice 9997 \"deen_0024\"\n# textboxarrow 0 1\n@ディーン\n…！\n…サイラスが？\n\n# textboxarrow 0 3\n@黒奏官\n君達は、誓い合ったのだろう…\nともにマスターとなり、\n家族を奪った異族を殲滅しようと\n\n@黒奏官\nその尊き誓いを棄て、\n復讐に生きることを…\nサイラス少奏が望むと思うのか？\n\n# textboxarrow 0 1\n@ディーン\n…！\n\n# textboxarrow 0 3\n@黒奏官\n一時の情に、我を失う…\n若い時分には、よくあることだ\n\n@黒奏官\nだが…\n今の君が為そうとしていることは、\n取り返しのつく話ではない\n\n# face 6 \"angry\"\n# voice 9997 \"deen_0011\"\n# textboxarrow 0 1\n@ディーン\nうるせぇ！！\n俺は、自分を見失ってなど…\n\n# textboxarrow 0 3\n@黒奏官\nいいや、君はそもそもの\n初心を忘れてしまっている\n\n# face 41 \"smile\"\n@黒奏官\n…まだ間に合う、よく考えるのだ\n君が為すべきは、\n怒りに任せた復讐などではなく…\n\n@黒奏官\n死んだ友との誓いに\n生きることではないのか？\n\n# face 6 \"sad\"\n# textboxarrow 0 1\n@ディーン\n！！\n\n# face 41 \"normal\"\n# voice 9983 \"kokusohkan_0031\"\n# textboxarrow 0 3\n@黒奏官\nサイラス少奏の死を\n止められなかったのは私の責任…\nそのことは、素直に認めよう\n\n@黒奏官\nだが…、死んだ彼を\nこれ以上悲しませるべきではない\n\n@黒奏官\n君は道を踏み外すことなく、\n彼とともに誓った\n正義の道に生きるべきだ\n\n# face 6 \"normal\"\n# textboxarrow 0 1\n@ディーン\n正義の道…だと…？\n\n# textboxarrow 0 3\n@黒奏官\nそうだ。亡き友の遺志を継ぐのは、\n生き残った君にしかできんことだ\n\n@黒奏官\nただの犬死にか…\n未来につながる意味ある死となるか…\n\n@黒奏官\n友の死に\n意味を持たせることができるのは、\n今を生きる君だけなのだぞ？\n\n# face 6 \"sad\"\n# textboxarrow 0 1\n@ディーン\n！！\n\n# face 41 \"smile\"\n# imageset 0 \"black\"\n# imagealpha 0 0 0\n# imagelayer 0 1\n# textboxarrow 0 3\n@黒奏官\n私とともに来い…\n君の中の正義が\nまだ死んでいないのならば\n\n;;●１－１０＜戦闘画面＞　背景：内壁関所\n;;※関所前に到達する一行。\n# bgm \"bgm005\" 0\n# body 128\n# pos 128 2\n# scale 128 0.8 0\n# alpha 128 0 0\n# body 75\n# pos 75 4\n# scale 75 0.8 0\n# alpha 75 0 0\n# imagealpha 0 1 0\n# imagepos 0 0 30\n# imageleftin 0 0.5\n# serif 0\n# textwindow \"close\"\n# serif 1\n# textwindow \"close\"\n# waitandnext 1\n\n# alpha 128 1 0\n# alpha 75 1 0\n# alpha 100221 0 0\n# alpha 41 0 0\n# alpha 6 0 0\n# imagealpha 0 0 0.5\n# imagerightout 0 0.5\n# serif 0\n# textwindow \"nomal\"\n# textboxarrow 0 1\n# face 128 \"surprise\"\n@ノーブル\nま、待て！\nお前達は王都へ\n行くつもりなのか！？\n\n# face 75 \"normal\"\n# voice 9979 \"rebellion_0003\"\n# textboxarrow 0 3\n@リベリオン\nそうだ\n…俺に会うことが目的だったのなら、\n別に問題ないだろ？\n\n# face 75 \"smile\"\n@リベリオン\n安心しろ…\n話なら、道中でいくらでもしてやる\n\n# body 0\n# pos 0 3\n# scale 0 0.8 0\n# alpha 0 0 0\n# textboxarrow 0 1\n# face 128 \"normal\"\n@ノーブル\nそれはそうだが、\n私にはもうひとつ目的が…\n私は、耕民区に行かねばならんのだ\n\n# face 0 \"serious\"\n# move 128 1 0.5\n# move 75 5 0.5\n# alpha 0 1 0.5\n# textboxarrow 0 2\n@デュリン\nもしかして、\n学者さまに会いに…？\n\n# body 4\n# pos 4 3\n# scale 4 0.8 0\n# alpha 4 0 0\n# textboxarrow 0 1\n# face 128 \"surprise\"\n@ノーブル\nむ…！\nなぜ、それを…！？\n\n# alpha 0 0 0.5\n# alpha 4 1 0.5\n# layer 4 4\n# textboxarrow 0 2\n@トト\n爺ちゃんから、\n教授に渡すよう託されたんだ\n…この暦が必要なんでしょ？\n\n;;※暦をノーブル教授に手渡すトト。\n# textboxarrow 0 1\n@ノーブル\n！！\nおお…！\nおおお…！！\n\n# face 0 \"serious2\"\n;;※暦を食い入るように見つめるノーブル教授。\n# alpha 4 0 0.5\n# alpha 0 1 0.5\n# textboxarrow 0 2\n@デュリン\nその暦をアナタに届けることが、\n私達の旅の目的のひとつだったのよ\n少し、肩の荷が降りたわ…\n\n@デュリン\n確かに渡したからね？\n\n# textboxarrow 0 1\n# face 128 \"normal\"\n@ノーブル\nここまで届けるのに、\nどれほどの苦労があったのだろう…\n感謝のしようもない\n\n# face 0 \"serious2\"\n# textboxarrow 0 2\n@デュリン\n礼なら、この子に言って\n肌身離さず、\nずっと守り続けてきたんだから\n\n# textboxarrow 0 1\n@ノーブル\n…坊や、本当にありがとう\n君のおかげで、この大陸の人々の目を\n覚ましてやることができるかもしれん\n\n# face 4 \"smile02\"\n# alpha 4 1 0.5\n# alpha 0 0 0.5\n# textboxarrow 0 2\n@トト\nそ、そんな…ハハ…！\n僕は爺ちゃんとの\n約束を守っただけだよ！\n\n# textboxarrow 0 3\n@リベリオン\n謙遜するな。その感謝は、\nお前の勇気に捧げられたんだ…\n胸を張って、答えろ\n\n# face 4 \"happy\"\n# textboxarrow 0 2\n@トト\n…！\nう、うん…！\nどういたしまして！！\n\n# voice 9979 \"rebellion_0004\"\n# body 40\n# pos 40 3\n# scale 40 0.8 0\n# alpha 40 0 0\n# textboxarrow 0 3\n@リベリオン\nヘッ…。さぁ…着いたぜ、関所に\nいいか…無駄な戦闘は極力避けろ\nくれぐれも、いらぬ被害は…\n\n;;※ふと、周囲の雰囲気に訝し気な表情を見せるエドガー。\n# alpha 4 0 0.5\n# alpha 40 1 0.5\n# layer 40 4\n# textboxarrow 0 2\n@エドガー\n…？\n…妙だな…\n\n# textboxarrow 0 1\n@ノーブル\nうむ…\n先ほど通った時と勝手が違う…\n\n# face 75 \"normal\"\n# textboxarrow 0 3\n@リベリオン\nおい、聞いてるのか？\n俺は今、とても大事なことを…\n\n# face 0 \"occur\"\n# voice 9999 \"durin_0050\"\n# alpha 40 0 0.5\n# alpha 0 1 0.5\n# textboxarrow 0 2\n@デュリン\nうっさいわね！\nわかってるわよ！\n\n@デュリン\nただ、どうも様子が…\nあまりに静か過ぎるのよ\n\n# body 24\n# pos 24 3\n# scale 24 0.8 0\n# alpha 24 0 0\n# textboxarrow 0 3\n@リベリオン\n静か…？\n\n# face 24 \"surprise\"\n# voice 1014 \"tyrufing_0023\"\n# alpha 24 1 0.5\n# alpha 0 0 0.5\n# layer 24 4\n# textboxarrow 0 2\n@ティルフィング\n…！\n見て！あれを…！\n\n;;※倒れた警備兵を指差すティルフィング。\n# alpha 128 0 0.5\n# alpha 40 1 0.5\n# face 40 \"irregular\"\n# move 40 1 0\n# layer 40 3\n# textboxarrow 0 1\n@エドガー\n…！\nあれは、警備兵…！？\nまさか既に黒奏官が…！\n\n# alpha 75 0 0.5\n# alpha 0 1 0.5\n# move 0 5 0\n# textboxarrow 0 3\n@デュリン\nクッ…！\nディーン隊は、\nいったいなにをしてるのよ！\n\n;;※その時…ドーンと弾き飛ぶ、関所の鉄扉。\n# bgm \"stop\"\n# se \"SE_5223\"\n# fadein \"white\" 0.5\n# shake 1 0.5\n# waitandnext 1\n\n# layer 10 2\n# layer 12 1\n# textboxarrow 0 1\n@エドガー\n！？\n関所の門が…吹き飛んだ！？\n\n;;※関所から、慌てて飛び出してくる警備兵達。\n# bgm \"bgm023\" 0\n# alpha 40 0 0.5\n# alpha 0 0 0.5\n# alpha 24 0 0.5\n# alpha 10 1 0.5\n# alpha 12 1 0.5\n# leftin 10 0.5\n# leftin 12 0.5\n# textboxarrow 0 1\n@警備兵Ａ\nぼ、暴走だ！！\n巻き込まれるぞ！！\n\n# textboxarrow 0 2\n@警備兵Ｂ\n政府に出動要請を！！\n…急げ！！\n\n;;※ゆらりと関所から現れる、ディーン隊のレーヴァテイン。\n# move 100221 5 0\n# alpha 100221 1 0.5\n# textboxarrow 0 3\n@レーヴァテイン\n邪魔する者は、殲滅する…\n死にたくなければ、消えて\n\n# face 24 \"angry\"\n# alpha 10 0 0.5\n# alpha 12 0 0.5\n# move 24 1 0\n# alpha 24 1 0.5\n# textboxarrow 0 1\n@ティルフィング\nレーヴァテイン！？\nアナタ、なにを…！？\n\n;;※レーヴァテインの背後から現れる黒奏官。\n# move 100221 3 0.5\n# move 41 5 0\n# alpha 41 1 0.5\n# textboxarrow 0 3\n@黒奏官\n彼女らは…\nこの大陸の未来を想い、\n行動しているだけだ\n\n@黒奏官\n…なぁ、ディーン中奏？\n\n;;※黒奏官の背後から姿を現すディーン。\n# face 6 \"normal\"\n# alpha 24 0 0.5\n# move 100221 1 0.5\n# move 41 3 0.5\n# alpha 6 1 0.5\n# textboxarrow 0 3\n# move 6 5 0\n@ディーン\n…………\n\n# face 0 \"angry\"\n# voice 9999 \"durin_0022\"\n# alpha 100221 0 0.5\n# alpha 41 0 0.5\n# move 0 2 0\n# alpha 0 1 0.5\n# textboxarrow 0 1\n@デュリン\nディーン…！？\nアンタ、いったい…！？\n\n# face 6 \"angry\"\n# textboxarrow 0 3\n@ディーン\n…思い出したんだよ…\n遠い昔に立てた、亡き兄との誓いを\n\n@ディーン\nその正義を貫くためなら、\n悪と呼ばれることも辞さない…\n俺は、そう心に決めたんだ\n\n# voice 9982 \"edgar_0009\"\n# alpha 40 1 0.5\n# move 40 3 0\n# move 0 1 0.5\n# move 6 5 0.5\n# textboxarrow 0 2\n@エドガー\nまさか、ディーン…！\nお前…黒奏官に寝返ったのか！？\n\n# textboxarrow 0 3\n@ディーン\nレーヴァテイン！！\n俺達の道を妨げる者は、\nすべて殲滅しろ！！\n\n@ディーン\n誰であろうと、\n容赦なく叩き斬れ！！！\n\n# face 24 \"surprise\"\n# textboxarrow 0 2\n# alpha 40 0 0.5\n# alpha 24 1 0.5\n# move 24 3 0\n@ティルフィング\n！！！\n"
	}
]