[
	{
		"ID": 9000905,
		"script": "# script \"lisp\"\n# background \"highland_snow\"\n# bgm \"bgm032\" 0\n# body 88\n# pos 88 3\n# mask 88 off\n# scale 88 0.8 0\n# alpha 88 0 0\n# body 300171\n# pos 300171 3\n# mask 300171 off\n# scale 300171 0.8 0\n# alpha 300171 0 0\n# layer 88 1\n# layer 300171 2\n# textflame 0 0\n# textalign \"center\"\n# voicedelay 4013 \"aphrodite_event_1012\" 0.1\n@\nメリークリスマス！\nクリスマスユニットと\n新ジョブユニットが登場！[FFFFFF]![-]\n\n# textflame 0 0\n# textalign \"center\"\n# textsize 33\n# se \"SE_4780\"\n# fadein \"white\" 0.5\n# alpha 300171 1 0\n# voice 3001 \"ronginusu_0033\"\n@\n対「剣兵種」ならお任せ！\n「ロンギヌス」[FFFFFF]![-]\n\n# se \"SE_4780\"\n# fadein \"white\" 0.5\n# alpha 300171 0 0\n# alpha 88 1 0\n# textflame 0 0\n# textsize 32\n# textalign \"center\"\n# voice 4013 \"aphrodite_0006\"\n@\n行動封じのデュエルスキルが強力\n「アフロディーテ」[FFFFFF]![-]\n\n# fadein \"white\" 1\n# se \"SE_5594\"\n# textsize 24\n# pos 300171 4\n# move 88 2 0\n# alpha 300171 1 0\n# mask 88 on\n# mask 300171 on\n# textflame 0 0\n# textalign \"center\"\n# voice 3001 \"ronginusu_0005\"\n# voicedelay 4013 \"aphrodite_0020\" 0.5\n# face 300171 \"happy\"\n# face 88 \"happy\"\n@\nクリスマスユニット大集合！\nクリスマス9ステップガチャで\n手に入れよう！[FFFFFF]![-]\n\n# fadeout \"black\" 2.5\n# textwindow \"close\"\n# waitandnext 2.6\n\n# bgm \"stop\"\n# background \"underground_waterway\"\n# waitandnext 0.2\n\n# se \"SE_5776\"\n# fadein \"black\" 0.5\n# bgmfile \"bgm055\" \"BgmMMcollabo001\" 0\n# body 600521\n# pos 600521 3\n# mask 600521 off\n# scale 600521 0.9 0\n# alpha 300171 0 0\n# alpha 88 0 0\n# textwindow \"nomal\"\n# textflame 0 0\n# textalign \"center\"\n@\n専用魔弾を持つ！\n新ジョブ\"ネクロマンサー\"\n「ケーリュケイオン」[FFFFFF]![-]\n\n# se \"SE_0602\"\n# face 600521 \"happy\"\n# textflame 0 0\n# textsize 30\n# textalign \"center\"\n# voice 6005 \"keryukeion_0029\"\n@\n使い手の腕が問われる\n新ジョブの力を使いこなせるか？[FFFFFF]![-]\n\n# se \"SE_5594\"\n# textflame 0 0\n# textalign \"center\"\n# voice 6005 \"keryukeion_0036\"\n@\n2周年記念ガチャ第3弾も開催中！\nまずはお知らせをチェック！[FFFFFF]![-]\n"
	}
]