[
	{
		"ID": 9000902,
		"script": "# script \"lisp\"\n# background \"makabe_gate\"\n# bgmfile \"bgm173\" \"BgmPJZero003\" 0\n# textsize 36\n# textflame 0 0\n@\n　　新たな“黒”、降臨\n\n# fadein \"black\" 0.5\n# textsize 34\n# body 100281\n# pos 100281 3\n# mask 100281 off\n# brightness 100281 0.3 0\n# scale 100281 0.8 0\n@\n　　 “怠惰”を背負いし\n　　　 神速の弓殺し\n\n# fadein \"white\" 0.5\n# brightness 100281 1 0\n@\n　壊滅のブラックキラーズ\n　　「レーヴァテイン」\n\n# fadein \"black\" 0.5\n# alpha 100281 0 0\n# body 500261\n# pos 500261 3\n# mask 500261 off\n# brightness 500261 0.2 0\n# scale 500261 0.8 0\n@\n　　　 3マス射程と\n　　 命中の高さが呻る\n\n# fadein \"white\" 0.5\n# brightness 500261 1 0\n@\n　傲雷のブラックキラーズ\n　　「フライクーゲル」\n\n# fadein \"black\" 0.5\n# pos 100281 1\n# mask 500261 on\n# alpha 100281 1 0\n# move 500261 5 0\n# layer 100281 1\n# layer 500261 2\n@\n　　“深黒の雷”により、\n　     粛清を開始する\n\n# textflame 0 0\n# textsize 24\n@\n　\n　 ブラックキラーズ ガチャに登場！\n　\n\n# fadeout \"black\" 2\n# waitandnext 2.2\n\n# fadein \"black\" 0.7\n# background \"forest\"\n# bgm \"bgm002\" 0\n# alpha 100281 0 0\n# alpha 500261 0 0\n# body 202411\n# pos 202411 3\n# mask 202411 off\n# scale 202411 0.8 0\n# alpha 202411 0 0\n# body 202311\n# pos 202311 3\n# mask 202311 off\n# scale 202311 0.8 0\n# alpha 202311 0 0\n# textcolor \"white\"\n# textflame 0 0\n@\n[330000]　　　 “誰ガ為のアルケミスト”\n　　　　　 コラボ開催中！[-]\n[FF0000]　　　　 「新ジョブ」[-][330000]参戦！[-]\n\n# se \"SE_0602\"\n# alpha 202411 1 0\n# fadein \"white\" 0.5\n# textcolor \"white\"\n# textflame 0 0\n@\n[8A2BE2]　　鉄壁の守備を活かすスキル群[-]\n[330000]　　　　  新ジョブ“死神”\n　　　　　　  ローザ[-]\n\n# se \"SE_0602\"\n# alpha 202411 0 0\n# alpha 202311 1 0\n# fadein \"white\" 0.5\n# textcolor \"white\"\n# textflame 0 0\n@\n[0000FF]　　　 高い体力と技[-][330000]が持ち味\n　　　　　新ジョブ“拳神”\n　　　　　　 シェイナ[-]\n\n# se \"SE_5594\"\n# fadein \"white\" 1\n# move 202311 4 0\n# pos 202411 1\n# alpha 202411 1 0\n# layer 202411 2\n# layer 202311 1\n# face 202411 \"happy\"\n# face 202311 \"happy\"\n# textcolor \"white\"\n# textflame 0 0\n@\n[330000]　　開催中のイベントクエストで[-]\n[FF0000]　　　 専用武具[-][330000]をGET可能！\n　新たなジョブの真の力をその手に[-]\n"
	}
]