[
	{
		"ID": 9000904,
		"script": "# script \"lisp\"\n# background \"Ragnarok\"\n# bgmfile \"bgm183\" \"BgmGakuen003\" 0\n# se \"SE_0607\"\n# body 81\n# pos 81 2\n# mask 81 off\n# scale 81 0.8 0\n# alpha 81 0 0\n# body 500811\n# pos 500811 1\n# alpha 500811 0 0\n# body 400561\n# pos 400561 4\n# scale 400561 0.8 0\n# alpha 400561 0 0\n# face 400561 \"usual\"\n# textsize 34\n# textflame 0 0\n@\n　 11月新ユニット登場！\n\n# textflame 0 0\n# textsize 33\n# se \"SE_0673\"\n# fadein \"white\" 0.5\n# layer 81 1\n# layer 400561 2\n# leftin 400561 0.5\n# rightin 81 0.5\n# alpha 81 1 0\n# alpha 400561 1 0\n@\n　ファンキル学園ユニット\n　　　芭蕉扇＆与一！\n\n# face 81 \"happy\"\n# face 400561 \"happy\"\n# voice 5008 \"bashosen_0005\"\n# voicedelay 4005 \"yoichi_0004\" 0.2\n# textflame 0 0\n@\n　期間限定ユニットとして\n　　  ガチャで登場中！\n\n# face 81 \"surprise\"\n# face 400561 \"surprise\"\n# textflame 0 0\n# textsize 50\n@\n　　 さらに!!\n\n# se \"SE_0602\"\n# voice 5008 \"bashosen_0023\"\n# textflame 0 0\n# textsize 29\n@\n　イベント『ギルド討伐戦』の\n  報酬でどちらか1体GET可能!\n\n# se \"SE_5594\"\n# face 81 \"normal\"\n# face 400561 \"usual\"\n# voice 4005 \"yoichi_0036\"\n# textflame 0 0\n# textsize 33\n@\n　　　ギルドに入って\n　 イベントにチャレンジ！\n"
	}
]