[
	{
		"ID": 902020002,
		"script": ";;戦闘中\n# script \"lisp\"\n# background \"ground_surface_break\"\n# scale 27 0.8 0\n# body 27\n# pos 27 2\n# scale 1100621 0.8 0\n# body 1100621\n# pos 1100621 3\n# alpha 1100621 0 0\n# scale 1300431 0.8 0\n# body 1300431\n# pos 1300431 4\n# face 1300431 \"normal_1\"\n# face 27 \"angry\"\n# textflame 1 1\n# textboxarrow 0 1\n# chara 27\n# voice 5001 \"keraunosu_0009\"\n@ケラウノス\n私に勝とうっていうの？\n無理無理、やめときなって～\n\n# serif 1\n# textboxarrow 1 3\n# face 1300431 \"trouble\"\n# chara 1300431\n# voice 13004 \"amenonubokom_0009\"\n@天沼矛\nトモエ…じゃなかった、ケラウノス！\n一人で前に出ないで下さい\n\n# serif 1\n# textboxarrow 1 3\n# chara 1300431\n# face 1300431 \"normal\"\n# voice 13004 \"amenonubokom_0007\"\n@天沼矛\nこいつらの相手は\nオレに任せておけば良いんでっ\n\n# serif 0\n# textboxarrow 0 1\n# chara 27\n# voice 5001 \"keraunosu_0023\"\n@ケラウノス\nえ～っ、\nそれじゃ実験体になった意味ないし\n\n# serif 0\n# textboxarrow 0 1\n# chara 27\n# face 27 \"normal\"\n# voice 5001 \"keraunosu_0007\"\n@ケラウノス\nタツヤこそ怪我したら、\nせっかくのイケメンが台無しだよ\n\n# serif 0\n# textboxarrow 0 1\n# chara 27\n# face 27 \"smile\"\n# voice 5001 \"keraunosu_0004\"\n@ケラウノス\n私が上手いことやっとくから！\nだって私、最強だし\n\n# serif 1\n# textboxarrow 1 2\n# move 27 1 0.5\n# move 1300431 5 0.5\n# alpha 1100621 1 0.5\n# face 1100621 \"angry_1\"\n# chara 1100621\n# voice 11006 \"nagleringm_0011\"\n@ナーゲルリング\n二人とも、どけ\n魔獣は全て俺が殺す！\n邪魔するなら、あんたらも殺すぞ\n\n# serif 0\n# textboxarrow 0 3\n# chara 1300431\n# face 1300431 \"surprise\"\n# voice 13004 \"amenonubokom_0026\"\n@天沼矛\nナーゲルリングまでっ…二人とも、\n確かに力はありますけど、\n危なっかしいなあ\n\n# serif 1\n# textboxarrow 1 1\n# chara 27\n# face 27 \"normal\"\n# voice 5001 \"keraunosu_0023\"\n@ケラウノス\nあれ～？\n向こうに新たなイケメン発見！\n\n# serif 1\n# textboxarrow 1 1\n# chara 27\n@ケラウノス\nタツヤ！\nもしかして探してた\n仲間じゃないのっ？\n\n# serif 0\n# textboxarrow 0 3\n# chara 1300431\n# face 1300431 \"normal_1\"\n# voice 13004 \"amenonubokom_0032\"\n@天沼矛\nあの姿は…間違いなさそうですね\n早く合流しましょう！"
	}
]