[
	{
		"ID": 903060003,
		"script": ";;【戦闘後】\n# script \"lisp\"\n# background \"devastated_city_night\"\n# bgm \"bgm005\" 0\n# body 200411\n# pos 200411 3\n# body 23\n# pos 23 1\n# body 18\n# pos 18 5\n# body 960020\n# pos 960020 3\n# mask 960020 off\n# scale 200411 0.8 0\n# scale 23 0.8 0\n# scale 960020 0.8 0\n# scale 18 0.8 0\n# alpha 200411 0 0\n# alpha 23 0 0\n# alpha 18 0 0\n# textflame 1 1\n# textboxarrow 0 2\n# chara 960020\n# voice 8033 \"mammon_prolo_1006\"\n# face 960020 \"smile\"\n@マモン\nガハハハハ！\n逃げ惑え、力なき人間ども！\n\n# serif 0\n# textboxarrow 0 2\n# imageset 0 \"black\"\n# imagealpha 0 0 0\n# imagelayer 0 1\n# chara 960020\n# voice 8033 \"mammon_prolo_2006\"\n@マモン\n奪われる恐怖だけが、\nお前達の中に生命の本質を\n目覚めさせるんだ！\n\n# imagealpha 0 1 0\n# imagepos 0 0 30\n# imageleftin 0 0.5\n# serif 0\n# textwindow \"close\"\n# serif 1\n# textwindow \"close\"\n\n# imagerightout 0 0.5\n# alpha 960020 0 0\n# alpha 200411 1 0\n# alpha 18 1 0\n# alpha 23 1 0\n\n# serif 0\n# textwindow \"nomal\"\n# textboxarrow 0 1\n# chara 23\n# voice 11002 \"laevateinm_0013\"\n# face 23 \"angry_1\"\n@ゼロ\nチッ…編成もなにも\nあったもんじゃねえ\n\n# serif 0\n# textboxarrow 0 1\n# chara 23\n# face 23 \"angry_2\"\n@ゼロ\nレジスタンスの奴ら、\nこのままじゃ一人残らず\n殺されちまうぞっ\n\n# serif 1\n# textwindow \"nomal\"\n# textboxarrow 1 2\n# chara 200411\n# voice 2004 \"parashu_0019\"\n# face 200411 \"shy\"\n@パラシュ♀\n皆が理想を見失うから、\nこんなことにっ…\nボクは、ボクはっ…\n\n# serif 0\n# textboxarrow 0 3\n# body 24\n# pos 24 3\n# body 300411\n# pos 300411 5\n# body 19\n# pos 19 3\n# scale 24 0.8 0\n# scale 19 0.8 0\n# scale 300411 0.8 0\n# alpha 300411 0 0\n# alpha 24 0 0\n# alpha 19 0 0\n# chara 18\n# voice 9993 \"valyn_0002\"\n# face 18 \"normal_2\"\n@ヴァリン\nちょっと待って！\n追っ手の動きが急に止まったわよ\n\n# serif 1\n# textboxarrow 1 2\n# alpha 24 1 0.5\n# alpha 200411 0 0.5\n# chara 101411\n# face 24 \"surprise\"\n@ティルフィング\nあ！\nマモンが城の方に戻っていきます\n…なにかあったんでしょうか？\n\n# serif 0\n# textboxarrow 0 1\n# chara 23\n@ゼロ\nこの際、なんだっていい！\n早くレジスタンスを避難させろ！\n\n# serif 1\n# textboxarrow 1 3\n# rightin 300411 0.5\n# alpha 300411 1 0\n# alpha 18 0 0.5\n# chara 300411\n# face 300411 \"irregular\"\n@天沼矛♀\n皆さ～ん。大変ですよ～\n\n# serif 0\n# textboxarrow 0 2\n# alpha 19 1 0.5\n# alpha 24 0 0.5\n# chara 19\n@アルン\n天沼矛…\n拠点の町で異変が\nあったんでしょうかっ？\n\n# serif 1\n# textboxarrow 1 3\n# chara 300411\n@天沼矛♀\nやっと会えました\nえっと、大変なんですよ～\n\n# serif 0\n# textboxarrow 0 1\n# chara 23\n# voice 11002 \"laevateinm_0009\"\n@ゼロ\nだから、なにがあったのか\nさっさと言え！\n\n# serif 1\n# textboxarrow 1 3\n# chara 300411\n# voice 3004 \"amenonuboko_0009\"\n@天沼矛♀\nええと～\n\n# serif 1\n# textboxarrow 1 3\n# chara 300411\n# face 300411 \"normal\"\n@天沼矛♀\nパラシュお爺さんが、\n留守番役のレジスタンスの人達を\n連れてマモンの城を奇襲したんです\n\n# serif 1\n# textboxarrow 1 3\n# chara 300411\n@天沼矛♀\n奇襲は\n上手くいったんですけど\n\n# serif 1\n# textboxarrow 1 3\n# chara 300411\n# face 300411 \"irregular\"\n@天沼矛♀\nパラシュお爺さん\nレジスタンスの人達は\n町に帰らせたのに…\n\n# serif 1\n# textboxarrow 1 3\n# chara 300411\n@天沼矛♀\n自分一人で\n城に残っちゃったんですよ～\n\n# serif 0\n# textboxarrow 0 3\n# textboxarrow 1 0\n# alpha 18 1 0.5\n# alpha 300411 0 0.5\n# chara 18\n# voice 9993 \"valyn_0010\"\n# face 18 \"surprise\"\n@ヴァリン\nなんですって！？\nどうして一人で…\n\n# serif 1\n# textboxarrow 1 2\n# body 1500421\n# pos 1500421 1\n# scale 1500421 0.8 0\n# scale 1500421 0.8 0\n# alpha 1500421 0 0\n# alpha 200411 1 0.5\n# alpha 19 0 0.5\n# chara 200411\n@パラシュ♀\n団長っ…なんで勝手な行動を…\n\n# serif 0\n# textboxarrow 0 1\n# leftin 1500421 0.5\n# alpha 1500421 1 0\n# alpha 23 0 0.5\n# chara 1500421\n@ブラフマーストラ♂\nつまりオレがマモンの城に\n行けば良いってことでしょ？\n\n# serif 0\n# textboxarrow 0 1\n# chara 1500421\n# face 1500421 \"smile\"\n@ブラフマーストラ♂\nパラシュさんと挟み撃ちで\n万事解決ってわけ\nそんじゃ行こっか\n\n# serif 1\n# textboxarrow 1 2\n# chara 200411\n# face 200411 \"normal\"\n@パラシュ♀\n待つんだ、リーダー\nボク達にはレジスタンスを\n率いる責任がある\n\n# serif 1\n# textboxarrow 1 2\n# chara 200411\n# face 200411 \"angry01\"\n@パラシュ♀\n皆を魔獣から守って\n町まで送り届けないといけない！\n\n# serif 0\n# textboxarrow 0 1\n# chara 1500421\n# voice 15004 \"brahmaastram_0027\"\n@ブラフマーストラ♂\nだ～か～ら～\nオレ、リーダーでしょ？\n\n# serif 0\n# textboxarrow 0 1\n# chara 1500421\n@ブラフマーストラ♂\nリーダーは\n一番強い奴倒すってことでしょ？\n\n# serif 0\n# textboxarrow 0 1\n# chara 1500421\n# voice 15004 \"brahmaastram_kyara_2001\"\n@ブラフマーストラ♂\nそしたらみんな助かるわけ\n分かった？\n\n# serif 1\n# textboxarrow 1 2\n# chara 200411\n# face 200411 \"angry02\"\n@パラシュ♀\n…いい加減にしてくれ！\n君はどうしていつも\n無責任なことばかり言うんだ！\n\n;;ボイスながれない\n# serif 1\n# textboxarrow 1 2\n# chara 200411\n# voice 2004 \"parashu_0014\"\n# face 200411 \"shy\"\n@パラシュ♀\n団長は、なんで君を\nレジスタンスのリーダーにっ…\n\n# serif 0\n# textboxarrow 0 1\n# chara 1500421\n@ブラフマーストラ♂\nオレは宇宙と通じてる\nそれってみんなとも通じてるってこと\nだからリーダーなんだよ\n\n# serif 0\n# textboxarrow 0 1\n# chara 1500421\n@ブラフマーストラ♂\nもちろんラヴィーナとも通じてる\nだから最強！\nそういうこと\n\n# serif 1\n# textboxarrow 1 2\n# chara 200411\n# face 200411 \"angry02\"\n@パラシュ♀\nそんなこと言われても分からない！\n君の言うことは、\n昔からずっと分からなかった！\n\n# serif 1\n# textboxarrow 1 2\n# chara 200411\n# face 200411 \"shy\"\n@パラシュ♀\n君の理想とボクの理想は\n同じじゃないのかっ？\n\n# serif 0\n# textboxarrow 0 1\n# textboxarrow 1 0\n# alpha 18 0 0.5\n# alpha 23 1 0.5\n# move 200411 5 0.5\n# move 1500421 3 0.5\n# chara 23\n# voice 11002 \"laevateinm_0009\"\n# face 23 \"angry_1\"\n@ゼロ\n…おい！\n痴話ゲンカは後にしろ\n\n# serif 0\n# textboxarrow 0 1\n# chara 23\n@ゼロ\n俺達はマモンの城に向かうぜ\n\n# serif 0\n# textboxarrow 0 1\n# chara 23\n# face 23 \"angry_2\"\n@ゼロ\nそっちはレジスタンスを\nまとめ直すなり、城に向かうなり、\n好きにしやがれ！\n\n# serif 1\n# textboxarrow 1 3\n# rightin 18 0.5\n# alpha 18 1 0\n# alpha 200411 0 0.3\n# alpha 1500421 0 0.3\n# chara 18\n# voice 9993 \"valyn_prolo_1018\"\n# face 18 \"angry_1\"\n@ヴァリン\nちょっと、ゼロ！\nそんな冷たいこと\n言わなくてもいいでしょっ\n\n# serif 0\n# textboxarrow 0 1\n# chara 23\n# voice 11002 \"laevateinm_0013\"\n# face 23 \"normal\"\n@ゼロ\nうるせぇな\nああいうのは俺達が\n関わるようなことじゃねえよ…"
	}
]