[
	{
		"ID": 903100003,
		"script": ";;戦闘後\n# script \"lisp\"\n# background \"devastated_city_night\"\n# bgm \"bgm031\" 0\n# body 50\n# pos 50 3\n# mask 50 off\n# body 1500421\n# pos 1500421 2\n# body 23\n# pos 23 3\n# mask 23 off\n# alpha 50 0 0\n# alpha 1500421 0 0\n# scale 50 0.8 0\n# scale 1500421 0.8 0\n# scale 23 0.8 0\n# textflame 1 1\n# textboxarrow 0 2\n# chara 23\n# voice 11002 \"laevateinm_0029\"\n# face 23 \"angry_2\"\n@ゼロ\nうおおおおおおおっ！\n\n# serif 1\n# textboxarrow 1 1\n# textboxarrow 0 0\n# move 23 4 0.5\n# mask 23 on\n# leftin 1500421 0.5\n# alpha 1500421 1 0\n# imageset 2 \"mov2_3_sword\"\n# imageset 3 \"mov2_3_overlay\"\n# imagealpha 2 0 0\n# imagealpha 3 0 0\n# imagepos 2 1 0\n# imagepos 3 1 0\n# imagelayer 2 4\n# imagelayer 3 3\n# chara 1500421\n# voice 15004 \"brahmaastram_call_0021\"\n# face 1500421 \"usual\"\n@ブラフマーストラ♂\n団長のカタキ！！\n\n# rightin 50 0.5\n# alpha 50 1 0\n# face 50 \"mad\"\n# alpha 1500421 0 0.3\n# alpha 23 0 0.3\n# serif 0\n# textwindow \"close\"\n# serif 1\n# textwindow \"close\"\n\n# se \"SE_4815\"\n# fadein \"red\" 1\n# imagepos 2 1 0\n# imagepos 3 1 0\n# imagealpha 2 1 0\n# imagealpha 3 1 0\n\n# serif 0\n# textwindow \"nomal\"\n# textboxarrow 0 2\n# imageleftout 2 0\n# imagealpha 3 0 1.2\n# chara 50\n# voice 8033 \"mammon_prolo_1010\"\n@マモン\nグフッ…そんな、そんなはずがっ\n…ふざけるなよぉっ！\n\n# serif 0\n# textboxarrow 0 2\n# chara 50\n# voice 8033 \"mammon_prolo_2010\"\n@マモン\n俺様は“強欲”のマモン！\n全てを手中に収める\n悪魔の大王だぁぁぁっ…\n\n# se \"SE_5236\"\n# textboxarrow 0 0\n# alpha 50 0 2\n\n# serif 1\n# textwindow \"nomal\"\n# textboxarrow 1 3\n# leftin 23 0.5\n# leftin 1500421 0.5\n# alpha 23 1 0\n# alpha 1500421 1 0\n# chara 23\n# voice 11002 \"laevateinm_0019\"\n# face 23 \"angry_1\"\n@ゼロ\n最後の最後まで\n見苦しい奴だったな\n\n# serif 0\n# textboxarrow 0 1\n# chara 1500421\n# voice 15004 \"brahmaastram_0029\"\n# face 1500421 \"normal\"\n@ブラフマーストラ♂\nやったぜ\nやっぱりオレ、最強！\n\n# serif 0\n# textboxarrow 0 1\n# body 24\n# pos 24 1\n# body 200411\n# pos 200411 5\n# scale 24 0.8 0\n# scale 200411 0.8 0\n# alpha 24 0 0\n# alpha 200411 0 0\n# chara 1500421\n@ブラフマーストラ♂\n…アクバルさん\nオレ、少しはリーダーらしく\nなったかな？\n\n# serif 1\n# textboxarrow 1 1\n# textboxarrow 0 0\n# alpha 200411 1 0.5\n# alpha 24 1 0.5\n# alpha 23 0 0.5\n# move 1500421 3 0.5\n# chara 101411\n@ティルフィング\nブラフマーストラ、\nセフィロト・システムを\n稼働させます\n\n# serif 1\n# textboxarrow 1 1\n# chara 101411\n@ティルフィング\n最後に\n伝えておくことはありませんか？\n\n;;ボイスながれない\n# serif 0\n# textboxarrow 0 3\n# chara 200411\n# voice 2004 \"parashu_0036\"\n@パラシュ♀\nイルファーン、地上は任せたからね\n\n# serif 1\n# textboxarrow 1 2\n# chara 1500421\n# face 1500421 \"smile\"\n@ブラフマーストラ♂\nもちろんだよ、ラヴィーナ！\nオレ、最強だから！\n\n# serif 1\n# textboxarrow 1 2\n# chara 1500421\n@ブラフマーストラ♂\nそれに、オレがしっかりしないと\nアクバルさんも\nゆっくり休めないでしょ…\n\n;;ボイスながれない\n# serif 0\n# textboxarrow 0 3\n# body 18\n# pos 18 5\n# body 19\n# pos 19 3\n# scale 19 0.8 0\n# scale 18 0.8 0\n# alpha 18 0 0\n# alpha 19 0 0\n# chara 200411\n# voice 2004 \"parashu_1003\"\n# face 200411 \"smile\"\n@パラシュ♀\nそうだね\n…必ず戻ってくるよ\n\n# serif 1\n# textboxarrow 1 3\n# textboxarrow 0 0\n# rightin 18 0.5\n# alpha 18 1 0\n# alpha 24 0 0.5\n# move 200411 3 0.5\n# move 1500421 1 0.5\n# chara 18\n# face 18 \"smile_1\"\n@ヴァリン\n光の柱が天に向かって伸びていくわ！\nパラシュ！\nよろしくお願いね！\n\n# serif 0\n# textboxarrow 0 2\n# alpha 19 1 0.5\n# alpha 200411 0 0.5\n# chara 19\n# face 19 \"smile\"\n@アルン\n…きっと団長さんも\n見守ってくれています\n\n# serif 1\n# textboxarrow 1 1\n# chara 1500421\n@ブラフマーストラ♂\nそうだな！\n…へへっ、団長には\nよく話を聞いてもらったんだ\n\n# bgm \"stop\"\n# serif 0\n# textboxarrow 0 3\n# body 49\n# pos 49 3\n# scale 49 0.8 0\n# alpha 49 0 0\n# chara 18\n# face 18 \"sad\"\n@ヴァリン\nとんだエロ爺だったけど、\nいなくなったら寂しいものね\n\n# bgm \"bgm002\" 0.3\n# serif 1\n# textboxarrow 1 2\n# alpha 19 0 0.5\n# alpha 49 1 0.5\n# voice 12004 \"parashm_call_0007\"\n# face 49 \"smile\"\n# chara 49\n@パラシュ♂\nそれ本当かい、ヴァリンちゃ～ん\n\n# serif 1\n# textboxarrow 1 2\n# chara 49\n# voice 12004 \"parashm_0041\"\n@パラシュ♂\nこんな可愛い嬢ちゃんに\n寂しいなんて言ってもらえて、\n俺、感激だなあ\n\n# serif 1\n# textboxarrow 1 2\n# chara 49\n@パラシュ♂\n泣きたいなら胸を貸すよ～\n\n# serif 0\n# textboxarrow 0 1\n# pos 23 1\n# alpha 1500421 0 0.5\n# alpha 23 1 0.5\n# chara 23\n# voice 11002 \"laevateinm_0002\"\n# face 23 \"surprise\"\n@ゼロ\n…………おい、エロ爺\nなんで生きてやがんだっ！？\n\n# serif 1\n# textboxarrow 1 2\n# chara 49\n# voice 12004 \"parashm_call_0031\"\n@パラシュ♂\nカッカッカッカ！\n老兵は死なずってなあ\n俺も意外としぶといのよ～\n\n# serif 0\n# textboxarrow 0 3\n# chara 18\n# voice 9993 \"valyn_0013\"\n# face 18 \"angry_1\"\n@ヴァリン\nなんなのよ、もう！\nちょっとでも悲しんだアタシが\nバカだったわ！\n\n# serif 1\n# textboxarrow 1 3\n# textboxarrow 0 0\n# pos 19 5\n# alpha 18 0 0.5\n# alpha 19 1 0.5\n# chara 19\n@アルン\nま、まあ、良かったじゃないですか\nねえ、ブラフマーストラ\n\n# serif 0\n# textboxarrow 0 1\n# alpha 1500421 1 0.5\n# alpha 23 0 0.5\n# chara 1500421\n# voice 15004 \"brahmaastram_call_0030\"\n@ブラフマーストラ♂\nまったく…団長は！\nアハ、アハハハハ…\n\n# serif 0\n# textboxarrow 0 1\n# chara 1500421\n# voice 15004 \"brahmaastram_call_0031\"\n@ブラフマーストラ♂\nラヴィーナ！\nアクバルさんが生きてたぞ！！\n生きてたぞぉっ！！\n\n# serif 1\n# textboxarrow 1 3\n# textboxarrow 0 0\n# pos 200411 4\n# rightin 200411 0.5\n# alpha 200411 1 0\n# alpha 1500421 0 0.5\n# alpha 19 0 0.5\n# move 49 2 0.5\n# chara 1500421\n# face 200411 \"happy\"\n@パラシュ♀\nアクバルさん…\n\n;;ボイスカット中\n# serif 0\n# textboxarrow 0 1\n# chara 49\n# voice 12004 \"parashm_call_1033\"\n@パラシュ♂\nカッカッカッカ！\nこいつぁ久し振りに\n良いもんを見たっ\n\n;;ボイスカット中\n# serif 0\n# textboxarrow 0 1\n# chara 49\n# voice 12004 \"parashm_call_2033\"\n@パラシュ♂\nラヴィーナが笑うなんて、\nいつ以来だ？\n\n;;ボイスカット中\n# serif 0\n# textboxarrow 0 1\n# imageset 0 \"black\"\n# imagealpha 0 0 0\n# imagelayer 0 2\n# chara 49\n# voice 12004 \"parashm_call_3033\"\n# face 49 \"usual\"\n@パラシュ♂\n…元気でな\n\n# se \"SE_0666\"\n# fadeout \"white\" 3\n# imageset 1 \"P0_005\"\n# imagealpha 1 0 0\n# imagelayer 1 1\n\n# fadein \"white\" 1\n# imagealpha 1 1 0\n# imagepos 1 0 30\n# serif 0\n# textwindow \"close\"\n# serif 1\n# textwindow \"close\"\n\n;;――時間経過――\n# bgm \"stop\"\n# imagealpha 0 1 0\n# imagepos 0 0 30\n# imageleftin 0 0.5\n\n# imagerightout 0 0.5\n# imagealpha 1 0 0\n# background \"Underground_passage\"\n# bgm \"bgm103\" 0\n# alpha 49 0 0\n# alpha 200411 0 0\n\n;;ボイスカット中\n# serif 0\n# textwindow \"nomal\"\n# textboxarrow 0 2\n# pos 19 3\n# rightin 19 0.5\n# alpha 19 1 0\n# chara 19\n# voice 9991 \"arun_prolo_1018\"\n# face 19 \"angry\"\n@アルン\nゼロ！\nさっきの戦いでまた瓦礫が崩れて…\n地下への通路が開いています！\n\n# serif 1\n# textwindow \"nomal\"\n# textboxarrow 1 3\n# alpha 18 1 0.5\n# alpha 23 1 0.5\n# face 23 \"normal\"\n# chara 18\n# face 18 \"normal\"\n@ヴァリン\nなにが幸いするか分からないもんね\nでも、本当に行くの？\n\n# serif 1\n# textboxarrow 1 3\n# chara 18\n# face 18 \"normal_2\"\n@ヴァリン\n大丈夫なのかしら？\n…中、暗いわね\n\n# serif 0\n# textboxarrow 0 2\n# chara 19\n# face 19 \"normal\"\n@アルン\n…上手く説明できないんですけど、\n予感がするんです\n\n# serif 0\n# textboxarrow 0 2\n# chara 19\n# face 19 \"angry\"\n@アルン\nこの通路は\nユグドラシルの側まで\n繋がっているって\n\n# serif 1\n# textboxarrow 1 1\n# chara 23\n@ゼロ\nお前にはなにか\n不思議な力があるみたいだからな\n行ってみても良いんじゃねえか？\n\n# serif 0\n# textboxarrow 0 3\n# chara 18\n# face 18 \"normal\"\n@ヴァリン\n分かったわ\nそれじゃ、みんな。覚悟はいい？\n\n# serif 1\n# textboxarrow 1 1\n# alpha 23 0 0.5\n# alpha 24 1 0.5\n# chara 101411\n# voice 1014 \"tyrufing_unit_0015\"\n@ティルフィング\nはい！\nユグドラシルを目指して\n進みましょう"
	}
]