[
	{
		"ID": 906100003,
		"script": ";;【戦闘後】\n# script \"lisp\"\n# background \"red_corridor_broken\"\n# bgm \"bgm005\" 0\n# body 19\n# pos 19 5\n# scale 19 0.8 0\n# body 23\n# pos 23 1\n# scale 23 0.8 0\n# body 24\n# pos 24 3\n# scale 24 0.8 0\n# textboxarrow 0 3\n# chara 19\n# face 19 \"smile\"\n# voice 9991 \"arun_prolo_1005\"\n@アルン\n準備整いました！\nいつでもいけます！\n\n# serif 1\n# textboxarrow 1 1\n# chara 23\n# face 23 \"surprise\"\n# voice 11002 \"laevateinm_0022\"\n@ゼロ\nなんだ？\n改良前のセフィロト・システム\nなんか用意してなにをするつもりだ？\n\n# textboxarrow 0 3\n# chara 19\n# voice 9991 \"arun_0043\"\n@アルン\nゼロ、ティルフィングにも\n天上世界に上がって\nもらうことにしました\n\n@アルン\n天上世界では\nデュリンが導いてくれるはずですから\n\n# serif 1\n# textboxarrow 1 1\n# face 23 \"normal\"\n# chara 23\n@ゼロ\nリベリオンもな\n\n# serif 1\n# voice 11002 \"laevateinm_0028\"\n@ゼロ\nそうか…だったらいっそのこと、\n上げられるだけ上げちまえ！\nあと何人くらい、いけそうなんだ？\n\n# textboxarrow 0 2\n# chara 24\n# voice 1014 \"tyrufing_0028\"\n@ティルフィング\nそうですね。私を含めて…\n４人が限度だと思います\n\n# body 100111\n# pos 100111 3\n# scale 100111 0.8 0\n# mask 100111 off\n# alpha 100111 0 0\n# serif 1\n# textboxarrow 1 1\n# chara 23\n@ゼロ\n４人か…誰に上がってもらう？\n\n# body 400131\n# pos 400131 3\n# scale 400131 0.8 0\n# mask 400131 off\n# alpha 400131 0 0\n# alpha 24 0 0.3\n# alpha 23 0 0.3\n# alpha 19 0 0.3\n# alpha 100111 1 0.5\n# textboxarrow 0 2\n# textboxarrow 1 0\n# chara 100111\n# voice 1001 \"masamune_0033\"\n# face 100111 \"nutual\"\n@マサムネ\nその任、拙者に命じてもらえぬか？\n\n# body 500211\n# pos 500211 3\n# scale 500211 0.8 0\n# mask 500211 off\n# alpha 500211 0 0\n# alpha 100111 0 0.3\n# alpha 400131 1 0.5\n# serif 1\n# textboxarrow 1 2\n# textboxarrow 0 0\n# chara 400131\n# voice 4001 \"arutemisu_0033\"\n# face 400131 \"nutual\"\n@アルテミス\n私も行くわ\n仕切るのがデュリン一人だけだと\n大変でしょうから\n\n# alpha 400131 0 0.3\n# alpha 500211 1 0.5\n# textboxarrow 0 2\n# textboxarrow 1 0\n# chara 500211\n# voice 5002 \"furaikugeru_0033\"\n# face 500211 \"happy\"\n@フライクーゲル\nハ～イ♪わたしもイクイク～！\n天上世界でも\nみんなをヘァピィにしちゃうよ～っ！\n\n# alpha 23 1 0.5\n# alpha 19 1 0.5\n# alpha 24 1 0.5\n# alpha 500211 0 0.3\n# serif 1\n# textboxarrow 1 3\n# textboxarrow 0 0\n# chara 19\n# voice 9991 \"arun_0004\"\n@アルン\nあっという間に揃いましたね…\n\n# textboxarrow 0 1\n# chara 23\n# face 23 \"sad\"\n# voice 11002 \"laevateinm_0019\"\n@ゼロ\n最後の一人には不安も残るんだが…\n\n# face 23 \"angry_2\"\n@ゼロ\nまあ、いい\n選り好みしてる場合じゃねえからな！\n\n# face 23 \"normal\"\n# voice 11002 \"laevateinm_0002\"\n@ゼロ\nティルフィング、\nそっちも構わねえか？\n\n# alpha 500211 0 0.5\n# alpha 24 1 0.5\n# serif 1\n# textboxarrow 1 2\n# chara 2 \n# face 24 \"happy\" \n# voice 1014 \"tyrufing_0003\"\n@ティルフィング\nはい\n皆さん、よろしくお願いしますね\n\n# serif 1\n# face 24 \"normal\"\n# voice 1014 \"tyrufing_0002\"\n@ティルフィング\n…アルン、ちょっと良いですか？\n\n# textboxarrow 0 3\n# chara 19\n# face 19 \"normal\"\n# voice 9991 \"arun_prolo_0013\"\n@アルン\nなんでしょう？\n早くしないと特異点のマナが…\n\n# serif 1\n# textboxarrow 1 2\n# chara 24\n@ティルフィング\nすぐ済みます\n\n;;ティルフィングが髪を切る。（三つ編み部分）\n# bgm \"bgm004\" 1\n# move 24 2 0.5\n# move 19 4 0.5\n# alpha 23 0 0.5\n# textboxarrow 1 0\n# waitandnext 1\n\n# fadein \"white\" 0.5\n# se \"SE_5027\"\n# waitandnext 1\n\n# textboxarrow 0 3\n# chara 19\n# face 19 \"angry\"\n# voice 9991 \"arun_0023\"\n@アルン\nティルフィング！？\nどうして髪を切ったんですかっ？\n\n# serif 1\n# textboxarrow 1 1\n# chara 24\n# face 24 \"happy2\"\n@ティルフィング\nこれを持っていて下さい\n\n# serif 1\n# face 24 \"normal\"\n@ティルフィング\nもし、\n改良版セフィロト・システムを\n修理できたら…\n\n# serif 1\n@ティルフィング\n天上世界への\n座標を固定するのに使えると思います\nそれと、お守り代わりに\n\n# textboxarrow 0 3\n# chara 19\n# face 19 \"smile\"\n# voice 9991 \"arun_0030\"\n@アルン\nあ、ありがとうございますっ\n\n# move 19 5 0.5\n# move 24 3 0.5\n# move 23 1 0\n# alpha 23 1 0.5\n# serif 1\n# textboxarrow 1 1\n# chara 23\n# voice 11002 \"laevateinm_0002\"\n@ゼロ\n…なにを照れてんだ？\nティルフィング、\n天上世界の方は頼むぞ\n\n# textboxarrow 0 2\n# chara 24\n# face 24 \"happy\"\n# voice 1014 \"tyrufing_0003\"\n@ティルフィング\nはい\nアマネちゃんのことも\n任せて下さい！\n\n# serif 1\n# textboxarrow 1 1\n# chara 23\n# face 23 \"surprise\"\n# voice 11002 \"laevateinm_prolo_1032\"\n@ゼロ\nアマネ？\n誰だ、そいつ？\n\n# textboxarrow 0 2\n# chara 24\n# face 24 \"sad\"\n# voice 1014 \"tyrufing_0022\"\n@ティルフィング\nえっ…？\nゼロ、あなた…\n\n# move 100111 5 0\n# alpha 100111 1 0.5\n# alpha 19 0 0.5\n# serif 1\n# textboxarrow 1 3\n# chara 100111\n# face 100111 \"angry\"\n@マサムネ\n急げ！\nもう時間がない！\n\n# textboxarrow 0 1\n# chara 23\n# face 23 \"normal\"\n# voice 11002 \"laevateinm_0007\"\n@ゼロ\nじゃあな！\n\n@ゼロ\n帰ってくるのが遅かったら、\n先に悪魔を\n全滅させてるかもしれねえぞ！\n\n# serif 1\n# textboxarrow 1 2\n# chara 24\n# face 24 \"angry\"\n# voice 1014 \"tyrufing_0036\"\n@ティルフィング\nゼロ…\nアルン、彼を、\nどうか守ってあげて下さい\n\n# alpha 100111 0 0.5\n# alpha 19 1 0.5\n# textboxarrow 0 3\n# chara 19\n# face 19 \"angry\"\n# voice 9991 \"arun_prolo_1005\"\n@アルン\nはい、必ず…\n\n;;天上世界へと光の柱が伸びる演出等、欲しい。\n# bgm \"stop\"\n# imageset 1 \"bg_white\"\n# imagealpha 1 0 0\n# imagescale 1 10 0\n# serif 1\n# textwindow \"close\"\n# serif 0\n# textwindow \"close\"\n# alpha 24 0 2.2\n# fillrect \"white\" 2.3 0 1\n# se \"SE_5502\"\n# waitandnext 2.7\n\n# imagepos 1 0 0\n# imagealpha 1 1 0\n# fillrect \"white\" 1 1 0\n# face 19 \"normal\"\n# serif 0\n# textwindow \"nomal\"\n# textflame 0 0\n@ \nティルフィングを天上世界へと\n送り出したゼロ一行は、\n最後の魔壁、第一魔壁へと進軍した\n\n@\nユグドラシル奪還に向けて\n最初の難関と思われた\n第一魔壁越えだったが\n\n@\n魔壁の前でゼロ達は\n思いがけない光景を目にする\n\n# bgmfile \"bgm169\" \"BgmPJZero001\" 0\n# serif 1\n# textwindow \"close\"\n# serif 0\n# textwindow \"close\"\n# imagealpha 1 0 1\n# face 19 \"angry\"\n# face 23 \"angry_1\"\n# background \"makabe_gate_frozen\"\n# waitandnext 1.1\n\n# serif 0\n# textwindow \"nomal\"\n# textflame 1 1\n# textboxarrow 0 1\n# chara 23\n@ゼロ\n魔壁に扉が出来てやがる…\nベルフェゴールの\n第六魔壁と同じなのか？\n\n# serif 1\n# textboxarrow 1 3\n# chara 19\n# voice 9991 \"arun_0028\"\n@アルン\nでも、あのときは\nベルフェゴール自身が\n扉を開けました\n\n# serif 1\n@アルン\n近くに\nルシファーがいるんでしょうか？\n\n# textboxarrow 0 1\n# textboxarrow 1 0\n# move 19 3 1.2\n# chara 23\n# face 23 \"angry_2\"\n# voice 11002 \"laevateinm_0002\"\n@ゼロ\n分からん…\nとにかく近づいてみるしか…\nおい、アルン！？\n\n# serif 1\n# textboxarrow 1 2\n# chara 19\n# face 19 \"worry\"\n# voice 9991 \"arun_0023\"\n@アルン\nえっ？あれ？\nボク、いつの間に扉の前に…\nこの扉、なんだか…\n\n# imageset 0 \"black\"\n# imagealpha 0 0 0\n# imagelayer 0 1\n# se \"SE_0667\"\n# textboxarrow 0 1\n# chara 23\n# face 23 \"surprise\"\n# voice 11002 \"laevateinm_0022\"\n@ゼロ\n扉が…開いていくっ？\n\n;;暗転\n# imagealpha 0 1 0\n# imagepos 0 0 30\n# imageleftin 0 0.5\n# serif 1\n# textwindow \"close\"\n# serif 0\n# textwindow \"close\"\n# waitandnext 1\n\n;;（第六章 了）\n;;サタン\n# fadein \"black\" 1\n# imagerightout 0 0\n# alpha 23 0 0\n# alpha 19 0 0\n# serif 1\n# textwindow \"nomal\"\n# textflame 1 1\n# textboxarrow 1 0\n@？？？\nクフフフフ…\nさあ、本当のお楽しみの始まりだよ\n"
	}
]