[
	{
		"ID": 91020203,
		"script": ";;●10章2_2戦闘後　背景：泉のほとり、上空\n;;【指定】bgm037\n# script \"lisp\"\n# background \"fountain\"\n# bgmfile \"bgm037\" \"BgmStory004\" 0\n# body 24\n# pos 24 2\n# scale 24 0.8 0\n# body 101471\n# pos 101471 4\n# scale 101471 0.8 0\n# body 4\n# pos 4 4\n# scale 4 0.8 0\n# alpha 4 0 0\n# body 0\n# pos 0 2\n# scale 0 0.8 0\n# alpha 0 0 0\n;;ティルフィングボイス用\n# body 101411\n# alpha 101411 0 0\n# layer 24 4\n# layer 101471 2\n# layer 0 5\n# face 24 \"mad2\"\n# face 4 \"angry\"\n# face 0 \"worry\"\n# textflame 1 1\n# textboxarrow 0 1\n@ティルフィング\n伝えるわ！！\n仲間を無下にすることが、\nどれだけ愚かなことなのかを！！！\n\n;;【指定】SE_9092\n;;※ドンッと凄まじい勢いでグリードへ向かうティルフィング。\n;;# se \"SE_9092\"\n# se \"SE_5234\"\n# fadein \"white\" 0.3\n# move 24 3 0.1\n# waitandnext 0.05\n\n# move 101471 5 0.2\n# shake 0 0.5\n# voice 10147 \"tyrufing_k_0007\"\n# textboxarrow 0 3\n@グリード\n…怒りに我を忘れて\n…あまりに愚かだわ\n\n;;【指定】SE_5234\n;;※ギャリンと、ティルフィングの剣を受け止めるグリード。\n# alpha 24 0 0.5\n# alpha 101471 0 0.5\n# alpha 4 1 0.5\n# alpha 0 1 0.5\n# textboxarrow 0 3\n@トト\nと、止められた…！！\n\n# textboxarrow 0 1\n@デュリン\nマズい！\n\n# alpha 0 0 0.5\n# alpha 4 0 0.5\n# alpha 24 1 0.5\n# alpha 101471 1 0.5\n# textboxarrow 0 3\n@グリード\nさぁ…\nこれで終わりにしましょう\n\n# face 24 \"sad\"\n# textboxarrow 0 2\n@ティルフィング\n怒りじゃない…\n\n# face 101471 \"surprise\"\n# voice 10147 \"tyrufing_k_0022\"\n# textboxarrow 0 3\n@グリード\n…？\n\n# textboxarrow 0 2\n@ティルフィング\nこれは、哀しみ…\n\n# face 24 \"angry\"\n# textboxarrow 0 2\n@ティルフィング\n仲間を想う心を知らぬ、\nアナタへの嘆き！\n\n# face 101471 \"normal\"\n# voice 10147 \"tyrufing_k_0023\"\n# textboxarrow 0 3\n@グリード\n…！？\n力が…増している…！？\n\n# face 24 \"mad2\"\n# textboxarrow 0 2\n@ティルフィング\n仲間との繋がりの記憶が、\n私を後押しするのよ！！\n\n# textboxarrow 0 2\n@ティルフィング\nそのココロに刻みなさい…\nアナタへ向けられた、\n仲間達の想いを！\n\n# imageset 0 \"black\"\n# imagealpha 0 0 0\n# imagelayer 0 1\n# textboxarrow 0 2\n@ティルフィング\n…ハァァァァァァァァァーッ！！！！\n\n;;【指定】SE_8009\n;;※ドンッとグリードに必殺技を食らわせるティルフィング。\n# serif 0\n# textwindow \"close\"\n# serif 1\n# textwindow \"close\"\n# se \"SE_8009\"\n# fadein \"red\" 0.5\n# imagescale 0 10 0\n# imagealpha 0 1 0\n# imagepos 0 0 30\n# waitandnext 0.2\n\n# effectbody 2347 4 0 0\n# effectstart 2347\n# waitandnext 0.6\n\n# fadein \"red\" 0.5\n# effectskip 2347\n# shake 0 0.5\n# imagealpha 0 0 0\n# face 101471 \"sad\"\n# waitandnext 0.1\n\n# serif 0\n# textwindow \"toge\"\n# voice 10147 \"tyrufing_k_0038\"\n# textboxarrow 0 0\n@グリード\nガッ…！！！！\nガハッ…！！！！\n\n;;【指定】SE_0656\n;;※地面に叩き付けられるグリード。\n# serif 0\n# textwindow \"close\"\n# se \"SE_0656\"\n# alpha 101471 0 0.5\n# waitandnext 1.5\n\n# move 4 5 0\n# move 0 1 0\n# alpha 4 1 0.5\n# alpha 0 1 0.5\n# face 24 \"angry\"\n# face 4 \"smile01\"\n# face 0 \"happy\"\n# serif 0\n# textwindow \"normal\"\n# textboxarrow 0 3\n@トト\nや、やった…！！\n\n# textboxarrow 0 1\n@デュリン\nティルフィング…！！\n\n# textboxarrow 0 2\n@ティルフィング\n待って！\n\n# face 4 \"normal\"\n# face 0 \"serious2\"\n# textboxarrow 0 3\n@トト\nえ…？\n\n# move 101471 3 0\n# alpha 24 0 0.5\n# alpha 4 0 0.5\n# alpha 0 0 0.5\n# alpha 101471 1 0.5\n# textboxarrow 0 2\n@グリード\n…グ！\nうぐっ…\n\n# face 4 \"angry\"\n# face 0 \"serious\"\n# alpha 101471 0 0.5\n# alpha 24 1 0.5\n# alpha 4 1 0.5\n# alpha 0 1 0.5\n# textboxarrow 0 1\n@デュリン\n！！\nアイツ、まだ…\n\n;;※ゆっくりと立ち上がるグリード。\n# alpha 101471 1 0.5\n# alpha 24 0 0.5\n# alpha 4 0 0.5\n# alpha 0 0 0.5\n# textboxarrow 0 2\n@グリード\nお、驚いたわ…\nまさか…私に傷をつけるなんて…\n\n# face 101471 \"cry\"\n# textboxarrow 0 2\n@グリード\nどうやら…\n力を抑え込む必要はなさそうね…\n\n;;【指定】BGM　停止\n# bgm \"stop\"\n# move 24 2 0\n# alpha 24 1 0.5\n# move 101471 4 0.5\n# face 24 \"surprise\"\n# textboxarrow 0 1\n@ティルフィング\nえ…？\nアナタ…\n\n# voice 10147 \"tyrufing_k_0007\"\n# textboxarrow 0 3\n@グリード\nフン…\nこれが全力だとでも…\n\n;;【指定】bgm004\n# bgm \"bgm004\" 0\n# face 24 \"sad\"\n# textboxarrow 0 1\n@ティルフィング\n違うわ…\nアナタ、気付いていないの？\nアナタの頬を…\n\n;;※自らの頬をつたう涙に気付くグリード。\n# body 132\n# pos 132 3\n# scale 132 0.8 0\n# alpha 132 0 0\n# face 132 \"usual\"\n# voice 10147 \"tyrufing_k_0023\"\n# textboxarrow 0 3\n@グリード\n…！？\nなに…これは…！？\n\n# move 0 2 0\n# move 4 4 0\n# alpha 24 0 0.5\n# alpha 101471 0 0.5\n# alpha 4 1 0.5\n# alpha 0 1 0.5\n# face 4 \"normal\"\n# textboxarrow 0 3\n@トト\nグリードが…\n泣いてる…！？\n\n# alpha 24 1 0.5\n# alpha 101471 1 0.5\n# alpha 4 0 0.5\n# alpha 0 0 0.5\n# textboxarrow 0 3\n@グリード\n！？\n泣いている…\n私が…！？\n\n# alpha 24 0 0.5\n# alpha 101471 0 0.5\n# alpha 132 1 0.5\n# textboxarrow 0 2\n@エイレーネ\n『閉ざされたココロの奥底で…\n仲間の想いを感じているのです…』\n\n# alpha 132 0 0.5\n# alpha 24 1 0.5\n# alpha 101471 1 0.5\n# textboxarrow 0 3\n@グリード\n！？\n私が…？\nバカな…！！\n\n# textboxarrow 0 1\n@ティルフィング\n…ラース\n…アナタは無駄死になんかじゃない\n\n# textboxarrow 0 1\n@ティルフィング\nグラトニーやアナタの想い…\n確かに、彼女に紡がれているわ…\n\n# face 101471 \"angry\"\n# voice 10147 \"tyrufing_k_0037\"\n# textboxarrow 0 3\n@グリード\nクッ…\nくだらないことをっ…\n\n;;【指定】SE_0719\n;;※言い捨てて去ってゆくグリード。\n# serif 0\n# textwindow \"close\"\n# se \"SE_0719\"\n# alpha 101471 0 0.5\n# waitandnext 1.5\n\n# alpha 24 0 0.5\n# alpha 4 1 0.5\n# alpha 0 1 0.5\n# face 0 \"serious\"\n# face 4 \"angry\"\n# serif 0\n# textwindow \"normal\"\n# voice 9998 \"toto_0039\"\n# textboxarrow 0 3\n@トト\n！？\n逃げた…！？\n\n# alpha 4 0 0.5\n# move 132 4 0\n# alpha 132 1 0.5\n# textboxarrow 0 3\n@エイレーネ\n『初めて面した心の変化に…\n戸惑っているの…\nでしょう…』\n\n# face 0 \"serious2\"\n# textboxarrow 0 1\n@デュリン\nと、とにかく…\nユグドラシルへ急がないと！\n\n# textboxarrow 0 1\n@デュリン\nラファエルが\nユグドラシルを破壊してしまったら、\nこの世界が…！\n\n# textboxarrow 0 3\n@エイレーネ\n『大丈夫…です…\n焦る必要は…\nありません…』\n\n# face 0 \"worry\"\n# textboxarrow 0 1\n@デュリン\nえ…？\nで、でも…\n\n# face 132 \"normal\"\n# textboxarrow 0 3\n@エイレーネ\n『ユグドラシルは…\n幾重にも連なる世を、\n統べる大樹です…』\n\n# imageset 1 \"yggdrasill\"\n# imagealpha 1 0 0\n# imagelayer 1 2\n# imageset 2 \"yggdrasill\"\n# imagealpha 2 0 0\n# imagelayer 2 3\n# body 960031\n# pos 960031 3\n# scale 960031 0.8 0\n# alpha 960031 0 0\n# layer 960031 25\n# mask 960031 off\n# face 24 \"surprise\"\n# face 132 \"usual\"\n# textboxarrow 0 3\n@エイレーネ\n『その意志は…\nそこまで迂闊ではありません…』\n\n# move 24 3 0\n# alpha 132 0 0.5\n# alpha 0 0 0.5\n# alpha 24 1 0.5\n# voice 1014 \"tyrufing_0022\"\n# textboxarrow 0 2\n@ティルフィング\nえ…？\n\n;;【指定】BgmStory007 bgm189\n;;※その頃…ユグドラシル。ザワザワと葉を揺らすユグドラシルを前にしているラファエル。\n# fadeout \"black\" 1.5\n# waitandnext 2\n\n# bgmfile \"bgm189\" \"BgmStory007\" 0\n# imagealpha 1 1 0\n# imagepos 1 0 -600\n# imagescale 1 1.2 0\n# imagescale 2 2 0\n# imagepos 2 -200 -1000\n# waitandnext 0.1\n\n# fadein \"black\" 1\n# textflame 0 0\n@\nその頃…\n世界樹ユグドラシル\n\n# alpha 960031 1 0.5\n# imagealpha 2 1 0.5\n# textflame 1 1\n# textboxarrow 0 2\n@ラファエル\n『ユグドラシル…\n多層世界を繋ぐ、\n雄々しき大樹よ…』\n\n;;※宙に浮き、正面からユグドラシルに話しかけているラファエル。\n# textboxarrow 0 2\n@ラファエル\n『そのココロを知るため、\nアナタの化身と話す機会を\n設けるつもりでしたが…』\n\n# textboxarrow 0 2\n@ラファエル\n『どうやら、\n折り合いがつかぬままに\n終わるようですね…』\n\n;;※ザワザワと葉を揺らすユグドラシル。\n# textboxarrow 0 2\n@ラファエル\n『我ら神族は…この地に\n新たな理想郷を築くため、この世界を\n初期化する決断をいたしました…』\n\n;;※ザワザワと葉を揺らすユグドラシル。\n# textboxarrow 0 2\n@ラファエル\n『女神エイレーネに\n呼びかけられたのですね…？』\n\n# textboxarrow 0 2\n@ラファエル\n『その妨げがなければ、\n事もない話でしたが…』\n\n# textboxarrow 0 2\n@ラファエル\n『外部からの物理消滅のすべが\n絶たれた以上…\n他に手はありません』\n\n;;※ザワザワと葉を揺らすユグドラシル。\n# textboxarrow 0 2\n@ラファエル\n『この世界を制御する\n巨大頭脳ユグドラシル…』\n\n# body 960023\n# pos 960023 3\n# scale 960023 0.8 0\n# alpha 960023 0 0\n# textboxarrow 0 2\n@ラファエル\n『アナタの機能を停止させれば、\n根幹からの初期化が可能となる…』\n\n# entry 7969623 960023\n# pos 7969623 5\n# scale 7969623 0.8 0\n# alpha 7969623 0 0\n# entry 8969623 960023\n# pos 8969623 1\n# scale 8969623 0.8 0\n# alpha 8969623 0 0\n# layer 960023 24\n# layer 7969623 23\n# layer 8969623 22\n# textboxarrow 0 2\n@ラファエル\n『心苦しいですが…\nこれより、\nアナタを破壊させて頂きます』\n\n;;※カミノツカイ達が、魔法陣の形にフォーメーションを組む。\n# serif 0\n# textwindow \"close\"\n# alpha 960031 0 0.5\n# alpha 960023 1 0.5\n# alpha 7969623 1 0.5\n# alpha 8969623 1 0.5\n# waitandnext 1.5\n\n# serif 0\n# textwindow \"normal\"\n# alpha 960031 1 0.5\n# brightness 960023 0.6 0.5\n# brightness 7969623 0.6 0.5\n# brightness 8969623 0.6 0.5\n# textboxarrow 0 2\n@ラファエル\n『すべては、\n我らが神族の理想郷再生のため…\nどうか、ご理解ください』\n\n;;【指定】SE_5623\n;;※一斉に手を開くカミノツカイ達。同時に、巨大な光の魔法陣が浮かび上がる。\n# se \"SE_5623\"\n# textboxarrow 0 2\n@ラファエル\n『…始めなさい』\n\n;;【指定】SE_9133 1秒後　SE_9059\n;;※魔法陣の光がピークに達し…ドンッと巨大なビームがユグドラシルに放射される。轟音と振動とともに、巨大な煙が立ち昇る。\n# se \"SE_9133\"\n# sedelay \"SE_9059\" 1\n# serif 0\n# textwindow \"close\"\n# fadein \"white\" 1.5\n# shake 1 1\n# waitandnext 2.5\n\n# voice 9975 \"raphael_0005\"\n# serif 0\n# textwindow \"normal\"\n# textboxarrow 0 2\n@ラファエル\n『ようやくですね…\nこれで、すべてが…』\n\n;;※立ち昇っていた煙が薄れてゆく。\n# face 960031 \"surprise\"\n# voice 9975 \"raphael_0022\"\n# textboxarrow 0 2\n@ラファエル\n『…！？\nこれは…！？』\n"
	}
]