[
	{
		"ID": 1001,
		"name": "標準"
	},
	{
		"ID": 1002,
		"name": "プレイヤー用"
	},
	{
		"ID": 1003,
		"name": "攻撃優先"
	},
	{
		"ID": 1004,
		"name": "移動優先"
	},
	{
		"ID": 1005,
		"name": "治療優先"
	},
	{
		"ID": 1006,
		"name": "移動せず"
	},
	{
		"ID": 1007,
		"name": "移動"
	},
	{
		"ID": 1008,
		"name": "何もしない"
	}
]