[
	{
		"ID": 1,
		"level": 1,
		"from_exp": 0,
		"to_exp": 15,
		"sell_compensate": 1.0
	},
	{
		"ID": 2,
		"level": 2,
		"from_exp": 16,
		"to_exp": 50,
		"sell_compensate": 2.0
	},
	{
		"ID": 3,
		"level": 3,
		"from_exp": 51,
		"to_exp": 100,
		"sell_compensate": 3.0
	},
	{
		"ID": 4,
		"level": 4,
		"from_exp": 101,
		"to_exp": 200,
		"sell_compensate": 4.0
	},
	{
		"ID": 5,
		"level": 5,
		"from_exp": 201,
		"to_exp": 300,
		"sell_compensate": 5.0
	},
	{
		"ID": 6,
		"level": 6,
		"from_exp": 301,
		"to_exp": 400,
		"sell_compensate": 6.0
	},
	{
		"ID": 7,
		"level": 7,
		"from_exp": 401,
		"to_exp": 500,
		"sell_compensate": 7.0
	},
	{
		"ID": 8,
		"level": 8,
		"from_exp": 501,
		"to_exp": 600,
		"sell_compensate": 8.0
	},
	{
		"ID": 9,
		"level": 9,
		"from_exp": 601,
		"to_exp": 700,
		"sell_compensate": 9.0
	},
	{
		"ID": 10,
		"level": 10,
		"from_exp": 701,
		"to_exp": 701,
		"sell_compensate": 10.0
	}
]