[
	{
		"ID": 1,
		"rank": 1,
		"rare_1": 1,
		"rare_2": 2,
		"rare_3": 4,
		"rare_4": 8,
		"rare_5": 16,
		"rare_6": 32,
		"rare_7": 64
	},
	{
		"ID": 2,
		"rank": 2,
		"rare_1": 2,
		"rare_2": 4,
		"rare_3": 8,
		"rare_4": 16,
		"rare_5": 32,
		"rare_6": 64,
		"rare_7": 128
	},
	{
		"ID": 3,
		"rank": 3,
		"rare_1": 3,
		"rare_2": 6,
		"rare_3": 12,
		"rare_4": 24,
		"rare_5": 48,
		"rare_6": 96,
		"rare_7": 192
	},
	{
		"ID": 4,
		"rank": 4,
		"rare_1": 4,
		"rare_2": 8,
		"rare_3": 16,
		"rare_4": 32,
		"rare_5": 64,
		"rare_6": 128,
		"rare_7": 256
	},
	{
		"ID": 5,
		"rank": 5,
		"rare_1": 5,
		"rare_2": 10,
		"rare_3": 20,
		"rare_4": 40,
		"rare_5": 80,
		"rare_6": 160,
		"rare_7": 320
	},
	{
		"ID": 6,
		"rank": 6,
		"rare_1": 6,
		"rare_2": 12,
		"rare_3": 24,
		"rare_4": 48,
		"rare_5": 96,
		"rare_6": 192,
		"rare_7": 384
	},
	{
		"ID": 7,
		"rank": 7,
		"rare_1": 7,
		"rare_2": 14,
		"rare_3": 28,
		"rare_4": 56,
		"rare_5": 112,
		"rare_6": 224,
		"rare_7": 448
	},
	{
		"ID": 8,
		"rank": 8,
		"rare_1": 8,
		"rare_2": 16,
		"rare_3": 32,
		"rare_4": 64,
		"rare_5": 128,
		"rare_6": 256,
		"rare_7": 512
	},
	{
		"ID": 9,
		"rank": 9,
		"rare_1": 9,
		"rare_2": 18,
		"rare_3": 36,
		"rare_4": 72,
		"rare_5": 144,
		"rare_6": 288,
		"rare_7": 576
	},
	{
		"ID": 10,
		"rank": 10,
		"rare_1": 10,
		"rare_2": 20,
		"rare_3": 40,
		"rare_4": 80,
		"rare_5": 160,
		"rare_6": 320,
		"rare_7": 640
	},
	{
		"ID": 11,
		"rank": 11,
		"rare_1": 11,
		"rare_2": 22,
		"rare_3": 44,
		"rare_4": 88,
		"rare_5": 176,
		"rare_6": 352,
		"rare_7": 704
	},
	{
		"ID": 12,
		"rank": 12,
		"rare_1": 12,
		"rare_2": 24,
		"rare_3": 48,
		"rare_4": 96,
		"rare_5": 192,
		"rare_6": 384,
		"rare_7": 768
	},
	{
		"ID": 13,
		"rank": 13,
		"rare_1": 13,
		"rare_2": 26,
		"rare_3": 52,
		"rare_4": 104,
		"rare_5": 208,
		"rare_6": 416,
		"rare_7": 832
	},
	{
		"ID": 14,
		"rank": 14,
		"rare_1": 14,
		"rare_2": 28,
		"rare_3": 56,
		"rare_4": 112,
		"rare_5": 224,
		"rare_6": 448,
		"rare_7": 896
	},
	{
		"ID": 15,
		"rank": 15,
		"rare_1": 15,
		"rare_2": 30,
		"rare_3": 60,
		"rare_4": 120,
		"rare_5": 240,
		"rare_6": 480,
		"rare_7": 960
	}
]