[
	{
		"ID": 1,
		"period": 2,
		"point": 80000,
		"reward_type_id_CommonRewardType": 16,
		"reward_id": 1006,
		"reward_quantity": 1,
		"display_text1": "80000ポイント報酬",
		"display_text2": "80000ポイント報酬",
		"image_name": "slc_Gold.png__GUI__026_12_sozai__026_12_sozai_prefab",
		"alignment": 1
	},
	{
		"ID": 2,
		"period": 4,
		"point": 80000,
		"reward_type_id_CommonRewardType": 16,
		"reward_id": 1010,
		"reward_quantity": 1,
		"display_text1": "80000ポイント報酬",
		"display_text2": "80000ポイント報酬",
		"image_name": "slc_Gold.png__GUI__026_12_sozai__026_12_sozai_prefab",
		"alignment": 1
	},
	{
		"ID": 3,
		"period": 7,
		"point": 80000,
		"reward_type_id_CommonRewardType": 16,
		"reward_id": 1009,
		"reward_quantity": 1,
		"display_text1": "80000ポイント報酬",
		"display_text2": "80000ポイント報酬",
		"image_name": "slc_Gold.png__GUI__026_12_sozai__026_12_sozai_prefab",
		"alignment": 1
	},
	{
		"ID": 4,
		"period": 9,
		"point": 80000,
		"reward_type_id_CommonRewardType": 16,
		"reward_id": 1012,
		"reward_quantity": 1,
		"display_text1": "80000ポイント報酬",
		"display_text2": "80000ポイント報酬",
		"image_name": "slc_Gold.png__GUI__026_12_sozai__026_12_sozai_prefab",
		"alignment": 1
	},
	{
		"ID": 5,
		"period": 10,
		"point": 80000,
		"reward_type_id_CommonRewardType": 16,
		"reward_id": 1013,
		"reward_quantity": 1,
		"display_text1": "80000ポイント報酬",
		"display_text2": "80000ポイント報酬",
		"image_name": "slc_Gold.png__GUI__026_12_sozai__026_12_sozai_prefab",
		"alignment": 1
	},
	{
		"ID": 6,
		"period": 11,
		"point": 80000,
		"reward_type_id_CommonRewardType": 16,
		"reward_id": 1014,
		"reward_quantity": 1,
		"display_text1": "80000ポイント報酬",
		"display_text2": "※ギルド称号です",
		"image_name": "slc_Gold.png__GUI__026_12_sozai__026_12_sozai_prefab",
		"alignment": 1
	},
	{
		"ID": 7,
		"period": 12,
		"point": 80000,
		"reward_type_id_CommonRewardType": 16,
		"reward_id": 1015,
		"reward_quantity": 1,
		"display_text1": "80000ポイント報酬",
		"display_text2": "※ギルド称号です",
		"image_name": "slc_Gold.png__GUI__026_12_sozai__026_12_sozai_prefab",
		"alignment": 1
	},
	{
		"ID": 8,
		"period": 13,
		"point": 80000,
		"reward_type_id_CommonRewardType": 16,
		"reward_id": 1016,
		"reward_quantity": 1,
		"display_text1": "80000ポイント報酬",
		"display_text2": "※ギルド称号です",
		"image_name": "slc_Gold.png__GUI__026_12_sozai__026_12_sozai_prefab",
		"alignment": 1
	},
	{
		"ID": 9,
		"period": 14,
		"point": 80000,
		"reward_type_id_CommonRewardType": 16,
		"reward_id": 1017,
		"reward_quantity": 1,
		"display_text1": "80000ポイント報酬",
		"display_text2": "※ギルド称号です",
		"image_name": "slc_Gold.png__GUI__026_12_sozai__026_12_sozai_prefab",
		"alignment": 1
	},
	{
		"ID": 10,
		"period": 15,
		"point": 80000,
		"reward_type_id_CommonRewardType": 16,
		"reward_id": 1018,
		"reward_quantity": 1,
		"display_text1": "80000ポイント報酬",
		"display_text2": "※ギルド称号です",
		"image_name": "slc_Gold.png__GUI__026_12_sozai__026_12_sozai_prefab",
		"alignment": 1
	},
	{
		"ID": 11,
		"period": 16,
		"point": 80000,
		"reward_type_id_CommonRewardType": 16,
		"reward_id": 1019,
		"reward_quantity": 1,
		"display_text1": "80000ポイント報酬",
		"display_text2": "※ギルド称号です",
		"image_name": "slc_Gold.png__GUI__026_12_sozai__026_12_sozai_prefab",
		"alignment": 1
	},
	{
		"ID": 12,
		"period": 17,
		"point": 80000,
		"reward_type_id_CommonRewardType": 16,
		"reward_id": 1020,
		"reward_quantity": 1,
		"display_text1": "80000ポイント報酬",
		"display_text2": "※ギルド称号です",
		"image_name": "slc_Gold.png__GUI__026_12_sozai__026_12_sozai_prefab",
		"alignment": 1
	},
	{
		"ID": 13,
		"period": 18,
		"point": 80000,
		"reward_type_id_CommonRewardType": 16,
		"reward_id": 1021,
		"reward_quantity": 1,
		"display_text1": "80000ポイント報酬",
		"display_text2": "※ギルド称号です",
		"image_name": "slc_Gold.png__GUI__026_12_sozai__026_12_sozai_prefab",
		"alignment": 1
	},
	{
		"ID": 14,
		"period": 19,
		"point": 80000,
		"reward_type_id_CommonRewardType": 16,
		"reward_id": 1022,
		"reward_quantity": 1,
		"display_text1": "80000ポイント報酬",
		"display_text2": "※ギルド称号です",
		"image_name": "slc_Gold.png__GUI__026_12_sozai__026_12_sozai_prefab",
		"alignment": 1
	},
	{
		"ID": 15,
		"period": 20,
		"point": 80000,
		"reward_type_id_CommonRewardType": 16,
		"reward_id": 1022,
		"reward_quantity": 1,
		"display_text1": "80000ポイント報酬",
		"display_text2": "※ギルド称号です",
		"image_name": "slc_Gold.png__GUI__026_12_sozai__026_12_sozai_prefab",
		"alignment": 1
	},
	{
		"ID": 16,
		"period": 21,
		"point": 80000,
		"reward_type_id_CommonRewardType": 16,
		"reward_id": 1023,
		"reward_quantity": 1,
		"display_text1": "80000ポイント報酬",
		"display_text2": "※ギルド称号です",
		"image_name": "slc_Gold.png__GUI__026_12_sozai__026_12_sozai_prefab",
		"alignment": 1
	},
	{
		"ID": 17,
		"period": 22,
		"point": 80000,
		"reward_type_id_CommonRewardType": 16,
		"reward_id": 1024,
		"reward_quantity": 1,
		"display_text1": "80000ポイント報酬",
		"display_text2": "※ギルド称号です",
		"image_name": "slc_Gold.png__GUI__026_12_sozai__026_12_sozai_prefab",
		"alignment": 1
	},
	{
		"ID": 18,
		"period": 23,
		"point": 80000,
		"reward_type_id_CommonRewardType": 16,
		"reward_id": 1025,
		"reward_quantity": 1,
		"display_text1": "80000ポイント報酬",
		"display_text2": "※ギルド称号です",
		"image_name": "slc_Gold.png__GUI__026_12_sozai__026_12_sozai_prefab",
		"alignment": 1
	},
	{
		"ID": 19,
		"period": 35,
		"point": 80000,
		"reward_type_id_CommonRewardType": 16,
		"reward_id": 1026,
		"reward_quantity": 1,
		"display_text1": "80000ポイント報酬",
		"display_text2": "※ギルド称号です",
		"image_name": "slc_Gold.png__GUI__026_12_sozai__026_12_sozai_prefab",
		"alignment": 1
	},
	{
		"ID": 20,
		"period": 41,
		"point": 80000,
		"reward_type_id_CommonRewardType": 16,
		"reward_id": 1027,
		"reward_quantity": 1,
		"display_text1": "80000ポイント報酬",
		"display_text2": "※ギルド称号です",
		"image_name": "slc_Gold.png__GUI__026_12_sozai__026_12_sozai_prefab",
		"alignment": 1
	},
	{
		"ID": 21,
		"period": 47,
		"point": 80000,
		"reward_type_id_CommonRewardType": 16,
		"reward_id": 1028,
		"reward_quantity": 1,
		"display_text1": "80000ポイント報酬",
		"display_text2": "※ギルド称号です",
		"image_name": "slc_Gold.png__GUI__026_12_sozai__026_12_sozai_prefab",
		"alignment": 1
	},
	{
		"ID": 22,
		"period": 54,
		"point": 80000,
		"reward_type_id_CommonRewardType": 16,
		"reward_id": 1029,
		"reward_quantity": 1,
		"display_text1": "80000ポイント報酬",
		"display_text2": "※ギルド称号です",
		"image_name": "slc_Gold.png__GUI__026_12_sozai__026_12_sozai_prefab",
		"alignment": 1
	},
	{
		"ID": 23,
		"period": 60,
		"point": 80000,
		"reward_type_id_CommonRewardType": 16,
		"reward_id": 1030,
		"reward_quantity": 1,
		"display_text1": "80000ポイント報酬",
		"display_text2": "※ギルド称号です",
		"image_name": "slc_Gold.png__GUI__026_12_sozai__026_12_sozai_prefab",
		"alignment": 1
	},
	{
		"ID": 24,
		"period": 66,
		"point": 80000,
		"reward_type_id_CommonRewardType": 16,
		"reward_id": 1031,
		"reward_quantity": 1,
		"display_text1": "80000ポイント報酬",
		"display_text2": "※ギルド称号です",
		"image_name": "slc_Gold.png__GUI__026_12_sozai__026_12_sozai_prefab",
		"alignment": 1
	},
	{
		"ID": 25,
		"period": 78,
		"point": 80000,
		"reward_type_id_CommonRewardType": 16,
		"reward_id": 1032,
		"reward_quantity": 1,
		"display_text1": "80000ポイント報酬",
		"display_text2": "※ギルド称号です",
		"image_name": "slc_Gold.png__GUI__026_12_sozai__026_12_sozai_prefab",
		"alignment": 1
	},
	{
		"ID": 26,
		"period": 84,
		"point": 80000,
		"reward_type_id_CommonRewardType": 16,
		"reward_id": 1033,
		"reward_quantity": 1,
		"display_text1": "80000ポイント報酬",
		"display_text2": "※ギルド称号です",
		"image_name": "slc_Gold.png__GUI__026_12_sozai__026_12_sozai_prefab",
		"alignment": 1
	},
	{
		"ID": 27,
		"period": 96,
		"point": 80000,
		"reward_type_id_CommonRewardType": 16,
		"reward_id": 1034,
		"reward_quantity": 1,
		"display_text1": "80000ポイント報酬",
		"display_text2": "※ギルド称号です",
		"image_name": "slc_Gold.png__GUI__026_12_sozai__026_12_sozai_prefab",
		"alignment": 1
	},
	{
		"ID": 28,
		"period": 98,
		"point": 80000,
		"reward_type_id_CommonRewardType": 16,
		"reward_id": 1035,
		"reward_quantity": 1,
		"display_text1": "80000ポイント報酬",
		"display_text2": "※ギルド称号です",
		"image_name": "slc_Gold.png__GUI__026_12_sozai__026_12_sozai_prefab",
		"alignment": 1
	},
	{
		"ID": 29,
		"period": 100,
		"point": 80000,
		"reward_type_id_CommonRewardType": 16,
		"reward_id": 1036,
		"reward_quantity": 1,
		"display_text1": "80000ポイント報酬",
		"display_text2": "※ギルド称号です",
		"image_name": "slc_Gold.png__GUI__026_12_sozai__026_12_sozai_prefab",
		"alignment": 1
	},
	{
		"ID": 30,
		"period": 102,
		"point": 80000,
		"reward_type_id_CommonRewardType": 16,
		"reward_id": 1024,
		"reward_quantity": 1,
		"display_text1": "80000ポイント報酬",
		"display_text2": "※ギルド称号です",
		"image_name": "slc_Gold.png__GUI__026_12_sozai__026_12_sozai_prefab",
		"alignment": 1
	},
	{
		"ID": 31,
		"period": 106,
		"point": 80000,
		"reward_type_id_CommonRewardType": 16,
		"reward_id": 1013,
		"reward_quantity": 1,
		"display_text1": "80000ポイント報酬",
		"display_text2": "80000ポイント報酬",
		"image_name": "slc_Gold.png__GUI__026_12_sozai__026_12_sozai_prefab",
		"alignment": 1
	},
	{
		"ID": 32,
		"period": 108,
		"point": 80000,
		"reward_type_id_CommonRewardType": 16,
		"reward_id": 1044,
		"reward_quantity": 1,
		"display_text1": "80000ポイント報酬",
		"display_text2": "※ギルド称号です",
		"image_name": "slc_Gold.png__GUI__026_12_sozai__026_12_sozai_prefab",
		"alignment": 1
	}
]