[
	{
		"ID": 1,
		"name": "天上編",
		"priority": 1
	},
	{
		"ID": 2,
		"name": "地上編",
		"priority": 2
	},
	{
		"ID": 3,
		"name": "海上編",
		"priority": 3
	},
	{
		"ID": 4,
		"name": "ロストラグナロク編",
		"priority": 4
	},
	{
		"ID": 5,
		"name": "新章チュートリアル",
		"priority": 5
	},
	{
		"ID": 6,
		"name": "インテグラルノア編",
		"priority": 6
	}
]