[
	{
		"ID": 1,
		"illust_x": 0.0,
		"illust_y": 0.0,
		"illust_scale": 1.0
	},
	{
		"ID": 2,
		"illust_x": 0.0,
		"illust_y": -100.0,
		"illust_scale": 1.0
	},
	{
		"ID": 3,
		"illust_x": 0.0,
		"illust_y": 0.0,
		"illust_scale": 1.0
	},
	{
		"ID": 4,
		"illust_x": 0.0,
		"illust_y": 0.0,
		"illust_scale": 1.0
	},
	{
		"ID": 5,
		"illust_x": 0.0,
		"illust_y": 0.0,
		"illust_scale": 1.0
	}
]