[
	{
		"ID": 1001,
		"kind_GearKind": 1,
		"proficiency_UnitProficiency": 1,
		"physical_attack": 0,
		"magic_attack": 0,
		"physical_defense": 0,
		"magic_defense": 0,
		"hit": 0,
		"evasion": 0
	},
	{
		"ID": 1002,
		"kind_GearKind": 1,
		"proficiency_UnitProficiency": 2,
		"physical_attack": 0,
		"magic_attack": 0,
		"physical_defense": 0,
		"magic_defense": 0,
		"hit": 0,
		"evasion": 0
	},
	{
		"ID": 1003,
		"kind_GearKind": 1,
		"proficiency_UnitProficiency": 3,
		"physical_attack": 1,
		"magic_attack": 0,
		"physical_defense": 0,
		"magic_defense": 0,
		"hit": 0,
		"evasion": 0
	},
	{
		"ID": 1004,
		"kind_GearKind": 1,
		"proficiency_UnitProficiency": 4,
		"physical_attack": 2,
		"magic_attack": 0,
		"physical_defense": 0,
		"magic_defense": 0,
		"hit": 0,
		"evasion": 0
	},
	{
		"ID": 1005,
		"kind_GearKind": 1,
		"proficiency_UnitProficiency": 5,
		"physical_attack": 3,
		"magic_attack": 0,
		"physical_defense": 0,
		"magic_defense": 0,
		"hit": 0,
		"evasion": 0
	},
	{
		"ID": 1006,
		"kind_GearKind": 1,
		"proficiency_UnitProficiency": 6,
		"physical_attack": 4,
		"magic_attack": 0,
		"physical_defense": 0,
		"magic_defense": 0,
		"hit": 0,
		"evasion": 0
	},
	{
		"ID": 1007,
		"kind_GearKind": 1,
		"proficiency_UnitProficiency": 7,
		"physical_attack": 0,
		"magic_attack": 0,
		"physical_defense": 0,
		"magic_defense": 0,
		"hit": 0,
		"evasion": 0
	},
	{
		"ID": 2001,
		"kind_GearKind": 3,
		"proficiency_UnitProficiency": 1,
		"physical_attack": 0,
		"magic_attack": 0,
		"physical_defense": 0,
		"magic_defense": 0,
		"hit": 0,
		"evasion": 0
	},
	{
		"ID": 2002,
		"kind_GearKind": 3,
		"proficiency_UnitProficiency": 2,
		"physical_attack": 0,
		"magic_attack": 0,
		"physical_defense": 0,
		"magic_defense": 0,
		"hit": 0,
		"evasion": 0
	},
	{
		"ID": 2003,
		"kind_GearKind": 3,
		"proficiency_UnitProficiency": 3,
		"physical_attack": 1,
		"magic_attack": 0,
		"physical_defense": 0,
		"magic_defense": 0,
		"hit": 0,
		"evasion": 0
	},
	{
		"ID": 2004,
		"kind_GearKind": 3,
		"proficiency_UnitProficiency": 4,
		"physical_attack": 1,
		"magic_attack": 0,
		"physical_defense": 0,
		"magic_defense": 0,
		"hit": 5,
		"evasion": 0
	},
	{
		"ID": 2005,
		"kind_GearKind": 3,
		"proficiency_UnitProficiency": 5,
		"physical_attack": 2,
		"magic_attack": 0,
		"physical_defense": 0,
		"magic_defense": 0,
		"hit": 5,
		"evasion": 0
	},
	{
		"ID": 2006,
		"kind_GearKind": 3,
		"proficiency_UnitProficiency": 6,
		"physical_attack": 3,
		"magic_attack": 0,
		"physical_defense": 0,
		"magic_defense": 0,
		"hit": 5,
		"evasion": 0
	},
	{
		"ID": 2007,
		"kind_GearKind": 3,
		"proficiency_UnitProficiency": 7,
		"physical_attack": 0,
		"magic_attack": 0,
		"physical_defense": 0,
		"magic_defense": 0,
		"hit": 0,
		"evasion": 0
	},
	{
		"ID": 3001,
		"kind_GearKind": 2,
		"proficiency_UnitProficiency": 1,
		"physical_attack": 0,
		"magic_attack": 0,
		"physical_defense": 0,
		"magic_defense": 0,
		"hit": 0,
		"evasion": 0
	},
	{
		"ID": 3002,
		"kind_GearKind": 2,
		"proficiency_UnitProficiency": 2,
		"physical_attack": 0,
		"magic_attack": 0,
		"physical_defense": 0,
		"magic_defense": 0,
		"hit": 0,
		"evasion": 0
	},
	{
		"ID": 3003,
		"kind_GearKind": 2,
		"proficiency_UnitProficiency": 3,
		"physical_attack": 0,
		"magic_attack": 0,
		"physical_defense": 0,
		"magic_defense": 0,
		"hit": 5,
		"evasion": 0
	},
	{
		"ID": 3004,
		"kind_GearKind": 2,
		"proficiency_UnitProficiency": 4,
		"physical_attack": 0,
		"magic_attack": 0,
		"physical_defense": 0,
		"magic_defense": 0,
		"hit": 10,
		"evasion": 0
	},
	{
		"ID": 3005,
		"kind_GearKind": 2,
		"proficiency_UnitProficiency": 5,
		"physical_attack": 1,
		"magic_attack": 0,
		"physical_defense": 0,
		"magic_defense": 0,
		"hit": 10,
		"evasion": 0
	},
	{
		"ID": 3006,
		"kind_GearKind": 2,
		"proficiency_UnitProficiency": 6,
		"physical_attack": 2,
		"magic_attack": 0,
		"physical_defense": 0,
		"magic_defense": 0,
		"hit": 10,
		"evasion": 0
	},
	{
		"ID": 3007,
		"kind_GearKind": 2,
		"proficiency_UnitProficiency": 7,
		"physical_attack": 0,
		"magic_attack": 0,
		"physical_defense": 0,
		"magic_defense": 0,
		"hit": 0,
		"evasion": 0
	},
	{
		"ID": 4001,
		"kind_GearKind": 4,
		"proficiency_UnitProficiency": 1,
		"physical_attack": 0,
		"magic_attack": 0,
		"physical_defense": 0,
		"magic_defense": 0,
		"hit": 0,
		"evasion": 0
	},
	{
		"ID": 4002,
		"kind_GearKind": 4,
		"proficiency_UnitProficiency": 2,
		"physical_attack": 0,
		"magic_attack": 0,
		"physical_defense": 0,
		"magic_defense": 0,
		"hit": 0,
		"evasion": 0
	},
	{
		"ID": 4003,
		"kind_GearKind": 4,
		"proficiency_UnitProficiency": 3,
		"physical_attack": 1,
		"magic_attack": 0,
		"physical_defense": 0,
		"magic_defense": 0,
		"hit": 0,
		"evasion": 0
	},
	{
		"ID": 4004,
		"kind_GearKind": 4,
		"proficiency_UnitProficiency": 4,
		"physical_attack": 1,
		"magic_attack": 0,
		"physical_defense": 0,
		"magic_defense": 0,
		"hit": 5,
		"evasion": 0
	},
	{
		"ID": 4005,
		"kind_GearKind": 4,
		"proficiency_UnitProficiency": 5,
		"physical_attack": 2,
		"magic_attack": 0,
		"physical_defense": 0,
		"magic_defense": 0,
		"hit": 5,
		"evasion": 0
	},
	{
		"ID": 4006,
		"kind_GearKind": 4,
		"proficiency_UnitProficiency": 6,
		"physical_attack": 3,
		"magic_attack": 0,
		"physical_defense": 0,
		"magic_defense": 0,
		"hit": 5,
		"evasion": 0
	},
	{
		"ID": 4007,
		"kind_GearKind": 4,
		"proficiency_UnitProficiency": 7,
		"physical_attack": 0,
		"magic_attack": 0,
		"physical_defense": 0,
		"magic_defense": 0,
		"hit": 0,
		"evasion": 0
	},
	{
		"ID": 5001,
		"kind_GearKind": 5,
		"proficiency_UnitProficiency": 1,
		"physical_attack": 0,
		"magic_attack": 0,
		"physical_defense": 0,
		"magic_defense": 0,
		"hit": 0,
		"evasion": 0
	},
	{
		"ID": 5002,
		"kind_GearKind": 5,
		"proficiency_UnitProficiency": 2,
		"physical_attack": 0,
		"magic_attack": 0,
		"physical_defense": 0,
		"magic_defense": 0,
		"hit": 0,
		"evasion": 0
	},
	{
		"ID": 5003,
		"kind_GearKind": 5,
		"proficiency_UnitProficiency": 3,
		"physical_attack": 0,
		"magic_attack": 1,
		"physical_defense": 0,
		"magic_defense": 0,
		"hit": 0,
		"evasion": 0
	},
	{
		"ID": 5004,
		"kind_GearKind": 5,
		"proficiency_UnitProficiency": 4,
		"physical_attack": 0,
		"magic_attack": 1,
		"physical_defense": 0,
		"magic_defense": 0,
		"hit": 5,
		"evasion": 0
	},
	{
		"ID": 5005,
		"kind_GearKind": 5,
		"proficiency_UnitProficiency": 5,
		"physical_attack": 0,
		"magic_attack": 2,
		"physical_defense": 0,
		"magic_defense": 0,
		"hit": 5,
		"evasion": 0
	},
	{
		"ID": 5006,
		"kind_GearKind": 5,
		"proficiency_UnitProficiency": 6,
		"physical_attack": 0,
		"magic_attack": 3,
		"physical_defense": 0,
		"magic_defense": 0,
		"hit": 5,
		"evasion": 0
	},
	{
		"ID": 5007,
		"kind_GearKind": 5,
		"proficiency_UnitProficiency": 7,
		"physical_attack": 0,
		"magic_attack": 0,
		"physical_defense": 0,
		"magic_defense": 0,
		"hit": 0,
		"evasion": 0
	},
	{
		"ID": 6001,
		"kind_GearKind": 6,
		"proficiency_UnitProficiency": 1,
		"physical_attack": 0,
		"magic_attack": 0,
		"physical_defense": 0,
		"magic_defense": 0,
		"hit": 0,
		"evasion": 0
	},
	{
		"ID": 6002,
		"kind_GearKind": 6,
		"proficiency_UnitProficiency": 2,
		"physical_attack": 0,
		"magic_attack": 0,
		"physical_defense": 0,
		"magic_defense": 0,
		"hit": 0,
		"evasion": 0
	},
	{
		"ID": 6003,
		"kind_GearKind": 6,
		"proficiency_UnitProficiency": 3,
		"physical_attack": 0,
		"magic_attack": 1,
		"physical_defense": 0,
		"magic_defense": 0,
		"hit": 0,
		"evasion": 0
	},
	{
		"ID": 6004,
		"kind_GearKind": 6,
		"proficiency_UnitProficiency": 4,
		"physical_attack": 0,
		"magic_attack": 2,
		"physical_defense": 0,
		"magic_defense": 0,
		"hit": 0,
		"evasion": 0
	},
	{
		"ID": 6005,
		"kind_GearKind": 6,
		"proficiency_UnitProficiency": 5,
		"physical_attack": 0,
		"magic_attack": 3,
		"physical_defense": 0,
		"magic_defense": 0,
		"hit": 0,
		"evasion": 0
	},
	{
		"ID": 6006,
		"kind_GearKind": 6,
		"proficiency_UnitProficiency": 6,
		"physical_attack": 0,
		"magic_attack": 4,
		"physical_defense": 0,
		"magic_defense": 0,
		"hit": 0,
		"evasion": 0
	},
	{
		"ID": 6007,
		"kind_GearKind": 6,
		"proficiency_UnitProficiency": 7,
		"physical_attack": 0,
		"magic_attack": 0,
		"physical_defense": 0,
		"magic_defense": 0,
		"hit": 0,
		"evasion": 0
	},
	{
		"ID": 7001,
		"kind_GearKind": 7,
		"proficiency_UnitProficiency": 1,
		"physical_attack": 0,
		"magic_attack": 0,
		"physical_defense": 0,
		"magic_defense": 0,
		"hit": 0,
		"evasion": 0
	},
	{
		"ID": 7002,
		"kind_GearKind": 7,
		"proficiency_UnitProficiency": 2,
		"physical_attack": 0,
		"magic_attack": 0,
		"physical_defense": 0,
		"magic_defense": 0,
		"hit": 0,
		"evasion": 0
	},
	{
		"ID": 7003,
		"kind_GearKind": 7,
		"proficiency_UnitProficiency": 3,
		"physical_attack": 0,
		"magic_attack": 0,
		"physical_defense": 0,
		"magic_defense": 0,
		"hit": 0,
		"evasion": 0
	},
	{
		"ID": 7004,
		"kind_GearKind": 7,
		"proficiency_UnitProficiency": 4,
		"physical_attack": 0,
		"magic_attack": 0,
		"physical_defense": 0,
		"magic_defense": 0,
		"hit": 0,
		"evasion": 0
	},
	{
		"ID": 7005,
		"kind_GearKind": 7,
		"proficiency_UnitProficiency": 5,
		"physical_attack": 0,
		"magic_attack": 0,
		"physical_defense": 0,
		"magic_defense": 0,
		"hit": 0,
		"evasion": 0
	},
	{
		"ID": 7006,
		"kind_GearKind": 7,
		"proficiency_UnitProficiency": 6,
		"physical_attack": 0,
		"magic_attack": 0,
		"physical_defense": 0,
		"magic_defense": 0,
		"hit": 0,
		"evasion": 0
	},
	{
		"ID": 7007,
		"kind_GearKind": 7,
		"proficiency_UnitProficiency": 7,
		"physical_attack": 0,
		"magic_attack": 0,
		"physical_defense": 0,
		"magic_defense": 0,
		"hit": 0,
		"evasion": 0
	},
	{
		"ID": 7008,
		"kind_GearKind": 8,
		"proficiency_UnitProficiency": 1,
		"physical_attack": 0,
		"magic_attack": 0,
		"physical_defense": 0,
		"magic_defense": 0,
		"hit": 0,
		"evasion": 0
	},
	{
		"ID": 7009,
		"kind_GearKind": 8,
		"proficiency_UnitProficiency": 2,
		"physical_attack": 0,
		"magic_attack": 0,
		"physical_defense": 0,
		"magic_defense": 0,
		"hit": 0,
		"evasion": 0
	},
	{
		"ID": 7010,
		"kind_GearKind": 8,
		"proficiency_UnitProficiency": 3,
		"physical_attack": 0,
		"magic_attack": 0,
		"physical_defense": 0,
		"magic_defense": 0,
		"hit": 0,
		"evasion": 0
	},
	{
		"ID": 7011,
		"kind_GearKind": 8,
		"proficiency_UnitProficiency": 4,
		"physical_attack": 0,
		"magic_attack": 0,
		"physical_defense": 0,
		"magic_defense": 0,
		"hit": 0,
		"evasion": 0
	},
	{
		"ID": 7012,
		"kind_GearKind": 8,
		"proficiency_UnitProficiency": 5,
		"physical_attack": 0,
		"magic_attack": 0,
		"physical_defense": 0,
		"magic_defense": 0,
		"hit": 0,
		"evasion": 0
	},
	{
		"ID": 7013,
		"kind_GearKind": 8,
		"proficiency_UnitProficiency": 6,
		"physical_attack": 0,
		"magic_attack": 0,
		"physical_defense": 0,
		"magic_defense": 0,
		"hit": 0,
		"evasion": 0
	},
	{
		"ID": 7014,
		"kind_GearKind": 8,
		"proficiency_UnitProficiency": 7,
		"physical_attack": 0,
		"magic_attack": 0,
		"physical_defense": 0,
		"magic_defense": 0,
		"hit": 0,
		"evasion": 0
	},
	{
		"ID": 7015,
		"kind_GearKind": 9,
		"proficiency_UnitProficiency": 1,
		"physical_attack": 0,
		"magic_attack": 0,
		"physical_defense": 0,
		"magic_defense": 0,
		"hit": 0,
		"evasion": 0
	},
	{
		"ID": 7016,
		"kind_GearKind": 9,
		"proficiency_UnitProficiency": 2,
		"physical_attack": 0,
		"magic_attack": 0,
		"physical_defense": 0,
		"magic_defense": 0,
		"hit": 0,
		"evasion": 0
	},
	{
		"ID": 7017,
		"kind_GearKind": 9,
		"proficiency_UnitProficiency": 3,
		"physical_attack": 0,
		"magic_attack": 0,
		"physical_defense": 0,
		"magic_defense": 0,
		"hit": 0,
		"evasion": 0
	},
	{
		"ID": 7018,
		"kind_GearKind": 9,
		"proficiency_UnitProficiency": 4,
		"physical_attack": 0,
		"magic_attack": 0,
		"physical_defense": 0,
		"magic_defense": 0,
		"hit": 0,
		"evasion": 0
	},
	{
		"ID": 7019,
		"kind_GearKind": 9,
		"proficiency_UnitProficiency": 5,
		"physical_attack": 0,
		"magic_attack": 0,
		"physical_defense": 0,
		"magic_defense": 0,
		"hit": 0,
		"evasion": 0
	},
	{
		"ID": 7020,
		"kind_GearKind": 9,
		"proficiency_UnitProficiency": 6,
		"physical_attack": 0,
		"magic_attack": 0,
		"physical_defense": 0,
		"magic_defense": 0,
		"hit": 0,
		"evasion": 0
	},
	{
		"ID": 7021,
		"kind_GearKind": 9,
		"proficiency_UnitProficiency": 7,
		"physical_attack": 0,
		"magic_attack": 0,
		"physical_defense": 0,
		"magic_defense": 0,
		"hit": 0,
		"evasion": 0
	},
	{
		"ID": 7022,
		"kind_GearKind": 10,
		"proficiency_UnitProficiency": 1,
		"physical_attack": 0,
		"magic_attack": 0,
		"physical_defense": 0,
		"magic_defense": 0,
		"hit": 0,
		"evasion": 0
	},
	{
		"ID": 7023,
		"kind_GearKind": 10,
		"proficiency_UnitProficiency": 2,
		"physical_attack": 0,
		"magic_attack": 0,
		"physical_defense": 0,
		"magic_defense": 0,
		"hit": 0,
		"evasion": 0
	},
	{
		"ID": 7024,
		"kind_GearKind": 10,
		"proficiency_UnitProficiency": 3,
		"physical_attack": 0,
		"magic_attack": 0,
		"physical_defense": 0,
		"magic_defense": 0,
		"hit": 0,
		"evasion": 0
	},
	{
		"ID": 7025,
		"kind_GearKind": 10,
		"proficiency_UnitProficiency": 4,
		"physical_attack": 0,
		"magic_attack": 0,
		"physical_defense": 0,
		"magic_defense": 0,
		"hit": 0,
		"evasion": 0
	},
	{
		"ID": 7026,
		"kind_GearKind": 10,
		"proficiency_UnitProficiency": 5,
		"physical_attack": 0,
		"magic_attack": 0,
		"physical_defense": 0,
		"magic_defense": 0,
		"hit": 0,
		"evasion": 0
	},
	{
		"ID": 7027,
		"kind_GearKind": 10,
		"proficiency_UnitProficiency": 6,
		"physical_attack": 0,
		"magic_attack": 0,
		"physical_defense": 0,
		"magic_defense": 0,
		"hit": 0,
		"evasion": 0
	},
	{
		"ID": 7028,
		"kind_GearKind": 10,
		"proficiency_UnitProficiency": 7,
		"physical_attack": 0,
		"magic_attack": 0,
		"physical_defense": 0,
		"magic_defense": 0,
		"hit": 0,
		"evasion": 0
	}
]